app_id	nb_instances	core	memory	disk	intra_value	inter_degree	inter_aff
1	1	1	8	60.0	2	0	[]
7	1	1	8	60.0	2	0	[]
12	2	1	8	60.0	2	0	[]
25	2	2	2	60.0	2	0	[]
34	12	1	8	60.0	2	0	[]
37	2	1	8	60.0	2	1	[(3263, 1)]
42	1	1	16	200.0	2	0	[]
43	2	1	8	60.0	2	0	[]
49	4	1	8	60.0	2	0	[]
51	2	1	8	60.0	2	1	[(7315, 1)]
52	22	2	8	60.0	2	2	[(5862, 2), (6381, 2)]
58	1	1	8	60.0	2	0	[]
71	15	2	8	60.0	2	0	[]
74	2	1	9	600.0	2	0	[]
77	6	3	8	60.0	2	2	[(5740, 0), (1793, 0)]
90	2	2	8	60.0	2	0	[]
91	2	4	8	60.0	2	0	[]
96	3	1	8	60.0	2	0	[]
104	1	4	8	60.0	2	0	[]
107	1	4	8	60.0	2	0	[]
109	2	4	16	60.0	2	0	[]
110	3	1	8	60.0	2	0	[]
111	2	1	8	60.0	2	0	[]
112	2	1	2	60.0	2	0	[]
121	5	1	8	60.0	2	0	[]
128	2	1	8	60.0	2	0	[]
131	2	4	8	60.0	2	0	[]
137	2	1	2	60.0	2	0	[]
147	315	6	8	60.0	2	11	[(3554, 0), (817, 2), (7217, 0), (4717, 0), (5740, 0), (4429, 0), (6443, 0), (459, 1), (3802, 0), (6490, 4), (4576, 0)]
148	2	1	8	60.0	2	0	[]
155	2	1	8	60.0	2	0	[]
161	1	1	8	60.0	2	0	[]
163	1	1	8	60.0	2	0	[]
168	1	1	8	60.0	2	0	[]
169	6	1	8	60.0	2	0	[]
170	2	1	2	60.0	2	0	[]
187	5	2	8	60.0	2	0	[]
188	20	23	48	60.0	2	1	[(4778, 0)]
189	1	1	8	60.0	2	0	[]
192	3	1	2	60.0	2	0	[]
194	1	1	8	60.0	2	0	[]
195	3	1	2	60.0	2	0	[]
199	2	1	2	60.0	2	0	[]
203	1	1	8	60.0	2	0	[]
206	2	4	8	60.0	2	0	[]
209	2	1	8	60.0	2	0	[]
211	3	1	8	60.0	2	0	[]
214	1	1	8	60.0	2	0	[]
217	3	1	8	60.0	2	0	[]
222	5	1	8	60.0	2	0	[]
226	10	4	8	60.0	2	31	[(8530, 0), (9127, 0), (1773, 0), (3464, 0), (615, 0), (3709, 0), (8451, 0), (1793, 0), (199, 0), (5740, 0), (1227, 0), (6750, 0), (312, 0), (7874, 0), (6304, 0), (4576, 0), (6564, 0), (365, 0), (5905, 0), (3865, 0), (6161, 0), (6381, 0), (9047, 0), (9086, 0), (8410, 0), (8436, 0), (5997, 0), (9138, 0), (7217, 0), (7448, 0), (5684, 0)]
227	5	1	8	60.0	2	1	[(6597, 0)]
228	2	1	8	60.0	2	0	[]
234	2	1	8	60.0	2	1	[(6025, 0)]
235	4	12	8	60.0	2	0	[]
243	2	1	5	60.0	2	0	[]
246	1	1	1	60.0	2	0	[]
247	1	4	8	60.0	2	0	[]
249	1	1	8	60.0	2	0	[]
251	1	1	8	60.0	2	0	[]
254	3	1	8	60.0	2	0	[]
259	3	1	8	60.0	2	0	[]
263	2	1	8	60.0	2	0	[]
264	1	4	8	60.0	2	0	[]
265	2	1	8	60.0	2	0	[]
268	3	4	8	60.0	2	0	[]
273	1	16	60	60.0	2	17	[(6082, 1), (4661, 2), (7217, 2), (5363, 2), (6381, 2), (4994, 2), (9031, 2), (8834, 2), (3928, 2), (6429, 2), (737, 2), (5905, 2), (6683, 2), (4630, 2), (8162, 1), (6060, 2), (4710, 2)]
277	1	1	8	60.0	2	0	[]
288	2	1	8	60.0	2	0	[]
292	12	3	8	40.0	2	1	[(8176, 0)]
297	1	1	8	60.0	2	0	[]
301	21	12	16	200.0	2	0	[]
309	2	1	8	60.0	2	0	[]
312	5	1	8	40.0	2	1	[(7217, 2)]
315	1	1	2	60.0	2	1	[(4096, 0)]
325	3	1	2	60.0	2	0	[]
327	5	2	8	60.0	2	0	[]
330	2	1	10	40.0	2	0	[]
332	2	4	2	60.0	2	0	[]
342	2	6	8	60.0	2	0	[]
343	2	6	8	60.0	2	0	[]
345	1	1	2	60.0	2	0	[]
354	6	1	8	60.0	2	0	[]
357	8	1	8	60.0	2	0	[]
362	2	1	2	60.0	2	0	[]
364	2	5	8	60.0	2	0	[]
365	25	2	2	200.0	2	1	[(5689, 0)]
368	10	2	8	60.0	2	1	[(1576, 0)]
369	4	2	8	60.0	2	1	[(7196, 2)]
375	3	1	1	60.0	2	1	[(1336, 0)]
382	3	1	8	60.0	2	0	[]
383	1	1	8	60.0	2	0	[]
387	2	4	8	60.0	2	0	[]
390	2	2	8	60.0	2	0	[]
398	2	1	1	60.0	2	0	[]
401	15	4	8	60.0	2	0	[]
402	3	1	8	60.0	2	0	[]
405	1	1	1	60.0	2	0	[]
422	1	1	8	100.0	2	0	[]
423	4	2	8	60.0	2	0	[]
428	3	5	16	200.0	2	0	[]
429	1	1	1	60.0	2	0	[]
434	1	2	16	60.0	1	0	[]
438	2	1	8	60.0	2	0	[]
441	18	2	8	60.0	2	1	[(1559, 2)]
443	3	1	8	60.0	2	0	[]
448	2	1	3	60.0	2	0	[]
452	3	3	8	80.0	2	1	[(1066, 0)]
455	1	4	8	60.0	2	0	[]
457	3	1	8	60.0	2	0	[]
459	13	1	8	60.0	2	2	[(121, 0), (725, 0)]
461	1	1	2	80.0	2	9	[(3176, 0), (6760, 0), (2998, 0), (5220, 0), (2816, 0), (1871, 0), (7808, 0), (6075, 0), (3722, 0)]
463	2	1	2	60.0	2	0	[]
481	2	1	3	60.0	2	0	[]
482	6	1	8	60.0	2	0	[]
483	14	1	8	60.0	2	0	[]
492	2	1	8	60.0	2	0	[]
498	2	1	8	60.0	2	0	[]
502	2	1	8	60.0	2	0	[]
505	14	2	8	60.0	2	0	[]
508	1	1	8	60.0	2	0	[]
510	2	1	16	60.0	2	0	[]
513	11	2	8	60.0	2	0	[]
514	5	1	8	80.0	2	0	[]
515	5	1	8	60.0	2	0	[]
516	17	2	8	60.0	2	0	[]
518	1	1	8	60.0	2	0	[]
520	1	1	8	60.0	2	0	[]
521	2	1	8	60.0	2	0	[]
527	2	2	8	60.0	2	0	[]
535	4	2	8	60.0	2	1	[(5011, 1)]
539	2	1	8	60.0	2	0	[]
540	3	1	8	60.0	2	0	[]
546	2	1	8	60.0	2	0	[]
551	16	3	8	100.0	2	0	[]
556	9	1	8	60.0	2	0	[]
561	2	1	8	60.0	2	0	[]
562	33	2	8	60.0	2	2	[(2668, 0), (688, 0)]
564	2	1	8	60.0	2	0	[]
566	2	1	8	60.0	2	0	[]
572	18	2	8	100.0	2	0	[]
573	3	1	8	60.0	2	0	[]
580	30	2	8	60.0	2	0	[]
581	1	1	2	60.0	2	0	[]
584	2	1	8	60.0	2	0	[]
603	2	1	8	60.0	2	0	[]
605	1	1	8	60.0	2	0	[]
608	5	1	8	60.0	2	0	[]
610	2	1	8	60.0	2	0	[]
615	14	2	8	60.0	2	0	[]
617	6	2	8	60.0	2	0	[]
620	2	2	4	60.0	2	0	[]
627	1	2	8	60.0	2	0	[]
628	4	1	8	60.0	2	0	[]
632	5	1	8	60.0	2	0	[]
636	95	1	8	60.0	2	9	[(968, 0), (7100, 2), (4214, 1), (4429, 0), (3490, 2), (6220, 2), (6597, 0), (923, 0), (1544, 2)]
641	2	1	8	60.0	2	0	[]
649	1	1	2	60.0	2	0	[]
651	2	1	8	60.0	2	0	[]
654	2	6	8	60.0	2	0	[]
658	2	2	16	80.0	2	0	[]
659	6	1	4	60.0	2	0	[]
669	2	1	8	60.0	2	0	[]
670	2	1	5	60.0	2	0	[]
674	5	1	8	60.0	2	0	[]
676	1	1	8	60.0	2	0	[]
682	5	1	8	60.0	2	0	[]
685	6	1	3	40.0	2	2	[(5905, 0), (6408, 0)]
687	4	6	8	60.0	2	0	[]
688	36	6	8	100.0	2	4	[(3283, 0), (2244, 2), (5817, 0), (7763, 0)]
690	2	1	8	60.0	2	0	[]
692	4	1	8	60.0	2	0	[]
698	1	1	2	80.0	2	0	[]
700	2	1	2	60.0	2	0	[]
708	2	6	8	60.0	2	0	[]
709	3	4	8	60.0	2	2	[(3283, 1), (5449, 2)]
718	2	5	8	60.0	2	0	[]
719	2	1	8	60.0	2	0	[]
721	1	1	8	60.0	2	0	[]
725	25	1	8	60.0	2	2	[(5288, 0), (8435, 0)]
735	1	1	8	60.0	2	0	[]
737	10	5	32	60.0	2	15	[(4661, 2), (7217, 2), (5363, 2), (6381, 2), (5684, 0), (4994, 2), (273, 1), (8834, 2), (8106, 0), (5905, 0), (4630, 2), (8162, 1), (6082, 1), (6060, 2), (4710, 2)]
742	1	1	1	60.0	2	0	[]
745	2	1	8	80.0	2	0	[]
749	2	4	8	60.0	2	0	[]
750	2	1	8	60.0	2	0	[]
751	1	1	1	60.0	2	0	[]
752	2	1	8	60.0	2	0	[]
753	16	1	8	60.0	2	0	[]
756	23	2	8	60.0	2	2	[(3802, 2), (708, 1)]
757	3	2	8	60.0	2	0	[]
759	1	4	16	100.0	2	0	[]
762	2	1	8	60.0	2	0	[]
765	2	2	16	40.0	2	0	[]
768	6	2	8	60.0	2	0	[]
771	2	1	8	60.0	2	0	[]
772	1	1	8	60.0	2	0	[]
776	3	1	8	60.0	2	0	[]
777	2	1	8	60.0	2	0	[]
779	3	1	8	60.0	2	0	[]
783	1	1	8	60.0	2	0	[]
792	2	2	8	60.0	2	0	[]
797	3	1	8	60.0	2	0	[]
800	19	1	8	60.0	2	0	[]
802	1	4	8	60.0	2	0	[]
806	1	1	8	60.0	2	0	[]
807	6	1	8	60.0	2	0	[]
809	1	1	8	60.0	2	0	[]
811	1	4	8	60.0	2	0	[]
817	3	1	8	60.0	2	0	[]
824	5	2	8	60.0	2	1	[(6381, 0)]
825	1	4	8	60.0	2	0	[]
827	3	1	8	60.0	2	0	[]
834	1	1	1	60.0	2	0	[]
838	5	1	8	60.0	2	0	[]
839	10	6	8	60.0	2	0	[]
841	1	1	2	60.0	2	0	[]
845	3	1	8	60.0	2	0	[]
846	6	2	8	40.0	2	0	[]
859	12	3	16	80.0	2	0	[]
863	1	2	8	60.0	2	0	[]
868	2	1	8	60.0	2	0	[]
871	2	1	4	60.0	2	0	[]
873	3	2	8	60.0	2	0	[]
877	5	1	8	60.0	2	0	[]
878	2	4	8	60.0	2	0	[]
883	13	6	8	60.0	2	0	[]
884	1	4	8	60.0	2	0	[]
886	2	2	8	60.0	2	0	[]
896	1	1	3	200.0	2	0	[]
898	2	1	2	60.0	2	0	[]
899	2	1	8	60.0	2	0	[]
903	2	1	8	60.0	2	0	[]
906	2	1	8	60.0	2	0	[]
908	1	1	8	60.0	2	0	[]
914	2	1	2	60.0	2	0	[]
918	3	1	8	60.0	2	0	[]
919	1	1	8	60.0	2	0	[]
923	2	3	8	60.0	2	0	[]
924	4	1	8	60.0	2	0	[]
926	4	3	8	60.0	2	0	[]
932	1	1	8	100.0	2	0	[]
933	1	1	8	60.0	2	0	[]
934	1	1	8	60.0	2	0	[]
935	2	1	1	60.0	2	0	[]
937	2	1	8	60.0	2	0	[]
943	1	1	8	60.0	2	0	[]
944	1	1	8	60.0	2	0	[]
945	21	1	8	60.0	2	2	[(7634, 1), (7853, 0)]
951	1	1	8	60.0	2	0	[]
955	2	1	8	60.0	2	0	[]
956	2	1	8	60.0	2	0	[]
960	1	1	2	60.0	2	0	[]
961	3	3	8	60.0	2	0	[]
962	2	1	8	60.0	2	0	[]
965	1	1	8	60.0	2	0	[]
967	3	1	8	60.0	2	0	[]
968	3	1	16	60.0	2	0	[]
969	2	1	8	60.0	2	0	[]
976	2	1	2	60.0	2	0	[]
978	5	1	16	80.0	2	0	[]
990	1	1	7	60.0	2	0	[]
993	1	1	8	60.0	2	0	[]
1002	6	3	8	80.0	2	0	[]
1003	1	1	8	60.0	2	0	[]
1006	1	1	1	60.0	2	0	[]
1013	7	1	8	60.0	2	0	[]
1016	6	2	8	60.0	2	0	[]
1027	2	1	8	60.0	2	0	[]
1031	6	2	2	60.0	2	0	[]
1033	4	1	8	60.0	2	0	[]
1036	4	4	8	300.0	2	0	[]
1038	1	8	16	80.0	2	0	[]
1039	1	4	8	60.0	2	0	[]
1047	1	1	1	60.0	2	0	[]
1048	4	1	8	60.0	2	0	[]
1052	1	1	8	60.0	2	0	[]
1054	1	3	8	60.0	2	0	[]
1058	1	1	8	60.0	2	0	[]
1062	1	2	8	60.0	2	1	[(3554, 2)]
1065	1	1	8	60.0	2	0	[]
1066	30	3	8	60.0	2	0	[]
1080	2	1	8	60.0	2	0	[]
1082	1	1	8	60.0	2	0	[]
1083	5	2	8	60.0	2	0	[]
1084	2	1	8	60.0	2	0	[]
1088	1	4	8	60.0	2	0	[]
1089	2	1	8	60.0	2	0	[]
1094	1	4	8	60.0	2	0	[]
1097	34	5	8	60.0	2	1	[(5658, 2)]
1099	15	1	2	60.0	2	0	[]
1100	3	1	8	60.0	2	0	[]
1103	2	1	8	60.0	2	0	[]
1104	2	1	2	60.0	2	4	[(3676, 1), (5163, 1), (6774, 2), (7671, 2)]
1116	2	4	8	80.0	2	0	[]
1120	2	1	2	60.0	2	0	[]
1122	7	1	8	40.0	2	0	[]
1126	2	1	8	100.0	2	0	[]
1134	2	1	7	100.0	2	0	[]
1144	32	4	8	60.0	2	2	[(4200, 0), (6142, 1)]
1151	1	2	8	60.0	2	0	[]
1162	2	1	8	60.0	2	1	[(5256, 0)]
1163	11	3	8	60.0	2	4	[(8251, 0), (1898, 1), (8554, 0), (8861, 1)]
1165	4	1	2	60.0	2	0	[]
1175	4	1	8	60.0	2	0	[]
1178	10	2	8	60.0	2	0	[]
1184	2	1	2	60.0	2	0	[]
1185	2	1	8	60.0	2	0	[]
1189	3	1	8	60.0	2	0	[]
1190	4	2	8	60.0	2	0	[]
1197	6	2	8	60.0	2	0	[]
1202	1	1	8	60.0	2	0	[]
1206	1	1	1	60.0	2	0	[]
1207	3	1	8	100.0	2	0	[]
1209	1	4	8	60.0	2	0	[]
1211	1	1	5	60.0	2	0	[]
1214	2	1	8	60.0	2	0	[]
1216	5	1	8	60.0	2	0	[]
1218	2	1	8	60.0	2	0	[]
1220	2	1	8	60.0	2	0	[]
1221	3	1	8	60.0	2	0	[]
1223	1	1	8	60.0	2	0	[]
1227	76	3	8	60.0	2	1	[(9127, 0)]
1233	4	1	8	60.0	2	0	[]
1240	2	6	8	60.0	2	0	[]
1246	1	1	8	60.0	2	0	[]
1247	4	1	8	60.0	2	0	[]
1254	1	4	8	60.0	2	0	[]
1258	24	3	8	60.0	2	0	[]
1264	1	4	8	60.0	2	0	[]
1265	1	1	8	60.0	2	0	[]
1266	1	1	1	60.0	2	0	[]
1267	5	1	2	60.0	2	0	[]
1275	3	6	8	60.0	2	0	[]
1278	6	1	8	60.0	2	2	[(3896, 1), (3294, 1)]
1281	2	2	8	60.0	2	0	[]
1282	1	1	1	60.0	2	0	[]
1284	2	1	8	60.0	2	0	[]
1293	2	4	8	60.0	2	0	[]
1297	1	1	8	60.0	2	0	[]
1300	2	1	8	60.0	2	0	[]
1305	5	1	8	60.0	2	0	[]
1307	2	1	8	60.0	2	0	[]
1319	1	4	8	60.0	2	0	[]
1320	2	1	8	60.0	2	0	[]
1325	2	1	8	60.0	2	0	[]
1326	4	1	8	60.0	2	2	[(3554, 0), (7511, 0)]
1331	1	1	8	60.0	2	0	[]
1334	2	1	8	60.0	2	0	[]
1336	2	4	8	60.0	2	0	[]
1337	1	3	8	60.0	2	0	[]
1341	1	1	7	60.0	2	0	[]
1346	3	1	8	60.0	2	1	[(390, 2)]
1353	1	1	1	60.0	2	0	[]
1358	3	6	8	60.0	2	0	[]
1364	2	1	8	60.0	2	0	[]
1370	1	4	16	80.0	2	0	[]
1371	1	1	8	60.0	2	0	[]
1374	10	1	8	60.0	2	2	[(4911, 0), (3283, 0)]
1375	3	4	8	60.0	2	0	[]
1382	5	4	8	60.0	2	0	[]
1384	1	1	8	60.0	2	0	[]
1387	2	1	3	60.0	2	0	[]
1392	3	1	16	80.0	2	0	[]
1398	2	1	8	60.0	2	0	[]
1399	2	2	8	60.0	2	1	[(4792, 1)]
1401	3	1	8	60.0	2	0	[]
1402	4	1	8	60.0	2	0	[]
1404	1	1	26	300.0	2	0	[]
1405	174	6	8	40.0	0	10	[(1672, 1), (7634, 2), (6025, 0), (6683, 0), (2627, 1), (5983, 1), (312, 0), (1778, 0), (5740, 0), (5548, 0)]
1418	2	1	8	60.0	2	0	[]
1431	5	6	8	60.0	2	0	[]
1436	1	1	8	60.0	2	0	[]
1438	8	2	8	60.0	2	0	[]
1439	1	1	2	60.0	2	0	[]
1442	1	1	8	60.0	2	0	[]
1449	10	1	8	60.0	2	0	[]
1450	1	1	8	60.0	2	0	[]
1455	18	6	8	60.0	2	0	[]
1462	1	1	8	60.0	2	0	[]
1464	8	1	8	40.0	2	1	[(312, 0)]
1466	1	1	2	60.0	2	0	[]
1468	2	1	8	60.0	2	0	[]
1477	1	1	8	60.0	2	0	[]
1484	2	1	8	60.0	2	0	[]
1485	8	3	8	60.0	2	0	[]
1487	2	1	1	60.0	2	0	[]
1492	1	4	8	60.0	2	0	[]
1495	2	2	8	60.0	2	0	[]
1499	2	1	8	60.0	2	0	[]
1500	2	1	8	60.0	2	0	[]
1501	1	1	2	60.0	2	0	[]
1502	6	1	8	60.0	2	0	[]
1507	3	2	8	60.0	2	1	[(8489, 0)]
1510	4	14	32	80.0	2	0	[]
1515	25	4	8	60.0	2	6	[(7328, 0), (4802, 2), (137, 2), (4941, 2), (8253, 0), (4911, 1)]
1518	3	1	8	60.0	2	0	[]
1519	1	1	8	60.0	2	0	[]
1524	8	1	8	100.0	2	0	[]
1525	6	4	8	60.0	2	0	[]
1529	4	1	8	60.0	2	0	[]
1530	10	3	8	60.0	2	2	[(3802, 2), (1829, 2)]
1531	1	1	8	60.0	2	0	[]
1542	1	1	8	60.0	2	0	[]
1543	2	1	8	60.0	2	0	[]
1544	8	1	8	60.0	2	0	[]
1546	3	2	8	60.0	2	0	[]
1547	4	1	8	60.0	2	0	[]
1548	5	1	8	60.0	2	0	[]
1557	3	2	8	60.0	2	0	[]
1558	2	1	6	60.0	2	0	[]
1559	18	1	8	100.0	2	0	[]
1561	5	1	8	60.0	2	0	[]
1562	2	1	8	100.0	2	0	[]
1571	1	1	1	60.0	2	0	[]
1574	2	1	7	60.0	2	0	[]
1575	2	1	8	60.0	2	0	[]
1576	2	1	8	60.0	2	0	[]
1581	1	1	1	60.0	2	0	[]
1583	1	1	8	60.0	2	0	[]
1584	2	1	8	80.0	2	0	[]
1590	2	1	6	60.0	2	0	[]
1596	3	12	16	80.0	2	0	[]
1599	139	3	8	60.0	2	2	[(1062, 0), (6408, 0)]
1600	1	1	8	60.0	2	0	[]
1604	2	1	8	60.0	2	0	[]
1607	1	1	8	60.0	2	0	[]
1608	1	1	8	60.0	2	0	[]
1609	2	2	8	60.0	2	0	[]
1612	2	1	8	60.0	2	0	[]
1613	1	1	2	60.0	2	0	[]
1623	2	1	2	60.0	2	0	[]
1626	1	1	8	60.0	2	0	[]
1628	2	1	2	60.0	2	0	[]
1631	1	1	8	60.0	2	0	[]
1633	1	1	8	60.0	2	0	[]
1638	4	1	8	60.0	2	0	[]
1641	12	3	8	60.0	2	1	[(6537, 2)]
1647	5	2	8	60.0	2	0	[]
1653	2	1	8	60.0	2	4	[(2483, 0), (2488, 0), (7919, 0), (4114, 0)]
1657	3	6	8	60.0	2	0	[]
1661	2	2	8	60.0	2	0	[]
1667	1	1	8	60.0	2	0	[]
1670	2	1	8	60.0	2	0	[]
1671	1	1	1	60.0	2	0	[]
1672	1	4	8	60.0	2	0	[]
1676	4	6	8	60.0	2	0	[]
1684	2	1	8	60.0	2	0	[]
1689	2	1	8	60.0	2	0	[]
1697	2	1	8	60.0	2	0	[]
1702	1	1	8	60.0	2	0	[]
1704	1	1	6	60.0	2	0	[]
1711	1	1	8	60.0	2	0	[]
1716	2	1	8	60.0	2	0	[]
1719	1	1	8	60.0	2	0	[]
1723	100	2	2	60.0	2	4	[(6956, 1), (7481, 2), (7173, 2), (1510, 0)]
1727	2	6	8	60.0	2	0	[]
1729	7	1	8	60.0	2	0	[]
1731	2	2	8	60.0	2	0	[]
1732	2	1	8	60.0	2	0	[]
1733	8	1	1	60.0	2	0	[]
1734	5	5	8	60.0	2	0	[]
1738	4	1	8	60.0	2	0	[]
1739	2	1	3	60.0	2	0	[]
1743	2	1	8	60.0	2	0	[]
1746	13	2	8	60.0	2	2	[(8971, 0), (6694, 0)]
1749	3	1	2	60.0	2	0	[]
1753	1	1	7	60.0	2	0	[]
1757	6	2	16	80.0	2	1	[(762, 1)]
1759	2	1	8	60.0	2	0	[]
1773	11	5	2	60.0	2	0	[]
1778	228	12	16	100.0	0	14	[(6683, 0), (5366, 0), (7217, 0), (6381, 0), (7386, 2), (9127, 0), (1599, 0), (1855, 2), (9047, 0), (6003, 0), (1405, 0), (5548, 0), (5905, 0), (188, 0)]
1784	22	1	8	60.0	2	0	[]
1788	7	6	16	80.0	2	2	[(562, 2), (2225, 1)]
1791	1	1	8	60.0	2	0	[]
1793	24	3	8	40.0	2	4	[(1326, 1), (2018, 0), (206, 1), (77, 0)]
1794	1	1	8	60.0	2	0	[]
1795	4	1	2	60.0	2	2	[(6744, 2), (4007, 0)]
1798	2	1	8	60.0	2	0	[]
1802	2	1	8	60.0	2	0	[]
1806	1	1	2	60.0	2	0	[]
1810	6	1	7	60.0	2	2	[(4749, 1), (147, 2)]
1811	1	1	8	60.0	2	0	[]
1813	9	1	8	60.0	2	0	[]
1814	1	1	2	60.0	2	0	[]
1819	3	1	8	60.0	2	0	[]
1823	1	1	2	60.0	2	0	[]
1825	2	4	8	60.0	2	0	[]
1829	2	1	8	60.0	2	0	[]
1835	1	1	8	60.0	2	0	[]
1838	2	1	8	60.0	2	0	[]
1844	1	1	3	200.0	2	0	[]
1853	5	1	8	60.0	2	0	[]
1854	1	1	8	60.0	2	0	[]
1855	47	3	16	80.0	2	0	[]
1856	2	1	8	60.0	2	0	[]
1859	1	1	8	60.0	2	0	[]
1861	4	1	8	60.0	2	0	[]
1863	60	6	8	60.0	2	4	[(3283, 0), (4129, 0), (6133, 0), (2448, 1)]
1870	1	1	16	100.0	2	0	[]
1871	4	2	8	60.0	2	0	[]
1881	2	1	2	60.0	2	0	[]
1882	1	4	8	60.0	2	0	[]
1886	2	1	5	60.0	2	0	[]
1887	11	1	8	40.0	2	2	[(7217, 0), (6381, 2)]
1888	2	2	8	60.0	2	0	[]
1890	2	1	2	60.0	2	0	[]
1894	2	3	8	60.0	2	0	[]
1898	4	2	8	60.0	2	0	[]
1908	2	1	8	60.0	2	0	[]
1914	2	1	8	60.0	2	0	[]
1915	25	12	16	100.0	2	0	[]
1920	1	1	2	60.0	2	0	[]
1926	1	1	8	60.0	2	0	[]
1929	7	4	16	60.0	2	0	[]
1932	2	1	8	60.0	2	0	[]
1933	1	4	16	60.0	2	0	[]
1938	2	1	8	60.0	2	0	[]
1943	2	1	8	60.0	2	0	[]
1948	2	1	8	60.0	2	0	[]
1952	152	6	8	60.0	2	8	[(6416, 0), (2647, 1), (5720, 1), (4376, 0), (7055, 0), (6129, 0), (4601, 0), (6070, 1)]
1954	1	1	16	60.0	1	0	[]
1962	10	1	8	60.0	2	0	[]
1963	1	4	8	60.0	2	0	[]
1966	1	4	8	60.0	2	0	[]
1969	3	3	16	60.0	2	0	[]
1973	30	2	8	60.0	2	3	[(7481, 2), (7019, 1), (3144, 2)]
1974	1	2	16	60.0	2	0	[]
1980	2	1	8	60.0	2	0	[]
1981	3	1	12	80.0	2	0	[]
1982	4	5	8	60.0	2	0	[]
1987	8	2	8	60.0	2	1	[(2042, 2)]
1989	1	4	8	60.0	2	0	[]
1997	16	1	8	60.0	2	0	[]
2000	31	6	16	80.0	2	16	[(4007, 0), (4454, 2), (2469, 0), (692, 0), (5656, 1), (3168, 0), (2647, 0), (3354, 0), (4286, 1), (1099, 0), (5011, 0), (3624, 0), (5220, 0), (8281, 0), (1778, 2), (6043, 0)]
2002	2	1	8	60.0	2	0	[]
2005	3	1	8	60.0	2	0	[]
2008	1	1	8	60.0	2	0	[]
2017	2	1	8	60.0	2	0	[]
2018	3	2	8	80.0	2	0	[]
2020	3	2	8	60.0	2	0	[]
2021	1	1	2	60.0	2	0	[]
2022	7	16	96	300.0	2	0	[]
2025	1	4	8	60.0	2	0	[]
2031	2	1	8	60.0	2	0	[]
2034	10	2	8	60.0	2	1	[(5971, 2)]
2038	1	1	8	60.0	2	0	[]
2040	3	1	7	60.0	2	0	[]
2042	1	1	8	60.0	2	0	[]
2045	2	1	8	60.0	2	0	[]
2053	4	1	8	60.0	2	0	[]
2057	3	1	8	60.0	2	0	[]
2062	1	1	16	100.0	2	0	[]
2065	2	1	8	60.0	2	0	[]
2069	1	1	1	60.0	2	0	[]
2070	5	4	16	200.0	2	0	[]
2071	2	1	8	60.0	2	0	[]
2074	2	1	2	60.0	2	0	[]
2077	4	1	8	60.0	2	0	[]
2079	3	1	8	60.0	2	0	[]
2087	1	1	2	60.0	2	0	[]
2090	40	3	8	60.0	2	3	[(4429, 0), (4941, 1), (1258, 2)]
2093	10	1	1	80.0	2	0	[]
2099	1	1	3	60.0	2	0	[]
2100	2	1	1	60.0	2	0	[]
2101	1	1	48	300.0	2	0	[]
2103	2	1	8	60.0	2	0	[]
2104	4	1	8	60.0	2	0	[]
2108	4	4	8	80.0	2	0	[]
2109	1	1	48	300.0	2	0	[]
2111	9	2	8	60.0	2	1	[(1863, 0)]
2114	5	1	8	60.0	2	1	[(1810, 2)]
2117	2	2	8	60.0	2	0	[]
2119	1	1	2	80.0	2	0	[]
2121	1	1	2	60.0	2	0	[]
2122	1	4	8	60.0	2	0	[]
2129	38	6	16	60.0	0	1	[(5028, 0)]
2133	3	1	8	60.0	2	0	[]
2135	2	1	8	60.0	2	0	[]
2139	5	1	8	60.0	2	0	[]
2141	1	1	2	60.0	2	0	[]
2149	1	1	8	60.0	2	0	[]
2150	2	1	8	60.0	2	0	[]
2155	6	4	2	100.0	2	0	[]
2157	2	2	8	60.0	2	0	[]
2158	2	1	8	60.0	2	0	[]
2159	1	1	16	80.0	2	0	[]
2164	1	1	8	60.0	2	0	[]
2170	2	1	8	60.0	2	0	[]
2174	2	1	8	60.0	2	0	[]
2177	1	1	2	60.0	2	0	[]
2179	1	1	8	60.0	2	0	[]
2181	1	1	8	60.0	2	0	[]
2183	1	1	8	60.0	2	0	[]
2190	1	1	1	60.0	2	0	[]
2196	2	1	4	60.0	2	2	[(7013, 0), (2709, 0)]
2197	5	2	6	60.0	2	0	[]
2200	6	4	3	60.0	2	0	[]
2202	1	1	8	60.0	2	0	[]
2208	1	1	8	60.0	2	0	[]
2211	3	1	5	60.0	2	0	[]
2215	3	1	8	60.0	2	0	[]
2218	2	1	8	167.0	2	0	[]
2223	1	10	8	60.0	2	0	[]
2225	2	1	2	60.0	2	0	[]
2228	1	8	16	60.0	2	0	[]
2232	2	2	8	60.0	2	0	[]
2236	2	4	8	60.0	2	0	[]
2241	3	1	8	60.0	2	0	[]
2244	2	6	8	60.0	2	0	[]
2246	10	1	8	60.0	2	0	[]
2248	2	1	8	60.0	2	0	[]
2250	2	1	8	60.0	2	0	[]
2252	2	3	8	60.0	2	0	[]
2253	1	1	8	60.0	2	0	[]
2255	2	1	8	60.0	2	0	[]
2260	2	1	8	60.0	2	0	[]
2265	2	1	8	60.0	2	0	[]
2267	1	1	8	60.0	2	0	[]
2269	2	1	7	60.0	2	0	[]
2270	2	3	8	60.0	2	0	[]
2273	24	2	8	60.0	2	2	[(6288, 1), (2265, 2)]
2275	2	1	8	60.0	2	0	[]
2276	1	1	8	60.0	2	0	[]
2277	4	1	8	60.0	2	0	[]
2279	2	1	8	60.0	2	0	[]
2284	4	1	8	60.0	2	0	[]
2287	1	1	16	80.0	2	0	[]
2291	8	1	1	80.0	2	0	[]
2292	16	1	16	80.0	2	0	[]
2296	1	1	8	60.0	2	0	[]
2304	1	1	2	60.0	2	0	[]
2307	1	1	8	60.0	2	5	[(5202, 0), (5220, 0), (5149, 0), (5941, 0), (6711, 0)]
2308	1	1	8	60.0	2	0	[]
2312	2	1	8	60.0	2	0	[]
2314	1	4	8	60.0	2	0	[]
2315	2	1	8	60.0	2	0	[]
2316	2	1	8	60.0	2	0	[]
2317	5	3	2	650.0	2	0	[]
2319	50	1	8	60.0	2	0	[]
2320	1	4	8	60.0	2	0	[]
2338	3	1	8	60.0	2	0	[]
2340	2	4	8	60.0	2	0	[]
2341	4	1	8	60.0	2	0	[]
2346	1	1	8	60.0	2	0	[]
2371	1	4	8	60.0	2	0	[]
2376	1	1	7	60.0	2	0	[]
2377	1	4	8	60.0	2	0	[]
2382	1	1	8	60.0	2	0	[]
2385	1	1	8	60.0	2	0	[]
2400	1	1	8	60.0	2	0	[]
2401	1	4	8	60.0	2	0	[]
2403	1	4	8	60.0	2	0	[]
2404	1	2	8	60.0	2	0	[]
2405	1	1	8	60.0	2	0	[]
2411	1	1	8	60.0	2	0	[]
2414	2	1	8	60.0	2	0	[]
2416	2	1	8	60.0	2	0	[]
2417	2	4	8	60.0	2	0	[]
2422	2	4	8	60.0	2	0	[]
2426	2	1	8	60.0	2	0	[]
2427	3	1	8	60.0	2	0	[]
2431	3	4	8	60.0	2	0	[]
2437	4	4	8	60.0	2	1	[(4966, 1)]
2438	4	1	8	60.0	2	0	[]
2439	4	1	8	60.0	2	0	[]
2446	4	1	8	60.0	2	0	[]
2448	4	2	8	100.0	2	0	[]
2450	4	1	8	60.0	2	0	[]
2463	5	1	8	60.0	2	0	[]
2468	6	2	8	60.0	2	0	[]
2469	6	1	2	60.0	2	0	[]
2474	6	12	16	100.0	2	0	[]
2483	27	1	8	60.0	2	2	[(7570, 1), (2868, 2)]
2488	42	6	7	60.0	2	31	[(9127, 2), (7919, 2), (5558, 0), (9328, 1), (8776, 1), (3199, 1), (617, 1), (1062, 0), (2270, 2), (2856, 0), (1599, 1), (4576, 1), (3593, 2), (8955, 1), (9077, 0), (7619, 2), (6384, 2), (4429, 0), (1305, 0), (3554, 1), (3759, 0), (688, 0), (9138, 0), (2111, 2), (7064, 0), (3802, 1), (4749, 1), (6763, 2), (5601, 2), (4114, 2), (3717, 2)]
2489	14	2	8	60.0	2	2	[(3800, 0), (8955, 0)]
2495	10	4	8	60.0	2	0	[]
2498	10	1	8	60.0	2	0	[]
2503	9	1	2	60.0	2	0	[]
2504	9	1	2	60.0	2	0	[]
2506	9	4	1	100.0	2	0	[]
2508	8	1	8	60.0	2	2	[(4570, 0), (4292, 0)]
2509	8	1	8	60.0	2	0	[]
2512	7	1	8	60.0	2	0	[]
2514	3	1	16	80.0	2	0	[]
2526	2	1	2	60.0	2	0	[]
2530	2	12	16	60.0	2	0	[]
2531	2	1	10	80.0	2	0	[]
2535	2	1	1	60.0	2	0	[]
2536	2	2	8	60.0	2	0	[]
2540	2	1	1	80.0	2	0	[]
2541	2	1	8	60.0	2	0	[]
2551	2	1	8	60.0	2	0	[]
2552	2	1	8	60.0	2	0	[]
2563	2	2	8	60.0	2	0	[]
2564	2	2	2	60.0	2	0	[]
2566	2	2	8	60.0	2	0	[]
2569	2	1	8	60.0	2	0	[]
2572	2	1	8	60.0	2	0	[]
2577	2	1	1	60.0	2	0	[]
2580	2	1	2	60.0	2	0	[]
2591	1	1	8	60.0	2	0	[]
2595	2	1	8	60.0	2	0	[]
2600	12	7	24	150.0	2	0	[]
2601	2	1	8	60.0	2	0	[]
2602	1	1	2	60.0	2	0	[]
2604	1	1	8	60.0	2	0	[]
2612	6	5	8	60.0	2	0	[]
2618	7	1	8	80.0	2	0	[]
2625	1	1	1	60.0	2	0	[]
2627	4	1	2	60.0	2	0	[]
2629	3	2	8	60.0	2	0	[]
2630	5	2	8	60.0	2	0	[]
2636	2	1	8	60.0	2	0	[]
2639	2	2	8	60.0	2	0	[]
2647	2	3	8	60.0	2	0	[]
2649	19	5	8	60.0	2	1	[(8721, 0)]
2651	8	5	8	60.0	2	2	[(5370, 2), (873, 2)]
2652	1	1	8	60.0	2	0	[]
2653	2	1	8	60.0	2	0	[]
2657	26	2	8	60.0	2	0	[]
2661	2	4	8	60.0	2	0	[]
2662	1	1	8	40.0	0	0	[]
2666	2	1	8	60.0	2	0	[]
2668	114	6	2	60.0	2	5	[(3993, 2), (3624, 1), (7768, 0), (8333, 0), (6408, 0)]
2671	1	1	6	60.0	2	0	[]
2673	2	1	8	60.0	2	0	[]
2692	119	12	16	200.0	2	0	[]
2696	21	6	8	60.0	2	2	[(3913, 0), (4734, 0)]
2697	6	6	16	40.0	2	0	[]
2700	27	2	8	60.0	2	3	[(1227, 0), (4041, 2), (5958, 2)]
2705	2	1	8	60.0	2	1	[(6408, 0)]
2707	2	4	8	60.0	2	0	[]
2709	4	3	8	60.0	2	0	[]
2710	78	6	10	60.0	0	6	[(7099, 0), (8900, 0), (1987, 0), (7935, 2), (7590, 1), (7100, 1)]
2711	1	1	8	60.0	2	0	[]
2720	1	1	8	60.0	2	0	[]
2731	7	36	48	300.0	2	1	[(737, 0)]
2732	1	1	8	60.0	2	0	[]
2735	1	1	8	60.0	2	0	[]
2736	2	1	2	60.0	2	0	[]
2738	2	1	8	60.0	2	0	[]
2748	1	1	8	60.0	2	0	[]
2753	1	1	8	60.0	2	0	[]
2754	4	3	8	60.0	2	0	[]
2757	7	2	8	60.0	2	0	[]
2758	1	1	2	60.0	2	0	[]
2760	2	1	16	80.0	2	0	[]
2761	9	1	8	60.0	2	0	[]
2764	2	6	8	60.0	2	0	[]
2769	6	2	8	40.0	2	3	[(688, 0), (6123, 0), (6408, 0)]
2771	2	1	8	60.0	2	0	[]
2772	10	12	2	60.0	2	0	[]
2783	2	1	8	60.0	2	0	[]
2784	4	1	2	60.0	2	0	[]
2790	2	1	8	60.0	2	0	[]
2793	1	1	8	40.0	2	0	[]
2794	2	1	8	60.0	2	0	[]
2803	1	4	8	60.0	2	0	[]
2810	1	2	8	60.0	2	0	[]
2815	60	1	8	60.0	2	0	[]
2816	4	1	8	60.0	2	0	[]
2817	1	1	8	60.0	2	0	[]
2818	2	2	8	60.0	2	0	[]
2819	4	2	8	60.0	2	0	[]
2820	1	1	1	60.0	2	0	[]
2823	1	1	8	60.0	2	0	[]
2827	2	1	8	60.0	2	0	[]
2828	4	1	8	60.0	2	0	[]
2831	35	2	8	60.0	2	0	[]
2832	1	1	8	60.0	2	0	[]
2836	1	1	6	60.0	2	0	[]
2837	1	1	8	60.0	0	0	[]
2838	1	1	7	60.0	2	0	[]
2840	2	1	4	60.0	2	0	[]
2853	6	2	8	40.0	2	1	[(6381, 0)]
2856	4	1	8	60.0	2	0	[]
2857	1	11	16	100.0	2	0	[]
2864	2	1	8	60.0	2	0	[]
2868	1	1	8	60.0	2	0	[]
2869	1	1	8	200.0	2	0	[]
2871	1	1	2	60.0	2	0	[]
2882	1	4	8	80.0	2	0	[]
2883	4	1	8	60.0	2	0	[]
2887	18	3	16	200.0	2	0	[]
2890	2	3	8	60.0	2	0	[]
2891	1	1	8	60.0	2	0	[]
2900	24	2	8	60.0	2	1	[(3629, 2)]
2901	2	1	8	60.0	2	0	[]
2903	2	1	8	60.0	2	0	[]
2908	1	1	8	60.0	2	0	[]
2914	3	4	8	60.0	2	0	[]
2919	1	1	8	60.0	2	0	[]
2920	1	12	8	60.0	2	0	[]
2922	2	1	6	60.0	2	0	[]
2930	2	1	1	60.0	2	0	[]
2931	1	3	8	60.0	0	0	[]
2936	2	1	8	60.0	2	0	[]
2937	3	4	8	60.0	2	0	[]
2943	1	1	8	60.0	2	0	[]
2945	2	1	8	60.0	2	0	[]
2948	1	1	1	60.0	2	0	[]
2950	1	1	3	60.0	2	0	[]
2951	1	1	8	60.0	2	0	[]
2958	1	1	8	60.0	2	0	[]
2961	3	1	8	60.0	2	0	[]
2965	2	4	8	60.0	2	0	[]
2970	14	6	16	100.0	0	48	[(8451, 0), (9269, 0), (7155, 0), (3464, 0), (3709, 0), (1778, 0), (5009, 0), (6095, 0), (4994, 0), (7792, 0), (2840, 0), (3914, 0), (7970, 0), (2697, 0), (8191, 0), (1227, 0), (5366, 0), (7935, 0), (9301, 0), (768, 0), (6304, 0), (513, 0), (6408, 0), (6694, 0), (2657, 0), (9077, 0), (3604, 0), (6625, 0), (6381, 0), (6400, 0), (4819, 0), (1405, 0), (9122, 0), (8410, 0), (688, 0), (9138, 0), (2900, 0), (8882, 0), (4423, 0), (7154, 0), (4704, 0), (3802, 0), (2769, 0), (1216, 0), (5689, 0), (5893, 0), (7067, 0), (9289, 0)]
2974	2	1	1	60.0	2	0	[]
2983	3	6	8	60.0	2	0	[]
2984	20	5	8	60.0	2	0	[]
2985	1	2	8	40.0	1	0	[]
2989	2	2	8	60.0	2	0	[]
2994	1	1	8	60.0	2	0	[]
2995	1	1	8	60.0	2	0	[]
2998	16	2	8	60.0	2	0	[]
3003	2	1	8	60.0	2	0	[]
3004	1	1	8	60.0	2	3	[(7556, 0), (7893, 0), (5661, 0)]
3005	1	4	16	80.0	2	0	[]
3008	5	1	8	60.0	2	0	[]
3009	24	3	8	60.0	2	5	[(4601, 0), (692, 2), (4375, 0), (3490, 0), (7296, 0)]
3012	2	1	8	60.0	2	0	[]
3016	1	1	8	60.0	2	0	[]
3023	6	4	8	60.0	2	0	[]
3027	6	1	2	60.0	2	0	[]
3037	3	4	8	60.0	2	0	[]
3045	2	2	8	60.0	2	0	[]
3046	1	4	8	60.0	2	0	[]
3052	2	4	8	60.0	2	0	[]
3053	4	1	8	60.0	2	0	[]
3054	9	6	8	60.0	2	2	[(7276, 0), (4114, 0)]
3055	1	1	8	60.0	2	0	[]
3056	1	4	8	60.0	2	0	[]
3060	2	1	8	60.0	2	0	[]
3069	1	4	8	60.0	2	0	[]
3070	19	5	2	100.0	0	0	[]
3074	2	1	6	60.0	2	0	[]
3078	4	1	8	60.0	2	0	[]
3090	1	4	10	60.0	2	0	[]
3094	2	1	1	60.0	2	0	[]
3105	13	4	8	40.0	2	2	[(7597, 1), (2260, 1)]
3111	2	1	8	60.0	2	0	[]
3119	2	1	8	60.0	2	0	[]
3126	1	2	8	60.0	2	0	[]
3136	8	1	2	60.0	2	0	[]
3137	1	2	7	60.0	2	0	[]
3141	1	1	8	60.0	2	0	[]
3142	1	1	2	60.0	2	0	[]
3144	6	5	8	60.0	2	0	[]
3147	2	1	2	60.0	2	0	[]
3152	3	1	8	60.0	2	0	[]
3158	28	1	8	60.0	2	2	[(8759, 2), (5837, 2)]
3159	1	1	8	60.0	2	0	[]
3161	2	1	8	60.0	2	0	[]
3163	2	1	8	60.0	2	0	[]
3168	10	2	8	60.0	2	8	[(4007, 0), (2469, 0), (2000, 0), (2647, 0), (3354, 0), (5011, 0), (1099, 0), (8281, 0)]
3171	2	4	8	60.0	2	0	[]
3176	3	1	8	60.0	2	0	[]
3178	2	1	12	60.0	2	0	[]
3181	1	1	2	100.0	2	0	[]
3185	1	1	8	60.0	2	0	[]
3186	3	1	8	60.0	2	0	[]
3189	5	1	8	60.0	2	0	[]
3191	12	1	6	60.0	2	0	[]
3193	2	2	7	60.0	2	0	[]
3194	2	1	8	60.0	2	0	[]
3199	147	4	8	60.0	2	0	[]
3200	2	1	8	60.0	2	0	[]
3203	8	3	8	60.0	2	0	[]
3204	6	1	8	60.0	2	0	[]
3206	1	1	8	60.0	2	0	[]
3222	4	1	8	80.0	2	0	[]
3224	2	2	8	60.0	2	0	[]
3230	1	1	4	200.0	2	0	[]
3237	1	1	6	180.0	2	0	[]
3239	4	1	8	60.0	2	0	[]
3244	2	1	2	60.0	2	0	[]
3247	21	3	8	60.0	2	0	[]
3249	3	1	8	60.0	2	0	[]
3251	3	1	8	300.0	2	0	[]
3252	47	1	8	60.0	2	3	[(4601, 1), (7963, 2), (6408, 0)]
3260	15	4	8	60.0	2	3	[(5220, 0), (6288, 2), (4941, 2)]
3262	2	1	1	60.0	2	0	[]
3263	3	3	21	80.0	2	0	[]
3269	1	1	8	60.0	2	0	[]
3283	240	6	8	60.0	2	11	[(688, 0), (5028, 0), (2087, 2), (2627, 2), (6408, 0), (9336, 0), (1374, 0), (4415, 2), (8970, 2), (4911, 0), (5905, 0)]
3285	1	1	2	60.0	2	0	[]
3289	2	2	8	60.0	2	0	[]
3294	1	1	2	60.0	2	0	[]
3295	4	2	8	60.0	2	1	[(7602, 2)]
3306	6	2	8	60.0	2	0	[]
3312	2	1	8	60.0	2	0	[]
3314	12	3	8	60.0	2	0	[]
3319	3	1	8	60.0	2	0	[]
3320	1	1	2	200.0	2	0	[]
3328	5	6	32	200.0	2	0	[]
3329	2	2	8	60.0	2	1	[(6226, 0)]
3330	1	1	8	60.0	2	0	[]
3332	1	1	8	60.0	2	0	[]
3335	5	1	8	60.0	2	3	[(580, 0), (4819, 0), (7763, 0)]
3337	8	3	2	60.0	2	0	[]
3340	4	1	8	60.0	2	0	[]
3342	3	1	8	60.0	2	0	[]
3344	35	4	8	60.0	2	3	[(5922, 2), (753, 0), (4941, 1)]
3346	4	1	8	60.0	2	0	[]
3350	1	1	1	60.0	2	0	[]
3352	2	2	8	60.0	2	0	[]
3354	4	2	8	60.0	2	0	[]
3359	50	6	8	60.0	2	4	[(3176, 2), (254, 2), (7622, 0), (5640, 2)]
3360	3	1	8	60.0	2	0	[]
3362	1	1	3	60.0	2	0	[]
3363	5	1	8	60.0	2	0	[]
3365	1	1	1	60.0	2	0	[]
3380	1	12	16	200.0	2	0	[]
3381	3	1	8	60.0	2	0	[]
3384	2	1	6	60.0	2	0	[]
3386	2	1	1	60.0	2	0	[]
3387	5	1	2	60.0	2	0	[]
3391	4	1	8	60.0	2	0	[]
3392	2	1	2	60.0	2	0	[]
3399	1	4	8	60.0	2	0	[]
3400	4	1	8	60.0	2	0	[]
3401	16	3	8	60.0	2	0	[]
3403	1	2	8	40.0	2	0	[]
3408	4	2	8	60.0	2	0	[]
3410	2	1	1	60.0	2	0	[]
3413	15	4	8	60.0	2	0	[]
3415	8	2	8	60.0	2	0	[]
3424	2	1	2	100.0	2	0	[]
3425	53	5	8	60.0	2	4	[(4980, 2), (3283, 2), (7402, 1), (4749, 2)]
3431	5	5	8	300.0	2	0	[]
3443	2	1	8	60.0	2	0	[]
3448	2	1	8	40.0	2	0	[]
3451	2	1	8	60.0	2	2	[(8731, 0), (3359, 0)]
3455	4	3	8	60.0	2	1	[(8138, 0)]
3460	2	1	8	40.0	2	0	[]
3463	2	4	8	60.0	2	0	[]
3464	9	2	8	40.0	2	0	[]
3467	1	1	8	60.0	2	0	[]
3469	19	3	8	60.0	2	2	[(3654, 0), (7217, 0)]
3470	3	1	8	60.0	2	0	[]
3471	1	1	2	60.0	2	0	[]
3473	4	1	8	60.0	2	0	[]
3479	49	6	8	60.0	2	0	[]
3482	9	5	16	60.0	0	0	[]
3485	3	1	2	60.0	2	0	[]
3490	22	1	8	60.0	2	1	[(4941, 1)]
3496	1	1	4	60.0	2	0	[]
3497	1	1	8	60.0	2	0	[]
3498	1	2	8	60.0	2	0	[]
3501	2	1	8	60.0	2	0	[]
3506	3	1	8	60.0	2	0	[]
3507	2	4	8	60.0	2	0	[]
3508	1	4	16	40.0	2	0	[]
3513	5	2	8	60.0	2	2	[(6267, 0), (147, 2)]
3520	11	2	8	60.0	2	0	[]
3533	1	1	2	60.0	2	0	[]
3535	1	4	8	60.0	2	0	[]
3543	4	1	8	60.0	2	0	[]
3546	2	4	8	60.0	2	0	[]
3548	2	1	8	60.0	2	0	[]
3554	4	1	8	60.0	2	0	[]
3559	1	1	8	60.0	2	0	[]
3561	1	1	5	80.0	2	0	[]
3564	5	1	8	60.0	2	0	[]
3567	1	4	8	80.0	2	0	[]
3572	4	2	8	60.0	2	0	[]
3573	2	1	8	60.0	2	0	[]
3578	2	1	8	60.0	2	0	[]
3584	2	1	8	60.0	2	0	[]
3586	1	6	8	60.0	2	0	[]
3591	2	1	8	60.0	2	0	[]
3593	54	4	8	60.0	2	3	[(1336, 0), (6246, 0), (990, 0)]
3597	8	1	8	60.0	2	0	[]
3604	19	5	8	60.0	2	0	[]
3608	8	5	8	60.0	2	0	[]
3621	12	2	8	60.0	2	0	[]
3624	16	2	8	100.0	2	2	[(3070, 0), (7481, 1)]
3625	1	1	1	60.0	2	0	[]
3629	4	1	8	60.0	2	0	[]
3630	2	1	8	60.0	2	0	[]
3640	2	4	8	60.0	2	0	[]
3647	4	1	8	60.0	2	0	[]
3649	4	4	8	60.0	2	0	[]
3650	1	1	2	60.0	2	0	[]
3654	122	3	8	40.0	1	6	[(9156, 0), (3469, 0), (5177, 0), (615, 0), (6304, 0), (7367, 0)]
3661	2	2	8	60.0	2	0	[]
3663	2	1	8	60.0	2	0	[]
3669	2	3	8	60.0	2	0	[]
3670	2	2	8	60.0	2	0	[]
3676	2	1	7	60.0	2	1	[(1104, 1)]
3678	2	2	8	1024.0	2	0	[]
3685	2	1	8	60.0	2	0	[]
3686	12	2	8	60.0	2	0	[]
3694	2	1	8	60.0	2	0	[]
3697	1	1	8	60.0	2	0	[]
3704	7	1	8	60.0	2	0	[]
3707	1	3	16	60.0	2	0	[]
3709	21	2	8	40.0	2	1	[(4599, 0)]
3714	2	1	8	60.0	2	0	[]
3715	4	3	8	60.0	2	0	[]
3717	2	1	8	60.0	2	0	[]
3722	9	5	16	60.0	2	0	[]
3724	1	4	8	60.0	2	0	[]
3730	2	1	8	60.0	2	0	[]
3740	2	1	8	60.0	2	0	[]
3747	18	1	8	60.0	2	9	[(8554, 2), (4454, 2), (7354, 1), (8935, 1), (8149, 1), (4911, 1), (6288, 0), (4223, 1), (4781, 1)]
3755	2	1	8	60.0	2	0	[]
3759	19	6	8	60.0	2	1	[(4732, 0)]
3761	2	1	8	60.0	2	0	[]
3762	2	1	2	60.0	2	0	[]
3764	2	4	8	60.0	2	0	[]
3766	2	1	2	60.0	2	1	[(4792, 1)]
3779	3	2	8	60.0	2	0	[]
3783	2	1	8	60.0	2	0	[]
3785	4	2	8	60.0	2	0	[]
3792	2	1	8	80.0	2	0	[]
3794	2	1	8	60.0	2	0	[]
3800	2	1	8	60.0	2	0	[]
3802	178	6	16	100.0	2	4	[(9077, 0), (1788, 0), (5914, 0), (6408, 0)]
3809	5	1	8	60.0	2	0	[]
3812	1	1	8	60.0	2	0	[]
3817	2	1	8	60.0	2	0	[]
3818	1	1	1	60.0	2	0	[]
3820	1	1	2	60.0	2	0	[]
3822	1	1	8	60.0	2	0	[]
3826	2	1	8	60.0	2	0	[]
3827	1	1	6	60.0	2	0	[]
3831	2	1	8	60.0	2	0	[]
3832	1	1	8	60.0	2	0	[]
3844	1	1	8	60.0	2	0	[]
3855	6	1	8	60.0	2	0	[]
3859	1	7	24	80.0	2	0	[]
3861	2	1	2	60.0	2	0	[]
3862	1	2	8	60.0	2	0	[]
3863	1	1	8	60.0	2	0	[]
3865	2	1	8	40.0	2	0	[]
3881	1	4	8	60.0	2	0	[]
3882	2	1	8	60.0	2	0	[]
3884	2	1	8	60.0	2	0	[]
3885	14	4	8	60.0	2	0	[]
3888	4	1	16	100.0	2	0	[]
3896	2	4	8	60.0	2	0	[]
3903	2	1	8	60.0	2	0	[]
3905	21	1	8	60.0	2	2	[(737, 2), (2627, 0)]
3907	2	1	2	60.0	2	0	[]
3909	2	1	8	60.0	2	0	[]
3913	2	1	8	60.0	2	0	[]
3914	16	6	8	60.0	2	1	[(7217, 2)]
3917	2	1	8	60.0	2	0	[]
3919	2	1	8	60.0	2	0	[]
3921	2	1	8	60.0	2	0	[]
3925	1	1	8	60.0	2	0	[]
3928	3	6	32	60.0	2	13	[(4661, 2), (7217, 2), (5363, 2), (6381, 2), (4994, 2), (273, 1), (8834, 2), (5905, 2), (4630, 2), (8162, 1), (6082, 1), (6060, 2), (4710, 2)]
3934	1	4	8	167.0	2	0	[]
3938	1	1	8	60.0	2	0	[]
3939	2	1	8	80.0	2	0	[]
3950	5	1	8	60.0	2	0	[]
3961	1	4	8	60.0	2	0	[]
3970	15	3	8	60.0	2	0	[]
3982	60	4	8	60.0	2	1	[(6408, 0)]
3986	2	1	8	60.0	2	0	[]
3990	1	1	3	60.0	2	0	[]
3993	2	1	8	60.0	2	0	[]
4000	2	1	2	60.0	2	0	[]
4002	4	2	8	80.0	2	3	[(357, 1), (7907, 0), (1861, 0)]
4007	25	6	8	60.0	2	5	[(1099, 0), (2000, 0), (2647, 0), (3168, 0), (8281, 0)]
4008	7	1	16	80.0	2	0	[]
4012	5	4	8	60.0	2	0	[]
4016	2	1	8	60.0	2	0	[]
4019	1	1	3	60.0	2	0	[]
4030	1	1	1	60.0	2	0	[]
4034	9	6	8	60.0	2	5	[(4375, 1), (1163, 1), (6777, 1), (753, 2), (3970, 2)]
4040	1	1	7	60.0	2	0	[]
4041	6	3	8	40.0	2	0	[]
4049	2	2	8	60.0	2	0	[]
4050	5	2	8	60.0	2	0	[]
4052	2	4	8	60.0	2	0	[]
4053	2	2	8	60.0	2	0	[]
4055	7	1	8	60.0	2	0	[]
4058	22	3	8	60.0	2	1	[(2551, 1)]
4062	2	4	8	60.0	2	0	[]
4063	2	1	8	60.0	2	0	[]
4064	1	2	2	60.0	2	0	[]
4065	3	1	8	60.0	2	0	[]
4066	2	1	1	60.0	2	0	[]
4067	5	2	8	60.0	2	0	[]
4068	26	2	8	60.0	2	0	[]
4069	1	2	8	60.0	2	0	[]
4071	26	2	8	60.0	2	1	[(725, 0)]
4072	1	1	8	60.0	2	0	[]
4073	1	1	4	60.0	2	0	[]
4079	1	1	7	60.0	2	0	[]
4080	3	1	2	60.0	2	1	[(6038, 1)]
4086	6	3	8	60.0	2	1	[(6063, 2)]
4092	1	4	8	60.0	2	0	[]
4096	2	1	8	60.0	2	0	[]
4099	1	1	1	60.0	2	0	[]
4100	1	1	7	60.0	2	0	[]
4101	1	1	8	60.0	2	0	[]
4103	1	1	8	60.0	2	0	[]
4111	2	4	8	60.0	2	0	[]
4114	26	3	8	60.0	2	0	[]
4116	2	1	8	60.0	2	0	[]
4119	2	4	8	60.0	2	0	[]
4121	3	1	8	60.0	2	0	[]
4129	9	1	16	100.0	2	1	[(6256, 0)]
4130	2	1	8	60.0	2	0	[]
4131	1	1	8	60.0	2	0	[]
4149	1	8	16	100.0	1	0	[]
4152	11	1	8	60.0	2	0	[]
4155	5	1	8	60.0	2	0	[]
4163	1	1	8	60.0	2	0	[]
4177	2	3	8	60.0	2	0	[]
4178	2	1	1	60.0	2	0	[]
4181	2	1	13	80.0	2	0	[]
4187	1	1	8	60.0	2	0	[]
4191	5	2	8	80.0	2	0	[]
4200	1	1	1	60.0	2	0	[]
4206	4	1	8	60.0	2	0	[]
4214	2	1	2	60.0	2	0	[]
4215	2	4	8	60.0	2	0	[]
4218	10	6	8	60.0	2	2	[(4541, 2), (4732, 1)]
4222	3	2	8	60.0	2	0	[]
4223	2	1	2	60.0	2	0	[]
4226	2	1	2	60.0	2	0	[]
4232	1	1	3	60.0	2	0	[]
4244	2	1	8	60.0	2	0	[]
4251	1	1	8	60.0	2	0	[]
4256	1	1	8	60.0	2	0	[]
4258	6	2	8	60.0	2	0	[]
4263	3	3	8	60.0	2	0	[]
4269	4	4	8	60.0	2	0	[]
4271	2	1	8	60.0	2	0	[]
4273	1	1	2	60.0	2	0	[]
4274	2	1	8	60.0	2	0	[]
4278	1	1	8	60.0	2	0	[]
4279	2	1	8	60.0	2	0	[]
4284	4	6	8	200.0	2	0	[]
4286	24	1	8	80.0	2	4	[(5220, 0), (7196, 0), (8554, 0), (6597, 0)]
4287	5	22	32	80.0	2	0	[]
4292	3	1	8	60.0	2	0	[]
4293	1	1	8	60.0	2	0	[]
4299	2	1	8	60.0	2	0	[]
4306	1	1	8	60.0	2	0	[]
4309	1	1	8	60.0	2	0	[]
4316	1	1	8	60.0	2	0	[]
4329	1	1	8	60.0	2	0	[]
4336	1	4	8	80.0	2	0	[]
4342	2	4	8	60.0	2	0	[]
4343	1	1	2	60.0	2	0	[]
4347	2	2	8	60.0	2	0	[]
4361	3	1	8	60.0	2	0	[]
4363	1	1	1	60.0	2	0	[]
4364	2	1	8	60.0	2	0	[]
4370	3	1	8	60.0	2	0	[]
4374	1	4	8	60.0	2	0	[]
4375	3	1	8	60.0	2	0	[]
4376	10	3	8	60.0	0	7	[(7055, 0), (1952, 0), (2090, 0), (8152, 0), (7935, 2), (6129, 0), (4911, 1)]
4377	2	1	2	60.0	2	0	[]
4379	32	2	8	60.0	2	0	[]
4383	2	1	8	60.0	2	0	[]
4384	1	1	8	60.0	2	0	[]
4387	2	1	8	60.0	2	0	[]
4388	2	2	8	100.0	2	0	[]
4390	1	1	8	60.0	2	0	[]
4391	6	1	8	60.0	2	0	[]
4399	1	1	8	60.0	2	0	[]
4400	4	2	8	60.0	2	0	[]
4401	3	1	8	60.0	2	0	[]
4402	1	1	8	60.0	2	0	[]
4406	12	1	8	60.0	2	0	[]
4407	1	4	8	40.0	2	0	[]
4415	2	1	8	60.0	2	0	[]
4419	1	1	8	60.0	2	0	[]
4421	10	2	8	60.0	2	3	[(4911, 1), (1599, 2), (6381, 0)]
4423	36	3	16	60.0	2	1	[(2668, 0)]
4425	3	1	8	60.0	2	0	[]
4427	1	4	8	60.0	2	0	[]
4428	3	1	8	60.0	2	1	[(3346, 1)]
4429	4	4	8	60.0	2	2	[(2090, 0), (1099, 0)]
4431	1	1	8	80.0	2	0	[]
4435	4	1	8	60.0	2	0	[]
4439	1	1	8	60.0	2	0	[]
4445	2	3	8	60.0	2	0	[]
4449	11	1	8	200.0	2	1	[(6408, 0)]
4454	31	1	8	60.0	2	0	[]
4466	1	1	8	60.0	2	0	[]
4467	1	1	1	80.0	2	0	[]
4470	1	1	1	60.0	2	0	[]
4473	1	1	8	60.0	2	0	[]
4480	4	1	8	60.0	2	0	[]
4482	1	1	8	60.0	2	0	[]
4484	1	1	1	60.0	2	0	[]
4485	1	1	8	60.0	2	0	[]
4488	2	1	2	60.0	2	0	[]
4489	2	2	8	60.0	2	0	[]
4490	1	4	8	60.0	2	0	[]
4493	9	1	8	60.0	2	0	[]
4494	2	1	8	60.0	2	0	[]
4500	2	1	1	60.0	2	0	[]
4504	2	1	8	60.0	2	0	[]
4523	1	1	16	100.0	2	0	[]
4537	2	3	8	60.0	2	5	[(3676, 2), (189, 1), (5163, 0), (1104, 0), (7671, 0)]
4541	2	3	8	60.0	2	0	[]
4544	4	1	8	60.0	2	0	[]
4547	1	1	8	60.0	2	0	[]
4553	1	1	8	60.0	2	0	[]
4555	2	1	8	60.0	2	0	[]
4557	2	1	8	60.0	2	0	[]
4559	4	1	8	60.0	2	0	[]
4561	1	1	2	60.0	2	0	[]
4562	2	1	3	60.0	2	0	[]
4570	15	4	8	60.0	2	0	[]
4576	61	4	8	40.0	0	5	[(206, 1), (1062, 0), (5177, 0), (8834, 0), (4582, 2)]
4577	3	2	8	60.0	2	0	[]
4582	4	1	8	60.0	2	0	[]
4593	2	1	8	60.0	2	0	[]
4599	2	1	8	60.0	2	0	[]
4601	2	1	8	60.0	2	0	[]
4606	4	8	16	200.0	2	0	[]
4611	2	1	1	60.0	2	0	[]
4613	2	1	8	60.0	2	0	[]
4618	1	1	8	60.0	2	0	[]
4619	10	1	8	60.0	2	0	[]
4621	2	1	8	60.0	2	0	[]
4627	4	1	7	60.0	2	0	[]
4630	1	3	32	100.0	2	15	[(6082, 1), (4661, 2), (7217, 2), (5363, 2), (9031, 2), (6381, 2), (4994, 2), (273, 1), (3928, 2), (6429, 2), (737, 2), (6683, 2), (8162, 1), (6060, 2), (4710, 2)]
4641	1	1	2	60.0	2	0	[]
4642	13	2	8	60.0	2	4	[(4816, 2), (5220, 1), (6597, 2), (5702, 1)]
4644	2	8	16	100.0	2	0	[]
4645	1	4	8	60.0	2	0	[]
4657	2	1	8	60.0	2	0	[]
4660	1	4	8	60.0	2	0	[]
4661	15	11	16	60.0	1	13	[(6082, 1), (7217, 2), (9031, 2), (273, 2), (8834, 2), (3928, 2), (6429, 2), (737, 2), (5905, 2), (6683, 2), (4630, 2), (8162, 1), (4710, 2)]
4665	2	1	8	60.0	2	0	[]
4671	12	2	8	60.0	2	0	[]
4676	2	2	8	60.0	2	0	[]
4681	2	1	1	60.0	2	0	[]
4684	2	1	8	60.0	2	0	[]
4686	3	2	8	60.0	2	0	[]
4688	2	1	8	60.0	2	0	[]
4691	1	12	16	100.0	2	0	[]
4704	29	2	8	60.0	2	2	[(3831, 2), (2627, 1)]
4710	1	3	16	60.0	2	14	[(4661, 3), (6683, 2), (5363, 3), (9031, 2), (6381, 3), (273, 2), (8834, 2), (4994, 3), (3928, 2), (6429, 2), (737, 2), (5905, 2), (4630, 2), (6060, 3)]
4715	5	4	8	60.0	2	0	[]
4717	3	1	8	60.0	2	0	[]
4721	3	1	8	60.0	2	0	[]
4724	1	4	8	60.0	2	0	[]
4732	2	2	8	60.0	2	0	[]
4734	6	3	8	40.0	2	1	[(147, 0)]
4735	2	1	8	60.0	2	0	[]
4736	2	1	8	60.0	2	0	[]
4739	2	1	8	60.0	2	0	[]
4742	1	1	1	60.0	2	0	[]
4749	191	3	8	60.0	2	2	[(7445, 1), (5495, 1)]
4760	51	2	8	60.0	2	3	[(5339, 0), (6751, 2), (1788, 2)]
4763	3	1	8	60.0	2	2	[(3831, 2), (6408, 0)]
4765	1	1	8	60.0	2	0	[]
4770	35	2	16	100.0	2	1	[(1702, 1)]
4777	1	1	3	60.0	2	0	[]
4778	27	2	8	40.0	2	1	[(188, 0)]
4781	20	2	8	60.0	2	0	[]
4790	2	1	8	100.0	2	0	[]
4792	5	1	2	60.0	2	1	[(3766, 0)]
4794	1	1	2	60.0	2	1	[(7196, 1)]
4796	2	1	8	60.0	2	0	[]
4797	11	2	8	40.0	2	1	[(6381, 0)]
4798	1	1	8	60.0	2	0	[]
4802	4	1	8	60.0	2	0	[]
4803	2	1	8	60.0	2	0	[]
4805	1	4	8	60.0	2	0	[]
4806	2	1	8	60.0	2	0	[]
4816	2	1	8	60.0	2	0	[]
4819	24	1	8	60.0	2	4	[(2970, 0), (580, 0), (3335, 0), (7763, 0)]
4826	2	4	16	60.0	2	0	[]
4827	2	1	8	60.0	2	0	[]
4829	1	1	2	60.0	2	0	[]
4837	3	1	3	60.0	2	0	[]
4838	1	4	8	60.0	2	0	[]
4840	5	6	8	60.0	2	0	[]
4846	1	4	8	60.0	2	0	[]
4850	1	1	2	60.0	2	0	[]
4851	2	1	8	60.0	2	0	[]
4853	4	1	8	60.0	2	2	[(3802, 2), (3654, 0)]
4858	11	12	2	60.0	2	7	[(5055, 0), (8554, 0), (7067, 0), (2630, 0), (562, 0), (1952, 0), (674, 0)]
4862	3	6	8	60.0	2	0	[]
4863	3	1	8	60.0	2	1	[(1676, 0)]
4867	2	1	8	60.0	2	0	[]
4869	9	3	8	80.0	2	0	[]
4870	2	1	8	60.0	2	0	[]
4873	8	1	2	60.0	2	0	[]
4884	1	1	8	60.0	2	0	[]
4888	1	4	8	60.0	2	0	[]
4889	2	1	8	60.0	2	0	[]
4891	2	1	8	60.0	2	0	[]
4899	1	4	8	60.0	2	0	[]
4900	2	1	7	60.0	2	0	[]
4904	2	1	8	60.0	2	0	[]
4905	1	1	2	60.0	2	0	[]
4909	18	2	8	60.0	2	6	[(8897, 0), (4387, 2), (1711, 1), (627, 1), (5840, 0), (7622, 0)]
4911	50	12	16	60.0	0	13	[(1672, 1), (1855, 0), (4778, 0), (3654, 0), (4041, 0), (2319, 0), (3283, 0), (3802, 0), (1374, 0), (6408, 0), (6003, 0), (2700, 0), (5905, 0)]
4924	1	1	8	60.0	2	0	[]
4926	2	1	8	60.0	2	0	[]
4927	2	4	8	60.0	2	0	[]
4930	2	1	8	60.0	2	0	[]
4933	7	2	8	60.0	2	0	[]
4934	4	1	1	300.0	2	0	[]
4935	2	1	8	60.0	2	0	[]
4940	1	1	8	60.0	2	0	[]
4941	11	6	8	100.0	2	0	[]
4945	1	4	8	60.0	2	0	[]
4946	3	2	8	60.0	2	0	[]
4947	2	1	8	60.0	2	0	[]
4949	2	1	8	60.0	2	0	[]
4952	1	2	8	60.0	2	0	[]
4957	2	1	8	60.0	2	0	[]
4959	1	4	8	60.0	2	0	[]
4966	3	4	8	60.0	2	0	[]
4967	2	1	8	60.0	2	0	[]
4971	3	4	8	60.0	2	0	[]
4974	4	1	2	60.0	2	0	[]
4978	12	6	8	60.0	2	1	[(3624, 1)]
4980	17	2	8	60.0	2	0	[]
4981	1	1	8	60.0	2	0	[]
4986	2	1	8	60.0	2	0	[]
4987	2	4	8	60.0	2	0	[]
4994	1	4	16	60.0	1	13	[(6082, 1), (7217, 2), (9031, 2), (273, 2), (8834, 2), (3928, 2), (6429, 2), (737, 2), (5905, 2), (6683, 2), (4630, 2), (8162, 1), (4710, 2)]
4995	2	1	8	60.0	2	0	[]
4999	4	1	4	60.0	2	0	[]
5000	2	1	8	60.0	2	0	[]
5004	30	3	8	60.0	2	2	[(7217, 0), (273, 0)]
5009	2	1	8	60.0	2	1	[(572, 1)]
5010	1	1	8	100.0	2	0	[]
5011	16	3	8	60.0	2	2	[(2569, 0), (1810, 0)]
5019	2	1	8	60.0	2	0	[]
5028	71	6	16	60.0	2	6	[(3654, 0), (7217, 0), (4947, 0), (1793, 0), (6161, 0), (312, 0)]
5029	1	1	1	60.0	2	0	[]
5035	2	5	8	60.0	2	0	[]
5042	3	1	8	60.0	2	0	[]
5045	2	1	8	60.0	2	0	[]
5046	3	1	8	60.0	2	0	[]
5050	1	1	1	60.0	2	0	[]
5053	11	1	8	200.0	2	0	[]
5054	10	6	8	60.0	2	0	[]
5055	1	1	1	60.0	2	0	[]
5056	1	2	32	60.0	0	0	[]
5057	6	3	16	60.0	2	0	[]
5066	2	1	8	60.0	2	0	[]
5067	3	6	8	60.0	2	0	[]
5071	9	1	8	60.0	2	1	[(5905, 0)]
5079	2	4	8	60.0	2	0	[]
5081	2	1	8	60.0	2	0	[]
5092	2	1	8	60.0	2	0	[]
5094	1	1	8	60.0	2	1	[(3263, 1)]
5098	2	1	8	60.0	2	0	[]
5100	1	1	3	60.0	2	0	[]
5112	30	6	8	40.0	2	1	[(7597, 2)]
5116	2	1	8	60.0	2	0	[]
5122	1	3	8	60.0	2	0	[]
5126	1	4	8	60.0	2	0	[]
5142	1	1	8	60.0	2	0	[]
5144	1	6	16	180.0	2	0	[]
5146	27	5	8	80.0	2	0	[]
5149	2	2	8	60.0	2	0	[]
5151	1	1	8	60.0	2	0	[]
5160	2	1	8	60.0	2	0	[]
5163	1	1	8	60.0	2	2	[(3676, 2), (1104, 2)]
5168	4	1	8	167.0	2	0	[]
5170	4	1	8	60.0	2	0	[]
5177	7	1	8	60.0	2	0	[]
5178	1	1	8	60.0	2	0	[]
5180	2	1	8	60.0	2	0	[]
5181	4	1	8	60.0	2	0	[]
5182	1	4	8	60.0	2	0	[]
5189	4	6	8	60.0	2	0	[]
5193	2	1	8	60.0	2	0	[]
5202	2	4	8	60.0	2	0	[]
5207	2	1	8	60.0	2	0	[]
5219	2	1	8	60.0	2	0	[]
5220	72	3	8	60.0	2	6	[(1898, 2), (7130, 2), (6101, 1), (7536, 2), (4941, 1), (792, 2)]
5221	1	1	8	60.0	2	0	[]
5223	4	5	16	60.0	2	0	[]
5228	7	2	8	60.0	2	0	[]
5236	1	1	8	60.0	2	0	[]
5238	3	5	8	60.0	2	0	[]
5240	5	3	8	60.0	2	0	[]
5246	4	1	8	60.0	2	0	[]
5256	18	5	8	60.0	2	0	[]
5258	2	1	8	60.0	2	0	[]
5268	1	6	8	60.0	2	0	[]
5272	3	1	8	100.0	2	0	[]
5273	1	1	2	60.0	2	0	[]
5277	3	2	8	60.0	2	0	[]
5278	2	1	8	60.0	2	0	[]
5280	1	1	8	60.0	2	0	[]
5284	7	5	8	60.0	2	0	[]
5286	2	1	3	200.0	2	0	[]
5288	6	1	8	60.0	2	0	[]
5291	1	1	2	60.0	2	0	[]
5292	2	1	8	60.0	2	0	[]
5294	2	1	8	60.0	2	0	[]
5299	6	1	16	100.0	2	0	[]
5301	1	1	8	60.0	2	0	[]
5303	1	1	8	60.0	2	0	[]
5304	1	4	8	60.0	2	0	[]
5305	3	1	8	60.0	2	0	[]
5310	2	1	8	60.0	2	0	[]
5311	2	5	7	60.0	2	0	[]
5314	2	1	128	600.0	2	0	[]
5321	1	1	3	60.0	2	0	[]
5323	2	1	8	60.0	2	0	[]
5331	2	1	8	60.0	2	0	[]
5332	1	1	8	60.0	2	0	[]
5334	1	1	8	60.0	2	0	[]
5335	2	10	16	200.0	2	0	[]
5339	2	1	8	60.0	2	0	[]
5342	2	2	8	60.0	2	0	[]
5347	3	2	16	60.0	2	0	[]
5348	2	3	8	60.0	2	0	[]
5349	3	1	8	60.0	2	0	[]
5355	1	1	8	60.0	2	0	[]
5363	3	3	16	60.0	1	13	[(6082, 1), (7217, 2), (9031, 2), (273, 2), (8834, 2), (3928, 2), (6429, 2), (737, 2), (5905, 2), (6683, 2), (4630, 2), (8162, 1), (4710, 2)]
5366	142	12	16	60.0	1	11	[(4853, 1), (9336, 2), (1672, 1), (5310, 2), (5011, 0), (5684, 0), (5646, 2), (6304, 2), (6250, 0), (3482, 0), (9047, 0)]
5367	14	2	16	60.0	2	0	[]
5370	3	1	8	100.0	2	0	[]
5371	1	1	8	60.0	2	0	[]
5372	1	1	8	60.0	2	0	[]
5376	1	1	8	60.0	2	0	[]
5382	3	1	8	60.0	2	0	[]
5391	2	1	8	60.0	2	0	[]
5398	7	2	8	60.0	2	3	[(1402, 0), (6626, 0), (8588, 2)]
5406	13	4	8	80.0	2	0	[]
5410	1	1	8	60.0	2	0	[]
5428	1	1	8	60.0	2	0	[]
5434	3	1	8	60.0	2	0	[]
5439	4	1	8	60.0	2	0	[]
5440	2	1	2	60.0	2	0	[]
5449	35	6	8	60.0	2	2	[(8213, 1), (5011, 1)]
5458	2	1	2	60.0	2	0	[]
5459	2	1	8	60.0	2	0	[]
5460	1	1	1	60.0	2	0	[]
5475	4	2	8	60.0	2	0	[]
5477	17	1	8	60.0	2	0	[]
5478	2	1	8	60.0	2	0	[]
5479	6	1	8	60.0	2	0	[]
5487	2	1	2	60.0	2	0	[]
5495	1	1	3	60.0	2	0	[]
5502	2	1	1	60.0	2	0	[]
5505	2	5	8	60.0	2	0	[]
5514	1	4	8	60.0	2	0	[]
5518	1	1	8	60.0	2	0	[]
5527	2	1	1	60.0	2	0	[]
5532	2	1	2	60.0	2	0	[]
5533	2	1	2	60.0	2	0	[]
5538	9	12	16	60.0	2	0	[]
5546	8	1	8	60.0	2	1	[(107, 1)]
5548	29	4	8	60.0	2	5	[(4734, 0), (3755, 1), (3861, 0), (3194, 1), (6408, 0)]
5554	2	1	8	60.0	2	0	[]
5558	23	4	16	80.0	2	2	[(5793, 0), (3469, 2)]
5559	2	1	8	60.0	2	0	[]
5563	3	2	8	60.0	2	0	[]
5566	1	4	8	60.0	2	0	[]
5568	3	1	8	60.0	2	0	[]
5569	1	4	8	60.0	2	0	[]
5577	2	1	8	60.0	2	0	[]
5581	2	1	8	60.0	2	0	[]
5583	9	4	8	60.0	2	0	[]
5584	1	1	8	40.0	2	0	[]
5585	20	1	8	60.0	2	1	[(3263, 1)]
5589	4	1	16	100.0	2	0	[]
5592	1	1	1	200.0	2	0	[]
5599	1	4	8	60.0	2	0	[]
5601	3	1	8	60.0	2	0	[]
5608	2	1	8	60.0	2	0	[]
5610	2	2	8	60.0	2	0	[]
5612	1	1	5	60.0	2	0	[]
5619	9	4	2	60.0	2	0	[]
5628	5	10	8	100.0	2	0	[]
5635	3	3	2	60.0	2	0	[]
5638	2	1	2	60.0	2	0	[]
5640	2	1	8	60.0	2	0	[]
5644	1	1	1	60.0	2	0	[]
5646	2	1	8	60.0	2	0	[]
5649	1	7	16	100.0	1	0	[]
5651	4	1	8	60.0	2	0	[]
5653	2	1	8	60.0	2	0	[]
5654	1	1	8	60.0	2	0	[]
5656	2	1	2	60.0	2	0	[]
5658	2	1	8	60.0	2	0	[]
5661	9	6	8	60.0	2	1	[(2504, 2)]
5671	2	1	8	60.0	2	0	[]
5675	3	1	8	60.0	2	0	[]
5679	2	1	1	60.0	2	0	[]
5680	1	1	8	60.0	2	0	[]
5681	2	1	8	60.0	2	0	[]
5684	46	3	16	60.0	2	2	[(7217, 0), (737, 0)]
5689	72	5	8	80.0	2	2	[(3431, 0), (6408, 0)]
5695	3	2	8	60.0	2	0	[]
5696	3	6	8	60.0	2	4	[(1599, 2), (3647, 1), (8554, 1), (6142, 1)]
5698	8	12	2	60.0	2	1	[(4069, 2)]
5700	1	1	8	60.0	2	0	[]
5702	7	2	8	60.0	2	0	[]
5706	1	4	16	80.0	2	0	[]
5716	1	1	8	100.0	2	0	[]
5720	1	4	8	60.0	2	0	[]
5722	5	1	8	60.0	2	0	[]
5726	1	1	8	60.0	2	0	[]
5732	5	1	8	60.0	2	0	[]
5735	1	1	8	40.0	2	0	[]
5740	29	2	8	60.0	0	8	[(6381, 2), (4576, 0), (6564, 0), (8451, 0), (1793, 0), (77, 0), (846, 0), (147, 0)]
5741	2	1	8	60.0	2	0	[]
5744	1	12	8	60.0	2	0	[]
5760	1	1	8	60.0	2	0	[]
5761	1	1	8	60.0	2	0	[]
5764	14	3	8	60.0	2	0	[]
5778	2	2	8	60.0	2	2	[(7314, 0), (7276, 0)]
5786	2	1	8	60.0	2	0	[]
5788	2	1	8	60.0	2	0	[]
5793	2	1	8	60.0	2	0	[]
5796	1	1	8	60.0	2	0	[]
5797	2	11	16	100.0	2	0	[]
5799	1	8	16	150.0	2	0	[]
5806	1	1	2	60.0	2	0	[]
5807	7	1	2	100.0	2	0	[]
5817	2	1	8	60.0	2	0	[]
5819	1	1	3	60.0	2	0	[]
5826	6	1	8	60.0	2	1	[(7013, 2)]
5829	1	1	8	60.0	2	0	[]
5830	2	1	8	80.0	2	0	[]
5831	2	1	8	60.0	2	0	[]
5833	2	1	8	60.0	2	0	[]
5834	5	1	8	60.0	2	0	[]
5836	7	5	16	60.0	1	0	[]
5837	2	1	8	60.0	2	0	[]
5839	2	1	8	60.0	2	0	[]
5840	3	1	8	60.0	2	0	[]
5845	1	1	1	60.0	2	0	[]
5849	2	1	8	60.0	2	0	[]
5853	2	16	32	200.0	2	0	[]
5855	2	4	8	60.0	2	0	[]
5857	2	1	6	60.0	2	0	[]
5858	2	2	8	60.0	2	0	[]
5862	6	1	8	60.0	2	0	[]
5863	1	1	2	60.0	2	0	[]
5865	15	1	8	60.0	2	0	[]
5869	2	1	8	60.0	2	0	[]
5870	4	3	8	60.0	2	0	[]
5871	15	6	8	60.0	2	1	[(7445, 1)]
5873	5	7	16	60.0	2	0	[]
5874	1	1	8	60.0	2	0	[]
5875	3	1	8	60.0	2	0	[]
5879	2	2	8	60.0	2	1	[(6490, 4)]
5887	1	2	16	100.0	2	0	[]
5893	1	1	16	60.0	2	0	[]
5896	2	1	2	60.0	2	1	[(1515, 0)]
5898	3	1	8	60.0	2	0	[]
5899	1	2	8	60.0	2	0	[]
5901	5	1	8	60.0	2	0	[]
5905	149	12	32	100.0	2	28	[(9156, 0), (6683, 0), (2887, 0), (8451, 0), (7155, 0), (273, 1), (4994, 2), (6082, 1), (5366, 0), (5028, 0), (5363, 2), (7874, 0), (737, 2), (8162, 1), (3654, 0), (4661, 2), (6381, 2), (6060, 2), (9047, 0), (3928, 2), (5376, 0), (6429, 2), (9086, 0), (7217, 2), (3802, 0), (9031, 2), (7510, 0), (4710, 2)]
5911	1	4	8	60.0	2	0	[]
5912	2	1	7	60.0	2	0	[]
5914	23	12	2	60.0	2	2	[(3802, 0), (9077, 0)]
5919	3	4	8	60.0	2	0	[]
5922	7	2	8	60.0	2	1	[(4570, 0)]
5923	2	1	8	60.0	2	0	[]
5930	1	1	8	60.0	2	0	[]
5935	2	1	8	100.0	2	0	[]
5936	1	1	3	60.0	2	0	[]
5938	2	2	8	60.0	2	0	[]
5941	1	1	1	60.0	2	0	[]
5951	2	1	8	60.0	2	0	[]
5956	6	2	8	60.0	2	0	[]
5957	1	1	8	60.0	2	0	[]
5958	6	2	2	60.0	2	16	[(3802, 0), (9122, 0), (6067, 0), (3914, 0), (5965, 0), (7023, 0), (5071, 0), (3831, 0), (5286, 0), (685, 0), (2828, 0), (1778, 0), (34, 0), (6161, 0), (7067, 0), (6381, 0)]
5965	2	3	8	60.0	2	0	[]
5967	2	1	8	60.0	2	0	[]
5968	3	1	8	60.0	2	0	[]
5971	34	6	8	60.0	2	3	[(5527, 2), (8861, 2), (4904, 2)]
5983	5	1	8	40.0	2	0	[]
5991	4	1	8	40.0	2	0	[]
5992	1	1	8	100.0	2	0	[]
5994	1	1	8	60.0	2	0	[]
5997	10	1	8	60.0	2	0	[]
5998	1	1	2	60.0	2	0	[]
6002	1	1	8	60.0	2	0	[]
6003	5	1	8	40.0	2	0	[]
6009	1	1	1	60.0	2	0	[]
6021	12	3	8	60.0	2	0	[]
6025	19	1	8	40.0	0	5	[(7217, 0), (7092, 0), (6481, 0), (1788, 1), (234, 0)]
6030	1	1	8	60.0	2	0	[]
6038	6	6	8	60.0	2	1	[(7749, 0)]
6042	2	2	8	60.0	2	0	[]
6043	1	1	1	60.0	2	0	[]
6045	2	1	8	60.0	2	0	[]
6052	4	1	2	60.0	2	0	[]
6053	1	1	8	60.0	2	0	[]
6060	1	2	16	60.0	1	13	[(6082, 1), (7217, 2), (9031, 2), (273, 2), (8834, 2), (3928, 2), (6429, 2), (737, 2), (5905, 2), (6683, 2), (4630, 2), (8162, 1), (4710, 2)]
6062	9	2	3	80.0	2	0	[]
6063	2	1	7	60.0	2	0	[]
6064	2	1	8	60.0	2	0	[]
6067	17	3	8	60.0	2	0	[]
6070	2	1	8	60.0	2	0	[]
6074	14	5	2	60.0	2	0	[]
6075	8	2	8	60.0	2	0	[]
6078	14	1	8	60.0	2	0	[]
6082	1	5	16	60.0	2	16	[(4661, 2), (7217, 2), (5363, 2), (9031, 3), (6381, 2), (273, 2), (8834, 3), (4994, 2), (3928, 3), (6429, 3), (737, 3), (5905, 3), (6683, 3), (4630, 3), (6060, 2), (4710, 2)]
6084	1	1	3	60.0	2	0	[]
6087	1	4	8	60.0	2	0	[]
6090	2	1	1	60.0	2	0	[]
6092	1	1	8	60.0	2	0	[]
6095	17	3	16	200.0	2	0	[]
6101	2	1	8	60.0	2	0	[]
6103	17	6	8	60.0	2	0	[]
6108	8	3	8	60.0	2	0	[]
6110	6	1	8	60.0	2	0	[]
6112	2	1	2	60.0	2	0	[]
6113	2	1	6	60.0	2	0	[]
6114	1	1	2	60.0	2	0	[]
6118	2	2	8	60.0	2	0	[]
6123	138	6	8	60.0	2	9	[(6694, 0), (3831, 1), (7259, 1), (6148, 0), (5689, 0), (2627, 1), (5589, 2), (5905, 0), (8016, 1)]
6129	10	2	8	60.0	2	0	[]
6130	2	1	8	60.0	2	0	[]
6131	1	2	8	60.0	2	0	[]
6133	3	1	8	60.0	2	0	[]
6134	4	1	8	60.0	2	0	[]
6135	1	1	8	60.0	2	0	[]
6138	1	1	8	60.0	2	0	[]
6142	1	1	1	60.0	2	0	[]
6143	3	1	8	60.0	2	0	[]
6145	10	5	8	60.0	2	0	[]
6148	2	12	16	80.0	2	0	[]
6150	5	1	8	60.0	2	1	[(4802, 1)]
6154	1	4	8	60.0	2	0	[]
6156	2	1	8	60.0	2	0	[]
6159	1	4	8	60.0	2	0	[]
6161	9	1	8	40.0	2	0	[]
6162	5	1	2	300.0	2	0	[]
6164	1	4	8	60.0	2	0	[]
6169	1	4	8	60.0	2	0	[]
6174	2	4	8	60.0	2	0	[]
6178	2	1	8	60.0	2	0	[]
6187	3	1	8	60.0	2	0	[]
6189	2	1	8	60.0	2	0	[]
6192	2	6	8	60.0	2	0	[]
6193	1	1	1	60.0	2	0	[]
6194	1	1	8	60.0	2	0	[]
6197	3	1	8	60.0	2	0	[]
6202	1	1	8	60.0	2	0	[]
6206	1	3	8	60.0	2	0	[]
6210	2	2	8	60.0	2	0	[]
6212	5	1	8	60.0	2	0	[]
6218	4	1	16	200.0	2	0	[]
6220	3	1	8	60.0	2	0	[]
6225	2	1	8	60.0	2	0	[]
6226	10	6	8	60.0	2	1	[(3329, 0)]
6227	4	6	8	60.0	2	0	[]
6229	1	1	1	60.0	2	0	[]
6231	4	4	8	60.0	2	0	[]
6234	12	1	8	60.0	2	0	[]
6246	5	1	8	60.0	2	0	[]
6247	2	1	8	60.0	2	0	[]
6250	36	3	16	40.0	2	1	[(7217, 0)]
6251	14	8	16	200.0	2	0	[]
6252	1	1	8	60.0	2	0	[]
6253	2	1	8	60.0	2	0	[]
6254	1	1	8	60.0	2	0	[]
6256	15	3	8	60.0	2	4	[(5366, 0), (4541, 2), (4129, 0), (725, 0)]
6260	1	1	1	60.0	2	0	[]
6262	2	1	8	60.0	2	0	[]
6267	3	2	1	100.0	2	0	[]
6272	2	1	1	60.0	2	0	[]
6277	1	1	8	60.0	2	0	[]
6279	1	4	8	60.0	2	0	[]
6280	3	5	8	60.0	2	0	[]
6281	2	1	1	60.0	2	0	[]
6288	15	2	8	60.0	2	1	[(7597, 1)]
6289	2	1	8	60.0	2	0	[]
6291	2	1	8	60.0	2	0	[]
6294	1	4	8	60.0	2	0	[]
6299	1	1	2	60.0	2	0	[]
6302	2	1	5	60.0	2	0	[]
6304	10	2	8	60.0	0	2	[(3654, 0), (615, 0)]
6305	4	1	8	60.0	2	1	[(9052, 2)]
6308	2	1	8	60.0	2	0	[]
6315	1	4	8	60.0	2	0	[]
6316	2	4	8	60.0	2	0	[]
6317	13	1	8	60.0	2	1	[(2662, 0)]
6319	2	1	8	60.0	2	0	[]
6324	1	1	1	60.0	2	0	[]
6330	1	4	8	60.0	2	0	[]
6331	2	1	8	60.0	2	0	[]
6333	1	1	8	60.0	2	0	[]
6351	2	1	1	60.0	2	0	[]
6361	2	1	2	60.0	2	0	[]
6365	7	1	8	60.0	2	0	[]
6375	10	3	8	100.0	2	0	[]
6378	2	1	8	60.0	2	0	[]
6381	282	12	16	60.0	1	20	[(9156, 0), (6683, 2), (226, 0), (273, 2), (8834, 2), (6082, 1), (5363, 0), (4421, 0), (737, 2), (5905, 2), (4630, 2), (8162, 1), (2246, 0), (8739, 0), (8822, 0), (3928, 2), (6429, 2), (7217, 2), (9031, 2), (4710, 2)]
6383	1	4	8	60.0	2	0	[]
6384	3	1	8	100.0	2	0	[]
6387	1	1	8	60.0	2	0	[]
6390	1	8	16	60.0	2	0	[]
6395	1	1	8	60.0	2	0	[]
6396	1	6	4	60.0	2	0	[]
6398	6	4	8	60.0	2	1	[(2710, 0)]
6400	4	1	8	60.0	2	0	[]
6408	10	2	16	60.0	2	0	[]
6410	2	1	8	60.0	2	0	[]
6412	2	1	8	60.0	2	0	[]
6413	1	1	8	60.0	2	0	[]
6416	9	2	8	60.0	2	5	[(8822, 1), (1599, 2), (3654, 2), (7155, 1), (5619, 2)]
6425	1	1	8	60.0	2	0	[]
6429	2	4	32	60.0	2	13	[(4661, 2), (7217, 2), (5363, 2), (6381, 2), (4994, 2), (273, 1), (8834, 2), (5905, 2), (4630, 2), (8162, 1), (6082, 1), (6060, 2), (4710, 2)]
6432	4	1	8	60.0	2	0	[]
6434	5	1	8	60.0	2	2	[(5608, 2), (1502, 2)]
6443	2	1	8	40.0	2	0	[]
6444	3	3	3	60.0	2	0	[]
6455	94	4	8	60.0	0	11	[(3654, 0), (5689, 0), (516, 0), (7935, 0), (9301, 0), (1144, 0), (6250, 0), (5764, 1), (9047, 0), (6694, 0), (147, 0)]
6465	1	4	8	60.0	2	0	[]
6469	2	1	8	60.0	2	0	[]
6477	14	1	8	100.0	2	0	[]
6481	5	2	8	60.0	2	0	[]
6486	15	4	8	60.0	2	0	[]
6490	3	1	8	60.0	3	2	[(5879, 3), (147, 3)]
6493	2	1	2	60.0	2	0	[]
6494	3	1	8	60.0	2	0	[]
6496	3	1	8	60.0	2	0	[]
6497	1	1	8	60.0	2	0	[]
6507	4	1	8	60.0	2	0	[]
6508	2	2	8	60.0	2	2	[(1647, 0), (7947, 0)]
6513	2	1	8	60.0	2	0	[]
6514	24	3	8	60.0	2	2	[(5272, 2), (817, 2)]
6516	2	1	8	60.0	2	0	[]
6517	1	1	2	60.0	2	0	[]
6521	3	1	8	60.0	2	0	[]
6524	1	1	8	60.0	2	0	[]
6525	1	1	8	60.0	2	0	[]
6526	2	4	8	60.0	2	0	[]
6537	1	1	8	60.0	2	0	[]
6542	1	1	1	40.0	0	0	[]
6543	1	4	8	60.0	2	0	[]
6545	4	2	8	60.0	2	0	[]
6547	1	1	8	60.0	2	0	[]
6553	4	1	8	60.0	2	0	[]
6554	5	2	8	60.0	2	0	[]
6555	2	4	8	80.0	2	0	[]
6559	2	5	8	60.0	2	0	[]
6564	43	4	8	40.0	0	1	[(5740, 0)]
6566	1	1	1	60.0	2	0	[]
6579	2	1	4	60.0	2	0	[]
6582	2	1	8	60.0	2	0	[]
6592	2	4	8	60.0	2	0	[]
6596	2	2	8	60.0	2	0	[]
6597	108	12	8	100.0	2	2	[(976, 0), (9057, 0)]
6601	1	4	8	60.0	2	0	[]
6602	2	1	2	60.0	2	1	[(8690, 2)]
6603	1	1	2	60.0	2	0	[]
6609	2	1	1	80.0	2	0	[]
6615	1	6	8	60.0	2	0	[]
6616	1	1	8	60.0	2	0	[]
6623	2	2	8	60.0	2	0	[]
6625	2	1	8	60.0	2	0	[]
6626	24	6	8	60.0	2	1	[(4096, 0)]
6627	2	2	8	60.0	2	0	[]
6630	1	1	4	60.0	2	0	[]
6632	1	1	2	60.0	2	0	[]
6634	2	1	2	60.0	2	0	[]
6646	2	2	8	60.0	2	0	[]
6654	5	1	8	60.0	2	0	[]
6656	6	2	8	60.0	2	0	[]
6658	1	1	2	60.0	2	0	[]
6663	7	3	2	60.0	2	0	[]
6666	2	1	4	60.0	2	0	[]
6668	1	1	1	60.0	2	0	[]
6681	4	1	8	60.0	2	0	[]
6683	153	12	32	60.0	2	18	[(4661, 2), (5366, 0), (9269, 0), (7217, 2), (5363, 2), (1405, 0), (6381, 2), (4994, 2), (3654, 0), (4576, 0), (273, 1), (8834, 2), (5905, 0), (4630, 2), (8162, 1), (6082, 1), (6060, 2), (4710, 2)]
6694	70	5	16	200.0	2	0	[]
6696	1	1	8	60.0	2	0	[]
6700	3	1	8	60.0	2	0	[]
6704	2	1	8	60.0	2	0	[]
6711	14	6	8	60.0	2	2	[(7947, 2), (1576, 0)]
6712	1	1	8	60.0	2	0	[]
6718	2	1	2	60.0	2	0	[]
6721	2	3	8	60.0	2	0	[]
6722	2	1	2	60.0	2	0	[]
6724	2	1	7	60.0	2	0	[]
6725	28	6	8	100.0	2	5	[(6074, 2), (2504, 2), (8950, 1), (1525, 2), (4562, 1)]
6727	1	4	8	60.0	2	0	[]
6733	4	1	8	60.0	2	0	[]
6744	31	3	8	60.0	2	1	[(4007, 0)]
6746	2	1	8	60.0	2	0	[]
6747	1	1	8	40.0	2	0	[]
6750	21	4	8	40.0	2	2	[(7217, 0), (6381, 0)]
6751	1	1	1	60.0	2	0	[]
6755	2	1	8	60.0	2	0	[]
6759	2	4	8	60.0	2	0	[]
6760	3	3	8	60.0	2	0	[]
6762	6	1	8	60.0	2	0	[]
6763	4	1	6	60.0	2	0	[]
6766	2	1	8	60.0	2	0	[]
6768	4	1	8	60.0	2	0	[]
6774	3	1	8	60.0	2	0	[]
6775	4	1	2	100.0	2	0	[]
6777	1	1	8	60.0	2	0	[]
6778	1	4	8	60.0	2	0	[]
6786	2	1	6	60.0	2	0	[]
6792	3	1	8	60.0	2	0	[]
6799	2	1	1	60.0	2	0	[]
6800	2	3	8	60.0	2	0	[]
6801	3	2	8	60.0	2	0	[]
6803	2	4	8	60.0	2	1	[(8384, 2)]
6816	2	1	8	60.0	2	0	[]
6820	6	2	32	80.0	2	0	[]
6829	2	1	8	60.0	2	0	[]
6833	2	2	8	60.0	2	0	[]
6834	5	1	8	80.0	2	0	[]
6841	5	2	8	60.0	2	0	[]
6845	2	4	8	60.0	2	0	[]
6849	1	1	8	60.0	2	0	[]
6851	2	1	8	60.0	2	0	[]
6856	2	1	8	60.0	2	0	[]
6866	1	1	8	60.0	2	0	[]
6868	1	1	8	60.0	2	0	[]
6869	2	2	8	60.0	2	0	[]
6870	5	1	8	60.0	2	0	[]
6881	3	1	8	60.0	2	0	[]
6885	2	1	4	60.0	2	0	[]
6894	2	2	8	60.0	2	0	[]
6902	4	3	8	60.0	2	0	[]
6904	2	1	1	60.0	2	0	[]
6908	2	1	8	60.0	2	0	[]
6912	8	2	2	60.0	2	1	[(7710, 0)]
6913	4	6	6	60.0	2	0	[]
6915	1	1	16	60.0	2	0	[]
6916	23	2	8	80.0	2	0	[]
6924	1	1	2	60.0	2	0	[]
6925	1	1	7	60.0	2	0	[]
6933	2	1	8	60.0	2	0	[]
6944	2	1	8	60.0	2	0	[]
6949	1	1	3	60.0	2	0	[]
6951	2	1	2	60.0	2	0	[]
6952	1	1	8	60.0	2	0	[]
6953	2	1	8	60.0	2	0	[]
6954	2	1	8	60.0	2	0	[]
6956	2	3	8	60.0	2	0	[]
6971	2	2	8	60.0	2	0	[]
6974	2	1	8	60.0	2	0	[]
6980	1	1	2	60.0	2	0	[]
6982	2	1	8	60.0	2	0	[]
6986	1	1	8	60.0	2	0	[]
6988	1	1	8	60.0	2	0	[]
6998	1	1	8	60.0	2	0	[]
7001	224	4	8	60.0	2	3	[(459, 1), (4449, 2), (6980, 0)]
7011	1	1	8	60.0	2	0	[]
7013	6	6	8	60.0	2	0	[]
7017	2	1	8	60.0	2	0	[]
7019	3	6	8	60.0	2	0	[]
7020	2	1	8	60.0	2	0	[]
7021	2	1	1	60.0	2	0	[]
7022	1	1	8	60.0	2	1	[(4376, 1)]
7023	2	2	8	60.0	2	0	[]
7029	2	1	8	60.0	2	0	[]
7034	1	4	8	60.0	2	0	[]
7042	2	1	8	60.0	2	0	[]
7044	2	1	8	60.0	2	0	[]
7048	1	1	12	200.0	1	0	[]
7049	1	1	8	60.0	2	0	[]
7055	16	12	12	60.0	2	4	[(4086, 1), (5898, 1), (2079, 2), (2837, 2)]
7057	1	4	8	60.0	2	0	[]
7062	4	1	8	60.0	2	0	[]
7064	11	5	8	60.0	2	0	[]
7067	396	12	12	60.0	2	27	[(516, 0), (3136, 0), (4858, 2), (1855, 0), (3252, 0), (9301, 0), (7763, 0), (7874, 2), (6250, 0), (737, 0), (5905, 0), (147, 0), (3982, 0), (3654, 0), (401, 0), (945, 0), (6381, 0), (8822, 0), (9047, 0), (1405, 0), (9122, 0), (8410, 0), (6694, 0), (4704, 0), (9138, 0), (4749, 0), (5689, 0)]
7071	16	2	8	60.0	2	0	[]
7074	8	1	1	80.0	2	0	[]
7077	2	1	8	60.0	2	0	[]
7078	2	4	8	60.0	2	0	[]
7079	2	5	8	60.0	2	0	[]
7081	2	1	8	60.0	2	0	[]
7082	1	1	8	60.0	2	0	[]
7084	1	3	16	100.0	2	0	[]
7086	2	1	8	60.0	2	0	[]
7092	6	2	8	60.0	2	2	[(9127, 0), (6025, 0)]
7095	3	4	8	60.0	2	1	[(7471, 2)]
7097	1	1	8	60.0	2	0	[]
7098	13	2	16	80.0	2	0	[]
7099	1	1	8	60.0	2	0	[]
7100	4	1	8	60.0	2	0	[]
7104	2	1	8	60.0	2	0	[]
7107	2	3	8	60.0	2	0	[]
7112	3	4	2	60.0	2	0	[]
7114	15	6	8	60.0	2	0	[]
7129	1	1	2	60.0	2	0	[]
7130	2	1	2	60.0	2	0	[]
7136	2	1	8	60.0	2	0	[]
7137	2	4	8	60.0	2	0	[]
7140	2	2	8	60.0	2	0	[]
7147	2	1	16	80.0	2	0	[]
7154	19	3	8	60.0	0	0	[]
7155	43	1	8	40.0	2	3	[(9047, 0), (9127, 0), (3654, 0)]
7160	1	1	2	100.0	2	0	[]
7173	1	4	8	60.0	2	0	[]
7174	4	1	8	60.0	2	0	[]
7179	2	1	8	60.0	2	0	[]
7181	8	3	8	60.0	2	0	[]
7182	3	1	10	80.0	2	0	[]
7195	2	1	8	60.0	2	0	[]
7196	36	2	8	60.0	2	4	[(5028, 0), (4732, 0), (8822, 0), (4797, 0)]
7197	2	1	8	60.0	2	0	[]
7202	2	1	8	60.0	2	0	[]
7217	85	12	16	60.0	2	18	[(2853, 0), (4661, 3), (5177, 0), (6683, 2), (5363, 3), (292, 0), (9031, 2), (6381, 3), (273, 2), (8834, 2), (4994, 3), (3928, 2), (6429, 2), (188, 0), (737, 2), (5905, 2), (4630, 2), (6060, 3)]
7222	12	1	8	60.0	2	0	[]
7226	2	1	8	60.0	2	0	[]
7230	2	3	8	60.0	2	0	[]
7234	2	1	8	60.0	2	0	[]
7236	7	1	8	60.0	2	0	[]
7239	2	1	8	60.0	2	0	[]
7241	1	1	8	60.0	2	0	[]
7248	5	2	8	60.0	2	0	[]
7249	6	2	8	100.0	2	0	[]
7254	1	4	8	60.0	2	0	[]
7257	2	1	8	60.0	2	0	[]
7259	2	1	2	60.0	2	1	[(6123, 1)]
7269	1	1	2	60.0	2	0	[]
7271	3	1	2	60.0	2	0	[]
7274	2	1	8	60.0	2	0	[]
7275	1	1	5	60.0	2	0	[]
7276	2	1	8	60.0	2	1	[(7314, 0)]
7278	4	1	8	60.0	2	0	[]
7284	1	4	8	60.0	2	0	[]
7293	1	1	1	60.0	2	0	[]
7294	1	1	8	60.0	2	0	[]
7296	1	1	2	60.0	2	0	[]
7298	2	1	8	60.0	2	0	[]
7305	1	4	8	80.0	2	0	[]
7306	1	4	8	60.0	2	0	[]
7310	3	1	8	80.0	2	2	[(4068, 2), (8564, 1)]
7314	1	1	8	60.0	2	1	[(7276, 0)]
7315	6	2	8	60.0	2	0	[]
7326	5	1	8	60.0	2	0	[]
7328	1	1	8	60.0	2	0	[]
7332	6	1	1	80.0	2	0	[]
7334	1	1	8	60.0	2	0	[]
7335	1	2	8	60.0	2	0	[]
7337	3	2	8	60.0	2	0	[]
7349	1	1	1	60.0	2	0	[]
7352	2	5	8	60.0	2	0	[]
7354	4	1	8	60.0	2	0	[]
7355	14	6	8	60.0	2	0	[]
7364	3	1	8	80.0	2	0	[]
7365	1	2	8	40.0	2	0	[]
7367	6	1	8	60.0	2	2	[(3654, 0), (5689, 0)]
7377	5	1	8	60.0	2	0	[]
7383	2	1	8	60.0	2	0	[]
7384	1	1	8	60.0	2	0	[]
7386	5	1	8	60.0	2	0	[]
7389	1	1	2	60.0	2	0	[]
7395	2	1	8	60.0	2	0	[]
7400	4	1	8	60.0	2	0	[]
7402	5	2	8	60.0	2	0	[]
7406	4	6	8	60.0	2	0	[]
7410	13	2	2	60.0	2	0	[]
7415	1	4	8	60.0	2	0	[]
7416	3	1	8	60.0	2	1	[(753, 1)]
7424	1	1	8	60.0	2	0	[]
7430	2	1	8	60.0	2	0	[]
7435	1	2	8	60.0	2	0	[]
7442	1	4	8	60.0	2	2	[(8251, 2), (5168, 2)]
7445	4	1	8	60.0	2	0	[]
7446	5	3	8	60.0	2	21	[(8028, 0), (9259, 0), (1278, 1), (1449, 0), (1103, 0), (8819, 0), (1163, 0), (636, 0), (5479, 0), (2601, 0), (3346, 0), (3314, 0), (3747, 0), (3359, 0), (1829, 0), (7074, 0), (8149, 0), (2784, 0), (4428, 0), (3094, 0), (8664, 0)]
7448	23	3	8	40.0	2	1	[(3654, 0)]
7450	1	1	1	60.0	2	0	[]
7460	2	1	8	60.0	2	0	[]
7462	1	1	8	60.0	2	0	[]
7463	3	1	8	60.0	2	0	[]
7464	2	1	8	60.0	2	0	[]
7467	6	1	8	60.0	2	0	[]
7471	3	1	8	60.0	2	0	[]
7473	3	1	8	60.0	2	0	[]
7481	7	6	8	60.0	2	2	[(459, 2), (3921, 1)]
7487	1	1	2	60.0	2	0	[]
7488	1	1	1	60.0	2	0	[]
7489	2	1	8	60.0	2	0	[]
7495	1	2	8	60.0	2	0	[]
7501	1	4	8	60.0	2	0	[]
7510	3	1	4	60.0	2	0	[]
7511	19	1	8	60.0	2	1	[(3654, 0)]
7520	4	11	16	200.0	2	0	[]
7524	10	3	8	60.0	2	0	[]
7526	1	4	8	60.0	2	0	[]
7529	2	1	8	60.0	2	0	[]
7534	2	1	8	60.0	2	0	[]
7536	1	1	8	60.0	2	0	[]
7538	3	2	8	60.0	2	1	[(6408, 0)]
7542	2	1	8	60.0	2	0	[]
7546	2	1	8	60.0	2	0	[]
7547	1	1	8	60.0	2	0	[]
7550	1	1	8	60.0	2	0	[]
7556	2	1	8	60.0	2	0	[]
7558	2	1	8	60.0	2	0	[]
7559	8	1	8	60.0	2	0	[]
7564	5	3	8	60.0	2	0	[]
7567	1	1	8	60.0	2	0	[]
7570	2	1	8	60.0	2	0	[]
7579	1	1	8	60.0	2	0	[]
7580	1	4	8	60.0	2	0	[]
7582	1	1	8	60.0	2	0	[]
7586	5	1	8	80.0	2	0	[]
7590	2	3	8	60.0	2	0	[]
7591	4	1	8	60.0	2	0	[]
7594	2	5	16	60.0	2	0	[]
7597	2	1	2	60.0	2	0	[]
7602	4	1	8	60.0	2	0	[]
7606	2	1	16	40.0	2	1	[(6408, 0)]
7611	1	11	128	600.0	2	0	[]
7615	2	2	8	60.0	2	0	[]
7618	1	1	2	200.0	2	0	[]
7619	7	1	8	60.0	2	0	[]
7622	39	3	8	60.0	2	2	[(4449, 1), (4619, 2)]
7629	2	4	16	80.0	2	0	[]
7630	2	1	8	60.0	2	0	[]
7631	1	1	8	60.0	2	0	[]
7632	2	1	2	60.0	2	0	[]
7634	2	3	5	60.0	2	0	[]
7635	2	2	8	60.0	2	0	[]
7644	2	2	7	150.0	2	0	[]
7652	9	2	8	60.0	2	0	[]
7653	1	4	8	60.0	2	0	[]
7655	3	1	8	60.0	2	0	[]
7659	3	1	8	60.0	2	0	[]
7668	1	1	8	60.0	2	0	[]
7670	2	1	8	60.0	2	0	[]
7671	2	2	8	60.0	2	2	[(1547, 0), (3722, 0)]
7672	2	1	8	60.0	2	1	[(580, 2)]
7673	3	1	8	60.0	2	0	[]
7680	2	2	8	60.0	2	0	[]
7688	2	1	8	60.0	2	0	[]
7690	2	1	8	60.0	2	0	[]
7692	3	1	8	80.0	2	0	[]
7693	2	4	8	60.0	2	0	[]
7695	2	2	8	60.0	2	0	[]
7696	1	1	2	60.0	2	0	[]
7700	67	21	48	300.0	2	0	[]
7702	1	1	8	60.0	2	0	[]
7705	1	1	8	60.0	2	0	[]
7706	7	6	7	60.0	2	0	[]
7710	2	1	8	60.0	2	0	[]
7719	3	2	8	60.0	2	0	[]
7721	1	1	8	60.0	2	0	[]
7726	2	1	8	60.0	2	0	[]
7727	4	6	8	60.0	2	0	[]
7735	8	2	8	60.0	2	0	[]
7736	10	4	8	60.0	2	0	[]
7740	12	6	8	60.0	2	3	[(3070, 2), (6694, 2), (2129, 1)]
7742	2	1	8	60.0	2	0	[]
7745	2	1	8	60.0	2	0	[]
7746	1	1	1	60.0	2	0	[]
7749	2	1	8	60.0	2	0	[]
7751	1	1	8	60.0	2	0	[]
7752	2	1	8	60.0	2	0	[]
7755	1	1	8	60.0	2	0	[]
7758	7	1	8	60.0	2	0	[]
7763	1	1	8	60.0	2	1	[(7067, 0)]
7768	7	4	8	60.0	2	0	[]
7773	5	1	8	60.0	2	0	[]
7779	1	4	8	60.0	2	0	[]
7784	4	1	8	60.0	2	0	[]
7787	1	1	16	60.0	2	0	[]
7788	1	1	8	60.0	2	0	[]
7792	14	2	8	60.0	2	0	[]
7793	6	1	8	60.0	2	0	[]
7806	2	1	6	60.0	2	0	[]
7807	1	1	8	60.0	2	0	[]
7808	6	1	8	60.0	2	0	[]
7812	2	1	8	60.0	2	0	[]
7815	2	1	8	60.0	2	0	[]
7817	1	1	8	60.0	2	0	[]
7819	1	1	2	60.0	2	0	[]
7822	9	6	16	80.0	2	0	[]
7823	3	1	8	60.0	2	0	[]
7830	3	1	8	60.0	2	0	[]
7832	3	2	8	60.0	2	0	[]
7840	2	1	8	60.0	2	0	[]
7841	2	1	8	60.0	2	0	[]
7842	3	2	8	60.0	2	1	[(234, 1)]
7845	6	1	8	60.0	2	0	[]
7853	22	1	8	60.0	2	3	[(2653, 2), (7248, 1), (1702, 1)]
7854	1	2	8	60.0	2	0	[]
7857	3	1	8	60.0	2	0	[]
7858	2	2	8	60.0	2	0	[]
7865	1	1	8	60.0	2	0	[]
7867	2	1	7	60.0	2	0	[]
7870	4	2	8	80.0	2	0	[]
7874	20	6	8	100.0	2	1	[(8776, 1)]
7875	2	4	8	60.0	2	0	[]
7878	1	2	8	60.0	2	0	[]
7881	2	1	8	60.0	2	0	[]
7882	2	1	8	100.0	2	0	[]
7884	1	1	1	60.0	2	0	[]
7887	16	2	8	60.0	2	1	[(955, 0)]
7890	3	2	8	60.0	2	0	[]
7891	3	1	8	100.0	2	0	[]
7893	1	2	8	60.0	2	3	[(7556, 0), (3004, 0), (5661, 0)]
7901	1	1	6	60.0	2	0	[]
7905	6	1	8	60.0	2	0	[]
7906	1	1	8	60.0	2	0	[]
7907	2	2	8	60.0	2	0	[]
7909	1	2	8	60.0	2	0	[]
7919	27	4	8	60.0	2	1	[(2069, 1)]
7920	2	1	8	60.0	2	0	[]
7926	2	2	8	60.0	2	0	[]
7927	6	1	8	60.0	2	0	[]
7929	1	1	8	60.0	2	0	[]
7932	10	1	8	60.0	2	52	[(1438, 0), (725, 0), (3907, 0), (7919, 0), (9110, 0), (1144, 0), (6925, 0), (7064, 0), (6870, 0), (7808, 0), (7222, 0), (2784, 0), (368, 0), (4129, 0), (2831, 0), (3885, 0), (6553, 0), (8950, 0), (6375, 0), (7524, 0), (1757, 0), (8068, 0), (1449, 0), (7077, 0), (4978, 0), (961, 0), (8356, 0), (1418, 0), (4058, 0), (4949, 0), (6744, 0), (8700, 0), (3054, 0), (3578, 0), (2937, 0), (4071, 0), (3561, 1), (5912, 0), (8996, 0), (4606, 0), (5220, 0), (8793, 0), (6112, 0), (2618, 0), (6829, 0), (3686, 0), (7652, 0), (6164, 0), (4114, 0), (8073, 0), (6075, 0), (5722, 0)]
7935	175	4	16	100.0	2	1	[(8822, 0)]
7936	2	1	8	60.0	2	0	[]
7940	4	1	8	60.0	2	0	[]
7941	1	1	2	60.0	2	0	[]
7942	7	1	8	60.0	2	0	[]
7946	2	1	8	60.0	2	0	[]
7947	4	1	8	60.0	2	0	[]
7948	2	1	8	60.0	2	1	[(6281, 2)]
7952	1	1	8	60.0	2	0	[]
7953	1	1	8	60.0	2	0	[]
7961	3	1	8	60.0	2	0	[]
7963	90	2	8	60.0	2	4	[(7019, 1), (6711, 1), (7402, 2), (1546, 0)]
7967	2	1	1	60.0	2	0	[]
7970	30	1	8	40.0	2	1	[(6381, 2)]
7973	2	1	7	60.0	2	0	[]
7978	2	2	1	60.0	2	0	[]
7981	3	8	16	200.0	2	0	[]
7982	2	1	8	60.0	2	0	[]
7983	1	1	1	60.0	2	0	[]
7987	7	2	8	60.0	2	0	[]
8016	1	1	8	60.0	2	0	[]
8023	3	2	8	60.0	2	0	[]
8024	1	1	5	60.0	2	0	[]
8025	1	1	1	60.0	2	0	[]
8026	2	1	8	60.0	2	0	[]
8028	26	5	8	60.0	2	1	[(7935, 2)]
8031	2	1	8	60.0	2	0	[]
8036	2	1	8	60.0	2	0	[]
8038	3	3	8	60.0	2	0	[]
8039	1	1	1	60.0	2	0	[]
8047	2	1	2	100.0	2	0	[]
8055	2	2	8	60.0	2	0	[]
8058	2	1	2	60.0	2	0	[]
8065	2	4	8	60.0	2	0	[]
8068	2	1	3	60.0	2	0	[]
8071	1	1	2	60.0	2	0	[]
8072	4	1	8	60.0	2	0	[]
8073	6	2	8	60.0	2	0	[]
8075	3	1	8	60.0	2	0	[]
8076	4	2	16	100.0	2	0	[]
8078	1	1	8	60.0	2	0	[]
8083	1	1	8	80.0	2	0	[]
8085	6	1	8	60.0	2	0	[]
8087	1	1	4	60.0	2	0	[]
8088	2	1	8	60.0	2	0	[]
8092	1	4	8	60.0	2	0	[]
8093	1	1	2	60.0	2	0	[]
8097	2	2	8	60.0	2	0	[]
8104	3	1	8	60.0	2	0	[]
8105	2	4	8	60.0	2	0	[]
8106	36	2	8	60.0	2	10	[(945, 0), (2887, 1), (3654, 0), (9077, 0), (3469, 1), (6381, 0), (4749, 0), (1405, 0), (147, 0), (4911, 2)]
8107	2	1	8	60.0	2	0	[]
8108	1	1	8	60.0	2	0	[]
8111	2	1	8	60.0	2	0	[]
8114	3	1	8	60.0	2	0	[]
8123	2	1	8	60.0	2	0	[]
8124	6	6	8	60.0	2	1	[(4941, 2)]
8129	10	6	8	60.0	2	0	[]
8132	10	5	8	60.0	2	0	[]
8138	100	6	8	60.0	2	8	[(3831, 2), (8822, 0), (1559, 2), (8955, 2), (3455, 2), (6408, 0), (3144, 2), (147, 0)]
8139	28	6	8	60.0	2	0	[]
8140	4	1	8	60.0	2	0	[]
8142	6	1	8	60.0	2	0	[]
8144	103	6	8	60.0	2	1	[(4736, 1)]
8146	3	1	8	60.0	2	0	[]
8148	23	3	8	60.0	2	0	[]
8149	4	1	4	60.0	2	0	[]
8150	2	4	8	60.0	2	0	[]
8151	5	1	8	60.0	2	0	[]
8152	5	1	8	60.0	2	0	[]
8153	3	1	8	60.0	2	0	[]
8156	2	2	16	100.0	2	0	[]
8159	2	1	8	60.0	2	0	[]
8160	1	4	8	60.0	2	0	[]
8161	2	1	8	60.0	2	0	[]
8162	1	2	16	60.0	2	16	[(4661, 2), (7217, 2), (5363, 2), (9031, 3), (6381, 2), (273, 2), (8834, 3), (4994, 2), (3928, 3), (6429, 3), (737, 3), (5905, 3), (6683, 3), (4630, 3), (6060, 2), (4710, 2)]
8163	1	4	8	60.0	2	0	[]
8168	12	3	8	60.0	2	0	[]
8171	5	3	24	60.0	2	0	[]
8173	2	1	3	60.0	2	0	[]
8176	2	1	8	60.0	2	0	[]
8181	1	1	8	60.0	2	0	[]
8183	1	1	8	60.0	2	0	[]
8191	110	6	8	40.0	2	2	[(2769, 1), (5112, 1)]
8196	2	1	8	60.0	2	0	[]
8197	4	1	8	80.0	2	0	[]
8198	4	2	8	60.0	2	0	[]
8207	3	1	8	60.0	2	0	[]
8213	2	1	8	100.0	2	0	[]
8214	1	4	8	60.0	2	0	[]
8215	6	2	8	60.0	2	0	[]
8219	4	1	8	60.0	2	0	[]
8220	2	1	8	60.0	2	0	[]
8222	2	1	2	60.0	2	0	[]
8224	1	1	8	60.0	2	0	[]
8233	1	1	8	60.0	2	0	[]
8234	1	1	8	60.0	2	0	[]
8246	3	1	8	60.0	2	0	[]
8250	2	1	8	60.0	2	0	[]
8251	3	5	8	60.0	2	1	[(4541, 2)]
8253	12	2	8	60.0	2	0	[]
8256	1	1	7	60.0	2	0	[]
8263	3	1	8	60.0	2	0	[]
8275	1	8	16	200.0	2	0	[]
8279	2	1	8	60.0	2	0	[]
8281	6	1	8	60.0	2	0	[]
8306	2	1	8	60.0	2	0	[]
8307	1	1	16	60.0	2	0	[]
8313	10	1	8	60.0	2	1	[(1952, 0)]
8315	8	1	8	60.0	2	0	[]
8316	2	1	18	100.0	2	0	[]
8317	1	6	8	60.0	2	0	[]
8319	2	1	8	60.0	2	0	[]
8323	1	1	1	60.0	2	0	[]
8327	2	1	8	60.0	2	0	[]
8329	2	1	7	60.0	2	0	[]
8333	10	2	16	80.0	2	3	[(5965, 2), (3861, 0), (2668, 0)]
8334	1	4	8	60.0	2	0	[]
8338	6	1	2	100.0	2	0	[]
8346	2	2	8	60.0	2	0	[]
8348	2	1	8	60.0	2	0	[]
8351	1	1	8	60.0	2	0	[]
8353	4	1	3	60.0	2	0	[]
8354	2	1	5	60.0	2	0	[]
8356	2	1	8	60.0	2	0	[]
8358	1	1	8	60.0	2	0	[]
8379	4	2	8	60.0	2	0	[]
8382	1	1	2	60.0	2	0	[]
8384	2	1	2	60.0	2	1	[(3490, 1)]
8385	2	5	8	60.0	2	0	[]
8387	1	1	1	60.0	2	0	[]
8390	1	1	8	60.0	2	0	[]
8392	22	6	8	80.0	2	1	[(1810, 1)]
8398	1	1	2	60.0	2	0	[]
8401	1	1	8	60.0	2	0	[]
8402	2	1	8	60.0	2	0	[]
8403	2	4	8	60.0	2	0	[]
8408	4	1	8	60.0	2	0	[]
8410	9	2	8	60.0	2	1	[(7067, 0)]
8411	2	1	8	60.0	2	0	[]
8414	5	3	8	60.0	2	0	[]
8421	1	4	8	60.0	2	0	[]
8426	4	1	6	60.0	2	0	[]
8430	13	1	8	40.0	2	0	[]
8432	2	1	8	60.0	2	0	[]
8435	6	1	8	60.0	2	0	[]
8436	3	1	8	80.0	2	0	[]
8437	1	1	8	60.0	2	0	[]
8440	2	1	8	60.0	2	0	[]
8443	6	6	7	60.0	2	0	[]
8445	2	1	8	60.0	2	0	[]
8448	1	1	8	60.0	2	0	[]
8451	6	2	8	60.0	2	1	[(737, 2)]
8452	2	1	8	60.0	2	0	[]
8455	2	1	8	60.0	2	0	[]
8457	5	4	16	80.0	2	0	[]
8466	2	2	8	60.0	2	0	[]
8469	2	1	2	60.0	2	0	[]
8475	14	2	8	60.0	2	1	[(6408, 0)]
8479	2	1	2	60.0	2	0	[]
8481	6	6	8	60.0	2	0	[]
8486	4	1	8	60.0	2	0	[]
8488	1	1	8	60.0	2	0	[]
8489	51	3	8	60.0	2	8	[(3759, 2), (945, 2), (2129, 2), (6381, 0), (9127, 1), (3479, 0), (737, 1), (4941, 2)]
8493	2	1	8	60.0	2	0	[]
8502	6	2	8	60.0	2	0	[]
8503	4	6	8	60.0	2	0	[]
8504	2	1	8	60.0	2	0	[]
8506	1	1	8	40.0	2	0	[]
8509	2	1	8	60.0	2	0	[]
8512	2	2	8	60.0	2	0	[]
8521	2	1	8	60.0	2	0	[]
8530	2	1	8	60.0	2	0	[]
8533	1	1	8	60.0	2	0	[]
8539	3	2	8	60.0	2	0	[]
8540	1	4	8	60.0	2	0	[]
8550	1	1	8	60.0	2	0	[]
8552	1	1	8	60.0	2	0	[]
8554	128	6	8	60.0	0	2	[(4480, 0), (6904, 0)]
8560	1	1	8	40.0	2	0	[]
8564	4	4	8	60.0	2	0	[]
8567	2	1	7	60.0	2	0	[]
8574	4	1	8	60.0	2	0	[]
8576	1	6	8	60.0	2	0	[]
8578	1	4	8	60.0	2	0	[]
8580	1	1	8	60.0	2	0	[]
8588	5	23	32	80.0	2	0	[]
8595	1	1	8	60.0	2	0	[]
8596	2	1	8	60.0	2	0	[]
8603	1	1	8	60.0	2	0	[]
8605	6	2	8	60.0	2	0	[]
8609	2	1	6	60.0	2	0	[]
8610	2	2	8	60.0	2	0	[]
8612	2	1	8	60.0	2	0	[]
8613	2	1	8	60.0	2	0	[]
8617	2	4	8	60.0	2	0	[]
8624	1	4	8	60.0	2	0	[]
8627	1	1	1	60.0	2	0	[]
8628	2	2	8	60.0	2	0	[]
8631	1	1	7	60.0	2	0	[]
8632	1	1	8	60.0	2	0	[]
8636	3	3	8	60.0	2	0	[]
8637	2	1	8	60.0	2	0	[]
8640	1	1	8	60.0	2	0	[]
8644	2	4	8	60.0	2	0	[]
8651	2	1	8	60.0	2	0	[]
8659	1	2	8	60.0	2	0	[]
8661	2	1	8	60.0	2	0	[]
8664	3	1	8	60.0	2	0	[]
8683	8	3	8	60.0	2	0	[]
8689	1	1	8	60.0	2	0	[]
8690	2	1	2	60.0	2	0	[]
8698	18	3	8	40.0	2	0	[]
8700	6	1	8	60.0	2	0	[]
8704	2	4	8	60.0	2	0	[]
8706	1	4	8	60.0	2	0	[]
8715	1	1	8	60.0	2	0	[]
8719	4	1	7	60.0	2	0	[]
8721	1	4	8	60.0	2	0	[]
8725	13	1	8	60.0	2	0	[]
8731	4	2	8	60.0	2	0	[]
8735	16	1	8	60.0	2	3	[(4978, 2), (4911, 1), (7935, 1)]
8739	6	1	8	60.0	2	1	[(6381, 0)]
8742	3	1	8	60.0	2	0	[]
8752	1	1	8	60.0	2	0	[]
8754	18	1	6	200.0	2	0	[]
8755	2	1	8	60.0	2	0	[]
8756	1	1	8	40.0	2	0	[]
8759	2	1	8	60.0	2	2	[(2512, 0), (6725, 0)]
8764	1	1	1	60.0	2	0	[]
8768	1	1	6	60.0	2	0	[]
8776	6	2	8	60.0	2	0	[]
8779	1	1	8	60.0	2	0	[]
8789	7	4	8	60.0	2	0	[]
8790	2	1	8	60.0	2	0	[]
8791	2	1	8	60.0	2	0	[]
8793	1	1	2	60.0	2	0	[]
8811	2	1	8	60.0	2	0	[]
8819	8	5	8	60.0	2	0	[]
8822	57	3	16	60.0	2	8	[(7067, 0), (4570, 0), (7196, 0), (7935, 0), (5689, 0), (5958, 1), (5778, 0), (6277, 0)]
8825	1	1	8	60.0	2	0	[]
8829	2	1	8	60.0	2	0	[]
8834	8	3	32	100.0	2	17	[(6082, 1), (4661, 2), (1227, 0), (2246, 0), (7217, 2), (5363, 2), (9031, 2), (6381, 2), (4994, 2), (273, 1), (3928, 2), (6429, 2), (737, 2), (6683, 2), (8162, 1), (6060, 2), (4710, 2)]
8839	1	1	8	60.0	2	0	[]
8843	3	1	8	60.0	2	0	[]
8846	2	2	8	60.0	2	0	[]
8859	5	1	8	60.0	2	0	[]
8861	3	1	8	60.0	2	0	[]
8863	2	2	8	60.0	2	0	[]
8866	20	3	8	80.0	2	0	[]
8869	1	6	8	60.0	2	0	[]
8870	2	2	13	150.0	2	0	[]
8875	1	1	8	60.0	2	0	[]
8876	1	1	8	60.0	2	0	[]
8877	1	1	2	60.0	2	0	[]
8881	1	1	3	60.0	2	0	[]
8882	3	1	8	60.0	2	0	[]
8893	2	1	8	60.0	2	0	[]
8894	4	3	8	60.0	2	0	[]
8897	8	6	8	60.0	2	0	[]
8900	1	3	16	60.0	1	0	[]
8901	3	1	1	60.0	2	0	[]
8902	1	1	8	60.0	0	0	[]
8907	4	2	8	60.0	2	0	[]
8909	2	1	2	60.0	2	0	[]
8911	4	2	8	60.0	2	0	[]
8913	1	1	1	60.0	2	0	[]
8915	1	1	8	60.0	2	0	[]
8916	1	4	8	60.0	2	0	[]
8917	7	6	8	100.0	2	1	[(1810, 0)]
8919	1	1	1	60.0	2	0	[]
8932	1	6	8	60.0	2	0	[]
8933	2	1	1	60.0	2	0	[]
8935	16	2	8	60.0	2	12	[(5189, 0), (7055, 0), (1863, 0), (2090, 0), (4974, 0), (3203, 0), (5011, 0), (1100, 0), (1525, 0), (2504, 0), (4671, 0), (6725, 0)]
8937	1	1	15	80.0	2	0	[]
8941	2	2	8	60.0	2	0	[]
8942	4	1	8	60.0	2	0	[]
8946	6	2	8	60.0	2	0	[]
8948	2	2	8	60.0	2	0	[]
8950	3	3	8	60.0	2	0	[]
8952	1	1	6	60.0	2	0	[]
8954	1	1	8	60.0	2	0	[]
8955	12	2	8	60.0	2	1	[(3800, 0)]
8957	1	1	8	60.0	2	0	[]
8961	1	1	8	60.0	2	0	[]
8969	1	1	8	60.0	2	0	[]
8970	2	1	8	60.0	2	0	[]
8971	8	1	2	60.0	2	0	[]
8976	5	1	8	60.0	2	0	[]
8978	2	1	8	60.0	2	0	[]
8979	40	3	8	60.0	2	2	[(5862, 2), (2856, 2)]
8983	2	4	8	60.0	2	0	[]
8984	1	1	8	60.0	2	0	[]
8993	1	2	8	60.0	2	0	[]
8994	18	1	2	60.0	2	0	[]
8996	2	1	8	60.0	2	0	[]
8997	4	2	8	60.0	2	0	[]
9001	1	1	8	60.0	2	0	[]
9008	1	1	1	40.0	2	0	[]
9013	4	2	8	60.0	2	2	[(2090, 2), (5220, 2)]
9016	4	1	8	60.0	2	0	[]
9017	33	1	8	60.0	2	0	[]
9020	2	1	8	60.0	2	0	[]
9022	2	2	8	60.0	2	0	[]
9025	1	1	2	60.0	2	0	[]
9028	2	1	8	60.0	2	0	[]
9031	1	3	32	60.0	2	13	[(4661, 2), (7217, 2), (5363, 2), (6381, 2), (4994, 2), (273, 1), (8834, 2), (5905, 2), (4630, 2), (8162, 1), (6082, 1), (6060, 2), (4710, 2)]
9033	2	1	1	60.0	2	0	[]
9037	5	1	8	60.0	2	0	[]
9047	55	3	8	40.0	0	5	[(5366, 0), (9269, 0), (7217, 2), (6381, 1), (8451, 0)]
9050	4	2	128	600.0	2	0	[]
9051	2	1	8	60.0	2	0	[]
9052	152	4	8	60.0	2	16	[(4853, 0), (7634, 0), (3654, 0), (6082, 1), (4966, 1), (8554, 2), (2246, 0), (234, 0), (6381, 0), (9336, 2), (5056, 1), (4576, 0), (4941, 0), (8900, 0), (2627, 0), (659, 2)]
9053	2	1	8	60.0	2	0	[]
9057	3	2	8	60.0	2	0	[]
9058	1	4	8	60.0	2	0	[]
9059	4	7	3	60.0	2	0	[]
9064	6	1	8	60.0	2	0	[]
9068	1	4	8	60.0	2	0	[]
9070	3	2	8	60.0	2	0	[]
9072	74	2	8	60.0	2	4	[(2662, 0), (4911, 2), (8436, 1), (1793, 2)]
9077	33	4	8	60.0	2	0	[]
9080	2	1	2	60.0	2	0	[]
9086	23	3	8	60.0	2	2	[(6161, 0), (5905, 0)]
9100	8	2	2	60.0	2	15	[(9122, 0), (8191, 0), (6683, 0), (34, 0), (3604, 0), (4778, 0), (7155, 0), (7154, 0), (459, 0), (7067, 0), (5914, 0), (1778, 0), (4837, 0), (6694, 0), (9037, 0)]
9101	3	1	2	60.0	2	0	[]
9106	1	1	7	60.0	2	0	[]
9110	7	1	8	60.0	2	0	[]
9114	2	2	8	60.0	2	0	[]
9115	1	1	3	60.0	2	0	[]
9122	45	3	16	60.0	0	2	[(7067, 0), (9047, 0)]
9127	37	2	8	40.0	2	0	[]
9129	1	1	8	60.0	2	0	[]
9131	1	1	3	60.0	2	0	[]
9134	2	1	8	60.0	2	0	[]
9138	72	6	8	60.0	2	0	[]
9148	1	1	7	60.0	2	0	[]
9154	1	1	8	60.0	2	0	[]
9156	25	4	8	60.0	2	9	[(3654, 0), (1326, 1), (7217, 0), (7019, 0), (3802, 2), (5905, 1), (4576, 0), (4941, 1), (9127, 0)]
9160	2	1	8	60.0	2	0	[]
9164	1	1	8	60.0	2	0	[]
9167	2	1	8	60.0	2	0	[]
9176	7	1	16	60.0	2	0	[]
9178	1	4	8	60.0	2	0	[]
9179	2	1	8	60.0	2	0	[]
9186	4	1	8	60.0	2	0	[]
9191	3	1	8	60.0	2	0	[]
9192	7	1	8	60.0	2	0	[]
9197	2	12	16	100.0	2	0	[]
9198	1	2	16	60.0	0	0	[]
9204	6	1	8	60.0	2	0	[]
9208	2	1	8	60.0	2	0	[]
9212	2	1	8	60.0	2	0	[]
9213	2	1	8	60.0	2	0	[]
9218	2	1	3	60.0	2	0	[]
9219	5	3	8	60.0	2	0	[]
9227	1	4	8	60.0	2	0	[]
9234	2	1	8	60.0	2	0	[]
9243	6	1	8	60.0	2	0	[]
9247	2	1	1	60.0	2	0	[]
9253	2	1	8	60.0	2	0	[]
9258	2	1	8	60.0	2	0	[]
9259	5	1	8	60.0	2	1	[(6597, 0)]
9260	2	2	8	60.0	2	0	[]
9262	2	1	8	60.0	2	0	[]
9263	1	4	8	60.0	2	0	[]
9268	5	1	8	60.0	2	0	[]
9269	210	4	16	60.0	0	12	[(6683, 0), (7217, 0), (312, 0), (3802, 0), (9127, 0), (1969, 1), (1599, 0), (4576, 0), (8834, 0), (8106, 0), (6381, 0), (5548, 0)]
9272	3	1	8	60.0	2	0	[]
9275	3	1	8	60.0	2	0	[]
9280	1	1	8	60.0	2	0	[]
9285	5	1	8	60.0	2	0	[]
9289	18	10	2	100.0	2	0	[]
9290	2	1	8	60.0	2	0	[]
9301	2	1	8	60.0	2	0	[]
9305	2	1	8	60.0	2	0	[]
9306	1	1	8	60.0	2	0	[]
9308	2	1	8	60.0	2	0	[]
9311	2	1	2	60.0	2	0	[]
9320	3	1	8	60.0	2	0	[]
9327	3	1	8	60.0	2	0	[]
9328	13	6	8	100.0	2	2	[(1387, 2), (128, 0)]
9329	3	2	8	60.0	2	0	[]
9330	11	6	8	60.0	2	0	[]
9331	2	2	8	60.0	2	0	[]
9336	8	1	2	80.0	2	0	[]
