app_id	nb_instances	core	memory	disk	intra_value	inter_degree	inter_aff
3	4	1	8	60.0	2	0	[]
7	1	1	8	60.0	2	0	[]
12	2	1	8	60.0	2	0	[]
17	2	1	8	60.0	2	0	[]
18	6	1	8	60.0	2	0	[]
19	5	1	5	60.0	2	0	[]
28	10	1	1	60.0	2	4	[(4231, 2), (1361, 2), (3243, 2), (3489, 2)]
29	2	1	8	60.0	2	0	[]
31	1	1	8	60.0	2	0	[]
32	2	1	8	60.0	2	0	[]
36	1	4	8	60.0	2	0	[]
42	1	1	16	200.0	2	0	[]
43	2	1	8	60.0	2	0	[]
46	2	1	4	60.0	2	0	[]
48	17	3	8	60.0	2	1	[(5034, 2)]
53	6	1	8	60.0	2	0	[]
56	5	1	8	60.0	2	0	[]
59	1	1	8	60.0	2	0	[]
63	4	1	8	60.0	2	0	[]
71	15	2	8	60.0	2	0	[]
74	2	1	9	600.0	2	0	[]
78	2	1	8	60.0	2	0	[]
86	2	1	8	60.0	2	0	[]
89	1	1	8	60.0	2	0	[]
91	2	4	8	60.0	2	0	[]
93	2	4	8	300.0	2	0	[]
98	8	1	8	60.0	2	0	[]
99	1	1	8	60.0	2	0	[]
105	1	1	1	60.0	2	0	[]
111	2	1	8	60.0	2	0	[]
113	1	1	8	60.0	2	0	[]
114	1	1	8	60.0	2	0	[]
115	1	1	8	60.0	2	0	[]
116	3	1	8	60.0	2	0	[]
119	1	2	2	60.0	2	0	[]
121	5	1	8	60.0	2	0	[]
124	1	1	8	60.0	2	0	[]
128	2	1	8	60.0	2	0	[]
129	2	3	8	60.0	2	0	[]
135	36	3	2	60.0	2	0	[]
138	1	1	8	60.0	2	0	[]
139	2	1	6	60.0	2	0	[]
140	3	6	8	60.0	2	0	[]
145	2	1	8	60.0	2	0	[]
148	2	1	8	60.0	2	0	[]
152	1	1	8	60.0	2	0	[]
159	3	2	8	60.0	2	0	[]
160	6	1	8	40.0	2	0	[]
162	1	1	7	60.0	2	0	[]
165	2	1	8	60.0	2	0	[]
166	2	1	5	60.0	2	0	[]
179	2	1	2	60.0	2	0	[]
180	3	1	8	60.0	2	0	[]
188	20	23	48	60.0	2	3	[(3886, 0), (5022, 0), (577, 0)]
192	3	1	2	60.0	2	0	[]
194	1	1	8	60.0	2	0	[]
197	2	2	8	60.0	2	0	[]
200	1	4	8	60.0	2	0	[]
212	1	1	8	60.0	2	0	[]
220	8	4	16	60.0	2	1	[(1919, 0)]
222	5	1	8	60.0	2	0	[]
224	5	3	8	60.0	2	0	[]
229	2	1	3	60.0	2	0	[]
231	1	8	16	40.0	2	0	[]
232	17	5	8	60.0	2	3	[(8142, 2), (3340, 0), (6230, 0)]
235	4	12	8	60.0	2	0	[]
238	37	3	8	80.0	0	6	[(6232, 2), (3108, 1), (1884, 0), (6065, 0), (8429, 0), (9336, 0)]
242	3	1	5	60.0	2	0	[]
245	2	1	8	60.0	2	0	[]
247	1	4	8	60.0	2	0	[]
261	5	1	8	60.0	2	1	[(4231, 0)]
263	2	1	8	60.0	2	0	[]
266	1	8	16	100.0	2	0	[]
283	4	3	8	60.0	2	0	[]
287	2	1	8	60.0	2	0	[]
288	2	1	8	60.0	2	0	[]
296	2	1	8	60.0	2	0	[]
302	8	12	16	100.0	2	0	[]
304	1	1	8	60.0	2	0	[]
305	3	1	8	60.0	2	0	[]
317	6	2	8	60.0	2	1	[(5022, 1)]
321	6	1	8	60.0	2	0	[]
323	2	2	8	60.0	2	0	[]
324	1	1	8	60.0	2	0	[]
328	2	1	8	60.0	2	0	[]
329	1	1	1	60.0	2	0	[]
340	1	4	8	60.0	2	0	[]
354	6	1	8	60.0	2	0	[]
358	12	6	8	60.0	2	0	[]
362	2	1	2	60.0	2	0	[]
368	10	2	8	60.0	2	1	[(5851, 0)]
374	2	1	40	60.0	2	0	[]
378	2	1	8	60.0	2	0	[]
383	1	1	8	60.0	2	0	[]
384	1	1	8	60.0	2	0	[]
392	7	1	4	60.0	2	1	[(3664, 0)]
397	5	1	8	60.0	2	0	[]
399	2	1	8	60.0	2	0	[]
404	2	1	8	60.0	2	0	[]
405	1	1	1	60.0	2	0	[]
406	2	4	8	60.0	2	0	[]
409	2	3	8	60.0	2	0	[]
411	5	1	8	100.0	2	0	[]
415	1	1	2	60.0	2	0	[]
419	5	1	8	60.0	2	0	[]
420	2	2	5	60.0	2	0	[]
421	14	3	8	60.0	2	2	[(1884, 0), (4595, 0)]
426	1	1	8	60.0	2	0	[]
428	3	5	16	200.0	2	0	[]
432	2	1	8	60.0	2	0	[]
433	1	1	8	60.0	2	0	[]
435	25	1	8	80.0	2	1	[(1919, 1)]
450	5	1	8	60.0	2	0	[]
456	35	2	8	60.0	2	4	[(1224, 0), (1904, 0), (1599, 0), (5958, 0)]
464	73	6	8	60.0	2	9	[(6911, 0), (5942, 0), (6381, 0), (3802, 2), (7778, 2), (1637, 0), (1599, 2), (7481, 2), (3890, 2)]
467	4	1	8	60.0	2	0	[]
468	6	1	8	60.0	2	0	[]
477	1	1	8	60.0	2	0	[]
490	2	1	8	60.0	2	0	[]
491	35	1	8	60.0	2	1	[(3383, 1)]
493	6	1	8	60.0	2	0	[]
494	2	1	2	60.0	2	0	[]
495	1	4	8	60.0	2	0	[]
501	2	1	8	60.0	2	0	[]
504	1	1	8	60.0	2	0	[]
508	1	1	8	60.0	2	0	[]
517	1	1	8	60.0	2	0	[]
520	1	1	8	60.0	2	0	[]
525	1	3	8	60.0	2	0	[]
527	2	2	8	60.0	2	0	[]
531	2	1	8	60.0	2	0	[]
533	15	1	8	60.0	2	1	[(774, 0)]
537	2	4	8	60.0	2	0	[]
543	1	1	8	60.0	2	0	[]
544	22	6	8	60.0	2	2	[(1336, 0), (4025, 0)]
546	2	1	8	60.0	2	0	[]
551	16	3	8	100.0	2	0	[]
552	4	1	8	60.0	2	0	[]
558	4	2	8	60.0	2	0	[]
560	2	1	8	60.0	2	0	[]
561	2	1	8	60.0	2	0	[]
577	1	2	8	40.0	2	6	[(1416, 0), (1904, 0), (3886, 0), (3987, 0), (3657, 0), (2621, 2)]
578	2	1	8	60.0	2	0	[]
580	30	2	8	60.0	2	0	[]
586	6	3	8	60.0	2	0	[]
587	1	1	8	60.0	2	1	[(1919, 2)]
591	1	1	2	60.0	2	0	[]
595	3	5	8	60.0	2	0	[]
598	3	1	8	60.0	2	0	[]
602	3	1	8	60.0	2	0	[]
605	1	1	8	60.0	2	0	[]
610	2	1	8	60.0	2	0	[]
612	4	5	8	60.0	2	0	[]
614	53	3	8	60.0	2	5	[(5810, 0), (6414, 0), (5883, 0), (6410, 1), (8124, 1)]
623	2	1	8	60.0	2	0	[]
626	100	2	8	60.0	2	12	[(1173, 0), (7338, 0), (2035, 2), (4025, 0), (7613, 0), (5063, 0), (8386, 0), (6230, 0), (1405, 0), (3994, 0), (7486, 0), (1683, 0)]
629	2	1	8	60.0	2	0	[]
632	5	1	8	60.0	2	0	[]
635	6	2	8	60.0	2	0	[]
637	1	1	32	200.0	0	0	[]
644	1	2	8	60.0	2	0	[]
645	1	1	8	60.0	2	1	[(3908, 0)]
648	1	4	8	60.0	2	0	[]
652	2	1	8	60.0	2	0	[]
657	1	1	4	60.0	2	0	[]
663	2	2	4	60.0	2	0	[]
664	6	1	8	60.0	2	0	[]
665	1	4	8	60.0	2	0	[]
673	1	1	8	60.0	2	0	[]
680	1	1	8	60.0	2	0	[]
683	2	12	8	60.0	2	0	[]
685	6	1	3	40.0	2	0	[]
689	5	6	8	60.0	2	0	[]
691	1	1	6	60.0	2	0	[]
694	1	1	5	60.0	2	0	[]
697	2	1	8	60.0	2	0	[]
706	2	4	8	60.0	2	0	[]
709	3	4	8	60.0	2	2	[(5022, 0), (1222, 0)]
710	3	1	8	60.0	2	0	[]
712	1	1	1	60.0	2	0	[]
713	2	1	8	60.0	2	0	[]
714	1	1	8	60.0	2	0	[]
715	4	1	8	60.0	2	0	[]
719	2	1	8	60.0	2	0	[]
725	25	1	8	60.0	2	4	[(5747, 0), (5446, 0), (3619, 0), (3851, 0)]
736	37	4	8	60.0	2	0	[]
745	2	1	8	80.0	2	0	[]
750	2	1	8	60.0	2	0	[]
758	2	1	8	60.0	2	0	[]
761	1	4	8	80.0	2	0	[]
762	2	1	8	60.0	2	0	[]
764	2	1	8	60.0	2	0	[]
765	2	2	16	40.0	2	0	[]
768	6	2	8	60.0	2	0	[]
770	1	1	8	60.0	2	0	[]
774	40	6	8	80.0	2	1	[(1919, 2)]
779	3	1	8	60.0	2	0	[]
781	2	3	8	60.0	2	0	[]
786	2	1	8	60.0	2	0	[]
792	2	2	8	60.0	2	0	[]
793	15	2	2	60.0	2	0	[]
797	3	1	8	60.0	2	0	[]
801	1	4	8	60.0	2	0	[]
803	8	3	8	60.0	2	0	[]
805	1	1	8	60.0	2	0	[]
806	1	1	8	60.0	2	0	[]
814	2	4	8	60.0	2	0	[]
817	3	1	8	60.0	2	0	[]
823	1	1	2	500.0	2	0	[]
825	1	4	8	60.0	2	0	[]
830	2	1	8	60.0	2	0	[]
835	7	2	8	60.0	2	0	[]
840	6	2	8	60.0	2	0	[]
841	1	1	2	60.0	2	0	[]
846	6	2	8	40.0	2	0	[]
849	2	1	8	60.0	2	0	[]
850	3	1	8	60.0	2	2	[(6011, 2), (328, 1)]
852	3	2	8	60.0	2	0	[]
853	10	1	8	60.0	2	0	[]
854	26	9	2	60.0	2	0	[]
855	1	1	1	60.0	2	0	[]
860	2	1	8	60.0	2	0	[]
863	1	2	8	60.0	2	0	[]
865	4	3	8	60.0	2	0	[]
868	2	1	8	60.0	2	0	[]
874	1	1	8	60.0	2	0	[]
876	4	1	8	60.0	2	0	[]
877	5	1	8	60.0	2	0	[]
881	1	1	4	60.0	2	0	[]
883	13	6	8	60.0	2	0	[]
886	2	2	8	60.0	2	0	[]
888	2	4	8	167.0	2	0	[]
892	1	1	8	60.0	2	0	[]
894	9	3	8	60.0	2	0	[]
898	2	1	2	60.0	2	0	[]
901	5	2	8	60.0	2	1	[(4573, 0)]
907	1	1	8	60.0	2	0	[]
909	8	12	16	100.0	2	0	[]
910	1	1	8	60.0	2	0	[]
914	2	1	2	60.0	2	0	[]
918	3	1	8	60.0	2	0	[]
920	4	2	8	200.0	2	2	[(8138, 2), (4264, 1)]
922	1	1	8	60.0	2	0	[]
923	2	3	8	60.0	2	0	[]
924	4	1	8	60.0	2	0	[]
925	1	1	8	60.0	2	0	[]
926	4	3	8	60.0	2	0	[]
929	2	1	8	60.0	2	0	[]
937	2	1	8	60.0	2	0	[]
940	20	3	8	60.0	2	1	[(8777, 0)]
942	23	2	8	80.0	2	0	[]
943	1	1	8	60.0	2	0	[]
954	1	4	8	100.0	2	0	[]
956	2	1	8	60.0	2	0	[]
959	2	1	8	60.0	2	0	[]
965	1	1	8	60.0	2	0	[]
972	7	2	8	60.0	2	0	[]
973	3	1	8	60.0	2	0	[]
978	5	1	16	80.0	2	0	[]
981	2	1	8	80.0	2	0	[]
983	1	1	7	60.0	2	0	[]
986	2	1	8	60.0	2	0	[]
989	11	2	8	60.0	2	0	[]
995	13	1	8	60.0	2	5	[(2068, 0), (4678, 1), (1023, 1), (5022, 0), (1160, 2)]
996	2	1	8	60.0	2	0	[]
997	2	2	8	60.0	2	0	[]
1003	1	1	8	60.0	2	0	[]
1004	3	1	8	60.0	2	0	[]
1006	1	1	1	60.0	2	0	[]
1007	1	1	1	60.0	2	0	[]
1009	11	3	8	60.0	2	0	[]
1010	1	1	8	60.0	2	0	[]
1017	4	1	9	60.0	2	0	[]
1018	2	1	1	60.0	2	0	[]
1019	6	2	8	60.0	2	0	[]
1023	2	1	15	80.0	2	0	[]
1026	12	4	8	60.0	2	2	[(8284, 0), (4732, 0)]
1027	2	1	8	60.0	2	0	[]
1028	1	1	1	60.0	2	0	[]
1030	1	2	8	60.0	2	0	[]
1031	6	2	2	60.0	2	0	[]
1032	2	1	8	60.0	2	0	[]
1034	2	1	8	60.0	2	0	[]
1035	1	1	7	60.0	2	0	[]
1036	4	4	8	300.0	2	0	[]
1039	1	4	8	60.0	2	0	[]
1052	1	1	8	60.0	2	0	[]
1053	1	1	2	60.0	2	0	[]
1054	1	3	8	60.0	2	0	[]
1059	31	6	8	60.0	2	2	[(1098, 1), (3845, 2)]
1072	6	1	16	80.0	2	0	[]
1074	1	1	2	60.0	2	0	[]
1077	3	1	8	60.0	2	3	[(1026, 1), (6256, 2), (2319, 2)]
1081	1	1	1	60.0	2	0	[]
1082	1	1	8	60.0	2	0	[]
1094	1	4	8	60.0	2	0	[]
1098	2	1	8	60.0	2	0	[]
1106	1	1	8	60.0	2	0	[]
1107	5	2	8	60.0	2	0	[]
1111	1	1	1	60.0	2	0	[]
1114	1	4	8	60.0	0	0	[]
1115	6	1	8	60.0	2	0	[]
1121	2	4	8	60.0	2	0	[]
1122	7	1	8	40.0	2	2	[(8069, 2), (1637, 0)]
1125	1	36	30	300.0	2	0	[]
1127	5	1	8	60.0	2	0	[]
1139	2	1	7	60.0	2	0	[]
1142	1	4	8	60.0	2	0	[]
1144	32	4	8	60.0	2	2	[(4200, 0), (6069, 2)]
1146	1	4	8	60.0	2	0	[]
1151	1	2	8	60.0	2	0	[]
1152	409	5	8	60.0	2	41	[(3220, 1), (9049, 0), (1919, 0), (5436, 0), (4025, 0), (7318, 0), (1887, 0), (5022, 0), (586, 0), (491, 0), (1726, 0), (6911, 0), (1279, 2), (3091, 0), (8386, 0), (793, 0), (3602, 2), (6230, 0), (1416, 0), (1930, 0), (2160, 0), (3486, 0), (3480, 0), (7338, 0), (6381, 0), (224, 0), (6298, 1), (1637, 0), (7864, 0), (4908, 0), (5868, 0), (7354, 0), (3994, 0), (2815, 0), (9207, 0), (4531, 0), (6063, 1), (3203, 0), (3431, 0), (2773, 0), (1238, 0)]
1157	2	1	8	60.0	2	0	[]
1159	5	1	8	60.0	2	0	[]
1160	12	1	8	60.0	2	0	[]
1162	2	1	8	60.0	2	1	[(5256, 0)]
1166	2	1	8	60.0	2	0	[]
1169	4	2	8	60.0	2	0	[]
1173	53	3	8	60.0	2	2	[(2649, 2), (6381, 2)]
1178	10	2	8	60.0	2	0	[]
1182	5	2	8	60.0	2	0	[]
1192	2	1	8	60.0	2	0	[]
1197	6	2	8	60.0	2	0	[]
1210	1	1	8	60.0	2	0	[]
1214	2	1	8	60.0	2	0	[]
1221	3	1	8	60.0	2	1	[(1919, 1)]
1222	397	7	16	60.0	0	4	[(4337, 1), (5655, 0), (2238, 0), (5028, 0)]
1224	12	3	8	60.0	2	1	[(1596, 0)]
1225	1	4	8	60.0	2	0	[]
1229	12	2	8	60.0	2	5	[(1416, 0), (3108, 0), (8583, 0), (5022, 0), (6381, 0)]
1231	1	1	8	60.0	2	0	[]
1236	2	1	2	60.0	2	0	[]
1238	19	2	8	60.0	2	1	[(8138, 2)]
1240	2	6	8	60.0	2	0	[]
1244	2	1	8	60.0	2	0	[]
1246	1	1	8	60.0	2	0	[]
1247	4	1	8	60.0	2	0	[]
1249	2	4	8	60.0	2	0	[]
1251	3	1	8	60.0	2	0	[]
1253	2	1	8	60.0	2	0	[]
1257	2	1	1	60.0	2	0	[]
1269	1	1	8	60.0	2	0	[]
1279	4	3	8	60.0	2	0	[]
1285	7	5	8	60.0	2	0	[]
1293	2	4	8	60.0	2	0	[]
1295	2	1	8	60.0	2	0	[]
1302	2	1	8	60.0	2	0	[]
1303	2	1	8	60.0	2	0	[]
1305	5	1	8	60.0	2	0	[]
1306	1	4	8	60.0	2	0	[]
1311	2	1	8	60.0	2	0	[]
1312	6	2	8	60.0	2	0	[]
1313	1	1	8	60.0	2	0	[]
1323	6	4	8	60.0	2	0	[]
1324	10	6	8	60.0	2	1	[(5868, 0)]
1336	2	4	8	60.0	2	0	[]
1337	1	3	8	60.0	2	0	[]
1341	1	1	7	60.0	2	0	[]
1343	40	6	8	60.0	2	1	[(328, 2)]
1346	3	1	8	60.0	2	1	[(689, 2)]
1348	15	3	8	60.0	2	1	[(1919, 0)]
1353	1	1	1	60.0	2	0	[]
1354	2	1	8	60.0	2	7	[(4646, 0), (2138, 0), (5107, 0), (7452, 0), (7770, 0), (6007, 0), (321, 0)]
1357	1	1	2	60.0	2	0	[]
1359	2	4	8	80.0	2	0	[]
1361	7	1	8	60.0	2	0	[]
1362	7	6	16	80.0	2	1	[(854, 2)]
1373	7	3	7	60.0	2	1	[(1919, 0)]
1375	3	4	8	60.0	2	0	[]
1378	2	2	32	60.0	2	14	[(7626, 2), (5080, 1), (8587, 2), (2851, 1), (5363, 2), (3117, 1), (6381, 2), (7392, 2), (1637, 1), (4275, 2), (4550, 1), (8707, 2), (8162, 1), (6060, 2)]
1379	1	1	8	60.0	2	0	[]
1390	1	1	8	60.0	2	0	[]
1393	1	1	8	60.0	2	0	[]
1396	3	2	8	60.0	2	0	[]
1397	1	1	8	60.0	2	0	[]
1398	2	1	8	60.0	2	0	[]
1402	4	1	8	60.0	2	0	[]
1405	174	6	8	40.0	0	6	[(1672, 1), (6025, 0), (7338, 0), (577, 0), (5983, 1), (3890, 0)]
1411	1	1	16	60.0	2	0	[]
1416	64	10	16	60.0	0	9	[(1786, 0), (8069, 0), (3108, 1), (1728, 2), (464, 2), (4947, 0), (456, 0), (6564, 2), (8451, 2)]
1419	3	2	2	100.0	2	0	[]
1420	2	1	32	100.0	2	0	[]
1424	6	5	8	80.0	2	1	[(3844, 2)]
1427	6	2	8	60.0	2	1	[(3220, 1)]
1429	2	1	8	60.0	2	0	[]
1431	5	6	8	60.0	2	0	[]
1436	1	1	8	60.0	2	0	[]
1447	33	1	8	60.0	2	1	[(3692, 0)]
1448	1	1	5	60.0	2	0	[]
1453	1	1	5	60.0	2	0	[]
1454	3	1	8	60.0	2	0	[]
1459	4	2	8	60.0	2	0	[]
1468	2	1	8	60.0	2	0	[]
1471	1	1	8	60.0	2	0	[]
1472	1	1	8	60.0	2	0	[]
1473	3	1	16	60.0	2	0	[]
1474	1	1	6	60.0	2	0	[]
1475	4	3	8	40.0	2	0	[]
1481	2	4	16	60.0	0	0	[]
1485	8	3	8	60.0	2	0	[]
1490	1	1	8	60.0	2	0	[]
1493	1	4	8	60.0	2	0	[]
1499	2	1	8	60.0	2	0	[]
1505	2	1	8	60.0	2	0	[]
1507	3	2	8	60.0	2	0	[]
1509	151	5	8	60.0	2	19	[(1416, 0), (7768, 0), (3108, 0), (4337, 2), (1447, 0), (3802, 0), (1672, 0), (2224, 0), (1637, 0), (1059, 0), (7486, 0), (8618, 0), (854, 0), (9163, 0), (1419, 0), (3890, 0), (2238, 0), (3747, 0), (48, 0)]
1513	1	1	8	60.0	2	0	[]
1514	1	1	1	60.0	2	0	[]
1515	25	4	8	60.0	2	7	[(7669, 2), (4010, 0), (1919, 0), (7998, 0), (8748, 0), (8998, 0), (8262, 0)]
1526	2	1	8	60.0	2	0	[]
1529	4	1	8	60.0	2	0	[]
1530	10	3	8	60.0	2	1	[(3802, 2)]
1531	1	1	8	60.0	2	0	[]
1533	3	1	8	60.0	2	0	[]
1535	2	1	8	60.0	2	0	[]
1541	60	6	8	60.0	2	33	[(7669, 0), (632, 1), (774, 2), (2467, 1), (3008, 0), (6151, 0), (3344, 0), (533, 2), (288, 0), (4745, 1), (5646, 1), (5391, 1), (415, 0), (1348, 2), (9049, 0), (6640, 1), (3894, 1), (6074, 0), (3972, 2), (4552, 2), (5271, 2), (7158, 2), (7659, 1), (3211, 1), (7879, 0), (1473, 2), (8910, 0), (3555, 2), (7894, 2), (3963, 0), (7117, 1), (6763, 0), (435, 1)]
1543	2	1	8	60.0	2	0	[]
1544	8	1	8	60.0	2	0	[]
1547	4	1	8	60.0	2	0	[]
1550	2	1	8	60.0	2	0	[]
1558	2	1	6	60.0	2	0	[]
1559	18	1	8	100.0	2	1	[(6293, 2)]
1567	1	4	8	60.0	2	0	[]
1568	1	4	16	80.0	2	0	[]
1575	2	1	8	60.0	2	0	[]
1588	2	4	8	60.0	2	0	[]
1589	5	1	8	60.0	2	0	[]
1591	1	1	8	60.0	2	0	[]
1592	43	3	8	40.0	2	0	[]
1593	9	2	8	60.0	2	1	[(7338, 0)]
1595	1	1	8	60.0	2	0	[]
1596	3	12	16	80.0	2	1	[(3602, 2)]
1599	139	3	8	60.0	2	2	[(3574, 2), (8758, 1)]
1601	1	2	16	60.0	2	0	[]
1606	2	2	32	60.0	2	14	[(7626, 2), (5080, 1), (8587, 2), (2851, 1), (5363, 2), (3117, 1), (6381, 2), (7392, 2), (1637, 1), (4275, 2), (4550, 1), (8707, 2), (8162, 1), (6060, 2)]
1608	1	1	8	60.0	2	0	[]
1612	2	1	8	60.0	2	0	[]
1614	1	2	8	60.0	2	0	[]
1617	1	4	8	60.0	2	0	[]
1618	3	1	8	60.0	2	0	[]
1619	1	2	6	60.0	2	0	[]
1624	18	6	8	60.0	2	2	[(28, 0), (2838, 0)]
1625	2	1	8	60.0	2	0	[]
1628	2	1	2	60.0	2	0	[]
1629	1	1	8	60.0	2	0	[]
1630	2	4	8	60.0	2	0	[]
1637	137	24	60	60.0	2	20	[(7626, 2), (3367, 2), (5080, 1), (7716, 2), (6097, 2), (8587, 2), (8535, 2), (5363, 2), (3117, 1), (1606, 0), (6381, 2), (7392, 2), (4275, 2), (1378, 2), (4037, 2), (2688, 2), (4550, 1), (8707, 2), (8162, 1), (6060, 2)]
1638	4	1	8	60.0	2	0	[]
1639	100	2	8	60.0	2	24	[(1919, 0), (1019, 2), (8282, 1), (996, 0), (6140, 2), (6013, 2), (4611, 1), (3000, 1), (2911, 2), (5825, 0), (4118, 2), (9049, 0), (1169, 2), (6534, 0), (4916, 0), (5767, 0), (5271, 0), (4198, 2), (7091, 0), (7879, 2), (4652, 2), (1700, 1), (6646, 0), (2558, 2)]
1641	12	3	8	60.0	2	0	[]
1648	4	1	8	60.0	2	0	[]
1651	2	1	8	60.0	2	0	[]
1653	2	1	8	60.0	2	3	[(3894, 0), (8643, 0), (3480, 0)]
1658	2	6	8	60.0	2	0	[]
1662	23	3	8	60.0	2	0	[]
1667	1	1	8	60.0	2	0	[]
1669	1	1	8	60.0	2	0	[]
1672	1	4	8	60.0	2	0	[]
1675	2	2	16	60.0	2	0	[]
1676	4	6	8	60.0	2	0	[]
1681	1	1	8	60.0	2	0	[]
1683	71	5	8	40.0	2	4	[(1904, 2), (3904, 2), (5368, 1), (4829, 2)]
1684	2	1	8	60.0	2	0	[]
1685	1	1	1	60.0	2	0	[]
1689	2	1	8	60.0	2	0	[]
1692	1	1	8	60.0	2	0	[]
1698	2	1	1	80.0	2	0	[]
1699	2	1	8	60.0	2	0	[]
1700	15	6	16	100.0	2	2	[(673, 2), (7998, 0)]
1704	1	1	6	60.0	2	0	[]
1713	2	1	8	60.0	2	0	[]
1715	3	1	8	60.0	2	0	[]
1719	1	1	8	60.0	2	0	[]
1723	100	2	2	60.0	2	3	[(7481, 2), (8033, 2), (6283, 1)]
1726	3	1	8	60.0	2	0	[]
1728	139	6	8	60.0	0	2	[(5177, 0), (9264, 0)]
1731	2	2	8	60.0	2	0	[]
1736	4	1	8	60.0	2	0	[]
1738	4	1	8	60.0	2	0	[]
1740	4	1	8	60.0	2	3	[(3108, 1), (8273, 2), (7414, 0)]
1743	2	1	8	60.0	2	0	[]
1745	1	4	16	80.0	2	0	[]
1746	13	2	8	60.0	2	2	[(5436, 0), (3091, 0)]
1747	1	1	8	60.0	2	0	[]
1748	5	2	16	200.0	2	0	[]
1759	2	1	8	60.0	2	0	[]
1760	7	4	8	60.0	2	0	[]
1765	1	1	8	60.0	2	0	[]
1766	7	1	8	60.0	2	0	[]
1771	2	3	8	60.0	2	1	[(7321, 2)]
1779	3	6	16	60.0	2	0	[]
1783	2	1	8	60.0	2	0	[]
1784	22	1	8	60.0	2	0	[]
1786	11	5	8	60.0	2	3	[(1416, 0), (6531, 0), (1728, 0)]
1787	2	4	8	60.0	2	0	[]
1788	7	6	16	80.0	2	4	[(2234, 1), (2225, 1), (2952, 1), (8626, 2)]
1798	2	1	8	60.0	2	0	[]
1799	1	4	8	60.0	2	0	[]
1804	10	2	8	60.0	2	0	[]
1811	1	1	8	60.0	2	0	[]
1812	1	1	8	60.0	2	0	[]
1813	9	1	8	60.0	2	1	[(1683, 2)]
1817	1	1	1	60.0	2	0	[]
1820	2	1	8	60.0	2	0	[]
1825	2	4	8	60.0	2	0	[]
1828	2	1	8	60.0	2	0	[]
1830	2	1	8	60.0	2	0	[]
1833	3	2	8	60.0	2	0	[]
1840	3	1	8	60.0	2	0	[]
1841	4	1	8	60.0	2	0	[]
1846	1	4	8	60.0	2	0	[]
1850	1	2	10	40.0	2	0	[]
1852	2	1	2	60.0	2	0	[]
1872	4	2	8	60.0	2	0	[]
1875	3	1	8	60.0	2	0	[]
1884	212	10	16	100.0	2	1	[(4943, 0)]
1885	2	1	8	60.0	2	0	[]
1887	11	1	8	40.0	2	1	[(6381, 2)]
1892	2	1	8	60.0	2	0	[]
1896	1	4	8	60.0	2	0	[]
1904	60	1	8	40.0	0	2	[(8451, 0), (3987, 0)]
1905	10	1	8	60.0	2	2	[(8783, 0), (8207, 1)]
1910	1	1	2	60.0	2	0	[]
1915	25	12	16	100.0	2	0	[]
1919	20	6	8	60.0	0	17	[(8455, 1), (9035, 0), (3426, 0), (774, 0), (2919, 0), (5705, 2), (2090, 0), (3894, 0), (3009, 0), (3076, 0), (7146, 1), (1348, 0), (6069, 1), (435, 0), (9049, 2), (8209, 0), (5271, 1)]
1922	2	4	8	60.0	2	0	[]
1923	2	1	2	60.0	2	0	[]
1927	12	3	2	100.0	2	0	[]
1930	2	1	2	60.0	2	0	[]
1934	1	1	8	60.0	2	0	[]
1935	1	1	2	60.0	2	0	[]
1936	5	6	8	40.0	2	0	[]
1937	2	5	8	60.0	2	0	[]
1938	2	1	8	60.0	2	0	[]
1943	2	1	8	60.0	2	0	[]
1948	2	1	8	60.0	2	0	[]
1949	17	3	8	60.0	2	0	[]
1951	1	1	2	60.0	2	0	[]
1954	1	1	16	60.0	1	0	[]
1965	1	1	8	40.0	0	0	[]
1969	3	3	16	60.0	2	0	[]
1971	3	1	6	60.0	2	0	[]
1974	1	2	16	60.0	2	0	[]
1975	2	1	8	60.0	2	0	[]
1976	3	1	8	60.0	2	0	[]
1979	4	2	8	60.0	2	0	[]
1982	4	5	8	60.0	2	0	[]
1984	4	1	4	60.0	2	0	[]
1989	1	4	8	60.0	2	0	[]
1994	2	2	8	60.0	2	0	[]
2004	2	1	8	60.0	2	0	[]
2012	1	1	1	600.0	2	0	[]
2016	2	2	8	60.0	2	0	[]
2022	7	16	96	300.0	2	0	[]
2027	2	1	8	60.0	2	1	[(3486, 0)]
2032	1	2	8	60.0	2	0	[]
2035	2	1	8	60.0	2	0	[]
2036	1	1	8	60.0	2	0	[]
2041	2	1	8	60.0	2	0	[]
2043	1	1	8	60.0	2	0	[]
2045	2	1	8	60.0	2	0	[]
2046	7	3	8	60.0	2	0	[]
2047	1	1	1	60.0	2	0	[]
2051	2	1	1	60.0	2	0	[]
2053	4	1	8	60.0	2	0	[]
2057	3	1	8	60.0	2	0	[]
2061	24	2	8	60.0	2	5	[(7261, 0), (3831, 1), (5868, 0), (1728, 1), (3886, 2)]
2063	2	1	8	60.0	2	0	[]
2068	1	1	8	60.0	2	0	[]
2072	2	1	8	60.0	2	0	[]
2074	2	1	2	60.0	2	0	[]
2089	50	6	8	60.0	1	3	[(4351, 1), (3890, 1), (3987, 0)]
2090	40	3	8	60.0	2	2	[(4429, 0), (1919, 2)]
2092	1	2	8	60.0	2	0	[]
2094	4	1	8	100.0	2	0	[]
2100	2	1	1	60.0	2	0	[]
2101	1	1	48	300.0	2	0	[]
2106	1	1	3	60.0	2	0	[]
2107	4	1	8	60.0	2	0	[]
2108	4	4	8	80.0	2	0	[]
2118	1	1	6	60.0	2	0	[]
2119	1	1	2	80.0	2	0	[]
2121	1	1	2	60.0	2	0	[]
2126	11	6	8	60.0	2	0	[]
2127	2	1	8	60.0	2	0	[]
2132	3	1	8	60.0	2	0	[]
2133	3	1	8	60.0	2	0	[]
2138	4	1	8	60.0	2	7	[(4646, 0), (5107, 0), (7452, 0), (7770, 0), (6007, 0), (1354, 0), (321, 0)]
2147	6	1	8	250.0	2	0	[]
2153	2	1	6	60.0	2	0	[]
2154	1	1	2	60.0	2	0	[]
2160	4	1	8	60.0	2	0	[]
2166	30	9	2	150.0	2	0	[]
2167	1	1	8	60.0	2	0	[]
2170	2	1	8	60.0	2	0	[]
2171	1	1	8	60.0	2	0	[]
2174	2	1	8	60.0	2	0	[]
2176	2	1	2	60.0	2	0	[]
2179	1	1	8	60.0	2	0	[]
2181	1	1	8	60.0	2	0	[]
2182	1	1	8	60.0	2	0	[]
2183	1	1	8	60.0	2	0	[]
2189	10	5	2	200.0	2	1	[(7481, 0)]
2192	3	1	16	60.0	2	0	[]
2193	6	1	8	80.0	2	0	[]
2196	2	1	4	60.0	2	1	[(2709, 0)]
2198	1	1	2	60.0	2	0	[]
2202	1	1	8	60.0	2	0	[]
2207	3	1	7	60.0	2	0	[]
2208	1	1	8	60.0	2	0	[]
2213	2	2	8	60.0	2	0	[]
2214	2	1	8	60.0	2	0	[]
2217	4	3	8	60.0	2	0	[]
2223	1	10	8	60.0	2	0	[]
2224	40	12	16	200.0	0	2	[(9049, 0), (5028, 0)]
2225	2	1	2	60.0	2	0	[]
2234	5	2	8	60.0	2	0	[]
2237	2	1	8	60.0	2	0	[]
2238	4	3	32	80.0	2	0	[]
2239	2	4	8	60.0	2	0	[]
2240	2	1	8	60.0	2	0	[]
2244	2	6	8	60.0	2	0	[]
2246	10	1	8	60.0	2	0	[]
2248	2	1	8	60.0	2	0	[]
2259	1	4	8	60.0	2	0	[]
2261	2	3	8	60.0	2	0	[]
2266	2	1	8	60.0	2	0	[]
2269	2	1	7	60.0	2	0	[]
2274	4	2	8	40.0	2	0	[]
2277	4	1	8	60.0	2	0	[]
2278	1	4	8	60.0	2	0	[]
2283	1	1	4	60.0	2	0	[]
2286	1	1	8	60.0	2	0	[]
2299	5	1	8	60.0	2	0	[]
2302	14	2	16	80.0	2	0	[]
2304	1	1	2	60.0	2	0	[]
2307	1	1	8	60.0	2	6	[(2068, 0), (6374, 0), (6847, 0), (5149, 0), (5941, 0), (1975, 0)]
2316	2	1	8	60.0	2	0	[]
2319	50	1	8	60.0	2	1	[(4337, 2)]
2321	2	3	8	60.0	2	0	[]
2322	2	1	3	60.0	2	0	[]
2336	2	1	1	60.0	2	1	[(5655, 2)]
2337	2	1	2	60.0	2	0	[]
2339	1	1	8	60.0	2	0	[]
2351	2	4	8	60.0	2	0	[]
2354	3	1	1	60.0	2	0	[]
2355	1	1	8	60.0	2	0	[]
2358	2	1	8	60.0	2	0	[]
2365	1	1	8	60.0	2	0	[]
2371	1	4	8	60.0	2	0	[]
2376	1	1	7	60.0	2	0	[]
2380	1	1	8	60.0	2	0	[]
2385	1	1	8	60.0	2	0	[]
2386	1	1	8	60.0	2	0	[]
2389	1	4	8	60.0	2	0	[]
2399	1	1	2	60.0	2	0	[]
2407	1	1	4	60.0	2	0	[]
2412	1	1	8	60.0	2	0	[]
2415	2	1	8	60.0	2	0	[]
2416	2	1	8	60.0	2	0	[]
2418	2	1	8	60.0	2	0	[]
2426	2	1	8	60.0	2	0	[]
2428	3	1	8	60.0	2	0	[]
2430	3	4	8	60.0	2	0	[]
2432	3	1	8	60.0	2	0	[]
2439	4	1	8	60.0	2	0	[]
2441	4	2	8	60.0	2	0	[]
2443	4	1	8	60.0	2	0	[]
2452	5	4	8	60.0	2	0	[]
2464	6	4	8	60.0	2	0	[]
2466	6	1	8	60.0	2	0	[]
2467	6	2	8	60.0	2	0	[]
2474	6	12	16	100.0	2	0	[]
2476	7	2	8	60.0	2	0	[]
2477	7	12	16	60.0	2	0	[]
2490	12	2	8	60.0	2	0	[]
2491	12	4	8	60.0	2	0	[]
2497	10	2	8	60.0	2	1	[(3664, 0)]
2506	9	4	1	100.0	2	0	[]
2508	8	1	8	60.0	2	5	[(4570, 0), (1026, 0), (4292, 0), (5141, 0), (6258, 0)]
2509	8	1	8	60.0	2	0	[]
2510	8	1	1	60.0	2	0	[]
2511	7	1	8	60.0	2	0	[]
2517	3	1	8	60.0	2	0	[]
2522	3	1	8	60.0	2	0	[]
2524	2	5	8	60.0	2	0	[]
2526	2	1	2	60.0	2	0	[]
2535	2	1	1	60.0	2	0	[]
2536	2	2	8	60.0	2	0	[]
2549	2	4	8	60.0	2	0	[]
2552	2	1	8	60.0	2	0	[]
2554	2	1	8	60.0	2	0	[]
2555	2	1	16	80.0	2	0	[]
2556	2	1	1	60.0	2	0	[]
2558	2	1	8	60.0	2	0	[]
2568	2	1	1	60.0	2	2	[(3994, 0), (1454, 0)]
2574	2	1	8	60.0	2	0	[]
2578	2	2	8	60.0	2	0	[]
2582	2	1	2	60.0	2	0	[]
2587	6	3	8	60.0	2	0	[]
2589	3	1	8	60.0	2	0	[]
2596	1	8	16	100.0	2	0	[]
2598	1	1	8	60.0	2	0	[]
2599	4	1	8	60.0	2	0	[]
2607	4	2	8	60.0	2	0	[]
2609	5	1	8	60.0	2	0	[]
2612	6	5	8	60.0	2	0	[]
2613	8	1	8	60.0	2	0	[]
2617	1	4	8	60.0	2	0	[]
2621	5	1	8	40.0	2	1	[(3657, 0)]
2625	1	1	1	60.0	2	0	[]
2626	1	1	8	60.0	2	0	[]
2639	2	2	8	60.0	2	0	[]
2641	2	1	8	60.0	2	1	[(1919, 0)]
2643	6	8	12	60.0	2	0	[]
2649	19	5	8	60.0	2	4	[(8721, 0), (5022, 0), (7928, 0), (6421, 0)]
2653	2	1	8	60.0	2	0	[]
2654	1	4	8	80.0	2	0	[]
2656	2	1	8	60.0	2	0	[]
2659	1	1	2	60.0	2	0	[]
2661	2	4	8	60.0	2	0	[]
2662	1	1	8	40.0	0	0	[]
2668	114	6	2	60.0	2	4	[(4231, 0), (854, 0), (7768, 0), (8333, 0)]
2676	1	1	1	60.0	2	0	[]
2681	1	4	8	60.0	2	0	[]
2685	5	5	8	60.0	2	0	[]
2688	1	7	32	60.0	2	14	[(7626, 2), (5080, 1), (8587, 2), (2851, 1), (5363, 2), (3117, 1), (6381, 2), (7392, 2), (1637, 1), (4275, 2), (4550, 1), (8707, 2), (8162, 1), (6060, 2)]
2690	9	3	8	60.0	2	1	[(5028, 2)]
2702	1	1	8	60.0	2	0	[]
2705	2	1	8	60.0	2	0	[]
2706	2	1	8	60.0	2	0	[]
2709	4	3	8	60.0	2	0	[]
2712	2	1	8	60.0	2	0	[]
2718	2	1	1	600.0	2	0	[]
2721	3	16	48	200.0	2	0	[]
2723	2	1	8	40.0	2	0	[]
2724	2	2	8	60.0	2	0	[]
2725	1	1	8	60.0	2	0	[]
2728	10	3	8	40.0	2	0	[]
2746	3	1	8	60.0	2	0	[]
2748	1	1	8	60.0	2	0	[]
2749	19	3	8	60.0	2	2	[(580, 2), (7686, 0)]
2759	2	1	8	60.0	2	0	[]
2760	2	1	16	80.0	2	0	[]
2763	3	3	8	60.0	2	0	[]
2764	2	6	8	60.0	2	0	[]
2773	2	1	8	60.0	2	0	[]
2774	2	1	3	60.0	2	0	[]
2775	2	1	2	60.0	2	0	[]
2779	1	1	4	60.0	2	0	[]
2788	11	1	10	180.0	2	17	[(2798, 0), (121, 0), (1833, 0), (4405, 0), (7538, 0), (1948, 0), (4925, 0), (4615, 0), (4369, 0), (8263, 0), (995, 0), (242, 0), (3379, 0), (5883, 0), (8122, 0), (4653, 0), (2452, 0)]
2789	1	2	8	80.0	2	0	[]
2790	2	1	8	60.0	2	0	[]
2796	1	1	8	60.0	2	0	[]
2797	2	1	8	60.0	2	0	[]
2798	5	3	8	60.0	2	0	[]
2801	1	1	2	60.0	2	0	[]
2803	1	4	8	60.0	2	0	[]
2804	2	1	8	60.0	2	0	[]
2806	2	1	8	60.0	2	0	[]
2811	1	1	8	60.0	2	0	[]
2812	1	1	3	60.0	2	0	[]
2814	25	1	8	60.0	2	0	[]
2815	60	1	8	60.0	2	1	[(374, 2)]
2818	2	2	8	60.0	2	0	[]
2829	5	1	8	60.0	2	0	[]
2830	1	1	2	60.0	2	0	[]
2836	1	1	6	60.0	2	0	[]
2838	1	1	7	60.0	2	0	[]
2842	2	1	8	60.0	2	0	[]
2844	7	2	16	100.0	2	0	[]
2846	3	1	8	60.0	2	1	[(1919, 0)]
2851	1	16	60	60.0	2	20	[(7626, 2), (3367, 2), (5080, 1), (7716, 2), (6097, 2), (8587, 2), (8535, 2), (5363, 2), (3117, 1), (1606, 2), (6381, 2), (7392, 2), (4275, 2), (1378, 2), (4037, 2), (2688, 2), (4550, 1), (8707, 2), (8162, 1), (6060, 2)]
2855	1	1	8	60.0	2	0	[]
2861	3	1	8	60.0	2	0	[]
2862	2	1	8	60.0	2	0	[]
2865	1	1	8	60.0	2	0	[]
2875	7	3	8	60.0	2	0	[]
2876	8	2	8	60.0	2	0	[]
2880	6	4	8	60.0	2	0	[]
2883	4	1	8	60.0	2	0	[]
2901	2	1	8	60.0	2	1	[(8429, 2)]
2906	2	1	8	60.0	2	0	[]
2911	4	1	8	60.0	2	0	[]
2916	2	4	8	60.0	2	0	[]
2918	7	1	8	60.0	2	0	[]
2919	1	1	8	60.0	2	0	[]
2921	2	6	8	60.0	2	0	[]
2927	1	2	8	60.0	2	0	[]
2933	1	3	8	60.0	2	0	[]
2939	2	1	8	60.0	2	0	[]
2944	2	2	8	60.0	0	0	[]
2949	6	5	8	60.0	2	0	[]
2952	5	1	8	60.0	2	0	[]
2955	2	4	8	60.0	2	0	[]
2967	2	5	8	60.0	2	0	[]
2970	14	6	16	100.0	0	50	[(8451, 0), (7879, 0), (2166, 0), (9269, 0), (4025, 0), (5476, 0), (1728, 0), (8582, 0), (2224, 0), (4393, 0), (3709, 0), (1222, 0), (3089, 0), (6520, 0), (854, 0), (3409, 0), (7935, 0), (768, 0), (793, 0), (3657, 0), (7026, 0), (7928, 0), (9049, 0), (238, 0), (7318, 0), (9077, 0), (6139, 0), (1098, 0), (6137, 0), (6381, 0), (6400, 0), (1637, 0), (9163, 0), (1405, 0), (3994, 0), (3890, 0), (6232, 0), (3908, 0), (5320, 0), (3048, 0), (8069, 0), (4704, 0), (3802, 0), (3886, 0), (3481, 0), (8618, 0), (1229, 0), (2238, 0), (7486, 0), (1238, 0)]
2979	5	2	8	60.0	2	6	[(7117, 0), (5112, 0), (5368, 0), (5394, 0), (1683, 0), (9158, 0)]
2980	10	1	8	60.0	2	0	[]
2982	2	2	8	60.0	2	0	[]
2986	2	4	8	60.0	2	0	[]
2993	1	2	8	60.0	2	0	[]
2994	1	1	8	60.0	2	0	[]
2997	2	1	8	60.0	2	0	[]
2998	16	2	8	60.0	2	0	[]
2999	1	1	16	40.0	2	0	[]
3000	4	2	8	60.0	2	0	[]
3001	14	1	8	60.0	2	0	[]
3008	5	1	8	60.0	2	0	[]
3009	24	3	8	60.0	2	5	[(1541, 0), (645, 0), (435, 0), (2467, 0), (1919, 0)]
3011	7	2	8	60.0	2	0	[]
3014	2	1	8	60.0	2	0	[]
3016	1	1	8	60.0	2	0	[]
3026	1	1	40	60.0	2	0	[]
3029	2	1	8	60.0	2	0	[]
3041	9	3	8	60.0	2	2	[(4300, 1), (8824, 2)]
3045	2	2	8	60.0	2	0	[]
3046	1	4	8	60.0	2	0	[]
3048	62	12	16	80.0	2	2	[(6123, 0), (3987, 0)]
3055	1	1	8	60.0	2	0	[]
3057	1	1	1	60.0	2	1	[(3431, 0)]
3059	2	1	8	60.0	2	0	[]
3066	13	2	8	100.0	2	2	[(1026, 0), (580, 0)]
3068	2	1	8	60.0	2	0	[]
3072	1	1	8	60.0	2	0	[]
3075	2	1	8	60.0	2	0	[]
3076	5	1	2	60.0	2	0	[]
3080	3	2	8	60.0	2	0	[]
3082	1	1	8	60.0	2	0	[]
3089	2	2	16	80.0	2	0	[]
3091	40	5	8	60.0	2	2	[(1884, 0), (3831, 2)]
3096	7	1	8	60.0	2	0	[]
3102	1	1	8	60.0	2	0	[]
3104	3	2	8	60.0	2	0	[]
3108	63	8	16	60.0	2	0	[]
3113	1	1	7	60.0	2	0	[]
3115	1	4	8	60.0	2	0	[]
3117	3	12	16	60.0	2	20	[(7626, 2), (3367, 2), (5080, 1), (7716, 2), (6097, 2), (4037, 2), (8587, 2), (2851, 2), (5363, 2), (1606, 2), (6381, 2), (7392, 2), (1637, 2), (4275, 2), (1378, 2), (2688, 2), (4550, 1), (8707, 2), (8162, 1), (6060, 2)]
3119	2	1	8	60.0	2	0	[]
3120	1	1	8	60.0	2	0	[]
3121	6	3	2	60.0	2	1	[(4595, 0)]
3124	3	4	7	60.0	2	0	[]
3127	29	1	8	60.0	2	0	[]
3135	4	1	8	60.0	2	0	[]
3142	1	1	2	60.0	2	0	[]
3147	2	1	2	60.0	2	0	[]
3149	1	1	8	60.0	2	0	[]
3153	6	3	8	60.0	2	0	[]
3154	1	1	8	60.0	2	0	[]
3166	2	1	8	60.0	2	0	[]
3172	6	1	16	80.0	2	0	[]
3175	1	2	16	60.0	2	0	[]
3177	2	1	8	80.0	2	0	[]
3181	1	1	2	100.0	2	0	[]
3182	9	6	8	60.0	2	0	[]
3188	1	1	8	60.0	2	0	[]
3191	12	1	6	60.0	2	0	[]
3195	3	1	8	60.0	2	0	[]
3203	8	3	8	60.0	2	0	[]
3204	6	1	8	60.0	2	1	[(5022, 2)]
3205	2	1	8	60.0	2	0	[]
3208	4	1	8	60.0	2	0	[]
3211	4	3	8	60.0	2	0	[]
3212	3	2	8	60.0	2	0	[]
3214	1	1	8	60.0	2	0	[]
3217	3	1	8	60.0	2	0	[]
3218	3	1	8	60.0	2	0	[]
3220	14	2	3	60.0	2	0	[]
3222	4	1	8	80.0	2	0	[]
3223	5	2	8	60.0	2	3	[(238, 2), (5022, 2), (1059, 0)]
3224	2	2	8	60.0	2	0	[]
3225	2	1	8	60.0	2	0	[]
3230	1	1	4	200.0	2	0	[]
3234	2	1	8	60.0	2	0	[]
3236	1	4	16	80.0	2	0	[]
3237	1	1	6	180.0	2	0	[]
3243	2	1	8	60.0	2	0	[]
3251	3	1	8	300.0	2	0	[]
3257	1	1	5	60.0	2	0	[]
3259	2	6	8	60.0	2	0	[]
3269	1	1	8	60.0	2	0	[]
3273	2	2	7	60.0	2	0	[]
3287	2	1	2	60.0	2	0	[]
3288	4	4	8	60.0	2	1	[(6283, 0)]
3297	2	1	8	60.0	2	0	[]
3298	1	4	8	60.0	2	0	[]
3301	3	1	8	60.0	2	0	[]
3302	4	6	8	60.0	2	0	[]
3308	1	1	2	60.0	2	0	[]
3310	1	2	2	60.0	2	0	[]
3312	2	1	8	60.0	2	0	[]
3315	2	1	8	60.0	2	0	[]
3331	1	5	16	60.0	2	0	[]
3333	4	1	8	60.0	2	0	[]
3340	4	1	8	60.0	2	1	[(5022, 2)]
3341	2	1	8	60.0	2	0	[]
3344	35	4	8	60.0	2	3	[(3994, 0), (4234, 0), (435, 0)]
3353	1	1	8	60.0	2	0	[]
3356	6	6	8	60.0	2	51	[(8242, 2), (781, 1), (1507, 2), (2443, 2), (2613, 1), (6035, 2), (1004, 2), (6151, 2), (4083, 1), (7222, 1), (4977, 2), (5880, 2), (6013, 1), (6640, 2), (5525, 2), (5646, 2), (6634, 2), (2170, 2), (8673, 2), (7152, 2), (9338, 2), (4821, 2), (7732, 2), (5747, 2), (551, 2), (7754, 2), (3563, 2), (56, 2), (2192, 0), (1343, 2), (6007, 2), (1529, 1), (5228, 2), (2004, 1), (1738, 2), (2057, 2), (1533, 1), (8077, 2), (4916, 2), (435, 2), (7600, 1), (3652, 2), (4364, 1), (7659, 2), (3891, 2), (4231, 1), (1009, 2), (5068, 1), (3251, 2), (5546, 2), (1748, 2)]
3363	5	1	8	60.0	2	0	[]
3364	1	1	1	60.0	2	0	[]
3365	1	1	1	60.0	2	0	[]
3367	2	1	32	60.0	2	14	[(7626, 2), (5080, 1), (8587, 2), (2851, 1), (5363, 2), (3117, 1), (6381, 2), (7392, 2), (1637, 1), (4275, 2), (4550, 1), (8707, 2), (8162, 1), (6060, 2)]
3377	2	1	8	60.0	2	0	[]
3379	3	1	8	60.0	2	0	[]
3383	4	4	6	60.0	2	0	[]
3390	2	2	8	60.0	2	0	[]
3394	2	1	8	60.0	2	0	[]
3395	4	1	8	60.0	2	0	[]
3401	16	3	8	60.0	2	0	[]
3409	2	1	8	40.0	2	0	[]
3416	3	1	8	60.0	2	0	[]
3417	2	1	1	100.0	2	0	[]
3422	4	1	8	60.0	2	0	[]
3424	2	1	2	100.0	2	0	[]
3425	53	5	8	60.0	2	2	[(1919, 0), (3965, 2)]
3426	30	5	8	60.0	2	4	[(9266, 1), (5951, 1), (328, 2), (3363, 2)]
3430	1	1	8	60.0	2	0	[]
3431	5	5	8	300.0	2	0	[]
3432	1	1	8	60.0	2	0	[]
3438	1	1	8	60.0	2	0	[]
3445	3	1	8	60.0	2	0	[]
3469	19	3	8	60.0	2	3	[(5022, 0), (3890, 0), (1637, 0)]
3470	3	1	8	60.0	2	0	[]
3471	1	1	2	60.0	2	0	[]
3478	3	1	8	60.0	2	0	[]
3480	20	2	16	60.0	2	0	[]
3481	12	4	8	60.0	2	0	[]
3485	3	1	2	60.0	2	0	[]
3486	28	8	16	100.0	2	0	[]
3489	2	1	8	60.0	2	0	[]
3492	1	4	8	60.0	2	0	[]
3494	132	7	16	150.0	2	0	[]
3500	1	1	2	60.0	2	0	[]
3502	1	1	8	60.0	2	0	[]
3508	1	4	16	40.0	2	0	[]
3514	1	1	2	60.0	2	0	[]
3517	1	1	1	60.0	2	0	[]
3521	2	12	16	200.0	2	0	[]
3525	1	1	8	60.0	2	0	[]
3527	2	3	8	60.0	2	0	[]
3529	1	1	8	60.0	2	0	[]
3537	3	3	8	60.0	2	0	[]
3541	2	1	8	60.0	2	0	[]
3542	46	3	8	60.0	2	0	[]
3548	2	1	8	60.0	2	0	[]
3552	1	4	8	60.0	2	0	[]
3555	60	3	8	60.0	2	10	[(4479, 1), (7196, 2), (9269, 2), (817, 1), (7174, 1), (2248, 1), (3445, 0), (3431, 0), (7445, 0), (2844, 1)]
3559	1	1	8	60.0	2	0	[]
3560	4	1	8	60.0	2	0	[]
3563	2	1	8	60.0	2	0	[]
3568	2	4	8	60.0	2	0	[]
3570	12	5	8	60.0	2	0	[]
3571	10	6	16	200.0	2	0	[]
3574	32	9	16	60.0	0	0	[]
3578	2	1	8	60.0	2	0	[]
3579	1	2	8	60.0	2	0	[]
3586	1	6	8	60.0	2	0	[]
3588	9	1	16	80.0	2	2	[(4973, 2), (4364, 2)]
3591	2	1	8	60.0	2	0	[]
3597	8	1	8	60.0	2	2	[(9123, 1), (1919, 0)]
3598	2	2	2	60.0	2	0	[]
3602	3	1	8	60.0	2	0	[]
3615	2	1	8	60.0	2	0	[]
3618	2	1	8	60.0	2	0	[]
3619	4	1	8	60.0	2	0	[]
3626	1	1	2	60.0	2	0	[]
3635	4	1	4	60.0	2	0	[]
3644	1	1	8	60.0	2	0	[]
3650	1	1	2	60.0	2	0	[]
3652	4	6	8	60.0	2	0	[]
3657	103	6	16	60.0	1	5	[(2061, 0), (6715, 1), (689, 1), (8069, 0), (2621, 0)]
3659	6	3	8	60.0	2	0	[]
3660	5	1	8	60.0	2	0	[]
3662	1	4	8	60.0	2	0	[]
3663	2	1	8	60.0	2	0	[]
3664	1	1	8	60.0	2	0	[]
3681	1	1	8	60.0	2	0	[]
3682	28	3	8	60.0	2	2	[(9195, 1), (5883, 0)]
3691	2	5	8	60.0	2	0	[]
3692	7	24	32	200.0	2	0	[]
3693	18	6	8	60.0	2	2	[(6911, 0), (5585, 0)]
3709	21	2	8	40.0	2	1	[(1919, 0)]
3710	2	1	4	60.0	2	0	[]
3712	1	1	8	60.0	2	0	[]
3715	4	3	8	60.0	2	0	[]
3727	2	1	8	60.0	2	0	[]
3728	1	4	8	60.0	2	0	[]
3730	2	1	8	60.0	2	0	[]
3734	1	1	8	60.0	2	0	[]
3739	1	1	1	60.0	2	0	[]
3741	2	1	8	60.0	2	0	[]
3747	18	1	8	60.0	2	5	[(3904, 0), (7354, 1), (8523, 2), (4973, 1), (5394, 1)]
3749	1	1	8	60.0	2	0	[]
3758	2	4	8	60.0	2	0	[]
3767	1	4	8	60.0	2	0	[]
3775	1	8	16	80.0	2	0	[]
3776	2	1	8	60.0	2	0	[]
3778	1	4	8	60.0	2	0	[]
3781	1	1	8	60.0	2	0	[]
3783	2	1	8	60.0	2	0	[]
3790	2	1	8	60.0	2	0	[]
3802	178	6	16	100.0	2	2	[(9077, 0), (1788, 0)]
3804	3	1	8	60.0	2	0	[]
3807	3	1	2	60.0	2	2	[(3972, 1), (1515, 1)]
3809	5	1	8	60.0	2	0	[]
3811	1	1	2	60.0	2	0	[]
3813	10	6	8	250.0	2	1	[(1884, 0)]
3820	1	1	2	60.0	2	0	[]
3825	6	1	8	60.0	2	3	[(6232, 2), (1405, 2), (6381, 1)]
3826	2	1	8	60.0	2	0	[]
3831	2	1	8	60.0	2	0	[]
3833	1	1	8	60.0	2	0	[]
3838	2	1	8	60.0	2	0	[]
3844	1	1	8	60.0	2	0	[]
3845	20	2	16	60.0	2	3	[(464, 0), (1637, 0), (1728, 2)]
3848	1	24	48	300.0	2	0	[]
3851	29	6	8	60.0	2	4	[(7799, 1), (9111, 2), (4150, 2), (7781, 1)]
3852	2	2	8	60.0	2	0	[]
3856	2	2	8	60.0	2	0	[]
3857	2	1	8	60.0	2	0	[]
3859	1	7	24	80.0	2	0	[]
3874	5	1	8	60.0	2	0	[]
3875	10	2	8	60.0	2	0	[]
3876	4	4	4	60.0	2	0	[]
3877	1	1	2	60.0	2	0	[]
3881	1	4	8	60.0	2	0	[]
3883	1	1	8	60.0	2	0	[]
3884	2	1	8	60.0	2	0	[]
3885	14	4	8	60.0	2	1	[(5145, 1)]
3886	47	21	32	200.0	0	1	[(5958, 2)]
3888	4	1	16	100.0	2	0	[]
3889	2	1	8	60.0	2	0	[]
3890	54	24	32	60.0	0	1	[(1606, 0)]
3891	5	2	16	80.0	2	0	[]
3894	66	6	10	60.0	2	12	[(1919, 0), (4753, 2), (1653, 0), (3480, 0), (296, 1), (680, 2), (1151, 1), (5883, 0), (9098, 2), (2277, 1), (5271, 1), (7536, 2)]
3897	1	1	1	60.0	2	0	[]
3901	2	4	8	60.0	2	0	[]
3904	3	1	8	60.0	2	2	[(3802, 2), (1599, 2)]
3908	1	1	1	60.0	2	29	[(433, 0), (9033, 0), (2552, 0), (8035, 0), (6642, 0), (8598, 0), (46, 0), (2578, 0), (6614, 0), (5316, 0), (2911, 0), (7794, 0), (121, 0), (1771, 0), (6656, 0), (2430, 0), (7870, 0), (8745, 0), (4249, 0), (1833, 0), (8658, 0), (2477, 0), (7955, 0), (5021, 0), (5282, 0), (2556, 0), (4573, 0), (8345, 0), (1459, 0)]
3909	2	1	8	60.0	2	0	[]
3916	3	4	8	60.0	2	0	[]
3919	2	1	8	60.0	2	0	[]
3920	4	1	8	60.0	2	0	[]
3924	1	1	2	60.0	2	0	[]
3926	9	1	8	60.0	2	0	[]
3930	2	1	8	60.0	2	0	[]
3939	2	1	8	80.0	2	0	[]
3941	1	1	2	60.0	2	0	[]
3944	2	1	8	60.0	2	0	[]
3954	3	1	8	60.0	2	0	[]
3956	2	1	8	60.0	2	0	[]
3958	2	1	1	60.0	2	0	[]
3959	3	36	48	500.0	2	0	[]
3961	1	4	8	60.0	2	0	[]
3962	1	1	1	60.0	2	0	[]
3963	16	3	7	60.0	2	2	[(725, 2), (7473, 1)]
3964	2	1	8	60.0	2	0	[]
3965	2	1	8	80.0	2	0	[]
3971	1	1	8	60.0	2	0	[]
3972	6	1	8	60.0	2	0	[]
3974	2	4	8	60.0	2	0	[]
3981	1	4	8	60.0	2	0	[]
3987	26	2	8	40.0	0	1	[(1904, 0)]
3994	211	6	8	60.0	2	1	[(1919, 1)]
4001	4	2	8	60.0	2	0	[]
4005	2	4	8	60.0	2	1	[(1336, 0)]
4007	25	6	8	60.0	2	2	[(1473, 0), (2773, 0)]
4009	16	6	8	60.0	2	3	[(6521, 2), (1919, 0), (1639, 2)]
4010	1	1	8	60.0	2	0	[]
4013	7	1	1	60.0	2	0	[]
4021	1	4	8	60.0	2	0	[]
4022	4	1	8	60.0	2	0	[]
4025	21	3	16	60.0	2	0	[]
4026	11	3	8	60.0	2	61	[(7740, 1), (6049, 1), (5747, 1), (9035, 2), (8848, 1), (8035, 2), (2613, 1), (8673, 1), (5876, 2), (5256, 1), (179, 2), (6258, 1), (4855, 1), (5880, 1), (302, 1), (2183, 1), (6634, 1), (5435, 2), (5323, 1), (5083, 1), (9338, 1), (850, 1), (1662, 1), (4821, 1), (6633, 0), (5565, 1), (1743, 1), (1507, 1), (3909, 2), (1949, 1), (8126, 1), (4978, 1), (78, 1), (6187, 1), (3894, 1), (8549, 1), (3851, 2), (7282, 1), (2337, 1), (876, 1), (7380, 0), (924, 1), (3652, 1), (2982, 1), (7887, 1), (4231, 0), (648, 1), (409, 0), (774, 2), (3251, 1), (736, 1), (8791, 2), (6092, 0), (4078, 1), (6787, 1), (2556, 1), (3926, 1), (1240, 0), (7457, 1), (4973, 1), (3182, 1)]
4029	8	2	8	60.0	2	1	[(3802, 1)]
4031	1	1	1	60.0	2	0	[]
4032	3	1	16	60.0	2	0	[]
4036	2	2	8	60.0	2	0	[]
4037	1	2	32	60.0	2	14	[(7626, 2), (5080, 1), (8587, 2), (2851, 1), (5363, 2), (3117, 1), (6381, 2), (7392, 2), (1637, 1), (4275, 2), (4550, 1), (8707, 2), (8162, 1), (6060, 2)]
4053	2	2	8	60.0	2	0	[]
4056	1	4	8	60.0	2	0	[]
4060	3	1	8	60.0	2	0	[]
4064	1	2	2	60.0	2	0	[]
4068	26	2	8	60.0	2	0	[]
4070	2	1	8	60.0	2	0	[]
4077	4	2	8	60.0	2	0	[]
4078	2	2	2	60.0	2	0	[]
4079	1	1	7	60.0	2	0	[]
4082	1	1	8	60.0	2	0	[]
4083	18	12	16	100.0	2	0	[]
4086	6	3	8	60.0	2	1	[(6063, 2)]
4090	2	1	24	500.0	2	0	[]
4098	2	1	2	60.0	2	0	[]
4100	1	1	7	60.0	2	0	[]
4102	6	2	8	60.0	2	0	[]
4105	1	4	8	60.0	2	0	[]
4106	2	1	8	60.0	2	0	[]
4108	6	2	8	60.0	2	0	[]
4111	2	4	8	60.0	2	0	[]
4112	1	8	16	200.0	2	0	[]
4118	4	1	8	80.0	2	0	[]
4121	3	1	8	60.0	2	1	[(1919, 1)]
4122	7	1	8	60.0	2	0	[]
4124	1	1	8	60.0	2	0	[]
4130	2	1	8	60.0	2	0	[]
4133	6	2	8	60.0	2	0	[]
4137	1	1	8	60.0	2	0	[]
4140	1	1	8	60.0	2	0	[]
4142	1	1	8	60.0	2	0	[]
4143	4	12	16	60.0	2	0	[]
4149	1	8	16	100.0	1	0	[]
4150	3	5	8	500.0	2	0	[]
4151	1	4	8	60.0	2	0	[]
4152	11	1	8	60.0	2	0	[]
4158	2	1	8	60.0	2	0	[]
4159	2	1	8	60.0	2	0	[]
4165	2	6	8	60.0	2	0	[]
4171	3	1	8	60.0	2	2	[(4522, 2), (4973, 2)]
4172	4	1	2	60.0	2	0	[]
4175	20	6	8	80.0	2	3	[(3802, 0), (6911, 0), (1599, 0)]
4180	1	1	2	60.0	2	0	[]
4183	4	4	8	80.0	2	0	[]
4184	1	1	8	60.0	2	0	[]
4187	1	1	8	60.0	2	0	[]
4191	5	2	8	80.0	2	0	[]
4195	1	4	8	60.0	2	0	[]
4196	1	4	8	60.0	2	0	[]
4198	6	1	8	60.0	2	0	[]
4200	1	1	1	60.0	2	0	[]
4203	1	7	60	60.0	0	0	[]
4205	6	1	8	60.0	2	1	[(4420, 1)]
4222	3	2	8	60.0	2	0	[]
4224	2	1	7	60.0	2	0	[]
4227	2	2	2	60.0	2	0	[]
4231	31	6	8	60.0	0	6	[(2089, 0), (1904, 2), (1592, 0), (1637, 0), (2578, 1), (8553, 0)]
4234	13	6	8	60.0	2	1	[(3356, 2)]
4249	4	1	8	60.0	2	0	[]
4250	2	1	8	60.0	2	1	[(2510, 0)]
4252	19	12	16	100.0	2	0	[]
4260	3	6	8	60.0	2	0	[]
4261	4	2	8	60.0	2	0	[]
4264	4	1	8	60.0	2	0	[]
4265	2	4	8	60.0	2	0	[]
4266	1	2	2	60.0	2	0	[]
4275	1	2	32	100.0	2	18	[(3367, 2), (5080, 1), (7716, 2), (6097, 2), (4037, 2), (8587, 2), (2851, 1), (5363, 2), (3117, 1), (1606, 2), (6381, 2), (1637, 1), (1378, 2), (2688, 2), (4550, 1), (8707, 2), (8162, 1), (6060, 2)]
4284	4	6	8	200.0	2	0	[]
4291	1	1	8	60.0	2	0	[]
4292	3	1	8	60.0	2	0	[]
4293	1	1	8	60.0	2	0	[]
4299	2	1	8	60.0	2	0	[]
4300	10	5	32	80.0	2	0	[]
4305	1	4	8	60.0	2	0	[]
4307	2	1	8	60.0	2	0	[]
4310	1	1	8	60.0	2	0	[]
4315	1	1	48	300.0	2	0	[]
4316	1	1	8	60.0	2	0	[]
4324	1	1	2	60.0	2	0	[]
4330	1	1	8	60.0	2	0	[]
4333	2	1	5	80.0	2	0	[]
4337	21	12	16	60.0	2	0	[]
4338	8	6	8	60.0	2	0	[]
4340	2	6	8	60.0	2	0	[]
4343	1	1	2	60.0	2	0	[]
4351	2	1	8	60.0	2	0	[]
4358	6	1	8	60.0	2	1	[(1919, 0)]
4360	1	1	8	60.0	2	0	[]
4361	3	1	8	60.0	2	0	[]
4364	2	1	8	60.0	2	0	[]
4365	2	1	8	60.0	2	0	[]
4369	1	1	8	60.0	2	0	[]
4371	1	1	2	60.0	2	0	[]
4377	2	1	2	60.0	2	0	[]
4380	1	1	8	60.0	2	0	[]
4387	2	1	8	60.0	2	0	[]
4389	2	1	8	60.0	2	0	[]
4393	67	4	8	80.0	2	5	[(3682, 0), (6911, 0), (2728, 0), (5436, 0), (6381, 0)]
4398	15	6	8	60.0	2	4	[(6232, 2), (7261, 0), (456, 1), (1251, 2)]
4399	1	1	8	60.0	2	0	[]
4405	10	12	16	60.0	2	0	[]
4408	12	1	8	60.0	2	1	[(1788, 1)]
4411	2	1	8	60.0	2	0	[]
4417	1	4	8	80.0	2	0	[]
4420	4	6	8	60.0	2	0	[]
4422	1	1	8	60.0	2	0	[]
4427	1	4	8	60.0	2	0	[]
4429	4	4	8	60.0	2	2	[(2090, 0), (1253, 0)]
4430	3	1	8	60.0	2	0	[]
4440	5	6	8	60.0	2	0	[]
4446	1	1	2	60.0	2	0	[]
4447	1	1	2	60.0	2	0	[]
4449	11	1	8	200.0	2	0	[]
4451	2	6	8	60.0	2	2	[(3908, 0), (1312, 0)]
4456	7	1	8	60.0	2	1	[(2467, 0)]
4460	2	1	8	60.0	2	0	[]
4466	1	1	8	60.0	2	0	[]
4468	4	1	8	60.0	2	0	[]
4470	1	1	1	60.0	2	0	[]
4475	2	1	1	60.0	2	0	[]
4477	2	1	8	60.0	2	0	[]
4479	2	1	8	60.0	2	0	[]
4484	1	1	1	60.0	2	0	[]
4485	1	1	8	60.0	2	0	[]
4486	7	11	16	100.0	2	0	[]
4496	1	1	8	60.0	2	0	[]
4505	4	1	8	60.0	2	0	[]
4508	25	1	8	100.0	2	4	[(4429, 2), (5443, 2), (238, 1), (1146, 2)]
4510	1	4	8	60.0	2	0	[]
4513	3	2	8	60.0	2	0	[]
4516	1	1	8	60.0	2	0	[]
4519	1	1	4	60.0	2	0	[]
4522	42	12	16	100.0	2	0	[]
4524	4	2	8	60.0	2	0	[]
4525	2	1	3	60.0	2	0	[]
4528	1	1	8	60.0	2	0	[]
4529	3	1	8	60.0	2	0	[]
4531	99	4	8	60.0	2	1	[(1919, 0)]
4532	2	1	8	60.0	2	0	[]
4533	3	4	8	60.0	2	0	[]
4539	1	4	8	60.0	2	0	[]
4541	2	3	8	60.0	2	0	[]
4547	1	1	8	60.0	2	0	[]
4550	1	8	16	60.0	2	18	[(7626, 3), (3367, 3), (7716, 3), (6097, 3), (8587, 2), (2851, 2), (5363, 2), (3117, 1), (1606, 3), (6381, 2), (7392, 3), (1637, 2), (1378, 3), (4037, 3), (2688, 3), (8707, 2), (4275, 3), (6060, 2)]
4552	14	6	8	60.0	2	0	[]
4567	1	3	8	60.0	2	1	[(1919, 0)]
4570	15	4	8	60.0	2	3	[(7753, 0), (6230, 0), (1919, 0)]
4573	23	3	8	60.0	2	0	[]
4578	8	2	8	60.0	2	0	[]
4582	4	1	8	60.0	2	0	[]
4592	2	1	8	60.0	2	0	[]
4593	2	1	8	60.0	2	0	[]
4595	27	4	8	60.0	2	0	[]
4596	2	1	2	60.0	2	0	[]
4597	1	1	7	60.0	2	0	[]
4602	1	1	8	60.0	2	0	[]
4606	4	8	16	200.0	2	0	[]
4611	2	1	1	60.0	2	0	[]
4615	1	1	2	60.0	2	0	[]
4622	1	1	1	60.0	2	0	[]
4625	1	1	8	60.0	2	0	[]
4628	2	1	8	60.0	2	0	[]
4631	2	1	8	60.0	2	0	[]
4638	2	1	8	60.0	2	0	[]
4646	3	3	8	60.0	2	8	[(2138, 0), (5107, 0), (7452, 0), (7770, 0), (6007, 0), (1354, 0), (321, 0), (3778, 2)]
4652	4	1	8	60.0	2	0	[]
4653	19	6	8	60.0	2	2	[(8651, 2), (1919, 0)]
4659	2	1	8	60.0	2	0	[]
4662	2	1	8	60.0	2	0	[]
4663	74	12	2	80.0	2	2	[(2068, 1), (1919, 0)]
4668	3	1	8	60.0	2	0	[]
4671	12	2	8	60.0	2	1	[(3874, 0)]
4678	15	6	3	60.0	2	1	[(2668, 0)]
4680	2	1	8	60.0	2	0	[]
4682	2	1	8	60.0	2	0	[]
4683	2	1	8	60.0	2	0	[]
4686	3	2	8	60.0	2	0	[]
4687	1	1	8	60.0	2	0	[]
4688	2	1	8	60.0	2	0	[]
4704	29	2	8	60.0	2	2	[(3831, 2), (5868, 0)]
4705	2	1	2	60.0	2	0	[]
4707	1	1	8	60.0	2	0	[]
4708	33	2	8	100.0	2	1	[(5655, 0)]
4716	1	1	1	60.0	2	0	[]
4722	1	1	8	60.0	2	0	[]
4731	1	1	8	60.0	2	0	[]
4732	2	2	8	60.0	2	0	[]
4739	2	1	8	60.0	2	0	[]
4740	1	1	8	60.0	2	0	[]
4741	7	1	1	60.0	2	23	[(8473, 0), (3660, 0), (7014, 0), (2587, 0), (3288, 0), (4973, 0), (1152, 0), (6336, 0), (3425, 0), (6025, 0), (3426, 0), (4662, 0), (6128, 0), (5921, 0), (5295, 0), (7192, 0), (4013, 0), (4951, 0), (7434, 0), (3570, 0), (5847, 0), (1593, 0), (7834, 0)]
4743	4	2	8	60.0	2	0	[]
4745	1	1	8	60.0	2	1	[(5022, 2)]
4750	11	1	8	60.0	2	0	[]
4751	2	1	8	60.0	2	1	[(3356, 1)]
4753	2	1	1	60.0	2	0	[]
4757	1	2	3	60.0	2	0	[]
4758	6	6	16	60.0	2	0	[]
4761	1	1	2	60.0	2	0	[]
4764	1	4	8	60.0	2	0	[]
4765	1	1	8	60.0	2	0	[]
4768	1	1	2	60.0	2	0	[]
4771	4	2	8	60.0	2	0	[]
4777	1	1	3	60.0	2	0	[]
4779	4	1	1	60.0	2	0	[]
4788	1	2	8	60.0	2	0	[]
4789	2	1	2	40.0	2	0	[]
4791	3	1	8	60.0	2	0	[]
4792	5	1	2	60.0	2	0	[]
4793	2	2	8	60.0	2	0	[]
4794	1	1	2	60.0	2	1	[(7196, 1)]
4796	2	1	8	60.0	2	0	[]
4798	1	1	8	60.0	2	0	[]
4805	1	4	8	60.0	2	0	[]
4807	2	1	1	100.0	2	0	[]
4811	2	1	8	60.0	2	0	[]
4814	3	2	8	60.0	2	0	[]
4817	1	1	2	60.0	2	0	[]
4821	6	1	8	60.0	2	0	[]
4823	2	1	8	60.0	2	0	[]
4827	2	1	8	60.0	2	0	[]
4829	1	1	2	60.0	2	0	[]
4833	2	3	8	60.0	2	0	[]
4834	1	4	8	60.0	2	0	[]
4847	4	6	8	60.0	2	0	[]
4855	8	2	8	60.0	2	0	[]
4856	2	4	8	60.0	2	0	[]
4869	9	3	8	80.0	2	0	[]
4870	2	1	8	60.0	2	0	[]
4871	1	1	8	60.0	2	0	[]
4876	1	1	8	60.0	2	0	[]
4880	1	1	8	60.0	2	0	[]
4882	20	6	8	60.0	2	0	[]
4885	2	1	8	60.0	2	0	[]
4893	1	1	8	60.0	2	0	[]
4894	2	1	8	60.0	2	0	[]
4898	2	1	8	60.0	2	0	[]
4900	2	1	7	60.0	2	0	[]
4903	1	2	8	60.0	2	0	[]
4908	4	2	8	100.0	2	0	[]
4909	18	2	8	60.0	2	6	[(404, 1), (5643, 2), (4387, 2), (6128, 2), (406, 2), (3542, 1)]
4912	3	1	8	60.0	2	0	[]
4914	1	1	7	60.0	2	0	[]
4916	1	1	8	60.0	2	0	[]
4924	1	1	8	60.0	2	0	[]
4925	6	2	8	60.0	2	0	[]
4928	2	1	8	60.0	2	0	[]
4940	1	1	8	60.0	2	0	[]
4943	6	36	30	300.0	2	0	[]
4946	3	2	8	60.0	2	0	[]
4947	2	1	8	60.0	2	0	[]
4948	3	4	8	60.0	2	0	[]
4949	2	1	8	60.0	2	0	[]
4951	17	2	8	60.0	2	2	[(4522, 1), (1059, 1)]
4955	4	4	8	60.0	2	0	[]
4958	2	1	9	80.0	2	0	[]
4959	1	4	8	60.0	2	0	[]
4963	6	4	8	60.0	2	1	[(7998, 0)]
4973	51	6	8	60.0	2	0	[]
4975	2	2	8	60.0	2	0	[]
4977	6	2	8	60.0	2	1	[(7998, 0)]
4978	12	6	8	60.0	2	0	[]
4981	1	1	8	60.0	2	0	[]
4984	3	1	8	60.0	2	0	[]
4990	1	2	8	60.0	2	0	[]
4993	3	1	8	60.0	2	0	[]
4995	2	1	8	60.0	2	0	[]
5006	1	2	4	60.0	2	0	[]
5007	6	1	8	60.0	2	0	[]
5010	1	1	8	100.0	2	0	[]
5016	8	2	8	60.0	2	1	[(3890, 1)]
5021	1	2	8	60.0	2	0	[]
5022	282	12	16	60.0	0	14	[(1601, 2), (1251, 0), (8178, 2), (5051, 1), (797, 2), (8076, 1), (7071, 1), (2979, 1), (7392, 2), (4398, 0), (6763, 1), (1892, 1), (1606, 0), (8629, 0)]
5023	2	1	8	60.0	2	0	[]
5028	71	6	16	60.0	2	5	[(4337, 2), (3987, 0), (4947, 0), (456, 0), (1683, 0)]
5029	1	1	1	60.0	2	0	[]
5034	4	1	8	60.0	2	0	[]
5037	2	1	8	60.0	2	0	[]
5038	4	1	8	60.0	2	0	[]
5048	2	1	8	60.0	2	0	[]
5051	3	2	8	60.0	2	0	[]
5053	11	1	8	200.0	2	0	[]
5055	1	1	1	60.0	2	0	[]
5059	1	1	16	100.0	2	0	[]
5060	33	6	8	60.0	2	5	[(4789, 0), (3574, 0), (7486, 0), (1599, 2), (8451, 1)]
5063	58	4	5	200.0	2	3	[(5028, 0), (1788, 0), (7028, 0)]
5064	7	1	8	60.0	2	0	[]
5066	2	1	8	60.0	2	0	[]
5067	3	6	8	60.0	2	0	[]
5068	2	1	8	60.0	2	0	[]
5070	2	3	8	60.0	2	1	[(1059, 2)]
5075	1	1	2	60.0	2	0	[]
5079	2	4	8	60.0	2	0	[]
5080	1	8	16	60.0	2	18	[(7626, 3), (3367, 3), (7716, 3), (6097, 3), (8587, 2), (2851, 2), (5363, 2), (3117, 1), (1606, 3), (6381, 2), (7392, 3), (1637, 2), (1378, 3), (4037, 3), (2688, 3), (8707, 2), (4275, 3), (6060, 2)]
5083	5	1	8	80.0	2	12	[(4405, 0), (9065, 0), (1723, 0), (1152, 0), (5441, 0), (3548, 0), (4912, 0), (8643, 0), (9186, 0), (1639, 0), (850, 0), (7942, 0)]
5088	1	1	2	60.0	2	0	[]
5099	2	1	8	60.0	2	0	[]
5104	1	4	8	60.0	2	0	[]
5107	1	1	8	60.0	2	0	[]
5109	25	6	8	60.0	2	0	[]
5112	30	6	8	40.0	2	1	[(5368, 1)]
5115	1	1	8	60.0	2	0	[]
5116	2	1	8	60.0	2	0	[]
5126	1	4	8	60.0	2	0	[]
5130	1	1	1	60.0	2	0	[]
5131	3	2	8	60.0	2	0	[]
5134	1	1	1	60.0	2	0	[]
5137	1	1	1	60.0	2	0	[]
5141	2	1	8	60.0	2	0	[]
5145	2	1	8	500.0	2	0	[]
5147	2	1	8	60.0	2	0	[]
5149	2	2	8	60.0	2	0	[]
5150	1	1	8	60.0	2	0	[]
5151	1	1	8	60.0	2	0	[]
5154	2	1	8	60.0	2	0	[]
5156	1	2	8	60.0	2	0	[]
5157	1	1	8	60.0	2	0	[]
5159	1	1	8	60.0	2	0	[]
5172	8	1	8	60.0	2	1	[(5022, 1)]
5173	1	1	8	60.0	2	0	[]
5174	1	1	2	60.0	2	0	[]
5175	4	1	8	60.0	2	0	[]
5177	7	1	8	60.0	2	0	[]
5182	1	4	8	60.0	2	0	[]
5183	3	4	8	60.0	2	1	[(1919, 0)]
5184	2	1	8	60.0	2	0	[]
5189	4	6	8	60.0	2	0	[]
5195	1	1	1	100.0	1	0	[]
5196	1	1	8	60.0	2	0	[]
5198	1	1	8	60.0	2	0	[]
5203	1	1	2	60.0	2	0	[]
5204	4	1	8	60.0	2	0	[]
5205	1	3	8	60.0	2	0	[]
5210	1	1	8	60.0	2	0	[]
5211	2	1	8	60.0	2	0	[]
5212	2	1	8	60.0	2	0	[]
5213	4	1	8	100.0	2	0	[]
5215	1	1	2	60.0	2	0	[]
5222	30	6	8	60.0	2	0	[]
5227	5	1	8	60.0	2	0	[]
5228	7	2	8	60.0	2	1	[(4522, 2)]
5235	2	2	8	60.0	2	0	[]
5245	3	1	1	60.0	2	0	[]
5249	2	2	8	60.0	2	0	[]
5256	18	5	8	60.0	2	1	[(358, 1)]
5265	2	1	8	60.0	2	0	[]
5269	4	1	2	60.0	2	0	[]
5271	21	1	8	60.0	2	1	[(1919, 0)]
5279	1	1	2	60.0	2	0	[]
5282	1	1	4	60.0	2	0	[]
5287	1	1	8	60.0	2	0	[]
5295	20	2	8	60.0	2	0	[]
5300	1	1	8	60.0	2	0	[]
5301	1	1	8	60.0	2	0	[]
5310	2	1	8	60.0	2	0	[]
5316	1	1	8	60.0	2	0	[]
5320	1	1	8	60.0	2	0	[]
5323	2	1	8	60.0	2	0	[]
5327	2	1	1	60.0	2	0	[]
5330	2	1	8	60.0	2	0	[]
5332	1	1	8	60.0	2	0	[]
5334	1	1	8	60.0	2	0	[]
5335	2	10	16	200.0	2	0	[]
5337	2	1	1	60.0	2	0	[]
5338	16	6	8	60.0	2	0	[]
5347	3	2	16	60.0	2	0	[]
5348	2	3	8	60.0	2	0	[]
5349	3	1	8	60.0	2	0	[]
5350	2	1	8	60.0	2	0	[]
5361	1	4	8	60.0	2	0	[]
5363	3	3	16	60.0	1	19	[(7626, 2), (3367, 2), (5080, 1), (7716, 2), (6097, 2), (8587, 2), (8535, 2), (2851, 2), (3117, 1), (1606, 2), (7392, 2), (1637, 2), (4275, 2), (1378, 2), (4037, 2), (2688, 2), (4550, 1), (8707, 2), (8162, 1)]
5368	4	1	8	60.0	2	0	[]
5369	2	2	8	200.0	2	0	[]
5377	2	4	8	60.0	2	0	[]
5390	1	1	2	60.0	2	0	[]
5391	2	1	8	60.0	2	0	[]
5393	1	1	8	60.0	2	0	[]
5394	19	1	8	60.0	2	6	[(9091, 2), (1683, 1), (5112, 1), (7481, 2), (5368, 0), (7214, 1)]
5398	7	2	8	60.0	2	1	[(1402, 0)]
5403	1	4	8	60.0	2	0	[]
5409	1	1	8	60.0	2	0	[]
5410	1	1	8	60.0	2	0	[]
5413	3	2	16	100.0	2	0	[]
5415	2	1	8	40.0	2	0	[]
5416	2	1	1	60.0	2	0	[]
5417	2	2	8	60.0	2	0	[]
5419	1	4	8	60.0	2	0	[]
5421	4	1	8	60.0	2	0	[]
5424	2	1	8	60.0	2	0	[]
5435	5	1	8	60.0	2	0	[]
5436	40	6	8	60.0	2	0	[]
5441	24	2	8	40.0	2	6	[(1416, 2), (7778, 2), (3890, 1), (1122, 2), (5028, 1), (6381, 1)]
5443	4	1	2	60.0	2	0	[]
5445	1	1	8	60.0	2	0	[]
5446	5	1	8	60.0	2	0	[]
5448	1	1	16	100.0	2	0	[]
5454	1	2	8	60.0	2	0	[]
5464	2	3	8	60.0	2	0	[]
5476	20	5	8	60.0	2	0	[]
5478	2	1	8	60.0	2	0	[]
5479	6	1	8	60.0	2	0	[]
5485	2	1	7	60.0	2	0	[]
5486	3	1	8	60.0	2	0	[]
5487	2	1	2	60.0	2	0	[]
5488	1	1	2	60.0	2	0	[]
5491	2	1	8	60.0	2	0	[]
5492	1	1	1	60.0	2	0	[]
5496	5	2	8	60.0	2	0	[]
5504	2	4	8	60.0	2	0	[]
5508	1	1	2	60.0	2	0	[]
5512	5	1	8	60.0	2	0	[]
5517	2	2	2	60.0	2	0	[]
5520	1	1	8	60.0	2	0	[]
5525	3	1	8	60.0	2	0	[]
5526	39	3	8	60.0	2	4	[(1884, 0), (8293, 0), (1151, 1), (6381, 0)]
5527	2	1	1	60.0	2	0	[]
5528	1	6	8	40.0	2	0	[]
5530	2	1	8	60.0	2	1	[(3894, 2)]
5543	3	1	2	60.0	2	0	[]
5546	8	1	8	60.0	2	0	[]
5556	16	3	8	60.0	2	0	[]
5562	1	1	8	60.0	2	0	[]
5565	11	3	8	60.0	2	1	[(4522, 1)]
5567	2	2	8	60.0	2	0	[]
5575	1	1	2	60.0	2	0	[]
5577	2	1	8	60.0	2	0	[]
5584	1	1	8	40.0	2	0	[]
5585	20	1	8	60.0	2	0	[]
5587	2	1	8	60.0	2	0	[]
5589	4	1	16	100.0	2	0	[]
5590	9	1	1	60.0	2	0	[]
5602	12	2	2	60.0	2	1	[(7248, 1)]
5622	2	4	4	60.0	2	0	[]
5623	3	1	8	60.0	2	0	[]
5627	2	1	8	60.0	2	0	[]
5628	5	10	8	100.0	2	0	[]
5636	2	2	8	60.0	2	0	[]
5641	2	1	8	60.0	2	0	[]
5642	2	4	8	60.0	2	0	[]
5643	2	1	8	60.0	2	0	[]
5646	2	1	8	60.0	2	0	[]
5647	2	1	8	60.0	2	0	[]
5655	2	2	8	60.0	2	0	[]
5669	2	4	8	60.0	2	0	[]
5672	2	1	2	60.0	2	0	[]
5675	3	1	8	60.0	2	0	[]
5680	1	1	8	60.0	2	0	[]
5692	2	1	8	60.0	2	0	[]
5694	1	1	8	60.0	2	0	[]
5696	3	6	8	60.0	2	6	[(1173, 1), (1599, 2), (7988, 1), (3813, 1), (6421, 2), (8046, 1)]
5702	7	2	8	60.0	2	0	[]
5705	59	3	8	60.0	2	17	[(1416, 0), (1884, 0), (1904, 0), (8069, 0), (3108, 0), (7414, 0), (3211, 1), (7210, 2), (3904, 2), (7935, 0), (6381, 2), (8618, 2), (1599, 0), (1788, 1), (8538, 2), (1771, 0), (1405, 0)]
5706	1	4	16	80.0	2	0	[]
5716	1	1	8	100.0	2	0	[]
5727	1	4	8	60.0	2	0	[]
5736	2	1	11	80.0	2	0	[]
5739	2	1	8	300.0	2	0	[]
5744	1	12	8	60.0	2	0	[]
5747	18	3	8	60.0	2	1	[(4792, 2)]
5751	5	1	8	60.0	2	0	[]
5767	6	1	8	60.0	2	0	[]
5769	1	4	8	60.0	2	0	[]
5782	1	1	8	60.0	2	0	[]
5783	2	1	2	60.0	2	0	[]
5786	2	1	8	60.0	2	0	[]
5794	4	1	16	200.0	2	0	[]
5805	2	1	8	60.0	2	0	[]
5810	40	4	8	60.0	2	12	[(4479, 0), (3802, 1), (6015, 0), (7304, 2), (2829, 1), (995, 0), (5983, 0), (1747, 2), (5716, 2), (4522, 2), (3890, 0), (6381, 1)]
5814	2	1	8	60.0	2	0	[]
5815	2	1	4	60.0	2	0	[]
5819	1	1	3	60.0	2	0	[]
5820	154	6	8	60.0	2	4	[(8661, 2), (7099, 0), (6127, 2), (7485, 1)]
5823	2	1	8	60.0	2	0	[]
5825	2	2	8	60.0	2	0	[]
5827	1	1	2	60.0	2	0	[]
5829	1	1	8	60.0	2	0	[]
5837	2	1	8	60.0	2	0	[]
5844	2	1	8	60.0	2	0	[]
5847	20	6	8	60.0	2	0	[]
5848	2	1	6	60.0	2	0	[]
5851	2	1	8	60.0	2	0	[]
5856	46	4	8	60.0	2	5	[(1222, 0), (2997, 0), (1475, 0), (6421, 0), (5815, 2)]
5858	2	2	8	60.0	2	0	[]
5861	3	1	8	60.0	2	0	[]
5867	2	1	1	60.0	2	0	[]
5868	2	1	5	60.0	2	0	[]
5870	4	3	8	60.0	2	0	[]
5873	5	7	16	60.0	2	0	[]
5875	3	1	8	60.0	2	0	[]
5876	37	2	8	60.0	2	0	[]
5880	2	1	8	60.0	2	0	[]
5883	23	5	8	60.0	2	0	[]
5884	2	1	8	60.0	2	0	[]
5885	2	1	8	60.0	2	0	[]
5887	1	2	16	100.0	2	0	[]
5889	18	6	8	60.0	2	52	[(5063, 0), (1927, 0), (7613, 0), (1160, 0), (2166, 0), (3469, 0), (1728, 0), (7196, 0), (7420, 0), (2668, 0), (8293, 0), (8137, 0), (1222, 0), (3845, 2), (5441, 2), (5028, 0), (7414, 0), (7935, 0), (6661, 0), (3481, 0), (7686, 2), (7778, 1), (5589, 0), (9269, 0), (9049, 0), (2880, 0), (238, 0), (8333, 0), (129, 0), (6139, 0), (1740, 0), (6381, 0), (3908, 0), (3127, 0), (1475, 0), (9163, 0), (1405, 0), (3994, 0), (1059, 0), (188, 0), (9207, 0), (6232, 0), (3574, 0), (1786, 2), (3886, 0), (4175, 2), (6188, 0), (8824, 0), (4704, 0), (3802, 0), (3692, 0), (7486, 0)]
5894	2	1	8	60.0	2	1	[(5968, 1)]
5896	2	1	2	60.0	2	1	[(1515, 0)]
5899	1	2	8	60.0	2	0	[]
5908	3	1	8	60.0	2	1	[(8429, 2)]
5913	2	1	8	60.0	2	0	[]
5920	1	1	4	60.0	2	0	[]
5921	14	5	8	60.0	2	1	[(3963, 2)]
5935	2	1	8	100.0	2	0	[]
5941	1	1	1	60.0	2	0	[]
5942	9	6	8	60.0	2	24	[(6232, 0), (2022, 0), (1884, 0), (9049, 0), (1222, 0), (5063, 0), (7935, 0), (9336, 0), (3108, 0), (1447, 0), (3469, 1), (7414, 0), (9039, 0), (3908, 0), (5350, 0), (1887, 0), (8451, 0), (7908, 0), (9163, 0), (1405, 0), (2225, 0), (6520, 0), (1949, 2), (1788, 0)]
5943	2	1	1	60.0	2	0	[]
5947	1	2	8	60.0	2	0	[]
5951	2	1	8	60.0	2	0	[]
5952	2	1	8	60.0	2	0	[]
5957	1	1	8	60.0	2	0	[]
5958	6	2	2	60.0	2	15	[(4789, 0), (3422, 0), (3802, 0), (7686, 0), (7289, 0), (1222, 0), (4250, 0), (7023, 0), (3831, 0), (9039, 0), (685, 0), (3908, 0), (2224, 0), (5889, 0), (6381, 0)]
5963	3	1	6	60.0	2	0	[]
5964	6	2	8	60.0	2	0	[]
5968	3	1	8	60.0	2	0	[]
5976	2	3	8	60.0	2	0	[]
5977	1	1	8	60.0	2	0	[]
5978	13	2	8	60.0	2	1	[(8429, 0)]
5983	5	1	8	40.0	2	1	[(7338, 0)]
5992	1	1	8	100.0	2	0	[]
6000	1	4	8	60.0	2	0	[]
6002	1	1	8	60.0	2	0	[]
6005	2	3	8	500.0	2	0	[]
6006	2	1	8	60.0	2	0	[]
6007	20	2	16	80.0	2	3	[(3445, 0), (1788, 0), (5112, 2)]
6011	16	2	8	60.0	2	0	[]
6013	2	1	8	60.0	2	0	[]
6015	12	4	8	60.0	2	1	[(1700, 1)]
6016	2	1	8	60.0	2	0	[]
6019	2	1	8	60.0	2	0	[]
6024	1	1	2	60.0	2	0	[]
6025	19	1	8	40.0	0	3	[(1637, 0), (5022, 0), (1788, 1)]
6033	2	1	8	60.0	2	0	[]
6035	3	1	8	60.0	2	0	[]
6037	2	1	2	60.0	2	0	[]
6042	2	2	8	60.0	2	0	[]
6045	2	1	8	60.0	2	0	[]
6049	2	1	8	60.0	2	0	[]
6050	6	2	16	80.0	2	0	[]
6055	2	1	8	60.0	2	0	[]
6060	1	2	16	60.0	1	19	[(7626, 2), (3367, 2), (5080, 1), (7716, 2), (6097, 2), (8587, 2), (8535, 2), (2851, 2), (3117, 1), (1606, 2), (7392, 2), (1637, 2), (4275, 2), (1378, 2), (4037, 2), (2688, 2), (4550, 1), (8707, 2), (8162, 1)]
6063	2	1	7	60.0	2	0	[]
6064	2	1	8	60.0	2	0	[]
6065	2	1	2	1000.0	2	0	[]
6069	3	2	8	60.0	2	0	[]
6071	1	1	5	100.0	2	0	[]
6074	14	5	2	60.0	2	0	[]
6075	8	2	8	60.0	2	0	[]
6080	2	4	8	100.0	2	0	[]
6084	1	1	3	60.0	2	0	[]
6088	3	1	8	60.0	2	0	[]
6090	2	1	1	60.0	2	0	[]
6091	4	2	8	60.0	2	0	[]
6092	1	1	8	60.0	2	0	[]
6097	2	3	32	60.0	2	14	[(7626, 2), (5080, 1), (8587, 2), (2851, 1), (5363, 2), (3117, 1), (6381, 2), (7392, 2), (1637, 1), (4275, 2), (4550, 1), (8707, 2), (8162, 1), (6060, 2)]
6100	1	1	2	60.0	2	0	[]
6103	17	6	8	60.0	2	1	[(1624, 1)]
6111	3	1	8	60.0	2	0	[]
6115	9	6	16	60.0	2	0	[]
6116	1	1	6	60.0	2	0	[]
6123	138	6	8	60.0	2	14	[(5868, 0), (4337, 0), (5942, 2), (3831, 1), (3480, 2), (5810, 0), (1362, 0), (3089, 2), (8758, 1), (3048, 0), (5589, 2), (5060, 0), (3395, 0), (9207, 0)]
6125	2	1	8	60.0	2	1	[(5968, 2)]
6127	4	1	8	60.0	2	0	[]
6128	15	5	8	80.0	2	0	[]
6132	4	2	8	60.0	2	0	[]
6135	1	1	8	60.0	2	0	[]
6137	17	1	8	60.0	2	0	[]
6139	40	12	16	100.0	0	4	[(2970, 0), (9336, 0), (5028, 0), (7935, 0)]
6140	1	5	8	60.0	2	0	[]
6141	4	1	8	60.0	2	0	[]
6145	10	5	8	60.0	2	0	[]
6146	2	1	8	60.0	2	0	[]
6151	28	1	8	60.0	2	0	[]
6155	6	2	8	60.0	2	0	[]
6157	1	1	8	60.0	2	0	[]
6158	2	1	8	60.0	2	0	[]
6169	1	4	8	60.0	2	0	[]
6170	1	1	8	60.0	2	0	[]
6172	10	1	8	60.0	2	1	[(7998, 0)]
6174	2	4	8	60.0	2	0	[]
6177	7	2	4	100.0	2	0	[]
6187	3	1	8	60.0	2	0	[]
6188	27	2	8	40.0	2	2	[(5028, 0), (456, 0)]
6193	1	1	1	60.0	2	0	[]
6196	5	2	8	60.0	2	0	[]
6200	2	1	1	60.0	2	0	[]
6206	1	3	8	60.0	2	0	[]
6212	5	1	8	60.0	2	0	[]
6218	4	1	16	200.0	2	0	[]
6222	1	4	8	60.0	2	0	[]
6230	57	5	8	60.0	0	10	[(1589, 0), (725, 0), (1830, 0), (6483, 0), (7428, 0), (3340, 0), (2668, 0), (3875, 0), (5512, 0), (232, 0)]
6231	4	4	8	60.0	2	0	[]
6232	45	6	8	40.0	2	8	[(145, 0), (1904, 2), (4593, 1), (577, 0), (3108, 2), (5034, 2), (7908, 1), (8429, 1)]
6236	1	4	8	60.0	2	0	[]
6246	5	1	8	60.0	2	0	[]
6249	2	1	5	60.0	2	0	[]
6255	4	1	8	60.0	2	0	[]
6256	15	3	8	60.0	2	6	[(4541, 2), (3851, 1), (5767, 0), (725, 0), (3657, 0), (5847, 0)]
6258	10	1	8	60.0	2	2	[(8740, 2), (7998, 0)]
6260	1	1	1	60.0	2	0	[]
6266	4	1	8	60.0	2	0	[]
6274	2	1	8	60.0	2	0	[]
6275	2	1	8	200.0	2	0	[]
6280	3	5	8	60.0	2	0	[]
6283	6	12	2	200.0	2	4	[(2838, 2), (6350, 0), (7762, 0), (1624, 0)]
6293	4	2	8	60.0	2	0	[]
6294	1	4	8	60.0	2	0	[]
6296	4	1	8	60.0	2	0	[]
6298	2	1	8	60.0	2	0	[]
6310	2	1	8	60.0	2	1	[(4420, 2)]
6315	1	4	8	60.0	2	0	[]
6327	2	1	8	60.0	2	0	[]
6328	1	1	8	60.0	2	0	[]
6329	2	1	8	60.0	2	0	[]
6330	1	4	8	60.0	2	0	[]
6333	1	1	8	60.0	2	0	[]
6335	6	1	8	60.0	2	0	[]
6336	13	1	8	60.0	2	1	[(4811, 2)]
6338	2	1	8	60.0	2	0	[]
6341	2	2	4	60.0	2	0	[]
6342	1	1	8	60.0	2	0	[]
6348	2	1	8	60.0	2	0	[]
6349	2	1	4	60.0	2	1	[(6884, 1)]
6350	1	1	8	60.0	2	0	[]
6351	2	1	1	60.0	2	0	[]
6353	2	1	8	60.0	2	0	[]
6357	3	1	8	80.0	2	0	[]
6363	1	1	1	60.0	2	0	[]
6367	2	1	8	60.0	2	0	[]
6374	7	1	8	60.0	2	0	[]
6381	282	12	16	60.0	1	26	[(9156, 0), (8535, 0), (7392, 2), (4275, 2), (3367, 2), (4550, 1), (4037, 2), (3409, 0), (5363, 0), (3117, 1), (5080, 1), (8626, 0), (8162, 1), (2246, 0), (7626, 2), (2851, 2), (1637, 2), (2688, 2), (9143, 0), (4486, 0), (8707, 2), (7716, 2), (6097, 2), (8587, 2), (1606, 2), (1378, 2)]
6383	1	4	8	60.0	2	0	[]
6386	1	1	8	60.0	2	0	[]
6391	2	1	8	60.0	2	0	[]
6396	1	6	4	60.0	2	0	[]
6397	4	1	8	60.0	2	0	[]
6398	6	4	8	60.0	2	0	[]
6399	1	1	8	60.0	2	0	[]
6400	4	1	8	60.0	2	0	[]
6405	6	1	8	60.0	2	0	[]
6410	2	1	8	60.0	2	0	[]
6412	2	1	8	60.0	2	0	[]
6414	2	1	8	60.0	2	0	[]
6417	2	1	8	60.0	2	0	[]
6421	188	12	16	100.0	2	2	[(4130, 2), (7935, 0)]
6423	1	1	8	60.0	2	0	[]
6426	4	1	8	60.0	2	0	[]
6442	20	2	8	60.0	2	3	[(4429, 0), (6911, 1), (1919, 0)]
6443	2	1	8	40.0	2	0	[]
6451	2	1	8	60.0	2	0	[]
6452	1	1	8	60.0	2	0	[]
6454	2	1	5	60.0	2	0	[]
6456	2	1	8	60.0	2	0	[]
6459	1	1	8	60.0	2	0	[]
6469	2	1	8	60.0	2	0	[]
6473	2	1	16	100.0	2	0	[]
6477	14	1	8	100.0	2	0	[]
6479	11	1	2	200.0	2	0	[]
6480	1	1	1	60.0	2	0	[]
6483	29	1	8	60.0	0	7	[(7770, 0), (8343, 2), (3191, 0), (6293, 0), (7998, 0), (328, 2), (5022, 2)]
6484	1	5	8	60.0	2	0	[]
6485	3	3	8	60.0	2	0	[]
6486	15	4	8	60.0	2	1	[(6811, 1)]
6488	2	4	8	60.0	2	0	[]
6492	2	1	8	60.0	2	0	[]
6509	1	3	2	60.0	2	5	[(5222, 0), (774, 0), (2510, 1), (1592, 0), (3994, 0)]
6512	1	1	2	60.0	2	0	[]
6516	2	1	8	60.0	2	0	[]
6517	1	1	2	60.0	2	0	[]
6519	2	1	8	60.0	2	0	[]
6520	36	3	8	40.0	2	7	[(1820, 0), (1728, 0), (7261, 0), (7151, 1), (849, 2), (1059, 2), (456, 0)]
6521	3	1	8	60.0	2	0	[]
6524	1	1	8	60.0	2	0	[]
6525	1	1	8	60.0	2	0	[]
6526	2	4	8	60.0	2	0	[]
6531	9	1	16	60.0	0	1	[(456, 0)]
6534	8	6	8	60.0	2	0	[]
6538	2	1	8	60.0	2	0	[]
6551	1	1	2	60.0	2	0	[]
6555	2	4	8	80.0	2	0	[]
6558	4	1	8	60.0	2	0	[]
6560	1	1	8	60.0	2	0	[]
6561	5	6	8	60.0	2	0	[]
6563	3	1	1	60.0	2	0	[]
6564	43	4	8	40.0	0	2	[(6715, 2), (7338, 0)]
6567	1	5	8	60.0	2	0	[]
6573	3	1	8	60.0	2	0	[]
6577	1	1	8	60.0	2	0	[]
6582	2	1	8	60.0	2	0	[]
6584	2	1	8	60.0	2	0	[]
6585	2	1	2	60.0	2	0	[]
6588	1	1	8	60.0	2	0	[]
6589	2	1	8	60.0	2	0	[]
6590	7	8	16	80.0	2	0	[]
6594	1	1	8	60.0	2	0	[]
6595	8	2	8	60.0	2	0	[]
6602	2	1	2	60.0	2	2	[(9195, 2), (3930, 2)]
6614	1	1	8	60.0	2	0	[]
6617	2	1	3	60.0	2	0	[]
6623	2	2	8	60.0	2	0	[]
6629	3	1	8	60.0	2	0	[]
6630	1	1	4	60.0	2	0	[]
6633	2	1	8	60.0	2	0	[]
6634	2	1	2	60.0	2	0	[]
6638	2	1	8	60.0	2	0	[]
6639	3	1	5	60.0	2	0	[]
6640	4	1	6	60.0	2	0	[]
6641	1	3	8	60.0	2	0	[]
6642	1	1	8	60.0	2	0	[]
6646	2	2	8	60.0	2	0	[]
6647	4	2	8	60.0	2	0	[]
6656	6	2	8	60.0	2	0	[]
6661	5	2	8	60.0	2	1	[(5022, 0)]
6665	2	1	8	60.0	2	0	[]
6667	1	1	8	60.0	2	0	[]
6668	1	1	1	60.0	2	0	[]
6675	1	4	8	60.0	2	0	[]
6677	2	4	8	60.0	2	0	[]
6685	1	2	4	60.0	2	0	[]
6692	28	12	16	100.0	2	1	[(6642, 2)]
6696	1	1	8	60.0	2	0	[]
6701	1	1	2	60.0	2	0	[]
6702	1	4	8	60.0	2	0	[]
6703	6	1	8	80.0	2	0	[]
6704	2	1	8	60.0	2	0	[]
6707	3	1	7	60.0	2	0	[]
6715	13	6	2	60.0	2	0	[]
6717	1	1	8	60.0	2	0	[]
6732	4	1	8	60.0	2	0	[]
6733	4	1	8	60.0	2	0	[]
6735	2	1	8	60.0	2	0	[]
6759	2	4	8	60.0	2	0	[]
6763	4	1	6	60.0	2	0	[]
6765	4	1	8	60.0	2	0	[]
6772	1	8	16	60.0	2	0	[]
6773	1	1	7	60.0	2	0	[]
6782	1	1	8	60.0	2	0	[]
6783	1	1	16	60.0	2	0	[]
6786	2	1	6	60.0	2	0	[]
6787	3	1	8	60.0	2	1	[(1919, 0)]
6788	2	1	8	60.0	2	0	[]
6794	5	2	8	60.0	2	0	[]
6795	2	1	2	60.0	2	0	[]
6797	1	1	8	60.0	2	0	[]
6798	1	1	8	60.0	2	0	[]
6799	2	1	1	60.0	2	0	[]
6811	1	1	2	60.0	2	0	[]
6822	2	1	8	60.0	2	0	[]
6828	3	1	8	60.0	2	0	[]
6830	1	1	8	40.0	2	0	[]
6837	5	1	8	60.0	2	0	[]
6847	2	1	2	60.0	2	0	[]
6849	1	1	8	60.0	2	0	[]
6851	2	1	8	60.0	2	0	[]
6852	2	1	8	60.0	2	0	[]
6859	2	1	8	60.0	2	0	[]
6864	1	1	8	60.0	2	2	[(7887, 2), (3894, 1)]
6867	3	1	8	60.0	2	0	[]
6869	2	2	8	60.0	2	0	[]
6871	5	2	8	60.0	2	0	[]
6874	5	1	8	60.0	2	0	[]
6875	2	1	8	60.0	2	0	[]
6877	2	1	1	60.0	2	0	[]
6881	3	1	8	60.0	2	0	[]
6884	6	2	8	60.0	2	0	[]
6890	2	1	8	60.0	2	0	[]
6894	2	2	8	60.0	2	0	[]
6904	2	1	1	60.0	2	0	[]
6906	1	1	2	60.0	2	0	[]
6911	275	6	8	60.0	2	4	[(9049, 0), (4671, 0), (3994, 0), (7599, 0)]
6912	8	2	2	60.0	2	0	[]
6918	1	1	8	60.0	2	0	[]
6920	3	1	8	60.0	2	0	[]
6922	1	1	8	40.0	2	0	[]
6925	1	1	7	60.0	2	0	[]
6927	1	4	8	60.0	2	0	[]
6929	2	1	8	60.0	2	0	[]
6931	1	1	8	60.0	2	0	[]
6947	3	1	8	60.0	2	0	[]
6950	1	4	8	60.0	2	0	[]
6952	1	1	8	60.0	2	0	[]
6960	2	1	2	60.0	2	0	[]
6970	3	1	2	60.0	2	0	[]
6977	1	1	8	60.0	2	0	[]
6978	1	2	8	60.0	2	0	[]
6980	1	1	2	60.0	2	0	[]
6988	1	1	8	60.0	2	0	[]
6989	2	1	8	60.0	2	0	[]
6994	1	1	8	60.0	2	0	[]
7002	2	1	8	60.0	2	0	[]
7003	1	1	2	60.0	2	0	[]
7004	2	2	8	60.0	2	0	[]
7014	20	1	8	60.0	2	3	[(4010, 0), (1919, 0), (7998, 0)]
7015	2	1	1	60.0	2	0	[]
7017	2	1	8	60.0	2	0	[]
7023	2	2	8	60.0	2	0	[]
7026	4	4	8	60.0	2	0	[]
7027	9	2	8	60.0	2	0	[]
7028	3	1	8	60.0	2	0	[]
7030	1	4	8	60.0	2	0	[]
7031	1	1	1	60.0	2	0	[]
7043	2	1	8	60.0	2	0	[]
7044	2	1	8	60.0	2	0	[]
7047	2	1	8	60.0	2	0	[]
7050	2	1	8	60.0	2	0	[]
7051	1	1	1	60.0	2	0	[]
7069	1	1	2	60.0	2	0	[]
7071	16	2	8	60.0	2	0	[]
7078	2	4	8	60.0	2	0	[]
7079	2	5	8	60.0	2	0	[]
7086	2	1	8	60.0	2	0	[]
7090	3	1	8	60.0	2	0	[]
7091	10	2	8	60.0	2	1	[(1919, 0)]
7096	22	3	16	60.0	2	0	[]
7098	13	2	16	80.0	2	0	[]
7099	1	1	8	60.0	2	0	[]
7104	2	1	8	60.0	2	0	[]
7106	6	2	8	60.0	2	0	[]
7107	2	3	8	60.0	2	0	[]
7112	3	4	2	60.0	2	0	[]
7117	20	2	8	60.0	2	4	[(3886, 1), (5747, 0), (1023, 0), (5368, 0)]
7124	3	1	8	60.0	2	0	[]
7127	2	1	8	60.0	2	0	[]
7129	1	1	2	60.0	2	0	[]
7130	2	1	2	60.0	2	0	[]
7134	2	2	8	60.0	2	0	[]
7136	2	1	8	60.0	2	0	[]
7138	1	4	8	60.0	2	0	[]
7140	2	2	8	60.0	2	0	[]
7141	1	1	8	60.0	2	0	[]
7146	8	1	8	60.0	2	0	[]
7150	2	6	8	60.0	2	0	[]
7151	2	1	8	60.0	2	0	[]
7152	2	4	8	60.0	2	0	[]
7153	1	4	8	60.0	2	0	[]
7156	3	1	1	60.0	2	0	[]
7158	7	2	8	60.0	2	2	[(4596, 1), (5022, 0)]
7163	6	1	8	60.0	2	2	[(4570, 0), (7887, 0)]
7171	2	1	8	60.0	2	0	[]
7172	5	2	8	60.0	2	0	[]
7174	4	1	8	60.0	2	0	[]
7182	3	1	10	80.0	2	0	[]
7183	1	2	8	40.0	2	0	[]
7184	20	2	16	150.0	2	0	[]
7192	12	3	8	60.0	2	0	[]
7196	36	2	8	60.0	2	9	[(9034, 1), (8582, 0), (2952, 0), (5028, 0), (3994, 0), (4732, 0), (7486, 0), (5567, 0), (7026, 0)]
7204	4	1	1	100.0	2	0	[]
7205	1	1	8	60.0	2	0	[]
7210	6	2	8	60.0	2	0	[]
7214	16	2	8	40.0	2	3	[(1637, 0), (456, 0), (5022, 0)]
7216	2	1	8	60.0	2	0	[]
7219	4	1	8	60.0	2	0	[]
7222	12	1	8	60.0	2	0	[]
7227	1	4	8	60.0	2	0	[]
7231	1	1	4	60.0	2	0	[]
7235	1	4	8	60.0	2	0	[]
7237	2	1	8	60.0	2	0	[]
7241	1	1	8	60.0	2	0	[]
7243	2	2	8	60.0	2	0	[]
7248	5	2	8	60.0	2	0	[]
7249	6	2	8	100.0	2	0	[]
7250	3	6	8	60.0	2	0	[]
7261	18	6	8	60.0	2	1	[(6715, 2)]
7265	2	1	8	60.0	2	0	[]
7270	4	1	8	60.0	2	0	[]
7273	2	1	16	60.0	2	0	[]
7274	2	1	8	60.0	2	0	[]
7280	1	1	8	60.0	2	0	[]
7282	3	2	8	60.0	2	1	[(409, 2)]
7283	2	1	8	60.0	2	0	[]
7286	3	1	18	100.0	2	0	[]
7288	2	1	2	60.0	2	0	[]
7289	5	2	8	60.0	2	0	[]
7291	8	6	8	60.0	2	0	[]
7294	1	1	8	60.0	2	0	[]
7297	2	3	8	60.0	2	0	[]
7298	2	1	8	60.0	2	0	[]
7304	17	6	8	60.0	2	0	[]
7305	1	4	8	80.0	2	0	[]
7312	4	1	8	60.0	2	0	[]
7318	4	6	8	60.0	2	0	[]
7320	1	4	1	60.0	2	0	[]
7321	2	5	8	60.0	2	0	[]
7324	1	1	2	60.0	2	0	[]
7327	1	10	16	100.0	2	0	[]
7330	3	1	8	60.0	2	0	[]
7331	4	2	8	60.0	2	0	[]
7337	3	2	8	60.0	2	0	[]
7338	120	6	8	60.0	0	8	[(6232, 0), (9156, 0), (8587, 2), (3691, 0), (3987, 2), (1222, 2), (1936, 0), (3890, 2)]
7341	34	4	8	60.0	2	0	[]
7342	2	1	3	60.0	2	0	[]
7344	2	1	8	60.0	2	0	[]
7354	4	1	8	60.0	2	0	[]
7355	14	6	8	60.0	2	0	[]
7358	1	4	8	60.0	2	0	[]
7361	1	1	8	60.0	2	0	[]
7362	2	2	8	60.0	2	0	[]
7371	2	1	2	60.0	2	0	[]
7378	1	4	8	60.0	2	0	[]
7380	2	1	8	60.0	2	0	[]
7381	2	1	8	60.0	2	0	[]
7382	2	1	8	60.0	2	0	[]
7385	4	1	8	60.0	2	0	[]
7387	3	1	8	60.0	2	0	[]
7389	1	1	2	60.0	2	0	[]
7392	1	2	32	100.0	2	18	[(3367, 2), (5080, 1), (7716, 2), (6097, 2), (4037, 2), (8587, 2), (2851, 1), (5363, 2), (3117, 1), (1606, 2), (6381, 2), (1637, 1), (1378, 2), (2688, 2), (4550, 1), (8707, 2), (8162, 1), (6060, 2)]
7395	2	1	8	60.0	2	0	[]
7398	1	1	8	60.0	2	0	[]
7399	3	2	2	60.0	2	0	[]
7405	1	1	1	60.0	2	0	[]
7408	8	1	8	60.0	2	0	[]
7412	1	1	4	60.0	2	0	[]
7414	31	3	8	60.0	2	0	[]
7420	3	2	8	40.0	2	0	[]
7422	2	2	8	40.0	2	0	[]
7428	2	1	8	60.0	2	0	[]
7433	2	1	8	60.0	2	0	[]
7434	2	1	8	60.0	2	0	[]
7445	4	1	8	60.0	2	1	[(4108, 2)]
7448	23	3	8	40.0	2	3	[(456, 0), (3890, 1), (9264, 0)]
7452	2	1	8	60.0	2	7	[(4646, 0), (2138, 0), (5107, 0), (7770, 0), (6007, 0), (1354, 0), (321, 0)]
7457	5	1	8	60.0	2	1	[(5022, 1)]
7459	3	1	8	60.0	2	0	[]
7470	1	1	8	40.0	2	0	[]
7473	3	1	8	60.0	2	0	[]
7474	2	1	8	60.0	2	0	[]
7479	2	6	8	60.0	2	0	[]
7480	5	4	8	60.0	2	0	[]
7481	7	6	8	60.0	2	1	[(6950, 0)]
7483	1	1	8	60.0	2	0	[]
7485	1	4	8	60.0	2	0	[]
7486	225	3	8	60.0	2	2	[(4789, 0), (5060, 0)]
7495	1	2	8	60.0	2	0	[]
7499	1	4	8	60.0	2	0	[]
7500	22	1	8	60.0	2	2	[(1904, 2), (3831, 1)]
7503	6	1	8	60.0	2	0	[]
7517	1	1	8	60.0	2	0	[]
7521	5	1	8	60.0	2	0	[]
7527	1	1	8	60.0	2	0	[]
7530	2	1	8	60.0	2	1	[(2068, 0)]
7536	1	1	8	60.0	2	0	[]
7538	3	2	8	60.0	2	0	[]
7539	2	1	8	60.0	2	0	[]
7544	1	1	1	60.0	2	0	[]
7545	4	1	8	60.0	2	0	[]
7557	2	1	8	60.0	2	0	[]
7563	18	3	8	60.0	2	2	[(7481, 2), (2517, 1)]
7566	2	3	8	60.0	2	0	[]
7568	13	1	8	60.0	2	0	[]
7571	5	9	16	150.0	2	0	[]
7577	1	1	8	60.0	2	0	[]
7580	1	4	8	60.0	2	0	[]
7585	5	1	8	60.0	2	0	[]
7591	4	1	8	60.0	2	0	[]
7596	5	4	16	150.0	2	1	[(4847, 2)]
7598	1	1	8	60.0	2	0	[]
7599	52	5	16	100.0	2	1	[(5655, 0)]
7600	1	5	48	500.0	2	0	[]
7603	1	1	2	60.0	2	0	[]
7606	2	1	16	40.0	2	0	[]
7611	1	11	128	600.0	2	0	[]
7613	130	2	8	60.0	2	24	[(689, 1), (1771, 0), (2166, 0), (3886, 0), (3108, 2), (4582, 0), (2147, 0), (7414, 0), (2582, 2), (3091, 0), (4531, 0), (5526, 0), (6421, 0), (626, 0), (1592, 0), (7486, 0), (1447, 0), (8386, 0), (8429, 2), (7732, 1), (1405, 0), (7481, 1), (1683, 0), (5837, 1)]
7615	2	2	8	60.0	2	0	[]
7618	1	1	2	200.0	2	0	[]
7619	7	1	8	60.0	2	1	[(5063, 0)]
7620	3	1	8	60.0	2	0	[]
7621	2	1	8	60.0	2	0	[]
7623	3	1	8	60.0	2	1	[(978, 2)]
7626	1	4	32	100.0	2	18	[(3367, 2), (5080, 1), (7716, 2), (6097, 2), (8587, 2), (2851, 1), (5363, 2), (3117, 1), (1606, 2), (6381, 2), (1637, 1), (1378, 2), (4037, 2), (2688, 2), (4550, 1), (8707, 2), (8162, 1), (6060, 2)]
7643	6	1	8	60.0	2	0	[]
7650	1	4	8	60.0	2	0	[]
7652	9	2	8	60.0	2	2	[(4793, 1), (5022, 2)]
7655	3	1	8	60.0	2	0	[]
7657	2	4	8	60.0	2	0	[]
7659	3	1	8	60.0	2	0	[]
7665	1	1	8	60.0	2	0	[]
7669	2	1	8	60.0	2	0	[]
7681	1	1	8	60.0	2	0	[]
7686	2	1	8	60.0	2	1	[(9254, 1)]
7701	2	1	8	60.0	2	0	[]
7711	2	1	1	60.0	2	0	[]
7716	4	3	32	60.0	2	14	[(7626, 2), (5080, 1), (8587, 2), (2851, 1), (5363, 2), (3117, 1), (6381, 2), (7392, 2), (1637, 1), (4275, 2), (4550, 1), (8707, 2), (8162, 1), (6060, 2)]
7720	2	1	8	60.0	2	0	[]
7721	1	1	8	60.0	2	0	[]
7728	1	1	8	60.0	2	0	[]
7731	1	2	8	60.0	2	0	[]
7732	6	2	8	60.0	2	0	[]
7738	5	3	8	60.0	2	0	[]
7740	12	6	8	60.0	2	0	[]
7742	2	1	8	60.0	2	1	[(4300, 0)]
7750	1	1	8	167.0	2	0	[]
7752	2	1	8	60.0	2	0	[]
7753	2	1	8	60.0	2	0	[]
7754	22	1	8	60.0	2	0	[]
7755	1	1	8	60.0	2	0	[]
7761	1	6	8	60.0	2	0	[]
7762	3	1	8	60.0	2	0	[]
7768	7	4	8	60.0	2	1	[(5034, 2)]
7769	1	1	8	60.0	2	0	[]
7770	4	1	2	60.0	2	0	[]
7774	2	1	8	60.0	2	0	[]
7778	21	2	16	60.0	2	0	[]
7781	2	1	5	60.0	2	0	[]
7784	4	1	8	60.0	2	0	[]
7786	2	4	8	60.0	2	0	[]
7793	6	1	8	60.0	2	0	[]
7794	9	12	16	100.0	2	0	[]
7799	2	2	8	60.0	2	0	[]
7800	3	1	1	60.0	2	0	[]
7802	20	6	8	150.0	2	0	[]
7804	2	1	8	60.0	2	0	[]
7808	6	1	8	60.0	2	0	[]
7809	8	1	8	60.0	2	0	[]
7812	2	1	8	60.0	2	0	[]
7824	5	1	8	60.0	2	0	[]
7827	2	4	8	60.0	2	0	[]
7831	7	1	8	80.0	2	0	[]
7832	3	2	8	60.0	2	0	[]
7833	4	1	8	60.0	2	0	[]
7834	4	4	8	60.0	2	0	[]
7837	1	1	2	60.0	2	0	[]
7838	1	1	8	60.0	2	0	[]
7839	2	4	8	60.0	2	0	[]
7849	1	1	8	60.0	2	0	[]
7850	2	1	2	60.0	2	0	[]
7853	22	1	8	60.0	2	4	[(2653, 2), (7248, 1), (8195, 1), (3971, 1)]
7855	2	1	8	60.0	2	0	[]
7858	2	2	8	60.0	2	0	[]
7862	2	1	8	60.0	2	0	[]
7864	8	1	8	60.0	2	1	[(909, 1)]
7866	3	1	8	60.0	2	0	[]
7867	2	1	7	60.0	2	0	[]
7870	4	2	8	80.0	2	0	[]
7871	6	2	8	60.0	2	0	[]
7873	6	1	8	500.0	2	0	[]
7875	2	4	8	60.0	2	0	[]
7877	3	1	8	60.0	2	0	[]
7879	3	2	8	60.0	2	0	[]
7883	2	1	8	60.0	2	0	[]
7884	1	1	1	60.0	2	0	[]
7887	16	2	8	60.0	2	1	[(5847, 0)]
7894	2	1	8	60.0	2	0	[]
7906	1	1	8	60.0	2	0	[]
7908	2	4	8	60.0	2	0	[]
7915	2	1	8	60.0	2	0	[]
7916	10	1	8	60.0	2	4	[(6925, 1), (4570, 0), (3851, 0), (8164, 0)]
7928	90	2	8	60.0	2	2	[(2649, 0), (5022, 0)]
7931	2	1	8	60.0	2	0	[]
7933	1	1	8	60.0	2	0	[]
7935	175	4	16	100.0	2	1	[(6421, 0)]
7942	7	1	8	60.0	2	0	[]
7949	1	1	8	60.0	2	0	[]
7950	2	4	8	60.0	2	0	[]
7955	2	1	8	60.0	2	0	[]
7966	2	1	2	60.0	2	0	[]
7969	1	1	1	60.0	2	0	[]
7973	2	1	7	60.0	2	0	[]
7977	2	1	8	60.0	2	0	[]
7982	2	1	8	60.0	2	0	[]
7985	2	1	8	60.0	2	0	[]
7988	4	1	8	60.0	2	0	[]
7990	4	1	8	60.0	2	1	[(1919, 0)]
7994	1	1	8	60.0	2	0	[]
7995	6	1	8	60.0	2	1	[(3851, 1)]
7998	81	1	8	60.0	0	19	[(247, 0), (6125, 2), (4198, 0), (725, 2), (135, 0), (4364, 2), (6007, 1), (1324, 1), (7248, 1), (2196, 2), (3191, 0), (3135, 2), (7196, 2), (4429, 2), (9123, 2), (7481, 2), (7354, 2), (4963, 0), (4420, 0)]
7999	1	1	8	60.0	2	0	[]
8003	3	1	2	60.0	2	0	[]
8005	8	4	8	60.0	2	0	[]
8006	4	6	8	60.0	2	1	[(1841, 2)]
8019	2	1	2	60.0	2	0	[]
8021	2	1	8	60.0	2	0	[]
8022	2	1	2	60.0	2	0	[]
8023	3	2	8	60.0	2	0	[]
8026	2	1	8	60.0	2	0	[]
8028	26	5	8	60.0	2	1	[(7935, 2)]
8033	4	2	8	60.0	2	1	[(1059, 2)]
8035	2	1	8	60.0	2	0	[]
8043	2	1	6	60.0	2	0	[]
8046	27	4	8	80.0	2	0	[]
8049	3	1	1	60.0	2	0	[]
8050	1	1	1	60.0	2	0	[]
8062	1	1	8	60.0	2	0	[]
8065	2	4	8	60.0	2	0	[]
8066	1	2	8	60.0	2	0	[]
8069	43	6	8	40.0	2	2	[(456, 0), (1919, 0)]
8070	4	1	8	60.0	2	0	[]
8076	4	2	16	100.0	2	0	[]
8077	2	1	2	60.0	2	0	[]
8080	2	1	8	60.0	2	0	[]
8081	5	1	8	40.0	2	0	[]
8083	1	1	8	80.0	2	0	[]
8084	2	1	8	60.0	2	0	[]
8090	2	1	1	60.0	2	0	[]
8093	1	1	2	60.0	2	0	[]
8096	1	4	8	60.0	2	0	[]
8099	4	1	8	60.0	2	0	[]
8100	5	2	8	60.0	2	0	[]
8101	8	3	8	60.0	2	0	[]
8105	2	4	8	60.0	2	0	[]
8111	2	1	8	60.0	2	0	[]
8113	4	1	16	100.0	2	0	[]
8115	16	2	8	40.0	2	3	[(1637, 0), (7338, 0), (577, 0)]
8117	2	2	8	60.0	2	0	[]
8118	2	1	8	60.0	2	0	[]
8119	1	1	2	60.0	2	0	[]
8122	10	1	2	60.0	2	1	[(2788, 0)]
8123	2	1	8	60.0	2	0	[]
8124	6	6	8	60.0	2	0	[]
8126	26	2	8	60.0	2	0	[]
8135	2	1	8	60.0	2	0	[]
8137	4	3	8	60.0	2	0	[]
8138	100	6	8	60.0	2	7	[(1416, 1), (3108, 1), (3831, 2), (7289, 0), (1559, 2), (3048, 0), (3890, 0)]
8140	4	1	8	60.0	2	0	[]
8142	6	1	8	60.0	2	0	[]
8162	1	2	16	60.0	2	18	[(7626, 3), (3367, 3), (7716, 3), (6097, 3), (8587, 2), (2851, 2), (5363, 2), (3117, 1), (1606, 3), (6381, 2), (7392, 3), (1637, 2), (4275, 3), (1378, 3), (4037, 3), (2688, 3), (8707, 2), (6060, 2)]
8164	1	1	8	60.0	2	0	[]
8170	4	1	8	60.0	2	0	[]
8177	2	4	8	60.0	2	0	[]
8178	1	2	8	40.0	0	0	[]
8184	1	1	8	60.0	2	0	[]
8186	2	1	8	60.0	2	0	[]
8187	2	1	8	60.0	2	0	[]
8189	1	1	8	60.0	2	0	[]
8193	1	1	2	60.0	2	0	[]
8195	2	1	8	60.0	2	0	[]
8197	4	1	8	80.0	2	0	[]
8202	1	2	8	60.0	2	0	[]
8207	3	1	8	60.0	2	0	[]
8209	8	1	8	60.0	2	0	[]
8217	4	6	8	100.0	2	0	[]
8219	4	1	8	60.0	2	0	[]
8222	2	1	2	60.0	2	0	[]
8224	1	1	8	60.0	2	0	[]
8226	2	3	8	60.0	2	0	[]
8233	1	1	8	60.0	2	0	[]
8242	8	5	8	60.0	2	0	[]
8243	9	3	8	60.0	2	0	[]
8247	2	1	8	60.0	2	0	[]
8252	1	1	8	60.0	2	0	[]
8255	2	1	8	60.0	2	0	[]
8256	1	1	7	60.0	2	0	[]
8259	1	1	1	60.0	2	0	[]
8262	2	1	8	60.0	2	2	[(8998, 0), (1515, 0)]
8263	3	1	8	60.0	2	0	[]
8271	2	1	2	60.0	2	0	[]
8272	2	1	8	60.0	2	0	[]
8273	11	1	2	60.0	2	0	[]
8275	1	8	16	200.0	2	0	[]
8282	2	1	8	60.0	2	0	[]
8284	2	1	8	60.0	2	0	[]
8293	25	1	16	60.0	2	0	[]
8303	2	1	8	60.0	2	0	[]
8309	1	4	8	60.0	2	0	[]
8315	8	1	8	60.0	2	0	[]
8325	2	4	8	60.0	2	0	[]
8329	2	1	7	60.0	2	0	[]
8333	10	2	16	80.0	2	1	[(2668, 0)]
8338	6	1	2	100.0	2	0	[]
8339	4	6	8	60.0	2	0	[]
8340	1	1	8	60.0	2	0	[]
8343	26	1	8	80.0	2	0	[]
8345	2	1	8	60.0	2	0	[]
8348	2	1	8	60.0	2	0	[]
8350	1	4	8	60.0	2	0	[]
8354	2	1	5	60.0	2	0	[]
8355	1	1	8	60.0	2	0	[]
8356	2	1	8	60.0	2	0	[]
8359	1	1	8	60.0	2	0	[]
8363	7	1	8	60.0	2	0	[]
8372	2	1	8	60.0	2	0	[]
8375	5	1	8	60.0	2	1	[(3693, 2)]
8379	4	2	8	60.0	2	0	[]
8386	75	2	8	60.0	2	1	[(1904, 2)]
8397	2	1	8	60.0	2	0	[]
8398	1	1	2	60.0	2	0	[]
8403	2	4	8	60.0	2	0	[]
8405	3	1	8	60.0	2	0	[]
8415	2	1	8	60.0	2	0	[]
8425	1	1	6	60.0	2	0	[]
8429	50	1	16	60.0	2	2	[(5978, 0), (2797, 0)]
8434	14	5	8	60.0	2	0	[]
8438	5	3	8	60.0	2	0	[]
8446	4	2	8	60.0	2	0	[]
8447	1	1	8	60.0	2	0	[]
8450	1	1	2	60.0	2	0	[]
8451	6	2	8	60.0	2	1	[(3108, 1)]
8452	2	1	8	60.0	2	0	[]
8453	9	1	8	60.0	2	0	[]
8455	2	1	8	60.0	2	0	[]
8463	4	1	8	60.0	2	0	[]
8468	1	1	8	60.0	2	0	[]
8469	2	1	2	60.0	2	0	[]
8473	3	1	2	60.0	2	0	[]
8475	14	2	8	60.0	2	0	[]
8477	1	1	8	60.0	2	0	[]
8491	4	1	8	60.0	2	0	[]
8492	2	1	8	60.0	2	0	[]
8496	3	1	8	60.0	2	0	[]
8501	1	1	8	60.0	2	0	[]
8506	1	1	8	40.0	2	0	[]
8507	4	5	8	60.0	2	0	[]
8508	1	1	8	60.0	2	0	[]
8509	2	1	8	60.0	2	0	[]
8513	2	1	8	60.0	2	0	[]
8514	2	1	7	60.0	2	0	[]
8515	1	4	8	60.0	2	0	[]
8520	6	2	8	60.0	2	0	[]
8523	6	5	8	60.0	2	0	[]
8533	1	1	8	60.0	2	0	[]
8535	1	1	16	60.0	1	19	[(7626, 1), (3367, 1), (7716, 1), (6097, 1), (2851, 2), (5363, 2), (3117, 1), (1606, 1), (6381, 2), (5080, 1), (7392, 1), (1637, 2), (4275, 1), (1378, 1), (4037, 1), (2688, 1), (4550, 1), (8162, 1), (6060, 2)]
8538	3	1	8	60.0	2	0	[]
8544	2	2	8	60.0	2	0	[]
8545	4	1	8	60.0	2	0	[]
8549	3	1	2	60.0	2	0	[]
8553	7	1	8	40.0	2	3	[(8451, 0), (4231, 0), (577, 0)]
8561	1	1	2	60.0	2	0	[]
8563	2	4	8	60.0	2	0	[]
8568	1	4	8	100.0	2	0	[]
8572	1	1	8	60.0	2	0	[]
8573	1	1	8	60.0	2	0	[]
8575	2	1	8	60.0	2	0	[]
8576	1	6	8	60.0	2	0	[]
8581	1	1	8	60.0	2	0	[]
8582	14	24	32	80.0	2	0	[]
8583	21	4	8	40.0	2	4	[(3108, 2), (1599, 2), (1059, 2), (6381, 2)]
8587	2	8	16	60.0	2	15	[(7626, 2), (3367, 2), (7716, 2), (6097, 2), (4037, 2), (2851, 2), (5363, 3), (1606, 2), (6381, 3), (7392, 2), (1637, 2), (1378, 2), (2688, 2), (4275, 2), (6060, 3)]
8597	1	1	8	60.0	2	0	[]
8598	2	1	1	60.0	2	1	[(3894, 2)]
8600	1	1	1	60.0	2	0	[]
8602	13	1	1	200.0	2	0	[]
8603	1	1	8	60.0	2	0	[]
8614	1	8	16	200.0	2	0	[]
8616	5	1	2	80.0	2	0	[]
8618	23	1	8	60.0	2	0	[]
8620	1	16	32	80.0	2	0	[]
8626	28	3	16	100.0	2	0	[]
8629	2	1	8	60.0	2	0	[]
8630	2	1	8	60.0	2	0	[]
8643	52	5	8	60.0	2	4	[(4479, 2), (5851, 0), (1919, 0), (5825, 1)]
8648	20	4	8	60.0	2	0	[]
8649	2	1	2	60.0	2	0	[]
8651	2	1	8	60.0	2	0	[]
8658	1	1	2	60.0	2	0	[]
8659	1	2	8	60.0	2	0	[]
8661	2	1	8	60.0	2	0	[]
8665	1	1	3	60.0	2	0	[]
8672	2	4	8	60.0	2	0	[]
8673	17	2	8	60.0	2	0	[]
8678	2	1	8	40.0	2	0	[]
8680	12	1	8	60.0	2	0	[]
8681	2	1	8	60.0	2	1	[(135, 1)]
8683	8	3	8	60.0	2	1	[(1949, 1)]
8687	2	1	8	60.0	2	0	[]
8689	1	1	8	60.0	2	0	[]
8697	2	1	16	60.0	2	0	[]
8700	6	1	8	60.0	2	0	[]
8706	1	4	8	60.0	2	0	[]
8707	1	6	16	60.0	2	15	[(7626, 2), (3367, 2), (7716, 2), (6097, 2), (4037, 2), (2851, 2), (5363, 3), (1606, 2), (6381, 3), (7392, 2), (1637, 2), (1378, 2), (2688, 2), (4275, 2), (6060, 3)]
8709	5	1	8	60.0	2	0	[]
8721	1	4	8	60.0	2	0	[]
8731	4	2	8	60.0	2	0	[]
8735	16	1	8	60.0	2	8	[(4978, 2), (5175, 1), (2844, 1), (456, 2), (1229, 2), (865, 0), (5394, 2), (7935, 1)]
8740	8	1	8	40.0	2	0	[]
8745	2	1	8	60.0	2	0	[]
8746	2	1	1	60.0	2	0	[]
8748	2	1	8	60.0	2	0	[]
8750	2	1	8	60.0	2	0	[]
8751	1	1	8	60.0	2	0	[]
8754	18	1	6	200.0	2	0	[]
8757	1	1	8	60.0	2	0	[]
8758	2	1	2	40.0	2	0	[]
8763	1	1	8	40.0	2	0	[]
8764	1	1	1	60.0	2	0	[]
8772	2	1	8	60.0	2	0	[]
8775	2	1	8	60.0	2	0	[]
8777	2	1	8	60.0	2	0	[]
8778	2	1	8	60.0	2	0	[]
8783	8	1	8	60.0	2	2	[(3108, 2), (1059, 2)]
8784	1	1	8	60.0	2	0	[]
8787	14	2	8	80.0	2	0	[]
8791	2	1	8	60.0	2	0	[]
8792	2	3	8	60.0	2	0	[]
8793	1	1	2	60.0	2	0	[]
8797	2	1	8	60.0	2	0	[]
8802	2	4	8	60.0	2	0	[]
8803	2	1	8	60.0	2	0	[]
8804	1	1	2	60.0	2	0	[]
8824	3	4	10	60.0	2	0	[]
8828	7	1	16	80.0	2	0	[]
8831	1	1	8	60.0	2	0	[]
8846	2	2	8	60.0	2	0	[]
8848	14	3	16	80.0	2	2	[(5022, 1), (89, 2)]
8851	2	1	8	60.0	2	0	[]
8862	2	1	8	1024.0	2	0	[]
8868	1	3	16	40.0	2	0	[]
8870	2	2	13	150.0	2	0	[]
8874	1	1	1	60.0	2	0	[]
8876	1	1	8	60.0	2	0	[]
8877	1	1	2	60.0	2	0	[]
8880	2	1	8	60.0	2	0	[]
8884	5	2	8	100.0	2	1	[(5034, 2)]
8886	2	1	8	60.0	2	0	[]
8890	2	1	8	60.0	2	0	[]
8891	1	1	6	60.0	2	0	[]
8895	1	4	8	60.0	2	0	[]
8898	16	4	8	60.0	2	1	[(5063, 0)]
8909	2	1	2	60.0	2	0	[]
8910	9	1	8	60.0	2	0	[]
8914	2	1	8	60.0	2	0	[]
8921	1	1	8	60.0	2	0	[]
8925	2	2	8	60.0	2	0	[]
8932	1	6	8	60.0	2	0	[]
8933	2	1	1	60.0	2	0	[]
8937	1	1	15	80.0	2	0	[]
8939	3	1	8	60.0	2	0	[]
8941	2	2	8	60.0	2	0	[]
8944	4	3	8	60.0	2	0	[]
8948	2	2	8	60.0	2	0	[]
8949	2	4	8	60.0	2	0	[]
8951	1	1	1	60.0	2	0	[]
8957	1	1	8	60.0	2	0	[]
8958	4	2	8	60.0	2	0	[]
8964	2	1	8	60.0	2	0	[]
8965	2	1	8	60.0	2	0	[]
8966	2	1	8	60.0	3	0	[]
8969	1	1	8	60.0	2	0	[]
8972	5	6	8	60.0	2	0	[]
8978	2	1	8	60.0	2	0	[]
8997	4	2	8	60.0	2	0	[]
8998	5	1	8	60.0	2	0	[]
8999	1	1	1	60.0	2	0	[]
9001	1	1	8	60.0	2	0	[]
9004	1	4	8	60.0	2	0	[]
9006	2	1	8	60.0	2	0	[]
9014	28	3	8	60.0	2	1	[(1949, 0)]
9015	2	1	11	200.0	2	0	[]
9018	2	1	2	60.0	2	0	[]
9022	2	2	8	60.0	2	0	[]
9023	2	1	8	60.0	2	0	[]
9024	1	1	8	60.0	2	0	[]
9026	2	1	8	60.0	2	0	[]
9027	2	2	32	200.0	0	0	[]
9033	2	1	1	60.0	2	0	[]
9034	1	1	8	60.0	2	0	[]
9035	55	3	8	100.0	1	23	[(5189, 1), (4007, 1), (4925, 2), (7998, 2), (5702, 2), (7545, 0), (3894, 1), (6011, 2), (6483, 2), (3944, 1), (8848, 1), (3008, 2), (7381, 1), (7481, 0), (4389, 2), (2027, 2), (1919, 0), (2046, 2), (2911, 1), (4573, 2), (3555, 2), (5446, 2), (3588, 0)]
9039	2	1	8	60.0	2	0	[]
9040	2	1	8	60.0	2	0	[]
9041	2	4	8	60.0	2	0	[]
9049	99	2	8	60.0	2	1	[(2246, 0)]
9051	2	1	8	60.0	2	0	[]
9056	1	1	3	60.0	2	0	[]
9058	1	4	8	60.0	2	0	[]
9059	4	7	3	60.0	2	0	[]
9065	3	1	8	60.0	2	0	[]
9069	1	1	7	60.0	2	0	[]
9071	1	4	8	60.0	2	0	[]
9074	3	2	8	60.0	2	0	[]
9077	33	4	8	60.0	2	0	[]
9080	2	1	2	60.0	2	0	[]
9081	2	1	8	60.0	2	0	[]
9083	1	6	8	60.0	2	0	[]
9088	1	1	8	60.0	2	0	[]
9091	7	5	8	60.0	2	0	[]
9092	1	1	8	60.0	2	0	[]
9094	2	1	8	60.0	2	0	[]
9098	2	1	8	60.0	2	0	[]
9105	1	1	8	60.0	2	0	[]
9107	2	4	8	60.0	2	0	[]
9111	4	4	8	60.0	2	0	[]
9116	1	1	2	60.0	2	0	[]
9123	4	1	8	60.0	2	0	[]
9128	2	2	4	60.0	2	0	[]
9135	1	2	3	60.0	2	0	[]
9143	6	1	8	40.0	2	0	[]
9156	25	4	8	60.0	2	6	[(3574, 0), (48, 1), (3108, 1), (7338, 0), (3802, 2), (8293, 2)]
9157	5	2	8	60.0	2	0	[]
9158	15	2	8	60.0	2	6	[(1683, 0), (7117, 0), (5112, 0), (2979, 0), (5368, 0), (7214, 0)]
9163	86	12	16	200.0	2	0	[]
9164	1	1	8	60.0	2	0	[]
9168	13	6	8	60.0	2	0	[]
9171	1	1	2	60.0	2	1	[(2351, 1)]
9173	4	1	2	60.0	2	1	[(3570, 2)]
9174	9	2	8	60.0	2	1	[(5022, 1)]
9176	7	1	16	60.0	2	1	[(689, 1)]
9178	1	4	8	60.0	2	0	[]
9180	5	2	8	60.0	2	0	[]
9186	4	1	8	60.0	2	0	[]
9187	4	1	2	60.0	2	0	[]
9190	2	8	16	100.0	2	0	[]
9195	2	1	2	60.0	2	0	[]
9198	1	2	16	60.0	0	0	[]
9199	1	2	3	60.0	2	0	[]
9201	5	1	8	60.0	2	0	[]
9202	2	1	8	60.0	2	0	[]
9204	6	1	8	60.0	2	0	[]
9206	1	1	3	60.0	2	0	[]
9207	31	4	16	60.0	2	0	[]
9209	5	6	8	60.0	2	0	[]
9229	1	4	8	60.0	2	0	[]
9235	2	2	2	60.0	2	0	[]
9243	6	1	8	60.0	2	0	[]
9254	1	1	2	60.0	2	1	[(7686, 2)]
9257	4	2	8	60.0	2	0	[]
9260	2	2	8	60.0	2	0	[]
9264	6	5	8	60.0	2	0	[]
9266	2	1	8	60.0	2	0	[]
9269	210	4	16	60.0	0	13	[(3657, 0), (5320, 0), (9264, 0), (8069, 0), (577, 0), (3886, 0), (3802, 0), (1969, 1), (1637, 0), (1599, 0), (1222, 0), (6381, 0), (5022, 0)]
9274	2	1	8	60.0	2	0	[]
9275	3	1	8	60.0	2	0	[]
9277	3	1	8	60.0	2	0	[]
9278	2	4	8	60.0	2	0	[]
9280	1	1	8	60.0	2	0	[]
9288	1	1	1	60.0	2	0	[]
9306	1	1	8	60.0	2	0	[]
9307	2	6	8	60.0	2	0	[]
9310	2	4	8	60.0	2	0	[]
9312	2	1	3	60.0	2	0	[]
9313	1	8	32	80.0	0	0	[]
9327	3	1	8	60.0	2	0	[]
9328	13	6	8	100.0	2	2	[(7833, 2), (128, 0)]
9336	8	1	2	80.0	2	0	[]
9338	9	1	8	60.0	2	0	[]
