app_id	nb_instances	core	memory	disk	intra_value	inter_degree	inter_aff
3	4	1	8	60.0	2	0	[]
9	1	1	2	60.0	2	0	[]
10	1	4	8	60.0	2	0	[]
15	2	1	2	60.0	2	0	[]
17	2	1	8	60.0	2	0	[]
33	1	1	8	60.0	2	0	[]
35	2	1	8	60.0	2	0	[]
36	1	4	8	60.0	2	0	[]
38	5	1	8	60.0	2	0	[]
42	1	1	16	200.0	2	0	[]
48	17	3	8	60.0	2	0	[]
52	22	2	8	60.0	2	0	[]
53	6	1	8	60.0	2	0	[]
54	3	1	8	60.0	2	0	[]
57	1	4	8	60.0	2	0	[]
61	2	1	2	60.0	2	0	[]
62	2	1	8	60.0	2	0	[]
63	4	1	8	60.0	2	0	[]
64	1	1	8	60.0	2	0	[]
69	4	6	8	60.0	2	0	[]
70	2	1	8	60.0	2	0	[]
72	1	1	1	60.0	2	0	[]
75	2	1	8	60.0	2	0	[]
79	1	1	8	60.0	2	0	[]
80	145	12	16	60.0	2	18	[(7626, 2), (7716, 2), (6097, 2), (2851, 2), (6683, 2), (5363, 3), (2928, 0), (7392, 2), (1637, 2), (3370, 0), (2739, 2), (704, 2), (4011, 2), (737, 2), (5905, 2), (4630, 2), (6060, 3), (7555, 3)]
82	2	1	2	60.0	2	0	[]
86	2	1	8	60.0	2	0	[]
89	1	1	8	60.0	2	0	[]
93	2	4	8	300.0	2	0	[]
94	1	1	1	60.0	2	0	[]
98	8	1	8	60.0	2	0	[]
101	2	1	8	60.0	2	0	[]
107	1	4	8	60.0	2	0	[]
114	1	1	8	60.0	2	0	[]
118	3	1	8	60.0	2	1	[(4039, 2)]
119	1	2	2	60.0	2	1	[(4436, 2)]
125	3	1	8	60.0	2	0	[]
130	1	2	8	40.0	2	0	[]
131	2	4	8	60.0	2	0	[]
135	36	3	2	60.0	2	0	[]
138	1	1	8	60.0	2	0	[]
140	3	6	8	60.0	2	0	[]
145	2	1	8	60.0	2	0	[]
147	315	6	8	60.0	2	10	[(8778, 0), (473, 0), (3487, 0), (7723, 0), (459, 1), (4595, 0), (1443, 1), (2593, 0), (1433, 0), (798, 0)]
149	2	1	8	60.0	2	0	[]
152	1	1	8	60.0	2	0	[]
161	1	1	8	60.0	2	0	[]
163	1	1	8	60.0	2	0	[]
166	2	1	5	60.0	2	0	[]
172	2	1	3	60.0	2	0	[]
174	2	2	8	60.0	2	0	[]
175	2	1	7	60.0	2	0	[]
176	1	1	32	80.0	0	0	[]
192	3	1	2	60.0	2	0	[]
194	1	1	8	60.0	2	0	[]
195	3	1	2	60.0	2	0	[]
198	3	2	8	60.0	2	0	[]
205	1	1	8	60.0	2	0	[]
206	2	4	8	60.0	2	0	[]
211	3	1	8	60.0	2	1	[(798, 0)]
219	2	2	8	60.0	2	0	[]
222	5	1	8	60.0	2	0	[]
225	2	2	8	60.0	2	0	[]
227	5	1	8	60.0	2	1	[(7998, 0)]
228	2	1	8	60.0	2	0	[]
234	2	1	8	60.0	2	1	[(6025, 0)]
235	4	12	8	60.0	2	1	[(798, 0)]
242	3	1	5	60.0	2	0	[]
248	8	8	16	500.0	2	2	[(1904, 2), (747, 2)]
253	2	1	2	60.0	2	0	[]
262	29	4	8	60.0	0	29	[(6235, 0), (5264, 0), (3469, 0), (4778, 0), (8606, 0), (8695, 0), (1222, 0), (4039, 0), (82, 0), (7970, 0), (7802, 0), (459, 0), (685, 0), (513, 0), (737, 0), (798, 0), (1855, 0), (6025, 0), (3487, 0), (5914, 0), (6578, 0), (8419, 0), (3994, 0), (1904, 0), (8842, 0), (5836, 0), (2485, 0), (1229, 0), (1443, 0)]
265	2	1	8	60.0	2	0	[]
268	3	4	8	60.0	2	0	[]
269	6	1	8	60.0	2	0	[]
270	11	1	8	60.0	2	1	[(4956, 1)]
271	3	2	8	60.0	2	1	[(798, 0)]
274	1	4	8	60.0	2	0	[]
277	1	1	8	60.0	2	0	[]
285	2	1	8	60.0	2	1	[(5022, 1)]
286	18	2	16	60.0	2	0	[]
289	5	2	8	60.0	2	1	[(8223, 2)]
292	12	3	8	40.0	2	1	[(704, 2)]
294	2	1	8	60.0	2	0	[]
296	2	1	8	60.0	2	0	[]
298	2	1	8	60.0	2	0	[]
301	21	12	16	200.0	2	0	[]
302	8	12	16	100.0	2	0	[]
305	3	1	8	60.0	2	0	[]
307	11	1	8	60.0	2	0	[]
309	2	1	8	60.0	2	0	[]
310	71	2	8	60.0	2	14	[(3015, 1), (1863, 0), (302, 2), (3033, 2), (9079, 2), (3469, 2), (4562, 0), (7087, 2), (8223, 0), (798, 0), (4993, 0), (1904, 0), (8938, 0), (7037, 0)]
311	3	1	8	60.0	2	0	[]
315	1	1	2	60.0	2	0	[]
323	2	2	8	60.0	2	0	[]
332	2	4	2	60.0	2	0	[]
338	27	3	2	80.0	2	3	[(5067, 0), (798, 0), (5689, 0)]
347	2	1	8	60.0	2	0	[]
352	1	1	1	60.0	2	0	[]
357	8	1	8	60.0	2	0	[]
359	3	3	48	300.0	2	0	[]
363	1	1	8	60.0	2	0	[]
379	1	1	2	60.0	2	0	[]
380	2	1	8	60.0	2	0	[]
382	3	1	8	60.0	2	0	[]
383	1	1	8	60.0	2	0	[]
384	1	1	8	60.0	2	0	[]
386	5	1	8	80.0	2	0	[]
390	2	2	8	60.0	2	0	[]
394	2	1	8	60.0	2	0	[]
395	1	4	8	60.0	2	0	[]
396	4	1	8	60.0	2	0	[]
405	1	1	1	60.0	2	0	[]
414	3	4	8	60.0	2	0	[]
417	2	1	8	60.0	2	0	[]
419	5	1	8	60.0	2	0	[]
421	14	3	8	60.0	2	6	[(1884, 0), (262, 0), (9052, 0), (3487, 0), (4595, 0), (8287, 0)]
423	4	2	8	60.0	2	0	[]
424	18	2	8	60.0	2	2	[(6695, 2), (798, 0)]
428	3	5	16	200.0	2	0	[]
429	1	1	1	60.0	2	0	[]
430	10	2	8	60.0	2	0	[]
432	2	1	8	60.0	2	0	[]
440	4	2	8	60.0	2	0	[]
441	18	2	8	60.0	2	3	[(2701, 0), (1559, 2), (2904, 0)]
447	3	1	7	60.0	2	0	[]
459	13	1	8	60.0	2	1	[(6377, 0)]
461	1	1	2	80.0	2	13	[(3086, 0), (963, 0), (4965, 0), (4259, 0), (6336, 0), (4701, 0), (3912, 0), (7808, 0), (3106, 0), (4774, 0), (1391, 0), (98, 0), (9324, 0)]
465	3	1	8	60.0	2	0	[]
466	1	6	8	60.0	2	0	[]
469	2	1	2	200.0	2	0	[]
471	1	1	8	60.0	2	0	[]
473	77	3	8	40.0	0	4	[(1661, 2), (1592, 0), (798, 0), (6275, 1)]
474	2	1	8	60.0	2	0	[]
483	14	1	8	60.0	2	1	[(6858, 1)]
484	5	1	8	60.0	2	0	[]
485	3	1	8	60.0	2	0	[]
491	35	1	8	60.0	2	1	[(3383, 1)]
494	2	1	2	60.0	2	1	[(798, 0)]
496	6	1	8	60.0	2	0	[]
497	1	1	5	60.0	2	0	[]
499	2	1	8	60.0	2	0	[]
500	3	2	16	200.0	2	0	[]
503	2	2	8	60.0	2	0	[]
506	2	1	8	60.0	2	0	[]
509	1	4	8	60.0	2	0	[]
510	2	1	16	60.0	2	0	[]
513	11	2	8	60.0	2	0	[]
519	3	1	8	80.0	2	0	[]
520	1	1	8	60.0	2	1	[(798, 0)]
523	2	4	8	60.0	2	0	[]
529	2	1	8	60.0	2	0	[]
536	51	2	8	167.0	2	55	[(6683, 0), (5063, 0), (4341, 0), (1031, 0), (4530, 0), (5607, 0), (6235, 0), (7522, 0), (7154, 0), (4595, 0), (4210, 2), (1222, 0), (6325, 0), (3112, 0), (7970, 0), (459, 0), (5411, 0), (3612, 0), (510, 0), (7080, 0), (8194, 0), (1235, 0), (2668, 0), (4169, 0), (6054, 0), (4449, 0), (8787, 0), (5905, 0), (2700, 0), (4778, 0), (772, 0), (7639, 2), (3487, 0), (9084, 0), (1259, 0), (5313, 0), (9163, 0), (3994, 0), (7486, 0), (685, 0), (1227, 0), (4231, 0), (7843, 0), (5111, 0), (1904, 0), (3019, 0), (8842, 0), (8223, 1), (3571, 0), (3105, 0), (5470, 0), (6578, 0), (2485, 0), (1443, 0), (1238, 0)]
543	1	1	8	60.0	2	0	[]
546	2	1	8	60.0	2	0	[]
551	16	3	8	100.0	2	1	[(798, 0)]
560	2	1	8	60.0	2	0	[]
567	2	1	5	60.0	2	0	[]
570	8	1	8	60.0	2	1	[(798, 0)]
572	18	2	8	100.0	2	1	[(8842, 0)]
579	1	1	5	60.0	2	0	[]
582	2	1	2	60.0	2	0	[]
591	1	1	2	60.0	2	0	[]
593	1	1	8	60.0	2	0	[]
600	1	1	8	60.0	2	0	[]
601	4	1	8	60.0	2	0	[]
603	2	1	8	60.0	2	0	[]
609	1	1	8	60.0	2	0	[]
612	4	5	8	60.0	2	0	[]
614	53	3	8	60.0	2	7	[(9010, 0), (5810, 0), (2701, 0), (4965, 2), (2819, 2), (5812, 0), (3263, 0)]
622	1	1	8	60.0	2	0	[]
625	5	2	8	60.0	2	0	[]
627	1	2	8	60.0	2	0	[]
631	1	1	8	60.0	2	0	[]
632	5	1	8	60.0	2	0	[]
640	4	1	8	60.0	2	0	[]
641	2	1	8	60.0	2	0	[]
642	25	6	8	60.0	2	1	[(798, 0)]
649	1	1	2	60.0	2	0	[]
658	2	2	16	80.0	2	0	[]
674	5	1	8	60.0	2	0	[]
675	1	4	8	60.0	2	0	[]
678	1	1	8	60.0	2	0	[]
679	1	1	8	60.0	2	0	[]
683	2	12	8	60.0	2	0	[]
684	2	1	8	60.0	2	0	[]
685	6	1	3	40.0	2	1	[(5905, 0)]
690	2	1	8	60.0	2	0	[]
696	2	6	8	60.0	2	1	[(798, 0)]
698	1	1	2	80.0	2	0	[]
704	61	5	32	60.0	2	19	[(7626, 2), (5080, 1), (2739, 1), (8587, 2), (2851, 1), (5363, 2), (3117, 1), (9216, 2), (7392, 2), (1637, 1), (4210, 2), (80, 2), (6385, 2), (7555, 2), (5905, 2), (8707, 2), (4630, 2), (6082, 1), (6060, 2)]
706	2	4	8	60.0	2	0	[]
707	7	1	8	60.0	2	0	[]
708	2	6	8	60.0	2	0	[]
719	2	1	8	60.0	2	0	[]
720	8	1	8	60.0	2	0	[]
722	1	1	2	60.0	2	0	[]
728	8	1	8	60.0	2	1	[(798, 0)]
733	2	1	8	60.0	2	0	[]
736	37	4	8	60.0	2	0	[]
737	10	5	32	60.0	2	20	[(7626, 2), (5080, 1), (2739, 1), (8587, 2), (2851, 1), (5363, 2), (3117, 1), (7392, 2), (1637, 0), (1904, 0), (4210, 2), (80, 2), (6385, 2), (7555, 2), (5905, 0), (1850, 0), (8707, 2), (4630, 2), (6082, 1), (6060, 2)]
746	12	3	8	60.0	2	0	[]
747	4	2	8	60.0	2	0	[]
748	2	1	1	60.0	2	0	[]
750	2	1	8	60.0	2	0	[]
751	1	1	1	60.0	2	0	[]
752	2	1	8	60.0	2	0	[]
755	6	12	16	60.0	2	0	[]
757	3	2	8	60.0	2	2	[(473, 1), (798, 0)]
763	3	1	8	60.0	2	0	[]
767	6	2	8	40.0	0	1	[(798, 0)]
768	6	2	8	60.0	2	0	[]
772	1	1	8	60.0	2	0	[]
774	40	6	8	80.0	2	2	[(80, 2), (798, 0)]
795	6	4	16	100.0	2	0	[]
796	7	1	8	60.0	2	0	[]
797	3	1	8	60.0	2	0	[]
798	226	6	8	60.0	0	175	[(873, 0), (235, 0), (9010, 0), (1981, 0), (757, 0), (5607, 0), (2973, 0), (3370, 0), (4301, 0), (8556, 0), (4220, 0), (4627, 0), (2487, 0), (7774, 0), (1704, 0), (696, 0), (1515, 0), (2779, 0), (6331, 0), (2178, 0), (4663, 0), (3216, 0), (1635, 0), (7569, 0), (8653, 0), (1343, 0), (473, 0), (7371, 0), (7780, 0), (4161, 0), (6418, 0), (3146, 0), (3693, 0), (5889, 0), (262, 0), (1123, 0), (8554, 0), (310, 0), (4259, 0), (5467, 0), (2935, 0), (8796, 0), (424, 0), (7585, 0), (767, 0), (2485, 0), (8434, 0), (271, 0), (2680, 0), (2892, 0), (4039, 0), (8801, 0), (7370, 0), (1559, 0), (5705, 0), (7310, 0), (642, 0), (8898, 0), (8328, 0), (7427, 0), (2942, 0), (7871, 0), (6946, 0), (3686, 0), (3085, 0), (4739, 0), (4799, 0), (7754, 0), (5244, 0), (5669, 0), (1361, 0), (2831, 0), (3563, 0), (9011, 0), (7408, 0), (2268, 0), (9168, 0), (6877, 0), (6646, 0), (8735, 0), (4122, 0), (5600, 0), (8349, 0), (7826, 2), (6145, 0), (6626, 0), (8487, 0), (1222, 0), (2134, 0), (2918, 0), (1784, 0), (8144, 0), (4708, 0), (2830, 0), (520, 0), (4459, 0), (1203, 0), (2031, 0), (5387, 0), (1391, 0), (5762, 0), (6910, 0), (6654, 0), (4543, 0), (5920, 0), (8709, 0), (8643, 0), (5810, 0), (8046, 0), (1045, 0), (6196, 0), (4581, 0), (9086, 0), (1592, 0), (5958, 0), (3608, 0), (7298, 0), (1884, 0), (1554, 0), (5276, 0), (4560, 0), (728, 0), (4758, 0), (7170, 0), (7700, 0), (147, 0), (4436, 0), (2765, 0), (7075, 0), (774, 0), (8475, 0), (3387, 0), (8009, 0), (1530, 0), (570, 0), (5022, 0), (3959, 0), (2650, 0), (3994, 0), (6038, 0), (1744, 0), (8855, 0), (8583, 0), (6689, 0), (6483, 0), (6336, 0), (551, 0), (1760, 0), (5812, 0), (1700, 0), (2815, 0), (6025, 0), (2904, 0), (6141, 0), (6210, 0), (3374, 0), (9281, 0), (211, 0), (6270, 0), (4335, 0), (7739, 0), (3632, 0), (1772, 0), (494, 0), (988, 0), (8708, 0), (1146, 0), (338, 0), (6117, 0), (4169, 0), (3425, 0), (4936, 0), (7439, 0), (6874, 0), (5481, 0)]
800	19	1	8	60.0	2	1	[(8223, 2)]
804	5	4	8	60.0	2	2	[(1361, 2), (5601, 2)]
807	6	1	8	60.0	2	0	[]
809	1	1	8	60.0	2	0	[]
816	2	1	8	60.0	2	0	[]
818	1	1	2	60.0	2	0	[]
820	2	1	8	60.0	2	0	[]
823	1	1	2	500.0	2	0	[]
828	1	1	8	60.0	2	0	[]
830	2	1	8	60.0	2	0	[]
837	2	1	8	60.0	2	0	[]
841	1	1	2	60.0	2	0	[]
843	1	4	8	60.0	2	0	[]
844	3	1	8	60.0	2	0	[]
849	2	1	8	60.0	2	0	[]
855	1	1	1	60.0	2	0	[]
869	2	6	8	60.0	2	0	[]
870	2	4	8	60.0	2	0	[]
873	3	2	8	60.0	2	1	[(798, 0)]
879	1	1	8	60.0	2	0	[]
884	1	4	8	60.0	2	0	[]
890	2	1	8	60.0	2	0	[]
895	14	3	8	60.0	2	0	[]
908	1	1	8	60.0	2	0	[]
910	1	1	8	60.0	2	0	[]
912	1	1	2	60.0	2	0	[]
914	2	1	2	60.0	2	0	[]
918	3	1	8	60.0	2	0	[]
928	3	1	8	60.0	2	0	[]
937	2	1	8	60.0	2	0	[]
947	3	2	8	60.0	2	0	[]
953	5	1	8	60.0	2	0	[]
959	2	1	8	60.0	2	0	[]
961	3	3	8	60.0	2	0	[]
963	18	6	8	60.0	2	1	[(8812, 1)]
964	1	1	8	60.0	2	0	[]
967	3	1	8	60.0	2	0	[]
974	1	1	8	60.0	2	0	[]
975	20	36	48	300.0	2	0	[]
980	3	1	8	60.0	2	0	[]
983	1	1	7	60.0	2	0	[]
984	2	2	8	60.0	2	0	[]
988	2	1	8	80.0	2	1	[(798, 0)]
993	1	1	8	60.0	2	0	[]
995	13	1	8	60.0	2	3	[(4678, 1), (5022, 0), (7066, 0)]
997	2	2	8	60.0	2	0	[]
999	2	1	8	60.0	2	0	[]
1000	2	1	8	80.0	2	0	[]
1004	3	1	8	60.0	2	0	[]
1006	1	1	1	60.0	2	0	[]
1009	11	3	8	60.0	2	0	[]
1010	1	1	8	60.0	2	0	[]
1016	6	2	8	60.0	2	0	[]
1025	4	1	8	40.0	2	0	[]
1030	1	2	8	60.0	2	0	[]
1031	6	2	2	60.0	2	0	[]
1034	2	1	8	60.0	2	0	[]
1045	19	3	8	60.0	2	4	[(4684, 2), (6521, 2), (484, 0), (798, 0)]
1053	1	1	2	60.0	2	0	[]
1054	1	3	8	60.0	2	0	[]
1066	30	3	8	60.0	2	1	[(7959, 1)]
1070	4	1	2	60.0	2	0	[]
1071	23	2	10	60.0	1	0	[]
1076	1	1	8	60.0	2	0	[]
1078	2	1	8	60.0	2	0	[]
1084	2	1	8	60.0	2	0	[]
1086	2	1	8	60.0	2	0	[]
1088	1	4	8	60.0	2	0	[]
1099	15	1	2	60.0	2	1	[(1253, 1)]
1101	9	11	16	60.0	2	0	[]
1105	5	1	8	60.0	2	0	[]
1108	2	1	8	60.0	2	0	[]
1111	1	1	1	60.0	2	0	[]
1112	2	1	8	60.0	2	0	[]
1116	2	4	8	80.0	2	0	[]
1123	76	2	8	60.0	2	54	[(6683, 1), (7196, 1), (5607, 2), (6235, 1), (8293, 1), (4595, 0), (1222, 0), (4495, 0), (6325, 1), (3112, 1), (459, 0), (7080, 0), (48, 1), (1602, 1), (1227, 1), (3994, 1), (8583, 1), (704, 2), (3604, 1), (2668, 1), (4011, 1), (737, 2), (798, 0), (772, 1), (1855, 1), (5689, 1), (8194, 0), (4243, 1), (473, 2), (6625, 0), (1259, 0), (5914, 1), (9127, 0), (6520, 0), (2700, 1), (9163, 1), (1661, 1), (7843, 1), (7716, 1), (3574, 1), (1904, 2), (2485, 1), (4193, 1), (2886, 1), (4341, 0), (4423, 1), (7154, 1), (8842, 2), (3105, 1), (8796, 1), (1071, 0), (7486, 1), (1443, 1), (1238, 1)]
1130	1	1	8	60.0	2	0	[]
1134	2	1	7	100.0	2	0	[]
1135	1	1	8	60.0	2	0	[]
1136	1	1	8	60.0	2	0	[]
1139	2	1	7	60.0	2	0	[]
1143	3	1	7	60.0	2	0	[]
1146	1	4	8	60.0	2	1	[(798, 0)]
1150	4	6	8	60.0	2	0	[]
1158	2	1	8	60.0	2	0	[]
1161	2	6	8	60.0	2	2	[(1863, 0), (338, 0)]
1163	11	3	8	60.0	2	6	[(8251, 0), (7667, 1), (149, 0), (8554, 0), (6858, 0), (8861, 1)]
1165	4	1	2	60.0	2	0	[]
1168	2	4	8	60.0	2	0	[]
1171	1	1	8	60.0	2	0	[]
1172	3	1	8	60.0	2	0	[]
1175	4	1	8	60.0	2	0	[]
1182	5	2	8	60.0	2	0	[]
1187	2	1	8	60.0	2	0	[]
1188	2	2	8	60.0	2	0	[]
1192	2	1	8	60.0	2	0	[]
1193	2	1	8	60.0	2	0	[]
1198	1	2	8	60.0	2	0	[]
1200	2	1	8	60.0	2	0	[]
1203	7	1	8	60.0	2	1	[(798, 0)]
1209	1	4	8	60.0	2	0	[]
1210	1	1	8	60.0	2	0	[]
1217	2	1	6	60.0	2	0	[]
1218	2	1	8	60.0	2	0	[]
1220	2	1	8	60.0	2	0	[]
1222	397	7	16	60.0	0	4	[(4337, 1), (8842, 0), (798, 0), (338, 0)]
1223	1	1	8	60.0	2	0	[]
1227	76	3	8	60.0	2	4	[(80, 2), (9127, 0), (3117, 1), (8223, 2)]
1229	12	2	8	60.0	2	7	[(5905, 0), (8583, 0), (4169, 0), (5022, 0), (5264, 0), (4210, 0), (4039, 0)]
1235	6	2	8	60.0	2	0	[]
1236	2	1	2	60.0	2	0	[]
1238	19	2	8	60.0	2	2	[(704, 2), (473, 2)]
1242	1	1	8	60.0	2	0	[]
1247	4	1	8	60.0	2	0	[]
1248	63	12	8	100.0	2	0	[]
1250	1	1	8	60.0	2	0	[]
1253	2	1	8	60.0	2	0	[]
1255	2	1	8	60.0	2	0	[]
1259	21	4	8	60.0	2	0	[]
1261	1	1	8	60.0	2	0	[]
1266	1	1	1	60.0	2	0	[]
1269	1	1	8	60.0	2	0	[]
1272	4	1	8	60.0	2	0	[]
1274	4	1	8	60.0	2	1	[(8842, 0)]
1276	1	1	8	60.0	2	0	[]
1278	6	1	8	60.0	2	1	[(1906, 2)]
1279	4	3	8	60.0	2	0	[]
1284	2	1	8	60.0	2	0	[]
1286	1	1	8	60.0	2	0	[]
1288	16	2	8	60.0	2	0	[]
1289	1	4	8	60.0	2	0	[]
1295	2	1	8	60.0	2	0	[]
1297	1	1	8	60.0	2	0	[]
1301	2	1	8	60.0	2	0	[]
1307	2	1	8	60.0	2	0	[]
1309	2	1	2	60.0	2	0	[]
1311	2	1	8	60.0	2	0	[]
1329	14	1	8	60.0	2	1	[(4210, 2)]
1339	2	1	8	60.0	2	0	[]
1340	1	1	1	60.0	2	0	[]
1343	40	6	8	60.0	2	1	[(798, 0)]
1350	2	3	8	60.0	2	0	[]
1351	1	2	2	60.0	2	0	[]
1353	1	1	1	60.0	2	0	[]
1355	1	1	8	60.0	2	0	[]
1357	1	1	2	60.0	2	0	[]
1358	3	6	8	60.0	2	0	[]
1361	7	1	8	60.0	2	1	[(798, 0)]
1362	7	6	16	80.0	2	0	[]
1367	17	5	8	60.0	2	1	[(1235, 2)]
1370	1	4	16	80.0	2	0	[]
1371	1	1	8	60.0	2	0	[]
1382	5	4	8	60.0	2	0	[]
1383	2	1	8	60.0	2	0	[]
1384	1	1	8	60.0	2	0	[]
1385	2	3	8	60.0	2	0	[]
1387	2	1	3	60.0	2	0	[]
1391	189	6	8	60.0	2	6	[(3815, 2), (8518, 0), (1172, 0), (5118, 0), (798, 0), (844, 0)]
1393	1	1	8	60.0	2	0	[]
1394	2	4	8	60.0	2	0	[]
1395	3	2	8	60.0	2	0	[]
1401	3	1	8	60.0	2	0	[]
1406	1	1	8	60.0	2	0	[]
1413	2	1	8	60.0	2	0	[]
1415	2	1	8	60.0	2	0	[]
1420	2	1	32	100.0	2	0	[]
1423	2	1	1	60.0	2	0	[]
1424	6	5	8	80.0	2	0	[]
1429	2	1	8	60.0	2	0	[]
1433	2	1	8	60.0	2	1	[(147, 1)]
1434	4	1	8	60.0	2	0	[]
1438	8	2	8	60.0	2	0	[]
1443	103	6	8	60.0	0	11	[(6683, 0), (6235, 0), (5265, 2), (3002, 0), (473, 0), (292, 0), (8223, 0), (704, 2), (7486, 0), (2220, 2), (2593, 2)]
1444	1	1	8	60.0	2	0	[]
1446	1	1	8	60.0	2	0	[]
1459	4	2	8	60.0	2	0	[]
1460	1	1	8	60.0	2	0	[]
1467	1	4	8	60.0	2	0	[]
1473	3	1	16	60.0	2	0	[]
1476	2	1	8	60.0	2	0	[]
1477	1	1	8	60.0	2	0	[]
1497	10	2	8	60.0	2	0	[]
1498	2	1	8	60.0	2	0	[]
1500	2	1	8	60.0	2	0	[]
1505	2	1	8	60.0	2	0	[]
1507	3	2	8	60.0	2	1	[(4412, 1)]
1510	4	14	32	80.0	2	0	[]
1512	1	1	4	60.0	2	0	[]
1515	25	4	8	60.0	2	8	[(1940, 1), (4010, 0), (7998, 0), (3487, 1), (798, 0), (8998, 0), (2904, 0), (8873, 2)]
1518	3	1	8	60.0	2	0	[]
1519	1	1	8	60.0	2	0	[]
1520	1	1	5	60.0	2	0	[]
1524	8	1	8	100.0	2	0	[]
1530	10	3	8	60.0	2	2	[(1829, 2), (798, 0)]
1533	3	1	8	60.0	2	0	[]
1535	2	1	8	60.0	2	0	[]
1536	2	1	8	60.0	2	0	[]
1538	2	1	8	60.0	2	0	[]
1539	2	1	8	60.0	2	0	[]
1544	8	1	8	60.0	2	0	[]
1545	2	2	8	60.0	2	0	[]
1552	1	4	8	60.0	2	0	[]
1554	2	1	1	60.0	2	1	[(798, 0)]
1556	1	1	8	60.0	2	0	[]
1558	2	1	6	60.0	2	0	[]
1559	18	1	8	100.0	2	1	[(798, 0)]
1565	8	1	8	60.0	2	1	[(5022, 2)]
1571	1	1	1	60.0	2	0	[]
1572	2	1	8	60.0	2	0	[]
1580	1	1	8	60.0	2	0	[]
1582	1	1	8	60.0	2	0	[]
1583	1	1	8	60.0	2	0	[]
1591	1	1	8	60.0	2	0	[]
1592	43	3	8	40.0	2	1	[(798, 0)]
1602	51	6	8	60.0	2	0	[]
1603	1	2	8	100.0	2	0	[]
1605	2	1	8	60.0	2	0	[]
1610	1	4	8	60.0	2	0	[]
1615	2	1	8	100.0	2	0	[]
1622	1	1	1	60.0	2	0	[]
1628	2	1	2	60.0	2	0	[]
1629	1	1	8	60.0	2	0	[]
1635	52	2	8	60.0	2	2	[(6559, 0), (798, 0)]
1636	1	1	8	60.0	2	0	[]
1637	137	24	60	60.0	2	24	[(7626, 2), (5080, 1), (7716, 2), (6097, 2), (6082, 1), (8587, 2), (8535, 2), (5363, 2), (3117, 1), (7392, 2), (3370, 0), (4210, 2), (80, 2), (6385, 2), (704, 2), (4011, 2), (737, 2), (5905, 2), (5437, 0), (6683, 2), (8707, 2), (4630, 2), (6060, 2), (7555, 2)]
1642	2	1	1	500.0	2	0	[]
1643	4	2	8	60.0	2	0	[]
1649	1	2	8	60.0	2	0	[]
1654	7	16	32	200.0	2	0	[]
1655	1	4	8	60.0	2	0	[]
1657	3	6	8	60.0	2	0	[]
1661	2	2	8	60.0	2	0	[]
1662	23	3	8	60.0	2	1	[(7730, 0)]
1664	4	1	8	60.0	2	0	[]
1666	1	6	3	60.0	2	0	[]
1672	1	4	8	60.0	2	0	[]
1677	2	2	8	60.0	2	0	[]
1680	1	1	8	60.0	2	0	[]
1682	2	1	1	60.0	2	0	[]
1694	2	1	1	60.0	2	0	[]
1695	2	6	8	60.0	2	0	[]
1697	2	1	8	60.0	2	0	[]
1698	2	1	1	80.0	2	0	[]
1700	15	6	16	100.0	2	2	[(7998, 0), (798, 0)]
1704	1	1	6	60.0	2	1	[(798, 0)]
1708	5	3	8	60.0	2	1	[(8567, 2)]
1711	1	1	8	60.0	2	0	[]
1713	2	1	8	60.0	2	0	[]
1719	1	1	8	60.0	2	0	[]
1724	4	1	8	60.0	2	0	[]
1730	4	1	8	60.0	2	0	[]
1732	2	1	8	60.0	2	0	[]
1736	4	1	8	60.0	2	0	[]
1738	4	1	8	60.0	2	0	[]
1744	15	3	8	60.0	2	2	[(1949, 1), (798, 0)]
1745	1	4	16	80.0	2	0	[]
1747	1	1	8	60.0	2	0	[]
1751	5	1	8	60.0	2	0	[]
1752	2	1	8	60.0	2	0	[]
1757	6	2	16	80.0	2	0	[]
1758	11	2	2	60.0	2	0	[]
1760	7	4	8	60.0	2	1	[(798, 0)]
1762	5	5	8	60.0	2	0	[]
1764	2	1	2	60.0	2	1	[(8002, 2)]
1767	2	1	2	60.0	2	0	[]
1770	6	3	8	60.0	2	0	[]
1772	17	2	8	60.0	2	1	[(798, 0)]
1773	11	5	2	60.0	2	0	[]
1779	3	6	16	60.0	2	0	[]
1780	2	1	8	60.0	2	0	[]
1782	14	2	16	60.0	2	0	[]
1784	22	1	8	60.0	2	1	[(798, 0)]
1787	2	4	8	60.0	2	0	[]
1794	1	1	8	60.0	2	0	[]
1795	4	1	2	60.0	2	1	[(4007, 0)]
1797	3	12	16	80.0	2	0	[]
1798	2	1	8	60.0	2	0	[]
1804	10	2	8	60.0	2	0	[]
1807	1	1	8	60.0	2	0	[]
1808	2	4	16	80.0	2	0	[]
1811	1	1	8	60.0	2	0	[]
1813	9	1	8	60.0	2	0	[]
1816	2	1	8	60.0	2	0	[]
1817	1	1	1	60.0	2	0	[]
1827	2	1	8	60.0	2	0	[]
1829	2	1	8	60.0	2	0	[]
1831	2	1	1	60.0	2	0	[]
1835	1	1	8	60.0	2	0	[]
1839	2	1	8	60.0	2	0	[]
1842	2	1	1	60.0	2	0	[]
1843	4	1	8	60.0	2	0	[]
1845	2	2	8	60.0	2	0	[]
1848	5	3	8	60.0	2	5	[(5511, 1), (82, 2), (9052, 2), (4543, 1), (4581, 2)]
1850	1	2	10	40.0	2	0	[]
1852	2	1	2	60.0	2	0	[]
1853	5	1	8	60.0	2	0	[]
1855	47	3	16	80.0	2	1	[(8223, 2)]
1859	1	1	8	60.0	2	0	[]
1861	4	1	8	60.0	2	0	[]
1863	60	6	8	60.0	2	6	[(8571, 1), (8641, 0), (4129, 0), (2448, 1), (338, 0), (1161, 0)]
1866	2	1	2	60.0	2	0	[]
1868	3	1	8	60.0	2	0	[]
1869	3	1	8	60.0	2	0	[]
1876	2	1	8	80.0	2	0	[]
1881	2	1	2	60.0	2	0	[]
1882	1	4	8	60.0	2	0	[]
1884	212	10	16	100.0	2	2	[(7348, 0), (798, 0)]
1885	2	1	8	60.0	2	0	[]
1892	2	1	8	60.0	2	0	[]
1893	3	1	8	60.0	2	0	[]
1894	2	3	8	60.0	2	0	[]
1895	3	4	8	60.0	2	0	[]
1896	1	4	8	60.0	2	0	[]
1897	1	1	8	60.0	2	0	[]
1900	50	1	16	60.0	2	58	[(5555, 0), (2788, 1), (5812, 0), (161, 1), (9182, 0), (2070, 1), (3030, 1), (4912, 0), (8643, 1), (6235, 0), (1222, 0), (3952, 0), (8144, 1), (8116, 0), (2831, 1), (7998, 0), (3701, 0), (3979, 1), (4459, 1), (6943, 0), (4385, 0), (1780, 1), (8130, 0), (6117, 0), (3158, 1), (5876, 0), (5476, 0), (536, 0), (7246, 1), (473, 0), (3410, 0), (4335, 0), (2214, 0), (4889, 1), (8392, 0), (5670, 2), (3693, 2), (7199, 0), (1582, 0), (8434, 0), (292, 1), (9243, 1), (6147, 0), (523, 1), (5244, 1), (8554, 0), (4412, 2), (3126, 0), (5585, 1), (6864, 1), (1391, 0), (1592, 1), (3106, 1), (6726, 0), (7178, 1), (2485, 1), (1229, 2), (8708, 1)]
1902	1	1	1	60.0	2	0	[]
1904	60	1	8	40.0	0	3	[(5490, 0), (3370, 0), (8653, 0)]
1905	10	1	8	60.0	2	1	[(2541, 2)]
1906	3	1	8	80.0	2	0	[]
1924	1	1	3	60.0	2	0	[]
1930	2	1	2	60.0	2	0	[]
1938	2	1	8	60.0	2	0	[]
1940	3	1	8	60.0	2	0	[]
1949	17	3	8	60.0	2	0	[]
1956	3	1	8	60.0	2	0	[]
1959	5	2	8	60.0	2	0	[]
1966	1	4	8	60.0	2	0	[]
1967	2	4	16	80.0	2	0	[]
1969	3	3	16	60.0	2	0	[]
1974	1	2	16	60.0	2	0	[]
1978	5	1	8	60.0	2	0	[]
1979	4	2	8	60.0	2	0	[]
1981	3	1	12	80.0	2	1	[(798, 0)]
1984	4	1	4	60.0	2	0	[]
1989	1	4	8	60.0	2	0	[]
1992	1	4	8	60.0	2	0	[]
1996	1	1	8	60.0	2	0	[]
1997	16	1	8	60.0	2	0	[]
1999	2	1	2	60.0	2	0	[]
2005	3	1	8	60.0	2	0	[]
2008	1	1	8	60.0	2	0	[]
2011	1	8	16	200.0	2	0	[]
2016	2	2	8	60.0	2	0	[]
2018	3	2	8	80.0	2	0	[]
2021	1	1	2	60.0	2	0	[]
2027	2	1	8	60.0	2	1	[(1744, 0)]
2031	2	1	8	60.0	2	1	[(798, 0)]
2035	2	1	8	60.0	2	0	[]
2058	3	1	2	200.0	2	0	[]
2060	1	3	8	60.0	2	0	[]
2065	2	1	8	60.0	2	0	[]
2066	1	1	8	60.0	2	0	[]
2070	5	4	16	200.0	2	0	[]
2072	2	1	8	60.0	2	0	[]
2073	2	3	16	60.0	2	0	[]
2077	4	1	8	60.0	2	0	[]
2081	1	6	2	60.0	2	0	[]
2084	4	1	8	60.0	2	0	[]
2085	1	1	8	60.0	2	0	[]
2087	1	1	2	60.0	2	0	[]
2093	10	1	1	80.0	2	0	[]
2099	1	1	3	60.0	2	0	[]
2101	1	1	48	300.0	2	0	[]
2102	1	2	6	60.0	2	0	[]
2103	2	1	8	60.0	2	0	[]
2104	4	1	8	60.0	2	0	[]
2107	4	1	8	60.0	2	0	[]
2111	9	2	8	60.0	2	2	[(1863, 0), (7007, 0)]
2115	1	1	8	60.0	2	0	[]
2122	1	4	8	60.0	2	0	[]
2130	3	1	8	60.0	2	0	[]
2134	5	1	8	60.0	2	0	[]
2135	2	1	8	60.0	2	0	[]
2141	1	1	2	60.0	2	0	[]
2144	1	1	8	60.0	2	0	[]
2147	6	1	8	250.0	2	0	[]
2149	1	1	8	60.0	2	0	[]
2158	2	1	8	60.0	2	0	[]
2159	1	1	16	80.0	2	0	[]
2168	1	1	8	60.0	2	0	[]
2171	1	1	8	60.0	2	0	[]
2174	2	1	8	60.0	2	0	[]
2178	12	6	8	60.0	2	1	[(798, 0)]
2184	2	4	8	60.0	2	0	[]
2201	2	2	8	60.0	2	0	[]
2202	1	1	8	60.0	2	0	[]
2209	1	1	1	60.0	2	0	[]
2210	1	1	8	60.0	2	0	[]
2214	2	1	8	60.0	2	0	[]
2220	4	1	8	60.0	2	0	[]
2231	17	2	8	60.0	2	1	[(61, 2)]
2234	5	2	8	60.0	2	0	[]
2235	1	1	4	60.0	2	0	[]
2237	2	1	8	60.0	2	0	[]
2240	2	1	8	60.0	2	0	[]
2251	5	2	8	60.0	2	0	[]
2254	2	1	8	80.0	2	0	[]
2257	7	2	8	80.0	2	0	[]
2259	1	4	8	60.0	2	0	[]
2267	1	1	8	60.0	2	0	[]
2268	2	1	8	60.0	2	1	[(798, 0)]
2270	2	3	8	60.0	2	0	[]
2273	24	2	8	60.0	2	2	[(7497, 2), (253, 2)]
2276	1	1	8	60.0	2	0	[]
2279	2	1	8	60.0	2	0	[]
2280	1	1	2	60.0	2	0	[]
2288	1	1	8	60.0	2	0	[]
2292	16	1	16	80.0	2	1	[(6645, 0)]
2293	2	1	8	60.0	2	0	[]
2294	1	1	1	60.0	2	0	[]
2295	2	1	7	60.0	2	0	[]
2299	5	1	8	60.0	2	0	[]
2305	1	6	8	100.0	2	0	[]
2307	1	1	8	60.0	2	4	[(1770, 0), (8208, 0), (5955, 0), (5545, 0)]
2314	1	4	8	60.0	2	0	[]
2322	2	1	3	60.0	2	0	[]
2323	1	1	1	60.0	2	0	[]
2324	1	1	8	60.0	2	0	[]
2327	1	1	2	60.0	2	0	[]
2329	2	1	8	60.0	2	0	[]
2330	2	1	8	60.0	2	0	[]
2334	1	4	8	80.0	2	0	[]
2337	2	1	2	60.0	2	0	[]
2338	3	1	8	60.0	2	0	[]
2340	2	4	8	60.0	2	0	[]
2348	1	1	2	60.0	2	0	[]
2355	1	1	8	60.0	2	0	[]
2358	2	1	8	60.0	2	0	[]
2360	2	4	8	60.0	2	0	[]
2362	1	1	2	60.0	2	0	[]
2364	1	2	8	60.0	2	0	[]
2365	1	1	8	60.0	2	0	[]
2368	1	4	16	80.0	2	0	[]
2372	1	1	8	60.0	2	0	[]
2374	1	2	8	60.0	2	0	[]
2380	1	1	8	60.0	2	0	[]
2386	1	1	8	60.0	2	0	[]
2387	1	1	8	60.0	2	0	[]
2389	1	4	8	60.0	2	0	[]
2392	1	4	8	60.0	2	0	[]
2394	1	1	8	60.0	2	0	[]
2396	1	1	1	60.0	2	0	[]
2398	1	1	8	60.0	2	0	[]
2402	1	1	8	60.0	2	0	[]
2403	1	4	8	60.0	2	0	[]
2407	1	1	4	60.0	2	0	[]
2414	2	1	8	60.0	2	0	[]
2420	2	1	8	60.0	2	0	[]
2425	2	1	8	60.0	2	0	[]
2431	3	4	8	60.0	2	0	[]
2439	4	1	8	60.0	2	0	[]
2440	4	1	8	60.0	2	0	[]
2442	4	1	8	60.0	2	0	[]
2445	4	1	8	60.0	2	0	[]
2448	4	2	8	100.0	2	0	[]
2456	5	4	8	60.0	2	0	[]
2466	6	1	8	60.0	2	1	[(5009, 0)]
2470	6	4	8	60.0	2	0	[]
2471	6	5	16	80.0	2	0	[]
2474	6	12	16	100.0	2	0	[]
2476	7	2	8	60.0	2	0	[]
2477	7	12	16	60.0	2	0	[]
2483	27	1	8	60.0	2	3	[(947, 0), (471, 0), (8959, 2)]
2485	419	6	8	40.0	2	14	[(8283, 0), (3487, 0), (4797, 0), (421, 0), (1602, 0), (1222, 0), (4039, 0), (6123, 0), (7667, 1), (5022, 0), (147, 0), (3753, 0), (798, 0), (1423, 2)]
2487	138	6	8	60.0	2	5	[(5324, 2), (2754, 1), (4732, 0), (8990, 0), (798, 0)]
2495	10	4	8	60.0	2	0	[]
2498	10	1	8	60.0	2	0	[]
2501	9	2	8	60.0	2	0	[]
2515	3	1	6	60.0	2	0	[]
2519	3	4	8	60.0	2	0	[]
2536	2	2	8	60.0	2	0	[]
2539	2	1	8	60.0	2	0	[]
2541	2	1	8	60.0	2	0	[]
2544	2	1	8	60.0	2	0	[]
2559	2	1	8	60.0	2	0	[]
2560	2	1	8	60.0	2	0	[]
2562	2	4	8	60.0	2	0	[]
2565	2	4	16	80.0	2	0	[]
2566	2	2	8	60.0	2	0	[]
2568	2	1	1	60.0	2	1	[(3994, 0)]
2572	2	1	8	60.0	2	0	[]
2579	2	1	8	60.0	2	0	[]
2587	6	3	8	60.0	2	1	[(4858, 1)]
2589	3	1	8	60.0	2	0	[]
2593	29	6	8	60.0	2	45	[(2886, 0), (6235, 0), (5063, 0), (5264, 0), (7219, 0), (4337, 0), (8535, 0), (3469, 0), (7196, 0), (1222, 0), (7486, 0), (3994, 0), (3296, 0), (3422, 0), (1227, 0), (4810, 1), (8499, 0), (4530, 0), (286, 0), (2668, 0), (5411, 0), (3337, 0), (6025, 0), (5689, 0), (8716, 0), (2483, 0), (3487, 0), (5023, 0), (9076, 0), (3413, 2), (572, 0), (1904, 0), (2887, 0), (8273, 0), (8842, 0), (8223, 0), (3873, 0), (6811, 1), (5112, 0), (4169, 0), (5470, 0), (4193, 0), (2485, 0), (1443, 0), (8194, 0)]
2596	1	8	16	100.0	2	0	[]
2599	4	1	8	60.0	2	1	[(4412, 1)]
2601	2	1	8	60.0	2	0	[]
2602	1	1	2	60.0	2	0	[]
2603	1	1	8	60.0	2	0	[]
2610	5	6	8	80.0	2	0	[]
2613	8	1	8	60.0	2	0	[]
2614	1	1	2	60.0	2	0	[]
2615	1	1	2	60.0	2	0	[]
2620	5	5	16	60.0	2	0	[]
2624	1	1	2	60.0	2	0	[]
2630	5	2	8	60.0	2	0	[]
2632	2	1	7	60.0	2	0	[]
2634	3	1	8	60.0	2	0	[]
2643	6	8	12	60.0	2	0	[]
2647	2	3	8	60.0	2	0	[]
2649	19	5	8	60.0	2	3	[(80, 0), (5022, 0), (8223, 2)]
2650	3	2	8	60.0	2	1	[(798, 0)]
2654	1	4	8	80.0	2	0	[]
2668	114	6	2	60.0	2	6	[(4231, 0), (5470, 2), (1708, 2), (8938, 0), (536, 0), (3624, 1)]
2671	1	1	6	60.0	2	0	[]
2673	2	1	8	60.0	2	0	[]
2675	2	2	8	60.0	2	0	[]
2678	1	1	8	60.0	2	0	[]
2680	11	2	8	60.0	2	1	[(798, 0)]
2682	4	1	8	100.0	2	0	[]
2685	5	5	8	60.0	2	0	[]
2686	2	1	2	60.0	2	0	[]
2691	1	1	8	60.0	2	0	[]
2693	9	1	8	60.0	2	0	[]
2695	4	1	32	80.0	2	0	[]
2697	6	6	16	40.0	2	0	[]
2698	2	1	16	60.0	2	0	[]
2700	27	2	8	60.0	2	8	[(1227, 0), (473, 1), (3873, 0), (4210, 2), (80, 1), (2593, 1), (82, 1), (5958, 2)]
2701	27	4	7	60.0	2	1	[(3800, 0)]
2702	1	1	8	60.0	2	0	[]
2704	2	1	8	60.0	2	0	[]
2705	2	1	8	60.0	2	0	[]
2706	2	1	8	60.0	2	0	[]
2712	2	1	8	60.0	2	0	[]
2714	1	1	2	60.0	2	0	[]
2717	1	1	8	60.0	2	0	[]
2723	2	1	8	40.0	2	0	[]
2726	2	2	8	60.0	2	0	[]
2729	2	1	8	60.0	2	0	[]
2737	2	2	32	80.0	2	0	[]
2738	2	1	8	60.0	2	0	[]
2739	1	1	60	60.0	2	22	[(7626, 2), (5080, 1), (7716, 2), (6097, 2), (6082, 1), (8587, 2), (8535, 2), (5363, 2), (3117, 1), (7392, 2), (4210, 2), (80, 2), (6385, 2), (704, 2), (4011, 2), (737, 2), (5905, 2), (6683, 2), (8707, 2), (4630, 2), (6060, 2), (7555, 2)]
2740	3	1	8	60.0	2	0	[]
2748	1	1	8	60.0	2	0	[]
2749	19	3	8	60.0	2	3	[(3816, 1), (529, 1), (474, 0)]
2754	4	3	8	60.0	2	0	[]
2756	1	4	8	60.0	2	0	[]
2758	1	1	2	60.0	2	0	[]
2759	2	1	8	60.0	2	0	[]
2762	1	1	8	60.0	2	0	[]
2764	2	6	8	60.0	2	0	[]
2765	7	1	8	60.0	2	1	[(798, 0)]
2766	2	1	8	60.0	2	0	[]
2776	1	1	8	60.0	2	0	[]
2779	1	1	4	60.0	2	1	[(798, 0)]
2780	1	1	8	60.0	2	0	[]
2782	1	1	2	60.0	2	0	[]
2788	11	1	10	180.0	2	8	[(7538, 0), (195, 0), (1172, 0), (8263, 0), (995, 0), (242, 0), (2276, 0), (3184, 0)]
2790	2	1	8	60.0	2	0	[]
2804	2	1	8	60.0	2	0	[]
2808	2	1	8	60.0	2	0	[]
2810	1	2	8	60.0	2	0	[]
2812	1	1	3	60.0	2	0	[]
2814	25	1	8	60.0	2	0	[]
2815	60	1	8	60.0	2	1	[(798, 0)]
2818	2	2	8	60.0	2	0	[]
2819	4	2	8	60.0	2	0	[]
2820	1	1	1	60.0	2	0	[]
2822	2	3	8	80.0	2	0	[]
2823	1	1	8	60.0	2	0	[]
2824	1	1	8	60.0	2	0	[]
2830	1	1	2	60.0	2	1	[(798, 0)]
2831	35	2	8	60.0	2	2	[(17, 2), (798, 0)]
2833	2	1	8	60.0	2	0	[]
2834	1	4	16	100.0	2	0	[]
2835	2	2	8	60.0	2	0	[]
2836	1	1	6	60.0	2	0	[]
2842	2	1	8	60.0	2	0	[]
2847	5	1	8	60.0	2	0	[]
2851	1	16	60	60.0	2	22	[(7626, 2), (5080, 1), (7716, 2), (6097, 2), (6082, 1), (8587, 2), (8535, 2), (5363, 2), (3117, 1), (7392, 2), (4210, 2), (80, 2), (6385, 2), (704, 2), (4011, 2), (737, 2), (5905, 2), (6683, 2), (8707, 2), (4630, 2), (6060, 2), (7555, 2)]
2854	2	1	8	60.0	2	0	[]
2856	4	1	8	60.0	2	0	[]
2873	2	1	8	60.0	2	0	[]
2877	3	1	1	60.0	2	0	[]
2878	2	4	8	60.0	2	0	[]
2881	1	1	2	60.0	2	0	[]
2886	31	2	2	60.0	2	0	[]
2887	18	3	16	200.0	2	0	[]
2892	18	1	8	60.0	2	2	[(9052, 2), (798, 0)]
2893	2	1	8	60.0	2	0	[]
2895	8	1	8	60.0	2	1	[(3959, 2)]
2904	108	5	8	100.0	0	20	[(9266, 2), (3015, 0), (5616, 2), (253, 2), (5553, 1), (7601, 2), (3263, 0), (6764, 2), (7497, 1), (8329, 2), (8296, 1), (1831, 2), (8435, 0), (6146, 2), (8645, 1), (3520, 0), (798, 0), (9324, 1), (7487, 2), (3959, 1)]
2905	2	6	8	60.0	2	0	[]
2906	2	1	8	60.0	2	0	[]
2909	2	1	8	60.0	2	0	[]
2915	2	1	8	60.0	2	0	[]
2918	7	1	8	60.0	2	1	[(798, 0)]
2927	1	2	8	60.0	2	0	[]
2928	14	1	8	80.0	2	0	[]
2929	2	1	8	60.0	2	0	[]
2931	1	3	8	60.0	0	0	[]
2935	3	1	8	60.0	2	1	[(798, 0)]
2940	59	1	8	60.0	2	0	[]
2942	13	2	8	60.0	2	1	[(798, 0)]
2946	2	2	16	100.0	2	0	[]
2948	1	1	1	60.0	2	0	[]
2952	5	1	8	60.0	2	0	[]
2958	1	1	8	60.0	2	0	[]
2962	6	6	2	60.0	2	0	[]
2971	1	1	8	100.0	2	0	[]
2972	1	1	8	60.0	2	0	[]
2973	4	1	1	60.0	2	1	[(798, 0)]
2976	1	7	16	100.0	2	0	[]
2980	10	1	8	60.0	2	0	[]
2985	1	2	8	40.0	1	0	[]
2987	1	1	1	60.0	2	0	[]
2990	1	1	8	60.0	2	0	[]
2991	2	1	8	60.0	2	0	[]
2997	2	1	8	60.0	2	0	[]
3000	4	2	8	60.0	2	0	[]
3002	18	2	8	60.0	2	0	[]
3003	2	1	8	60.0	2	0	[]
3010	10	1	8	60.0	2	0	[]
3012	2	1	8	60.0	2	0	[]
3015	4	4	8	60.0	2	0	[]
3017	2	1	8	60.0	2	0	[]
3019	7	3	2	60.0	2	0	[]
3026	1	1	40	60.0	2	0	[]
3029	2	1	8	60.0	2	0	[]
3030	2	1	8	60.0	2	0	[]
3033	11	4	8	80.0	2	1	[(6858, 0)]
3038	1	1	8	100.0	2	0	[]
3040	1	4	8	60.0	2	0	[]
3050	4	1	8	60.0	2	0	[]
3052	2	4	8	60.0	2	0	[]
3064	1	2	8	60.0	2	0	[]
3069	1	4	8	60.0	2	0	[]
3071	2	1	8	60.0	2	0	[]
3074	2	1	6	60.0	2	0	[]
3078	4	1	8	60.0	2	0	[]
3083	5	2	8	60.0	2	0	[]
3085	10	1	8	60.0	2	1	[(798, 0)]
3086	2	2	8	60.0	2	0	[]
3087	18	1	8	60.0	2	2	[(6645, 0), (2738, 2)]
3094	2	1	1	60.0	2	0	[]
3096	7	1	8	60.0	2	0	[]
3102	1	1	8	60.0	2	0	[]
3104	3	2	8	60.0	2	0	[]
3105	13	4	8	40.0	2	1	[(1222, 0)]
3106	39	6	8	60.0	2	3	[(5374, 0), (7516, 0), (4002, 0)]
3110	2	1	7	60.0	2	0	[]
3112	24	3	8	60.0	2	1	[(3495, 2)]
3114	2	1	8	60.0	2	0	[]
3117	3	12	16	60.0	2	23	[(7626, 2), (5080, 1), (7716, 2), (6097, 2), (2739, 2), (6082, 1), (8587, 2), (2851, 2), (5363, 2), (7392, 2), (1637, 2), (4210, 2), (80, 2), (6385, 2), (704, 2), (4011, 2), (737, 2), (5905, 2), (6683, 2), (8707, 2), (4630, 2), (6060, 2), (7555, 2)]
3118	2	1	8	60.0	2	0	[]
3122	1	4	8	60.0	2	0	[]
3123	2	1	1	60.0	2	0	[]
3125	2	2	16	60.0	2	0	[]
3126	1	2	8	60.0	2	0	[]
3130	1	1	2	60.0	2	0	[]
3132	3	1	8	60.0	2	1	[(4649, 0)]
3138	1	4	8	60.0	2	0	[]
3144	6	5	8	60.0	2	0	[]
3145	5	2	8	60.0	2	0	[]
3146	3	1	8	60.0	2	0	[]
3147	2	1	2	60.0	2	0	[]
3152	3	1	8	60.0	2	0	[]
3153	6	3	8	60.0	2	0	[]
3156	2	1	8	60.0	2	0	[]
3158	28	1	8	60.0	2	0	[]
3162	17	1	2	60.0	2	1	[(198, 1)]
3166	2	1	8	60.0	2	0	[]
3174	1	1	2	100.0	2	0	[]
3179	2	1	1	60.0	2	0	[]
3184	1	1	8	60.0	2	0	[]
3189	5	1	8	60.0	2	0	[]
3190	2	2	8	60.0	2	0	[]
3193	2	2	7	60.0	2	0	[]
3202	1	4	8	60.0	2	0	[]
3205	2	1	8	60.0	2	0	[]
3206	1	1	8	60.0	2	0	[]
3216	3	1	8	60.0	2	1	[(798, 0)]
3217	3	1	8	60.0	2	0	[]
3219	2	1	8	60.0	2	0	[]
3230	1	1	4	200.0	2	0	[]
3237	1	1	6	180.0	2	0	[]
3240	7	1	8	80.0	2	0	[]
3246	3	1	8	60.0	2	1	[(3490, 2)]
3256	1	1	8	60.0	2	0	[]
3260	15	4	8	60.0	2	2	[(3487, 2), (774, 0)]
3263	3	3	21	80.0	2	0	[]
3267	1	1	16	60.0	2	0	[]
3269	1	1	8	60.0	2	0	[]
3272	16	3	8	60.0	2	0	[]
3278	23	6	2	60.0	2	1	[(7808, 2)]
3282	1	1	1	60.0	2	0	[]
3285	1	1	2	60.0	2	0	[]
3288	4	4	8	60.0	2	1	[(6283, 0)]
3296	2	1	8	60.0	2	0	[]
3298	1	4	8	60.0	2	0	[]
3316	2	1	8	60.0	2	0	[]
3323	2	1	8	60.0	2	0	[]
3331	1	5	16	60.0	2	0	[]
3335	5	1	8	60.0	2	2	[(5470, 0), (5063, 0)]
3337	8	3	2	60.0	2	0	[]
3338	2	1	8	60.0	2	0	[]
3341	2	1	8	60.0	2	0	[]
3348	1	1	8	60.0	2	0	[]
3350	1	1	1	60.0	2	0	[]
3352	2	2	8	60.0	2	0	[]
3361	1	1	8	60.0	2	0	[]
3365	1	1	1	60.0	2	0	[]
3369	1	1	8	60.0	2	0	[]
3370	50	6	8	60.0	2	10	[(6235, 0), (536, 0), (9052, 0), (3002, 0), (5965, 2), (5022, 0), (1222, 0), (4581, 0), (704, 0), (798, 0)]
3374	4	1	8	60.0	2	1	[(798, 0)]
3377	2	1	8	60.0	2	0	[]
3383	4	4	6	60.0	2	0	[]
3387	5	1	2	60.0	2	1	[(798, 0)]
3390	2	2	8	60.0	2	0	[]
3391	4	1	8	60.0	2	0	[]
3392	2	1	2	60.0	2	0	[]
3394	2	1	8	60.0	2	0	[]
3404	1	1	8	60.0	2	0	[]
3405	3	1	8	60.0	2	0	[]
3409	2	1	8	40.0	2	0	[]
3410	2	1	1	60.0	2	0	[]
3411	2	1	2	60.0	2	0	[]
3412	1	1	8	60.0	2	0	[]
3413	15	4	8	60.0	2	0	[]
3417	2	1	1	100.0	2	0	[]
3419	1	1	4	60.0	2	0	[]
3422	4	1	8	60.0	2	0	[]
3424	2	1	2	100.0	2	0	[]
3425	53	5	8	60.0	2	1	[(798, 0)]
3429	3	4	8	60.0	2	0	[]
3430	1	1	8	60.0	2	0	[]
3438	1	1	8	60.0	2	0	[]
3443	2	1	8	60.0	2	0	[]
3444	2	1	2	60.0	2	0	[]
3447	1	3	8	60.0	2	0	[]
3454	2	1	8	60.0	2	0	[]
3460	2	1	8	40.0	2	0	[]
3468	4	1	1	60.0	2	0	[]
3469	19	3	8	60.0	2	2	[(5022, 0), (1637, 0)]
3470	3	1	8	60.0	2	0	[]
3471	1	1	2	60.0	2	0	[]
3476	4	1	8	60.0	2	0	[]
3478	3	1	8	60.0	2	0	[]
3487	196	6	8	60.0	0	12	[(1672, 0), (6025, 0), (5408, 1), (3495, 1), (292, 0), (7154, 0), (206, 2), (7588, 1), (234, 0), (3370, 0), (8223, 2), (704, 2)]
3489	2	1	8	60.0	2	0	[]
3490	22	1	8	60.0	2	2	[(9136, 1), (310, 2)]
3494	132	7	16	150.0	2	0	[]
3495	2	1	2	60.0	2	0	[]
3496	1	1	4	60.0	2	0	[]
3499	6	1	8	60.0	2	0	[]
3501	2	1	8	60.0	2	0	[]
3503	3	1	8	60.0	2	0	[]
3507	2	4	8	60.0	2	0	[]
3508	1	4	16	40.0	2	0	[]
3515	3	1	8	60.0	2	0	[]
3518	1	1	8	60.0	2	0	[]
3519	1	3	8	60.0	2	0	[]
3520	11	2	8	60.0	2	0	[]
3521	2	12	16	200.0	2	0	[]
3522	1	1	1	60.0	2	0	[]
3533	1	1	2	60.0	2	0	[]
3539	4	1	2	60.0	2	0	[]
3546	2	4	8	60.0	2	0	[]
3548	2	1	8	60.0	2	0	[]
3550	1	1	8	60.0	2	0	[]
3562	3	1	2	60.0	2	0	[]
3563	2	1	8	60.0	2	1	[(798, 0)]
3566	1	1	3	60.0	2	0	[]
3571	10	6	16	200.0	2	0	[]
3572	4	2	8	60.0	2	0	[]
3574	32	9	16	60.0	0	2	[(6754, 2), (4469, 1)]
3577	2	1	3	60.0	2	0	[]
3580	8	3	8	80.0	2	0	[]
3581	3	1	8	60.0	2	0	[]
3583	1	4	8	60.0	2	0	[]
3587	3	4	8	60.0	2	0	[]
3591	2	1	8	60.0	2	0	[]
3600	2	1	1	60.0	2	0	[]
3604	19	5	8	60.0	2	0	[]
3607	2	1	8	60.0	2	0	[]
3608	8	5	8	60.0	2	1	[(798, 0)]
3610	1	4	8	60.0	2	0	[]
3612	13	1	13	60.0	2	1	[(9163, 0)]
3617	5	2	8	80.0	2	0	[]
3624	16	2	8	100.0	2	0	[]
3627	4	1	8	60.0	2	0	[]
3630	2	1	8	60.0	2	0	[]
3631	14	3	8	60.0	2	5	[(6377, 1), (1278, 0), (2647, 2), (2178, 1), (1559, 0)]
3632	4	1	2	60.0	2	1	[(798, 0)]
3633	15	1	2	100.0	2	0	[]
3635	4	1	4	60.0	2	0	[]
3638	1	4	8	60.0	2	0	[]
3651	1	1	2	60.0	2	0	[]
3660	5	1	8	60.0	2	0	[]
3661	2	2	8	60.0	2	0	[]
3664	1	1	8	60.0	2	0	[]
3665	1	1	8	60.0	2	0	[]
3667	1	1	1	60.0	2	0	[]
3668	3	1	8	60.0	2	0	[]
3670	2	2	8	60.0	2	1	[(4412, 2)]
3676	2	1	7	60.0	2	1	[(8936, 2)]
3684	1	1	8	60.0	2	0	[]
3686	12	2	8	60.0	2	1	[(798, 0)]
3689	2	1	8	60.0	2	0	[]
3693	18	6	8	60.0	2	3	[(4341, 2), (798, 0), (5585, 0)]
3694	2	1	8	60.0	2	0	[]
3700	1	1	8	60.0	2	0	[]
3701	21	1	8	60.0	2	1	[(3487, 2)]
3702	3	1	8	80.0	2	1	[(4412, 2)]
3706	2	1	8	60.0	2	0	[]
3707	1	3	16	60.0	2	0	[]
3712	1	1	8	60.0	2	0	[]
3717	2	1	8	60.0	2	0	[]
3723	1	4	8	60.0	2	0	[]
3725	1	1	8	80.0	2	0	[]
3739	1	1	1	60.0	2	0	[]
3752	1	4	8	60.0	2	0	[]
3753	2	1	8	60.0	2	0	[]
3762	2	1	2	60.0	2	0	[]
3767	1	4	8	60.0	2	0	[]
3772	1	1	8	60.0	2	0	[]
3773	3	1	8	60.0	2	0	[]
3776	2	1	8	60.0	2	0	[]
3790	2	1	8	60.0	2	0	[]
3795	2	1	2	60.0	2	0	[]
3800	2	1	8	60.0	2	0	[]
3801	4	1	8	60.0	2	0	[]
3804	3	1	8	60.0	2	0	[]
3809	5	1	8	60.0	2	0	[]
3811	1	1	2	60.0	2	0	[]
3813	10	6	8	250.0	2	2	[(1884, 0), (5871, 0)]
3815	4	2	8	60.0	2	0	[]
3816	5	2	8	60.0	2	0	[]
3819	2	1	8	60.0	2	0	[]
3823	1	1	8	60.0	2	0	[]
3833	1	1	8	60.0	2	0	[]
3835	2	1	8	60.0	2	0	[]
3837	1	1	8	40.0	2	0	[]
3847	2	12	16	100.0	2	0	[]
3848	1	24	48	300.0	2	0	[]
3851	29	6	8	60.0	2	5	[(7959, 1), (7087, 1), (1863, 2), (5725, 2), (2737, 1)]
3853	2	1	8	60.0	2	0	[]
3856	2	2	8	60.0	2	0	[]
3857	2	1	8	60.0	2	0	[]
3858	2	1	8	60.0	2	0	[]
3859	1	7	24	80.0	2	0	[]
3862	1	2	8	60.0	2	0	[]
3869	2	1	8	60.0	2	0	[]
3873	13	2	8	40.0	2	4	[(80, 0), (7634, 1), (5490, 0), (5607, 0)]
3876	4	4	4	60.0	2	0	[]
3883	1	1	8	60.0	2	0	[]
3888	4	1	16	100.0	2	0	[]
3889	2	1	8	60.0	2	0	[]
3891	5	2	16	80.0	2	0	[]
3897	1	1	1	60.0	2	0	[]
3900	1	1	8	60.0	2	0	[]
3911	2	1	8	60.0	2	0	[]
3912	9	2	8	60.0	2	0	[]
3913	2	1	8	60.0	2	0	[]
3918	4	3	8	60.0	2	0	[]
3921	2	1	8	60.0	2	0	[]
3923	6	1	8	60.0	2	0	[]
3932	1	1	1	40.0	2	0	[]
3940	2	1	3	60.0	2	0	[]
3941	1	1	2	60.0	2	0	[]
3945	2	1	8	60.0	2	0	[]
3947	2	1	1	60.0	2	0	[]
3951	2	1	8	60.0	2	0	[]
3952	35	3	8	60.0	2	3	[(5669, 2), (289, 1), (8712, 1)]
3956	2	1	8	60.0	2	0	[]
3957	2	1	8	60.0	2	0	[]
3959	3	36	48	500.0	2	1	[(798, 0)]
3963	16	3	7	60.0	2	4	[(2141, 1), (310, 1), (7473, 1), (496, 2)]
3967	1	4	8	60.0	2	0	[]
3969	2	1	8	60.0	2	0	[]
3971	1	1	8	60.0	2	0	[]
3972	6	1	8	60.0	2	0	[]
3974	2	4	8	60.0	2	0	[]
3975	1	1	1	60.0	2	0	[]
3979	19	1	8	60.0	2	2	[(9333, 0), (4114, 0)]
3986	2	1	8	60.0	2	0	[]
3994	211	6	8	60.0	2	4	[(3495, 2), (5618, 1), (798, 0), (7516, 1)]
3995	14	1	8	100.0	2	0	[]
3998	2	6	8	60.0	2	0	[]
4000	2	1	2	60.0	2	0	[]
4001	4	2	8	60.0	2	0	[]
4002	4	2	8	80.0	2	5	[(357, 1), (4230, 1), (7907, 0), (1861, 0), (8041, 1)]
4005	2	4	8	60.0	2	0	[]
4007	25	6	8	60.0	2	7	[(2905, 0), (1099, 0), (2647, 0), (7087, 0), (1473, 0), (5482, 0), (2220, 0)]
4009	16	6	8	60.0	2	4	[(6521, 2), (6654, 2), (8930, 1), (5511, 1)]
4010	1	1	8	60.0	2	0	[]
4011	19	4	32	60.0	2	18	[(7626, 2), (5080, 1), (2739, 1), (8587, 2), (2851, 1), (5363, 2), (3117, 1), (7392, 2), (1637, 1), (4210, 2), (80, 2), (6385, 2), (5905, 2), (8707, 2), (4630, 2), (6082, 1), (6060, 2), (7555, 2)]
4012	5	4	8	60.0	2	0	[]
4015	2	1	8	60.0	2	0	[]
4018	1	1	2	60.0	2	0	[]
4020	2	1	8	80.0	2	0	[]
4026	11	3	8	60.0	2	57	[(7815, 1), (1016, 1), (8172, 1), (1384, 1), (6993, 1), (7724, 2), (4858, 1), (2613, 1), (5876, 2), (3752, 1), (1635, 2), (1297, 1), (4559, 0), (9324, 1), (3246, 1), (7199, 2), (302, 1), (6352, 1), (2831, 1), (4287, 1), (7997, 1), (7144, 1), (6162, 2), (1662, 1), (4038, 1), (1536, 0), (6129, 1), (4821, 1), (3702, 1), (3686, 1), (1507, 1), (1949, 1), (3132, 1), (6147, 2), (497, 0), (4543, 1), (6187, 1), (2279, 0), (3851, 2), (1099, 1), (8781, 2), (2337, 1), (7682, 1), (9285, 1), (310, 2), (2940, 2), (9011, 0), (8625, 1), (4231, 0), (774, 2), (3110, 2), (8531, 1), (736, 1), (8791, 2), (747, 1), (7921, 1), (1045, 1)]
4027	3	1	8	60.0	2	0	[]
4028	2	2	8	60.0	2	1	[(7959, 0)]
4038	13	1	8	60.0	2	1	[(135, 0)]
4039	219	11	16	60.0	0	25	[(4595, 0), (798, 0), (1227, 0), (6406, 0), (1884, 0), (5366, 0), (4495, 0), (4797, 0), (8842, 0), (6259, 0), (9127, 0), (5022, 0), (4210, 0), (536, 0), (5063, 0), (8386, 0), (8223, 0), (9086, 0), (5111, 0), (704, 0), (48, 0), (130, 1), (147, 0), (289, 0), (3370, 0)]
4049	2	2	8	60.0	2	0	[]
4052	2	4	8	60.0	2	0	[]
4054	2	1	8	60.0	2	0	[]
4056	1	4	8	60.0	2	0	[]
4069	1	2	8	60.0	2	0	[]
4071	26	2	8	60.0	2	2	[(6520, 0), (310, 0)]
4076	4	1	8	60.0	2	0	[]
4077	4	2	8	60.0	2	1	[(4412, 2)]
4079	1	1	7	60.0	2	0	[]
4081	1	1	8	60.0	2	0	[]
4086	6	3	8	60.0	2	0	[]
4093	1	1	8	60.0	2	0	[]
4098	2	1	2	60.0	2	0	[]
4099	1	1	1	60.0	2	0	[]
4102	6	2	8	60.0	2	0	[]
4104	4	1	8	60.0	2	0	[]
4112	1	8	16	200.0	2	0	[]
4114	26	3	8	60.0	2	1	[(1111, 0)]
4117	2	1	8	60.0	2	0	[]
4122	7	1	8	60.0	2	1	[(798, 0)]
4124	1	1	8	60.0	2	0	[]
4128	1	1	8	60.0	2	0	[]
4129	9	1	16	100.0	2	3	[(2487, 0), (8858, 0), (5847, 0)]
4132	2	1	8	60.0	2	0	[]
4135	1	1	8	60.0	2	0	[]
4137	1	1	8	60.0	2	0	[]
4138	2	1	8	60.0	2	0	[]
4140	1	1	8	60.0	2	0	[]
4144	2	1	8	60.0	2	0	[]
4155	5	1	8	60.0	2	0	[]
4160	2	1	8	60.0	2	0	[]
4161	65	1	8	60.0	2	4	[(4007, 0), (48, 1), (80, 2), (798, 0)]
4168	1	1	8	60.0	2	0	[]
4169	82	4	10	40.0	2	6	[(4231, 0), (4337, 1), (8842, 0), (798, 0), (5689, 0), (1229, 0)]
4171	3	1	8	60.0	2	0	[]
4174	2	1	2	60.0	2	0	[]
4177	2	3	8	60.0	2	0	[]
4187	1	1	8	60.0	2	0	[]
4191	5	2	8	80.0	2	0	[]
4193	39	6	8	60.0	2	6	[(1904, 0), (8273, 2), (473, 1), (8223, 1), (9216, 0), (1222, 2)]
4195	1	4	8	60.0	2	0	[]
4196	1	4	8	60.0	2	0	[]
4198	6	1	8	60.0	2	0	[]
4204	1	4	8	60.0	2	0	[]
4210	98	12	16	60.0	2	24	[(7626, 2), (7716, 2), (6097, 2), (473, 0), (2851, 2), (6683, 2), (5363, 3), (292, 0), (7154, 0), (7392, 2), (1637, 2), (7880, 0), (3370, 0), (2739, 2), (2700, 0), (704, 2), (4011, 2), (737, 2), (6873, 0), (5905, 2), (5958, 0), (4630, 2), (6060, 3), (7555, 3)]
4216	1	3	8	60.0	2	0	[]
4220	1	1	8	60.0	2	1	[(798, 0)]
4230	1	1	8	60.0	2	0	[]
4231	31	6	8	60.0	0	9	[(1904, 2), (7039, 0), (1592, 0), (1637, 0), (4210, 0), (704, 2), (4011, 1), (5490, 0), (8664, 1)]
4233	1	1	2	60.0	2	0	[]
4242	2	1	2	60.0	2	0	[]
4243	15	1	8	60.0	2	0	[]
4245	1	1	8	60.0	2	0	[]
4254	10	3	4	60.0	2	0	[]
4255	1	1	8	60.0	2	0	[]
4259	32	5	8	100.0	2	1	[(798, 0)]
4264	4	1	8	60.0	2	0	[]
4265	2	4	8	60.0	2	0	[]
4270	3	3	8	60.0	2	0	[]
4271	2	1	8	60.0	2	0	[]
4272	2	1	8	60.0	2	0	[]
4281	1	4	8	60.0	2	0	[]
4284	4	6	8	200.0	2	0	[]
4287	5	22	32	80.0	2	0	[]
4297	5	1	8	60.0	2	0	[]
4298	2	1	8	60.0	2	0	[]
4299	2	1	8	60.0	2	0	[]
4301	8	4	16	80.0	2	1	[(798, 0)]
4303	1	1	16	60.0	2	0	[]
4308	2	24	48	300.0	2	0	[]
4311	3	1	8	60.0	2	0	[]
4317	1	1	2	60.0	2	0	[]
4324	1	1	2	60.0	2	0	[]
4330	1	1	8	60.0	2	0	[]
4335	5	5	8	60.0	2	1	[(798, 0)]
4337	21	12	16	60.0	2	0	[]
4338	8	6	8	60.0	2	0	[]
4341	2	2	8	60.0	2	0	[]
4357	2	3	16	60.0	0	2	[(7639, 1), (8223, 1)]
4358	6	1	8	60.0	2	0	[]
4362	1	1	8	60.0	2	0	[]
4363	1	1	1	60.0	2	0	[]
4370	3	1	8	60.0	2	0	[]
4372	2	1	8	60.0	2	0	[]
4375	3	1	8	60.0	2	0	[]
4377	2	1	2	60.0	2	0	[]
4378	1	1	8	60.0	2	0	[]
4380	1	1	8	60.0	2	0	[]
4383	2	1	8	60.0	2	0	[]
4384	1	1	8	60.0	2	0	[]
4385	4	1	8	60.0	2	0	[]
4389	2	1	8	60.0	2	0	[]
4396	2	1	1	60.0	2	0	[]
4399	1	1	8	60.0	2	0	[]
4402	1	1	8	60.0	2	0	[]
4408	12	1	8	60.0	2	1	[(536, 2)]
4410	2	1	8	60.0	2	0	[]
4412	2	1	8	60.0	2	0	[]
4413	1	1	8	60.0	2	0	[]
4422	1	1	8	60.0	2	0	[]
4423	36	3	16	60.0	2	1	[(2668, 0)]
4432	1	1	8	60.0	2	0	[]
4433	1	1	8	60.0	2	0	[]
4435	4	1	8	60.0	2	0	[]
4436	2	2	8	60.0	2	1	[(798, 0)]
4440	5	6	8	60.0	2	0	[]
4447	1	1	2	60.0	2	0	[]
4449	11	1	8	200.0	2	0	[]
4451	2	6	8	60.0	2	3	[(3562, 0), (8959, 0), (8229, 0)]
4459	12	6	8	60.0	2	1	[(798, 0)]
4460	2	1	8	60.0	2	0	[]
4463	25	5	32	200.0	2	0	[]
4469	1	8	16	200.0	2	0	[]
4477	2	1	8	60.0	2	0	[]
4478	2	1	8	60.0	2	0	[]
4479	2	1	8	60.0	2	0	[]
4480	4	1	8	60.0	2	0	[]
4485	1	1	8	60.0	2	0	[]
4493	9	1	8	60.0	2	0	[]
4495	15	1	2	60.0	2	0	[]
4497	1	1	2	60.0	2	0	[]
4501	2	1	8	60.0	2	0	[]
4502	2	8	16	60.0	1	0	[]
4518	4	1	8	60.0	2	0	[]
4519	1	1	4	60.0	2	0	[]
4525	2	1	3	60.0	2	0	[]
4530	27	5	8	100.0	2	1	[(5689, 0)]
4532	2	1	8	60.0	2	0	[]
4537	2	3	8	60.0	2	5	[(3676, 2), (8936, 0), (7348, 2), (7671, 0), (1744, 2)]
4543	44	10	16	60.0	2	4	[(6726, 2), (2668, 2), (484, 1), (798, 0)]
4559	4	1	8	60.0	2	0	[]
4560	1	1	8	60.0	2	1	[(798, 0)]
4561	1	1	2	60.0	2	0	[]
4562	2	1	3	60.0	2	0	[]
4565	3	2	8	60.0	2	0	[]
4581	15	2	8	60.0	2	2	[(704, 2), (798, 0)]
4585	1	1	8	60.0	2	0	[]
4586	1	1	7	60.0	2	0	[]
4588	2	2	8	60.0	2	0	[]
4594	2	1	8	60.0	2	0	[]
4595	27	4	8	60.0	2	3	[(704, 1), (4011, 2), (8223, 1)]
4599	2	1	8	60.0	2	0	[]
4602	1	1	8	60.0	2	0	[]
4614	2	1	5	60.0	2	0	[]
4616	4	1	8	60.0	2	0	[]
4617	2	2	8	60.0	2	0	[]
4619	10	1	8	60.0	2	0	[]
4620	1	1	8	60.0	2	0	[]
4623	3	1	8	60.0	2	0	[]
4627	4	1	7	60.0	2	1	[(798, 0)]
4628	2	1	8	60.0	2	0	[]
4630	1	3	32	100.0	2	20	[(5080, 1), (7716, 2), (6097, 2), (2739, 1), (6082, 1), (8587, 2), (2851, 1), (5363, 2), (3117, 1), (1637, 1), (4210, 2), (80, 2), (6385, 2), (704, 2), (4011, 2), (737, 2), (6683, 2), (8707, 2), (6060, 2), (7555, 2)]
4631	2	1	8	60.0	2	0	[]
4637	2	1	8	60.0	2	0	[]
4649	19	1	10	60.0	2	1	[(6559, 0)]
4657	2	1	8	60.0	2	0	[]
4659	2	1	8	60.0	2	0	[]
4660	1	4	8	60.0	2	0	[]
4663	74	12	2	80.0	2	1	[(798, 0)]
4669	1	1	8	60.0	2	0	[]
4672	1	3	8	60.0	2	0	[]
4677	5	1	6	60.0	2	0	[]
4678	15	6	3	60.0	2	3	[(536, 0), (6858, 0), (2668, 0)]
4680	2	1	8	60.0	2	0	[]
4684	2	1	8	60.0	2	0	[]
4685	2	4	8	60.0	2	0	[]
4691	1	12	16	100.0	2	0	[]
4699	7	3	8	60.0	2	0	[]
4700	1	1	8	60.0	2	0	[]
4701	1	1	8	60.0	2	0	[]
4703	2	1	8	60.0	2	0	[]
4707	1	1	8	60.0	2	0	[]
4708	33	2	8	100.0	2	3	[(2887, 0), (5905, 0), (798, 0)]
4712	2	1	3	60.0	2	0	[]
4721	3	1	8	60.0	2	0	[]
4727	2	1	1	60.0	2	0	[]
4732	2	2	8	60.0	2	0	[]
4736	2	1	8	60.0	2	0	[]
4739	2	1	8	60.0	2	1	[(798, 0)]
4740	1	1	8	60.0	2	0	[]
4741	7	1	1	60.0	2	22	[(6377, 1), (6695, 1), (3660, 0), (6072, 0), (5871, 0), (2587, 0), (953, 0), (642, 0), (3288, 0), (8264, 0), (6336, 0), (1391, 0), (7170, 0), (3425, 0), (6025, 0), (7829, 0), (8392, 0), (4161, 0), (3686, 0), (5847, 0), (386, 0), (7930, 0)]
4742	1	1	1	60.0	2	0	[]
4745	1	1	8	60.0	2	1	[(5022, 2)]
4746	3	1	2	60.0	2	0	[]
4748	4	4	8	60.0	2	0	[]
4757	1	2	3	60.0	2	0	[]
4758	6	6	16	60.0	2	1	[(798, 0)]
4759	2	1	8	60.0	2	0	[]
4766	2	1	8	60.0	2	0	[]
4767	6	2	8	60.0	2	0	[]
4773	3	3	8	60.0	2	0	[]
4774	2	1	8	60.0	2	0	[]
4778	27	2	8	40.0	2	2	[(80, 1), (5022, 0)]
4781	20	2	8	60.0	2	0	[]
4786	5	2	8	60.0	2	0	[]
4791	3	1	8	60.0	2	0	[]
4796	2	1	8	60.0	2	0	[]
4797	11	2	8	40.0	2	4	[(1637, 0), (5022, 0), (4210, 0), (4039, 0)]
4799	7	1	8	60.0	2	1	[(798, 0)]
4806	2	1	8	60.0	2	0	[]
4809	2	1	8	60.0	2	1	[(2470, 1)]
4810	2	1	8	60.0	2	0	[]
4814	3	2	8	60.0	2	0	[]
4821	6	1	8	60.0	2	0	[]
4824	2	4	8	60.0	2	0	[]
4826	2	4	16	60.0	2	0	[]
4828	2	1	8	60.0	2	0	[]
4829	1	1	2	60.0	2	0	[]
4830	4	1	8	60.0	2	0	[]
4831	4	2	8	60.0	2	0	[]
4834	1	4	8	60.0	2	0	[]
4842	1	1	8	60.0	2	0	[]
4850	1	1	2	60.0	2	0	[]
4851	2	1	8	60.0	2	0	[]
4853	4	1	8	60.0	2	2	[(80, 0), (5022, 2)]
4854	5	6	8	60.0	2	0	[]
4858	11	12	2	60.0	2	11	[(5340, 0), (640, 0), (8554, 0), (6001, 0), (8328, 0), (2630, 0), (2587, 0), (4620, 0), (2892, 0), (7266, 0), (674, 0)]
4861	1	1	8	60.0	2	0	[]
4868	2	4	8	60.0	2	0	[]
4870	2	1	8	60.0	2	0	[]
4871	1	1	8	60.0	2	0	[]
4873	8	1	2	60.0	2	0	[]
4875	2	1	8	60.0	2	0	[]
4883	11	6	8	60.0	2	0	[]
4884	1	1	8	60.0	2	0	[]
4889	2	1	8	60.0	2	0	[]
4892	2	1	2	60.0	2	0	[]
4901	4	1	8	60.0	2	0	[]
4912	3	1	8	60.0	2	0	[]
4913	7	2	8	60.0	2	0	[]
4915	1	1	8	60.0	2	0	[]
4918	1	4	8	60.0	2	0	[]
4920	2	1	8	60.0	2	0	[]
4922	1	1	1	60.0	2	0	[]
4932	3	2	8	60.0	2	0	[]
4936	5	1	8	60.0	2	1	[(798, 0)]
4938	9	2	8	60.0	2	0	[]
4944	2	2	8	60.0	2	0	[]
4949	2	1	8	60.0	2	0	[]
4954	2	1	8	60.0	2	0	[]
4956	2	1	8	60.0	2	1	[(6130, 2)]
4957	2	1	8	60.0	2	0	[]
4961	1	1	8	60.0	2	0	[]
4963	6	4	8	60.0	2	1	[(7998, 0)]
4965	3	1	8	60.0	2	0	[]
4966	3	4	8	60.0	2	0	[]
4969	1	6	32	60.0	0	0	[]
4970	1	1	3	60.0	2	0	[]
4985	1	1	3	60.0	2	0	[]
4986	2	1	8	60.0	2	0	[]
4987	2	4	8	60.0	2	0	[]
4991	1	4	8	60.0	2	0	[]
4992	1	4	8	40.0	2	0	[]
4993	3	1	8	60.0	2	0	[]
4997	3	1	3	60.0	2	0	[]
5007	6	1	8	60.0	2	0	[]
5009	2	1	8	60.0	2	4	[(572, 1), (6230, 1), (2466, 0), (2942, 1)]
5012	2	2	8	60.0	2	0	[]
5015	1	2	8	40.0	2	0	[]
5018	1	1	1	60.0	2	0	[]
5019	2	1	8	60.0	2	0	[]
5022	282	12	16	60.0	0	22	[(1413, 2), (5631, 2), (5264, 0), (5553, 0), (8178, 2), (5051, 1), (797, 2), (9010, 2), (6962, 2), (2856, 1), (8817, 2), (7392, 2), (2270, 2), (5484, 0), (2962, 2), (500, 1), (3370, 0), (5689, 0), (1892, 1), (285, 2), (7555, 0), (798, 0)]
5023	2	1	8	60.0	2	0	[]
5024	2	1	2	100.0	2	0	[]
5029	1	1	1	60.0	2	0	[]
5033	2	1	8	60.0	2	0	[]
5036	1	1	1	60.0	2	0	[]
5044	1	1	1	60.0	2	0	[]
5051	3	2	8	60.0	2	0	[]
5052	2	4	8	60.0	2	0	[]
5056	1	2	32	60.0	0	0	[]
5063	58	4	5	200.0	2	2	[(5689, 0), (1518, 0)]
5065	19	3	8	60.0	2	0	[]
5067	3	6	8	60.0	2	0	[]
5068	2	1	8	60.0	2	0	[]
5070	2	3	8	60.0	2	0	[]
5074	2	1	1	60.0	2	0	[]
5080	1	8	16	60.0	2	22	[(7626, 3), (7716, 3), (6097, 3), (2739, 2), (6385, 2), (8587, 2), (2851, 2), (5363, 2), (3117, 1), (7392, 3), (1637, 2), (4210, 2), (80, 2), (704, 3), (4011, 3), (737, 3), (5905, 3), (6683, 3), (8707, 2), (4630, 3), (6060, 2), (7555, 2)]
5090	1	2	8	60.0	2	0	[]
5102	2	1	8	60.0	2	0	[]
5107	1	1	8	60.0	2	0	[]
5111	4	3	8	40.0	2	1	[(9127, 0)]
5112	30	6	8	40.0	2	0	[]
5117	1	1	8	80.0	2	0	[]
5118	4	3	8	60.0	2	0	[]
5121	1	1	2	60.0	2	0	[]
5130	1	1	1	60.0	2	0	[]
5133	2	1	16	150.0	2	0	[]
5140	1	1	8	60.0	2	0	[]
5154	2	1	8	60.0	2	0	[]
5162	2	1	8	60.0	2	0	[]
5166	2	1	8	60.0	2	0	[]
5167	2	1	8	60.0	2	0	[]
5175	4	1	8	60.0	2	0	[]
5179	4	1	8	60.0	2	0	[]
5181	4	1	8	60.0	2	0	[]
5182	1	4	8	60.0	2	0	[]
5184	2	1	8	60.0	2	0	[]
5188	4	1	8	60.0	2	0	[]
5193	2	1	8	60.0	2	0	[]
5203	1	1	2	60.0	2	0	[]
5204	4	1	8	60.0	2	0	[]
5206	7	1	8	60.0	2	0	[]
5207	2	1	8	60.0	2	0	[]
5209	1	1	8	60.0	2	0	[]
5210	1	1	8	60.0	2	0	[]
5211	2	1	8	60.0	2	0	[]
5214	1	1	8	60.0	2	0	[]
5219	2	1	8	60.0	2	0	[]
5224	3	2	8	60.0	2	0	[]
5237	10	6	8	60.0	2	0	[]
5243	1	1	2	60.0	2	0	[]
5244	18	1	8	60.0	2	1	[(798, 0)]
5254	1	8	8	60.0	2	0	[]
5257	2	1	8	60.0	2	0	[]
5259	2	4	8	60.0	2	0	[]
5263	2	1	8	60.0	2	0	[]
5264	145	12	16	60.0	1	11	[(6683, 0), (6097, 0), (1227, 0), (473, 1), (3487, 0), (8223, 0), (9127, 0), (1637, 0), (4595, 0), (1229, 0), (4736, 1)]
5265	2	1	8	60.0	2	0	[]
5268	1	6	8	60.0	2	0	[]
5269	4	1	2	60.0	2	0	[]
5276	3	1	8	300.0	2	1	[(798, 0)]
5285	2	1	7	60.0	2	0	[]
5287	1	1	8	60.0	2	0	[]
5291	1	1	2	60.0	2	0	[]
5301	1	1	8	60.0	2	0	[]
5303	1	1	8	60.0	2	0	[]
5304	1	4	8	60.0	2	0	[]
5305	3	1	8	60.0	2	0	[]
5306	5	1	8	60.0	2	0	[]
5313	9	1	8	60.0	2	0	[]
5324	1	4	8	60.0	2	0	[]
5329	2	1	8	60.0	2	3	[(4746, 0), (1099, 0), (9136, 0)]
5337	2	1	1	60.0	2	0	[]
5340	6	1	8	60.0	2	1	[(5598, 0)]
5341	4	1	8	60.0	2	0	[]
5349	3	1	8	60.0	2	0	[]
5356	1	16	32	80.0	0	0	[]
5363	3	3	16	60.0	1	23	[(7626, 2), (5080, 1), (7716, 2), (6097, 2), (6082, 1), (3487, 0), (8587, 2), (8535, 2), (2851, 2), (3117, 1), (7392, 2), (1637, 2), (4210, 2), (2739, 2), (80, 2), (704, 2), (4011, 2), (737, 2), (5905, 2), (6683, 2), (8707, 2), (4630, 2), (6385, 2)]
5365	1	1	2	60.0	2	0	[]
5366	142	12	16	60.0	1	14	[(4853, 1), (1672, 1), (7075, 1), (4039, 0), (2073, 1), (4254, 0), (9010, 2), (473, 2), (7639, 0), (8223, 2), (2234, 2), (5646, 2), (1229, 0), (1433, 0)]
5367	14	2	16	60.0	2	0	[]
5369	2	2	8	200.0	2	0	[]
5372	1	1	8	60.0	2	0	[]
5374	5	6	8	60.0	2	0	[]
5376	1	1	8	60.0	2	0	[]
5380	1	4	8	60.0	2	0	[]
5381	2	1	8	60.0	2	0	[]
5385	5	2	8	60.0	2	0	[]
5387	3	1	8	60.0	2	1	[(798, 0)]
5403	1	4	8	60.0	2	0	[]
5406	13	4	8	80.0	2	0	[]
5408	2	1	8	60.0	2	0	[]
5411	34	3	8	60.0	2	1	[(80, 0)]
5424	2	1	8	60.0	2	0	[]
5429	7	1	16	80.0	2	0	[]
5437	3	3	16	60.0	2	2	[(80, 0), (1637, 0)]
5451	2	2	8	60.0	2	0	[]
5457	3	6	8	80.0	2	0	[]
5458	2	1	2	60.0	2	0	[]
5467	5	1	8	60.0	2	1	[(798, 0)]
5469	9	4	8	60.0	2	0	[]
5470	11	1	8	60.0	2	2	[(6584, 0), (8653, 0)]
5473	2	1	8	60.0	2	0	[]
5474	2	1	7	60.0	2	0	[]
5476	20	5	8	60.0	2	1	[(704, 1)]
5478	2	1	8	60.0	2	0	[]
5481	6	1	8	60.0	2	2	[(536, 2), (798, 0)]
5482	2	1	8	60.0	2	0	[]
5484	1	1	1	60.0	2	0	[]
5485	2	1	7	60.0	2	0	[]
5490	43	2	8	40.0	2	16	[(6683, 1), (1222, 1), (1904, 1), (473, 1), (7639, 0), (3487, 2), (8223, 2), (704, 0), (3370, 0), (4210, 1), (8287, 2), (4495, 2), (2593, 1), (4595, 2), (5905, 1), (3144, 1)]
5494	1	4	8	60.0	2	0	[]
5495	1	1	3	60.0	2	0	[]
5497	5	1	8	60.0	2	0	[]
5499	3	1	8	60.0	2	0	[]
5502	2	1	1	60.0	2	0	[]
5508	1	1	2	60.0	2	0	[]
5509	1	1	8	60.0	2	0	[]
5511	72	6	8	60.0	2	6	[(7066, 1), (3574, 1), (1904, 2), (5798, 2), (8223, 0), (4599, 2)]
5513	2	1	8	60.0	2	0	[]
5517	2	2	2	60.0	2	0	[]
5518	1	1	8	60.0	2	0	[]
5525	3	1	8	60.0	2	0	[]
5527	2	1	1	60.0	2	0	[]
5530	2	1	8	60.0	2	2	[(3952, 1), (4537, 2)]
5532	2	1	2	60.0	2	0	[]
5542	1	6	8	60.0	2	0	[]
5545	2	1	8	60.0	2	0	[]
5549	1	1	8	60.0	2	0	[]
5550	2	1	8	60.0	2	0	[]
5553	2	1	8	60.0	2	0	[]
5555	1	1	2	60.0	2	0	[]
5556	16	3	8	60.0	2	0	[]
5560	6	1	8	60.0	2	0	[]
5562	1	1	8	60.0	2	0	[]
5575	1	1	2	60.0	2	0	[]
5576	6	1	8	60.0	2	0	[]
5581	2	1	8	60.0	2	0	[]
5585	20	1	8	60.0	2	1	[(3263, 1)]
5595	1	1	8	60.0	2	0	[]
5596	1	4	8	60.0	2	0	[]
5597	1	1	8	60.0	2	0	[]
5598	4	1	8	60.0	2	1	[(5340, 0)]
5600	5	2	8	60.0	2	1	[(798, 0)]
5601	3	1	8	60.0	2	1	[(5022, 2)]
5605	2	1	8	60.0	2	0	[]
5607	38	2	8	40.0	0	4	[(80, 0), (1637, 0), (5022, 0), (798, 0)]
5608	2	1	8	60.0	2	0	[]
5616	2	1	8	60.0	2	0	[]
5618	2	1	8	60.0	2	0	[]
5628	5	10	8	100.0	2	0	[]
5631	3	1	8	60.0	2	0	[]
5643	2	1	8	60.0	2	0	[]
5644	1	1	1	60.0	2	0	[]
5646	2	1	8	60.0	2	0	[]
5661	9	6	8	60.0	2	1	[(1904, 2)]
5662	2	1	8	60.0	2	0	[]
5665	7	6	8	60.0	2	0	[]
5666	1	4	8	60.0	2	0	[]
5668	2	1	8	60.0	2	0	[]
5669	2	4	8	60.0	2	1	[(798, 0)]
5670	2	1	8	60.0	2	0	[]
5680	1	1	8	60.0	2	0	[]
5683	2	1	8	60.0	2	0	[]
5689	72	5	8	80.0	2	0	[]
5694	1	1	8	60.0	2	0	[]
5696	3	6	8	60.0	2	4	[(7988, 1), (3813, 1), (8554, 1), (8046, 1)]
5698	8	12	2	60.0	2	1	[(4069, 2)]
5700	1	1	8	60.0	2	0	[]
5705	59	3	8	60.0	2	18	[(7634, 1), (1884, 0), (1274, 1), (1904, 0), (82, 2), (6018, 1), (473, 0), (2765, 0), (4210, 2), (8223, 0), (704, 0), (3873, 2), (9127, 1), (2593, 0), (2700, 0), (5905, 1), (798, 0), (1227, 1)]
5710	2	1	3	60.0	2	0	[]
5711	1	4	8	60.0	2	0	[]
5719	5	1	8	60.0	2	0	[]
5721	2	1	6	60.0	2	0	[]
5722	5	1	8	60.0	2	0	[]
5723	5	1	75	600.0	2	0	[]
5725	15	2	8	60.0	2	3	[(3816, 2), (529, 1), (474, 1)]
5726	1	1	8	60.0	2	0	[]
5729	1	4	8	60.0	2	0	[]
5738	3	1	8	60.0	2	0	[]
5746	1	1	8	60.0	2	0	[]
5760	1	1	8	60.0	2	0	[]
5762	3	1	8	60.0	2	1	[(798, 0)]
5777	2	6	8	60.0	2	0	[]
5785	2	1	16	80.0	2	0	[]
5795	2	1	8	60.0	2	0	[]
5798	2	1	8	60.0	2	0	[]
5802	1	1	8	60.0	2	0	[]
5804	1	1	4	60.0	2	0	[]
5805	2	1	8	60.0	2	0	[]
5810	40	4	8	60.0	2	17	[(4479, 0), (2886, 0), (1227, 2), (6450, 2), (995, 0), (149, 0), (1602, 0), (7610, 1), (1099, 2), (4210, 1), (5549, 0), (5356, 2), (1747, 2), (8107, 1), (5905, 1), (798, 0), (8807, 0)]
5811	1	1	8	60.0	2	0	[]
5812	36	6	8	60.0	2	2	[(798, 0), (3422, 1)]
5813	2	1	1	60.0	2	0	[]
5816	1	1	8	60.0	2	0	[]
5817	2	1	8	60.0	2	0	[]
5818	2	1	8	60.0	2	0	[]
5819	1	1	3	60.0	2	0	[]
5825	2	2	8	60.0	2	0	[]
5826	6	1	8	60.0	2	0	[]
5829	1	1	8	60.0	2	0	[]
5830	2	1	8	80.0	2	0	[]
5835	10	1	16	60.0	2	0	[]
5836	7	5	16	60.0	1	0	[]
5838	1	1	1	60.0	2	0	[]
5847	20	6	8	60.0	2	0	[]
5848	2	1	6	60.0	2	0	[]
5866	2	1	8	60.0	2	0	[]
5869	2	1	8	60.0	2	1	[(4412, 2)]
5871	15	6	8	60.0	2	0	[]
5875	3	1	8	60.0	2	0	[]
5876	37	2	8	60.0	2	2	[(737, 2), (4210, 2)]
5885	2	1	8	60.0	2	0	[]
5887	1	2	16	100.0	2	0	[]
5889	18	6	8	60.0	2	44	[(6235, 0), (5063, 0), (4530, 0), (3469, 0), (5214, 0), (7196, 0), (2668, 0), (8293, 0), (4210, 0), (1222, 0), (4495, 0), (7970, 0), (510, 0), (1227, 0), (5366, 0), (8716, 0), (7734, 2), (286, 0), (80, 2), (5411, 0), (5497, 0), (5905, 0), (473, 0), (3487, 0), (1259, 0), (4850, 0), (2886, 0), (9163, 0), (3994, 0), (4778, 0), (3574, 0), (2073, 0), (2887, 0), (7154, 0), (8842, 0), (8223, 0), (4169, 0), (5689, 0), (4193, 0), (2485, 0), (513, 0), (798, 0), (7486, 0), (1443, 0)]
5894	2	1	8	60.0	2	0	[]
5898	3	1	8	60.0	2	0	[]
5901	5	1	8	60.0	2	1	[(4210, 2)]
5905	149	12	32	100.0	2	29	[(6683, 0), (2887, 0), (3370, 0), (4210, 2), (7555, 2), (6082, 1), (5366, 0), (5363, 2), (3117, 1), (8287, 0), (5080, 1), (2739, 1), (80, 0), (4011, 2), (737, 2), (6385, 0), (2851, 1), (6060, 2), (1637, 1), (5376, 0), (8707, 2), (5490, 0), (7716, 2), (6097, 2), (3574, 0), (9086, 0), (8587, 2), (704, 2), (7510, 0)]
5908	3	1	8	60.0	2	0	[]
5910	4	3	8	60.0	2	0	[]
5911	1	4	8	60.0	2	0	[]
5912	2	1	7	60.0	2	0	[]
5914	23	12	2	60.0	2	0	[]
5915	3	1	8	60.0	2	0	[]
5916	2	4	8	100.0	2	0	[]
5920	1	1	4	60.0	2	1	[(798, 0)]
5923	2	1	8	60.0	2	0	[]
5926	2	1	8	60.0	2	0	[]
5927	2	1	2	60.0	2	0	[]
5928	1	1	16	100.0	2	0	[]
5932	2	1	8	60.0	2	0	[]
5935	2	1	8	100.0	2	0	[]
5937	1	1	2	60.0	2	0	[]
5938	2	2	8	60.0	2	0	[]
5940	3	1	8	60.0	2	0	[]
5944	7	6	8	60.0	2	0	[]
5950	1	1	2	60.0	2	0	[]
5951	2	1	8	60.0	2	0	[]
5955	2	2	8	60.0	2	0	[]
5958	6	2	2	60.0	2	17	[(3422, 0), (6067, 0), (5264, 0), (1222, 0), (2485, 0), (5965, 0), (1123, 0), (473, 0), (3487, 0), (685, 0), (3923, 0), (7272, 0), (4039, 0), (5889, 0), (798, 0), (536, 0), (4530, 0)]
5961	6	2	8	60.0	2	0	[]
5965	2	3	8	60.0	2	0	[]
5970	3	1	8	60.0	2	0	[]
5972	3	1	8	60.0	2	1	[(7199, 2)]
5977	1	1	8	60.0	2	0	[]
5985	1	4	8	60.0	2	0	[]
5988	2	1	6	60.0	2	0	[]
5991	4	1	8	40.0	2	0	[]
6001	1	1	8	60.0	2	0	[]
6002	1	1	8	60.0	2	0	[]
6008	2	1	8	60.0	2	0	[]
6009	1	1	1	60.0	2	0	[]
6011	16	2	8	60.0	2	0	[]
6014	1	4	8	60.0	2	0	[]
6018	2	1	8	60.0	2	0	[]
6025	19	1	8	40.0	0	7	[(8223, 0), (1637, 0), (3487, 0), (5022, 0), (798, 0), (234, 0), (8716, 0)]
6037	2	1	2	60.0	2	0	[]
6038	6	6	8	60.0	2	3	[(798, 0), (1700, 0), (7749, 0)]
6054	6	1	8	60.0	2	0	[]
6055	2	1	8	60.0	2	0	[]
6058	1	1	8	60.0	2	0	[]
6060	1	2	16	60.0	1	22	[(7626, 2), (5080, 1), (7716, 2), (6097, 2), (6082, 1), (8587, 2), (8535, 2), (2851, 2), (3117, 1), (7392, 2), (1637, 2), (4210, 2), (2739, 2), (80, 2), (6385, 2), (704, 2), (4011, 2), (737, 2), (5905, 2), (6683, 2), (8707, 2), (4630, 2)]
6064	2	1	8	60.0	2	0	[]
6067	17	3	8	60.0	2	0	[]
6068	1	1	8	60.0	2	0	[]
6072	4	1	8	60.0	2	0	[]
6078	14	1	8	60.0	2	0	[]
6081	5	1	8	60.0	2	0	[]
6082	1	5	16	60.0	2	22	[(7626, 3), (7716, 3), (6097, 3), (2739, 2), (6385, 2), (8587, 2), (2851, 2), (5363, 2), (3117, 1), (7392, 3), (1637, 2), (4210, 2), (80, 2), (704, 3), (4011, 3), (737, 3), (5905, 3), (6683, 3), (8707, 2), (4630, 3), (6060, 2), (7555, 2)]
6084	1	1	3	60.0	2	0	[]
6096	2	1	2	60.0	2	0	[]
6097	2	3	32	60.0	2	18	[(7626, 2), (5080, 1), (2739, 1), (8587, 2), (2851, 1), (5363, 2), (3117, 1), (7392, 2), (1637, 1), (4210, 2), (80, 2), (6385, 2), (7555, 2), (5905, 2), (8707, 2), (4630, 2), (6082, 1), (6060, 2)]
6098	2	1	2	60.0	2	0	[]
6100	1	1	2	60.0	2	0	[]
6102	2	1	16	60.0	2	0	[]
6111	3	1	8	60.0	2	0	[]
6115	9	6	16	60.0	2	1	[(3105, 0)]
6117	72	6	16	80.0	2	3	[(8777, 0), (798, 0), (963, 2)]
6123	138	6	8	60.0	2	12	[(1423, 0), (4337, 0), (6450, 0), (38, 2), (5810, 0), (6148, 0), (4210, 2), (1171, 2), (5689, 0), (1362, 0), (80, 1), (5905, 0)]
6126	1	1	8	60.0	2	0	[]
6129	10	2	8	60.0	2	0	[]
6130	2	1	8	60.0	2	0	[]
6134	4	1	8	60.0	2	0	[]
6141	4	1	8	60.0	2	1	[(798, 0)]
6144	1	1	1	60.0	2	0	[]
6145	10	5	8	60.0	2	1	[(798, 0)]
6146	2	1	8	60.0	2	0	[]
6147	4	3	8	60.0	2	0	[]
6148	2	12	16	80.0	2	0	[]
6159	1	4	8	60.0	2	0	[]
6160	5	2	8	60.0	2	0	[]
6162	5	1	2	300.0	2	0	[]
6168	1	1	8	60.0	2	0	[]
6169	1	4	8	60.0	2	0	[]
6172	10	1	8	60.0	2	2	[(2487, 0), (7998, 0)]
6174	2	4	8	60.0	2	0	[]
6175	1	4	8	60.0	2	0	[]
6178	2	1	8	60.0	2	0	[]
6186	3	1	8	60.0	2	0	[]
6187	3	1	8	60.0	2	0	[]
6189	2	1	8	60.0	2	0	[]
6196	5	2	8	60.0	2	1	[(798, 0)]
6199	1	1	8	60.0	2	0	[]
6208	1	1	8	60.0	2	0	[]
6209	2	1	8	60.0	2	0	[]
6210	2	2	8	60.0	2	1	[(798, 0)]
6213	2	1	8	60.0	2	0	[]
6214	1	1	1	60.0	2	0	[]
6223	2	1	2	60.0	2	0	[]
6224	2	1	5	60.0	2	1	[(4412, 2)]
6229	1	1	1	60.0	2	0	[]
6230	57	5	8	60.0	0	16	[(4117, 0), (8554, 1), (5698, 2), (7622, 0), (4230, 0), (2483, 0), (6483, 0), (8959, 0), (8223, 2), (2701, 0), (2668, 0), (7907, 0), (80, 2), (8041, 0), (1861, 0), (3631, 0)]
6235	67	3	8	60.0	2	2	[(4337, 1), (2726, 2)]
6238	2	1	8	60.0	2	0	[]
6242	1	1	2	60.0	2	0	[]
6247	2	1	8	60.0	2	0	[]
6251	14	8	16	200.0	2	0	[]
6259	1	3	8	60.0	2	0	[]
6265	1	1	8	60.0	2	0	[]
6270	3	6	8	60.0	2	6	[(3702, 2), (2701, 1), (7639, 2), (5905, 1), (7473, 0), (798, 0)]
6273	1	1	8	60.0	2	0	[]
6275	2	1	8	200.0	2	0	[]
6281	2	1	1	60.0	2	0	[]
6283	6	12	2	200.0	2	1	[(6993, 0)]
6286	1	1	8	60.0	2	0	[]
6292	1	4	8	60.0	2	0	[]
6301	2	1	8	60.0	2	0	[]
6303	19	6	8	60.0	2	0	[]
6305	4	1	8	60.0	2	1	[(9052, 2)]
6306	8	1	8	60.0	2	0	[]
6308	2	1	8	60.0	2	0	[]
6309	1	4	8	60.0	2	0	[]
6311	4	1	8	60.0	2	0	[]
6325	8	2	8	60.0	2	1	[(147, 0)]
6331	2	1	8	60.0	2	1	[(798, 0)]
6333	1	1	8	60.0	2	0	[]
6335	6	1	8	60.0	2	0	[]
6336	13	1	8	60.0	2	3	[(5118, 2), (798, 0), (844, 2)]
6338	2	1	8	60.0	2	0	[]
6339	1	8	16	200.0	2	0	[]
6352	16	4	16	80.0	2	0	[]
6358	2	1	2	60.0	2	0	[]
6359	2	3	8	60.0	2	0	[]
6361	2	1	2	60.0	2	0	[]
6364	5	1	8	60.0	2	0	[]
6366	1	1	8	60.0	2	0	[]
6376	1	8	8	60.0	2	0	[]
6377	21	2	8	60.0	2	3	[(7153, 2), (8777, 0), (310, 0)]
6378	2	1	8	60.0	2	0	[]
6383	1	4	8	60.0	2	0	[]
6385	1	1	16	60.0	2	16	[(7626, 2), (7716, 2), (6097, 2), (2851, 2), (6683, 2), (5363, 3), (7392, 2), (6060, 3), (1637, 2), (2739, 2), (704, 2), (4011, 2), (737, 2), (5905, 2), (4630, 2), (7555, 3)]
6400	4	1	8	60.0	2	0	[]
6405	6	1	8	60.0	2	0	[]
6406	17	1	8	80.0	2	23	[(2887, 0), (5264, 0), (4530, 0), (8871, 0), (3469, 0), (3612, 0), (1222, 0), (4039, 0), (1227, 0), (5366, 0), (8583, 0), (5905, 0), (7970, 0), (7639, 0), (4854, 0), (685, 0), (1904, 0), (9086, 0), (8842, 0), (3272, 0), (5689, 0), (3105, 0), (2485, 0)]
6416	9	2	8	60.0	2	5	[(7716, 1), (704, 1), (4011, 1), (1592, 2), (4210, 1)]
6418	1	1	8	60.0	2	1	[(798, 0)]
6427	2	1	2	60.0	2	0	[]
6441	1	1	8	60.0	2	0	[]
6446	3	1	8	60.0	2	0	[]
6450	5	2	16	60.0	2	1	[(8194, 0)]
6452	1	1	8	60.0	2	0	[]
6455	94	4	8	60.0	0	16	[(5411, 0), (5689, 0), (963, 0), (5118, 0), (4038, 0), (7880, 0), (8842, 0), (844, 0), (4169, 0), (4595, 0), (3454, 0), (80, 0), (8223, 0), (6230, 0), (3994, 0), (147, 0)]
6459	1	1	8	60.0	2	0	[]
6462	1	1	4	60.0	2	0	[]
6469	2	1	8	60.0	2	0	[]
6476	1	1	8	60.0	2	0	[]
6480	1	1	1	60.0	2	0	[]
6483	29	1	8	60.0	0	6	[(798, 0), (2824, 0), (7998, 0), (5022, 2), (5600, 0), (6559, 0)]
6484	1	5	8	60.0	2	0	[]
6487	1	1	8	60.0	2	0	[]
6498	1	1	2	60.0	2	0	[]
6499	2	2	8	60.0	2	0	[]
6520	36	3	8	40.0	2	7	[(8653, 0), (5965, 2), (536, 0), (9052, 0), (3487, 0), (849, 2), (4210, 0)]
6521	3	1	8	60.0	2	0	[]
6524	1	1	8	60.0	2	0	[]
6532	5	2	8	40.0	0	0	[]
6540	2	1	8	60.0	2	0	[]
6542	1	1	1	40.0	0	0	[]
6547	1	1	8	60.0	2	0	[]
6556	1	1	8	60.0	2	0	[]
6557	43	6	8	60.0	2	13	[(7490, 0), (4129, 0), (7754, 0), (8851, 0), (3851, 0), (2613, 0), (2980, 0), (5923, 0), (8664, 0), (5785, 0), (6645, 2), (7199, 0), (7196, 0)]
6559	2	5	8	60.0	2	0	[]
6572	1	1	8	60.0	2	0	[]
6576	2	1	4	500.0	2	0	[]
6578	3	4	16	60.0	2	0	[]
6579	2	1	4	60.0	2	0	[]
6581	1	2	8	60.0	2	0	[]
6584	2	1	8	60.0	2	0	[]
6586	4	2	7	60.0	2	0	[]
6588	1	1	8	60.0	2	0	[]
6592	2	4	8	60.0	2	0	[]
6599	2	2	8	60.0	2	0	[]
6601	1	4	8	60.0	2	0	[]
6603	1	1	2	60.0	2	0	[]
6612	1	1	8	60.0	2	0	[]
6614	1	1	8	60.0	2	0	[]
6619	2	1	8	60.0	2	0	[]
6625	2	1	8	60.0	2	0	[]
6626	24	6	8	60.0	2	2	[(6695, 2), (798, 0)]
6631	2	1	8	60.0	2	0	[]
6636	2	1	8	60.0	2	1	[(7700, 0)]
6637	1	1	8	60.0	2	0	[]
6640	4	1	6	60.0	2	0	[]
6645	2	1	8	60.0	2	0	[]
6646	2	2	8	60.0	2	1	[(798, 0)]
6654	5	1	8	60.0	2	1	[(798, 0)]
6658	1	1	2	60.0	2	0	[]
6665	2	1	8	60.0	2	0	[]
6668	1	1	1	60.0	2	0	[]
6669	1	4	8	60.0	2	0	[]
6676	1	1	16	150.0	2	0	[]
6678	2	1	6	60.0	2	0	[]
6679	2	1	2	60.0	2	0	[]
6681	4	1	8	60.0	2	0	[]
6683	153	12	32	60.0	2	21	[(7626, 2), (5080, 1), (2739, 1), (8587, 2), (5366, 0), (2851, 1), (5363, 2), (3117, 1), (8287, 0), (7392, 2), (1637, 0), (4210, 2), (80, 2), (6385, 2), (7555, 2), (3487, 0), (5905, 0), (8707, 2), (4630, 2), (6082, 1), (6060, 2)]
6685	1	2	4	60.0	2	0	[]
6686	3	1	8	60.0	2	0	[]
6687	11	2	8	60.0	2	0	[]
6689	6	2	8	60.0	2	1	[(798, 0)]
6691	1	1	2	60.0	2	0	[]
6695	4	1	8	60.0	2	0	[]
6697	1	8	16	80.0	2	0	[]
6698	1	1	1	60.0	2	0	[]
6700	3	1	8	60.0	2	0	[]
6713	1	1	8	60.0	2	0	[]
6716	2	1	8	60.0	2	0	[]
6717	1	1	8	60.0	2	0	[]
6718	2	1	2	60.0	2	0	[]
6723	13	5	8	60.0	2	1	[(80, 2)]
6726	119	3	8	60.0	0	14	[(8522, 0), (2107, 2), (7601, 2), (8002, 2), (296, 2), (8606, 0), (6874, 0), (2819, 2), (7765, 0), (3000, 1), (390, 2), (4000, 2), (1831, 1), (3144, 1)]
6730	2	1	2	60.0	2	0	[]
6747	1	1	8	40.0	2	0	[]
6748	2	1	8	60.0	2	0	[]
6752	1	1	7	40.0	2	0	[]
6753	1	4	8	60.0	2	0	[]
6754	2	1	8	60.0	2	0	[]
6759	2	4	8	60.0	2	0	[]
6762	6	1	8	60.0	2	0	[]
6764	2	3	8	60.0	2	0	[]
6765	4	1	8	60.0	2	0	[]
6767	2	1	8	60.0	2	0	[]
6771	11	6	8	60.0	2	0	[]
6773	1	1	7	60.0	2	0	[]
6775	4	1	2	100.0	2	0	[]
6783	1	1	16	60.0	2	0	[]
6784	1	1	10	300.0	2	0	[]
6793	1	1	16	60.0	2	0	[]
6796	1	2	7	60.0	2	0	[]
6797	1	1	8	60.0	2	0	[]
6804	11	6	8	60.0	2	0	[]
6809	1	4	8	60.0	2	0	[]
6810	5	6	8	60.0	2	0	[]
6811	1	1	2	60.0	2	0	[]
6830	1	1	8	40.0	2	0	[]
6832	2	1	1	60.0	2	0	[]
6833	2	2	8	60.0	2	0	[]
6834	5	1	8	80.0	2	0	[]
6840	1	1	8	60.0	2	0	[]
6849	1	1	8	60.0	2	0	[]
6850	2	1	8	60.0	2	0	[]
6853	2	1	8	60.0	2	0	[]
6858	1	1	1	60.0	2	0	[]
6862	1	1	2	60.0	2	0	[]
6864	1	1	8	60.0	2	0	[]
6866	1	1	8	60.0	2	0	[]
6868	1	1	8	60.0	2	0	[]
6871	5	2	8	60.0	2	0	[]
6873	12	2	8	40.0	2	3	[(7634, 0), (5022, 0), (4210, 0)]
6874	5	1	8	60.0	2	1	[(798, 0)]
6876	1	1	1	60.0	2	0	[]
6877	2	1	1	60.0	2	1	[(798, 0)]
6878	1	1	8	60.0	2	0	[]
6885	2	1	4	60.0	2	0	[]
6887	1	1	8	60.0	2	0	[]
6890	2	1	8	60.0	2	0	[]
6892	4	1	8	60.0	2	0	[]
6903	8	4	8	60.0	2	0	[]
6904	2	1	1	60.0	2	0	[]
6905	2	2	16	60.0	2	0	[]
6910	24	2	8	60.0	2	6	[(3083, 2), (798, 0), (7055, 0), (8968, 2), (6129, 0), (7958, 2)]
6912	8	2	2	60.0	2	1	[(7710, 0)]
6913	4	6	6	60.0	2	0	[]
6914	5	6	8	60.0	2	0	[]
6915	1	1	16	60.0	2	0	[]
6922	1	1	8	40.0	2	0	[]
6924	1	1	2	60.0	2	0	[]
6930	4	1	13	80.0	2	0	[]
6934	2	1	8	80.0	2	0	[]
6943	3	6	8	60.0	2	0	[]
6945	2	1	8	60.0	2	0	[]
6946	2	1	5	60.0	2	2	[(4007, 1), (798, 0)]
6948	1	4	8	60.0	2	0	[]
6949	1	1	3	60.0	2	0	[]
6961	2	6	8	60.0	2	0	[]
6962	2	1	8	60.0	2	0	[]
6965	12	1	16	80.0	2	0	[]
6969	1	1	8	60.0	2	0	[]
6971	2	2	8	60.0	2	0	[]
6978	1	2	8	60.0	2	0	[]
6982	2	1	8	60.0	2	0	[]
6990	1	4	8	80.0	2	0	[]
6992	6	8	48	300.0	2	1	[(8554, 2)]
6993	3	1	8	60.0	2	0	[]
7003	1	1	2	60.0	2	0	[]
7007	16	3	8	60.0	2	0	[]
7018	2	1	8	60.0	2	0	[]
7020	2	1	8	60.0	2	0	[]
7025	25	2	8	60.0	2	1	[(8954, 2)]
7030	1	4	8	60.0	2	0	[]
7036	2	2	5	60.0	2	0	[]
7037	3	2	16	200.0	2	0	[]
7039	16	1	8	60.0	2	0	[]
7040	1	1	8	60.0	2	0	[]
7042	2	1	8	60.0	2	0	[]
7049	1	1	8	60.0	2	0	[]
7053	1	6	12	100.0	2	0	[]
7055	16	12	12	60.0	2	4	[(4086, 1), (8959, 0), (5898, 1), (7087, 2)]
7062	4	1	8	60.0	2	0	[]
7066	2	1	8	60.0	2	0	[]
7073	2	1	8	60.0	2	2	[(2593, 1), (8653, 2)]
7075	29	2	8	60.0	2	2	[(798, 0), (3604, 2)]
7078	2	4	8	60.0	2	0	[]
7080	26	3	8	60.0	2	2	[(7196, 0), (3003, 2)]
7082	1	1	8	60.0	2	0	[]
7084	1	3	16	100.0	2	0	[]
7085	20	4	2	100.0	2	0	[]
7086	2	1	8	60.0	2	0	[]
7087	25	4	2	200.0	2	6	[(1554, 2), (6162, 2), (4791, 0), (310, 1), (1391, 1), (7959, 2)]
7089	1	1	2	60.0	2	0	[]
7090	3	1	8	60.0	2	0	[]
7097	1	1	8	60.0	2	0	[]
7104	2	1	8	60.0	2	0	[]
7105	1	1	8	60.0	2	0	[]
7119	2	1	8	60.0	2	0	[]
7125	9	2	8	60.0	2	0	[]
7130	2	1	2	60.0	2	0	[]
7133	2	1	8	60.0	2	0	[]
7139	1	1	8	60.0	2	0	[]
7142	2	1	5	60.0	2	1	[(5876, 0)]
7144	4	1	8	60.0	2	0	[]
7147	2	1	16	80.0	2	0	[]
7153	1	4	8	60.0	2	0	[]
7154	19	3	8	60.0	0	2	[(80, 2), (5944, 2)]
7159	1	1	8	60.0	2	0	[]
7160	1	1	2	100.0	2	0	[]
7162	1	1	16	80.0	2	0	[]
7170	5	1	8	60.0	2	1	[(798, 0)]
7171	2	1	8	60.0	2	0	[]
7177	2	1	1	60.0	2	0	[]
7178	15	1	2	60.0	2	0	[]
7181	8	3	8	60.0	2	2	[(80, 0), (9084, 0)]
7187	1	4	8	60.0	2	0	[]
7194	1	4	8	60.0	2	0	[]
7196	36	2	8	60.0	2	10	[(5111, 0), (6406, 0), (4039, 0), (2952, 0), (3994, 0), (8842, 0), (4732, 0), (7486, 0), (4797, 0), (80, 0)]
7197	2	1	8	60.0	2	0	[]
7199	17	6	8	60.0	2	1	[(1524, 0)]
7209	1	1	8	60.0	2	0	[]
7211	1	2	8	60.0	2	0	[]
7213	1	2	8	60.0	2	0	[]
7219	4	1	8	60.0	2	0	[]
7242	2	1	8	60.0	2	0	[]
7245	1	1	8	60.0	2	0	[]
7246	5	1	1	60.0	2	0	[]
7260	2	1	2	60.0	2	0	[]
7262	2	1	8	60.0	2	0	[]
7266	10	6	8	60.0	2	0	[]
7272	2	1	8	60.0	2	0	[]
7273	2	1	16	60.0	2	0	[]
7274	2	1	8	60.0	2	0	[]
7277	2	1	2	60.0	2	0	[]
7278	4	1	8	60.0	2	0	[]
7284	1	4	8	60.0	2	0	[]
7293	1	1	1	60.0	2	0	[]
7294	1	1	8	60.0	2	0	[]
7298	2	1	8	60.0	2	1	[(798, 0)]
7303	2	2	8	60.0	2	0	[]
7307	1	1	1	60.0	2	0	[]
7310	3	1	8	80.0	2	2	[(798, 0), (7178, 2)]
7317	2	1	1	60.0	2	0	[]
7323	3	4	8	60.0	2	0	[]
7345	2	1	8	60.0	2	0	[]
7347	1	1	8	60.0	2	0	[]
7348	2	1	8	250.0	2	0	[]
7352	2	5	8	60.0	2	0	[]
7353	1	1	8	60.0	2	0	[]
7354	4	1	8	60.0	2	0	[]
7357	2	1	8	60.0	2	0	[]
7359	1	8	8	60.0	2	0	[]
7370	10	1	8	60.0	2	1	[(798, 0)]
7371	2	1	2	60.0	2	1	[(798, 0)]
7378	1	4	8	60.0	2	0	[]
7382	2	1	8	60.0	2	0	[]
7385	4	1	8	60.0	2	0	[]
7387	3	1	8	60.0	2	0	[]
7390	1	1	7	60.0	2	0	[]
7392	1	2	32	100.0	2	20	[(5080, 1), (7716, 2), (6097, 2), (2739, 1), (6082, 1), (8587, 2), (2851, 1), (5363, 2), (3117, 1), (1637, 1), (4210, 2), (80, 2), (6385, 2), (704, 2), (4011, 2), (737, 2), (6683, 2), (8707, 2), (6060, 2), (7555, 2)]
7397	2	1	16	60.0	2	0	[]
7400	4	1	8	60.0	2	0	[]
7408	8	1	8	60.0	2	1	[(798, 0)]
7424	1	1	8	60.0	2	0	[]
7425	3	1	8	60.0	2	0	[]
7427	1	2	8	60.0	2	1	[(798, 0)]
7429	1	1	1	60.0	2	0	[]
7431	1	5	8	60.0	2	0	[]
7435	1	2	8	60.0	2	0	[]
7439	3	1	8	60.0	2	1	[(798, 0)]
7442	1	4	8	60.0	2	1	[(8251, 2)]
7446	5	3	8	60.0	2	19	[(642, 0), (1278, 1), (2682, 0), (1163, 0), (166, 1), (4231, 0), (2601, 0), (5798, 0), (2559, 0), (5810, 0), (1010, 0), (6767, 0), (1829, 0), (7864, 0), (8365, 0), (6487, 0), (3153, 0), (3094, 0), (8664, 0)]
7449	2	1	8	60.0	2	0	[]
7450	1	1	1	60.0	2	0	[]
7460	2	1	8	60.0	2	0	[]
7462	1	1	8	60.0	2	0	[]
7464	2	1	8	60.0	2	0	[]
7473	3	1	8	60.0	2	0	[]
7476	1	1	5	60.0	2	0	[]
7486	225	3	8	60.0	2	3	[(8223, 2), (6450, 2), (536, 0)]
7487	1	1	2	60.0	2	0	[]
7490	2	1	8	60.0	2	0	[]
7495	1	2	8	60.0	2	0	[]
7497	5	3	8	60.0	2	0	[]
7499	1	4	8	60.0	2	0	[]
7501	1	4	8	60.0	2	0	[]
7505	16	2	8	60.0	2	0	[]
7510	3	1	4	60.0	2	1	[(80, 2)]
7515	3	1	16	60.0	1	0	[]
7516	2	1	8	60.0	2	0	[]
7518	26	3	8	60.0	2	0	[]
7521	5	1	8	60.0	2	0	[]
7522	11	3	8	60.0	2	0	[]
7525	1	1	2	60.0	2	0	[]
7530	2	1	8	60.0	2	0	[]
7533	1	2	16	60.0	0	0	[]
7538	3	2	8	60.0	2	0	[]
7539	2	1	8	60.0	2	0	[]
7541	3	1	8	60.0	2	0	[]
7542	2	1	8	60.0	2	0	[]
7549	1	1	8	60.0	2	0	[]
7553	1	1	1	60.0	2	0	[]
7555	1	6	16	60.0	1	22	[(7626, 2), (5080, 1), (7716, 2), (6097, 2), (6082, 1), (8587, 2), (8535, 2), (2851, 2), (3117, 1), (7392, 2), (1637, 2), (4210, 2), (2739, 2), (80, 2), (704, 2), (4011, 2), (737, 2), (5905, 2), (6683, 2), (8707, 2), (4630, 2), (6385, 2)]
7556	2	1	8	60.0	2	0	[]
7561	2	1	8	60.0	2	0	[]
7562	1	1	4	60.0	2	0	[]
7563	18	3	8	60.0	2	0	[]
7566	2	3	8	60.0	2	0	[]
7569	11	3	8	60.0	2	1	[(798, 0)]
7572	1	1	8	60.0	2	0	[]
7573	1	1	8	60.0	2	0	[]
7574	4	1	8	60.0	2	0	[]
7579	1	1	8	60.0	2	0	[]
7582	1	1	8	60.0	2	0	[]
7583	2	1	2	60.0	2	0	[]
7585	5	1	8	60.0	2	1	[(798, 0)]
7588	2	2	16	60.0	0	0	[]
7592	2	1	8	60.0	2	0	[]
7594	2	5	16	60.0	2	0	[]
7600	1	5	48	500.0	2	0	[]
7601	3	1	8	60.0	2	0	[]
7605	2	1	8	60.0	2	0	[]
7610	1	1	8	60.0	2	0	[]
7611	1	11	128	600.0	2	0	[]
7615	2	2	8	60.0	2	0	[]
7622	39	3	8	60.0	2	3	[(4449, 1), (704, 2), (4619, 2)]
7626	1	4	32	100.0	2	20	[(5080, 1), (7716, 2), (6097, 2), (2739, 1), (6082, 1), (8587, 2), (2851, 1), (5363, 2), (3117, 1), (1637, 1), (4210, 2), (80, 2), (6385, 2), (704, 2), (4011, 2), (737, 2), (6683, 2), (8707, 2), (6060, 2), (7555, 2)]
7630	2	1	8	60.0	2	0	[]
7631	1	1	8	60.0	2	0	[]
7633	1	1	8	60.0	2	0	[]
7634	2	3	5	60.0	2	0	[]
7639	22	2	8	40.0	0	4	[(8223, 1), (4210, 1), (80, 1), (5905, 2)]
7642	2	1	8	60.0	2	0	[]
7644	2	2	7	150.0	2	0	[]
7646	1	1	8	60.0	2	0	[]
7647	1	1	8	60.0	2	0	[]
7652	9	2	8	60.0	2	2	[(5022, 2), (7073, 1)]
7654	1	1	1	60.0	2	0	[]
7655	3	1	8	60.0	2	0	[]
7656	2	1	2	60.0	2	0	[]
7659	3	1	8	60.0	2	0	[]
7661	1	1	2	60.0	2	0	[]
7667	2	1	5	60.0	2	1	[(4412, 1)]
7671	2	2	8	60.0	2	0	[]
7675	1	4	8	60.0	2	0	[]
7679	4	3	8	60.0	2	0	[]
7682	1	1	8	60.0	2	0	[]
7687	2	1	8	60.0	2	0	[]
7691	2	1	6	60.0	2	0	[]
7696	1	1	2	60.0	2	0	[]
7700	67	21	48	300.0	2	1	[(798, 0)]
7702	1	1	8	60.0	2	0	[]
7703	1	1	8	40.0	0	0	[]
7710	2	1	8	60.0	2	0	[]
7712	2	1	8	60.0	2	0	[]
7713	2	1	8	60.0	2	1	[(4412, 1)]
7716	4	3	32	60.0	2	18	[(7626, 2), (5080, 1), (2739, 1), (8587, 2), (2851, 1), (5363, 2), (3117, 1), (7392, 2), (1637, 1), (4210, 2), (80, 2), (6385, 2), (7555, 2), (5905, 2), (8707, 2), (4630, 2), (6082, 1), (6060, 2)]
7719	3	2	8	60.0	2	0	[]
7721	1	1	8	60.0	2	0	[]
7723	2	1	2	60.0	2	0	[]
7724	6	2	8	60.0	2	0	[]
7726	2	1	8	60.0	2	0	[]
7730	2	1	8	60.0	2	0	[]
7731	1	2	8	60.0	2	0	[]
7734	7	2	8	40.0	0	4	[(80, 0), (5022, 0), (6406, 0), (5490, 0)]
7739	1	1	1	60.0	2	1	[(798, 0)]
7743	2	1	8	60.0	2	0	[]
7746	1	1	1	60.0	2	0	[]
7749	2	1	8	60.0	2	0	[]
7753	2	1	8	60.0	2	0	[]
7754	22	1	8	60.0	2	2	[(147, 0), (798, 0)]
7755	1	1	8	60.0	2	0	[]
7759	3	1	8	60.0	2	1	[(289, 2)]
7760	1	3	10	40.0	2	0	[]
7761	1	6	8	60.0	2	0	[]
7765	2	1	8	60.0	2	0	[]
7771	2	1	8	60.0	2	0	[]
7774	2	1	8	60.0	2	1	[(798, 0)]
7775	2	1	8	60.0	2	0	[]
7780	2	5	8	60.0	2	1	[(798, 0)]
7785	2	1	8	60.0	2	0	[]
7786	2	4	8	60.0	2	0	[]
7802	20	6	8	150.0	2	0	[]
7807	1	1	8	60.0	2	0	[]
7808	6	1	8	60.0	2	0	[]
7810	2	4	8	60.0	2	0	[]
7815	2	1	8	60.0	2	0	[]
7819	1	1	2	60.0	2	0	[]
7826	2	1	8	60.0	2	0	[]
7827	2	4	8	60.0	2	0	[]
7828	4	3	8	60.0	2	0	[]
7829	2	1	8	60.0	2	0	[]
7830	3	1	8	60.0	2	0	[]
7831	7	1	8	80.0	2	0	[]
7835	1	1	8	60.0	2	0	[]
7843	1	1	8	60.0	2	0	[]
7850	2	1	2	60.0	2	0	[]
7852	1	2	8	60.0	2	0	[]
7857	3	1	8	60.0	2	0	[]
7858	2	2	8	60.0	2	0	[]
7864	8	1	8	60.0	2	0	[]
7867	2	1	7	60.0	2	0	[]
7870	4	2	8	80.0	2	0	[]
7871	6	2	8	60.0	2	1	[(798, 0)]
7873	6	1	8	500.0	2	0	[]
7880	49	6	8	60.0	2	0	[]
7891	3	1	8	100.0	2	0	[]
7897	1	1	1	80.0	2	0	[]
7906	1	1	8	60.0	2	0	[]
7907	2	2	8	60.0	2	0	[]
7915	2	1	8	60.0	2	0	[]
7917	2	1	8	60.0	2	0	[]
7919	27	4	8	60.0	2	2	[(5616, 2), (8645, 2)]
7921	2	2	8	60.0	2	0	[]
7923	2	4	8	60.0	2	0	[]
7927	6	1	8	60.0	2	0	[]
7930	3	4	8	60.0	2	0	[]
7941	1	1	2	60.0	2	0	[]
7944	2	1	8	100.0	2	0	[]
7948	2	1	8	60.0	2	1	[(6281, 2)]
7954	1	4	8	80.0	2	0	[]
7958	2	1	8	60.0	2	0	[]
7959	7	6	8	60.0	2	9	[(6405, 0), (3050, 0), (4530, 0), (4028, 0), (1956, 2), (1747, 0), (4114, 0), (1066, 1), (5762, 0)]
7962	3	1	8	60.0	2	0	[]
7964	2	6	8	60.0	2	0	[]
7970	30	1	8	40.0	2	4	[(8062, 2), (4210, 2), (9084, 0), (8223, 2)]
7973	2	1	7	60.0	2	0	[]
7975	1	2	8	60.0	2	0	[]
7979	3	2	8	60.0	2	0	[]
7988	4	1	8	60.0	2	0	[]
7991	2	1	8	60.0	2	0	[]
7997	8	2	8	60.0	2	0	[]
7998	81	1	8	60.0	0	9	[(4198, 0), (135, 0), (7260, 2), (6764, 2), (7196, 2), (7007, 2), (7181, 1), (7354, 2), (4963, 0)]
8002	10	2	8	60.0	2	0	[]
8003	3	1	2	60.0	2	0	[]
8008	1	4	8	60.0	2	0	[]
8009	2	1	8	60.0	2	1	[(798, 0)]
8010	2	1	8	60.0	2	0	[]
8018	1	1	8	60.0	2	0	[]
8021	2	1	8	60.0	2	0	[]
8023	3	2	8	60.0	2	0	[]
8031	2	1	8	60.0	2	0	[]
8040	2	1	8	60.0	2	0	[]
8041	10	1	8	60.0	2	0	[]
8043	2	1	6	60.0	2	0	[]
8046	27	4	8	80.0	2	1	[(798, 0)]
8057	6	3	8	100.0	2	0	[]
8060	2	1	8	500.0	2	0	[]
8062	1	1	8	60.0	2	0	[]
8063	2	1	8	60.0	2	0	[]
8065	2	4	8	60.0	2	0	[]
8072	4	1	8	60.0	2	0	[]
8073	6	2	8	60.0	2	0	[]
8074	3	1	8	60.0	2	0	[]
8077	2	1	2	60.0	2	0	[]
8079	1	2	8	60.0	2	0	[]
8081	5	1	8	40.0	2	0	[]
8085	6	1	8	60.0	2	0	[]
8090	2	1	1	60.0	2	0	[]
8095	5	1	8	60.0	2	0	[]
8097	2	2	8	60.0	2	0	[]
8100	5	2	8	60.0	2	0	[]
8107	2	1	8	60.0	2	0	[]
8111	2	1	8	60.0	2	0	[]
8116	2	1	8	60.0	2	0	[]
8119	1	1	2	60.0	2	0	[]
8125	2	1	8	60.0	2	0	[]
8130	1	1	8	60.0	2	0	[]
8144	103	6	8	60.0	2	5	[(5118, 0), (844, 0), (5725, 2), (798, 0), (4736, 1)]
8147	2	1	8	60.0	2	0	[]
8150	2	4	8	60.0	2	0	[]
8151	5	1	8	60.0	2	0	[]
8154	1	1	8	60.0	2	0	[]
8158	2	4	8	60.0	2	1	[(4436, 1)]
8166	13	1	8	100.0	2	0	[]
8172	26	4	8	60.0	2	2	[(7439, 0), (1070, 0)]
8174	1	4	8	60.0	2	0	[]
8178	1	2	8	40.0	0	0	[]
8184	1	1	8	60.0	2	0	[]
8185	3	1	8	60.0	2	0	[]
8189	1	1	8	60.0	2	0	[]
8194	18	2	8	60.0	2	0	[]
8198	4	2	8	60.0	2	1	[(6723, 1)]
8200	1	1	8	60.0	2	0	[]
8202	1	2	8	60.0	2	0	[]
8203	9	2	8	60.0	2	1	[(4993, 0)]
8206	2	1	8	60.0	2	0	[]
8208	6	1	8	60.0	2	0	[]
8212	1	6	8	60.0	2	0	[]
8213	2	1	8	100.0	2	0	[]
8219	4	1	8	60.0	2	0	[]
8222	2	1	2	60.0	2	0	[]
8223	130	24	32	80.0	0	2	[(9127, 0), (3370, 0)]
8227	2	1	8	60.0	2	0	[]
8229	9	1	8	60.0	2	0	[]
8233	1	1	8	60.0	2	0	[]
8239	2	1	8	60.0	2	0	[]
8249	1	1	36	60.0	2	0	[]
8250	2	1	8	60.0	2	0	[]
8251	3	5	8	60.0	2	0	[]
8257	2	1	8	60.0	2	0	[]
8259	1	1	1	60.0	2	0	[]
8263	3	1	8	60.0	2	0	[]
8264	2	2	8	60.0	2	0	[]
8267	2	1	8	60.0	2	0	[]
8268	2	4	8	60.0	2	0	[]
8271	2	1	2	60.0	2	0	[]
8273	11	1	2	60.0	2	0	[]
8275	1	8	16	200.0	2	0	[]
8283	2	1	8	60.0	2	0	[]
8286	1	1	1	80.0	2	0	[]
8287	18	3	8	40.0	2	2	[(9086, 0), (1227, 0)]
8289	1	4	8	60.0	2	0	[]
8292	2	2	8	60.0	2	0	[]
8293	25	1	16	60.0	2	0	[]
8296	2	1	8	60.0	2	0	[]
8298	1	2	8	60.0	2	0	[]
8305	3	1	8	60.0	2	0	[]
8308	3	2	8	60.0	2	1	[(1906, 2)]
8311	1	4	8	60.0	2	0	[]
8316	2	1	18	100.0	2	0	[]
8319	2	1	8	60.0	2	0	[]
8320	1	3	8	60.0	2	0	[]
8327	2	1	8	60.0	2	0	[]
8328	15	3	8	60.0	2	2	[(4858, 2), (798, 0)]
8329	2	1	7	60.0	2	0	[]
8337	3	2	8	60.0	2	0	[]
8338	6	1	2	100.0	2	0	[]
8344	2	1	8	60.0	2	0	[]
8349	7	2	8	60.0	2	1	[(798, 0)]
8355	1	1	8	60.0	2	0	[]
8357	3	1	8	60.0	2	0	[]
8361	2	2	16	200.0	2	0	[]
8365	7	1	8	60.0	2	2	[(2701, 2), (1829, 1)]
8369	2	1	8	60.0	2	0	[]
8371	2	1	8	60.0	2	0	[]
8374	1	1	1	60.0	2	0	[]
8384	2	1	2	60.0	2	1	[(3490, 1)]
8386	75	2	8	60.0	2	3	[(5306, 0), (1904, 2), (4169, 0)]
8389	2	1	8	60.0	2	1	[(3263, 1)]
8392	22	6	8	80.0	2	0	[]
8397	2	1	8	60.0	2	0	[]
8403	2	4	8	60.0	2	0	[]
8405	3	1	8	60.0	2	0	[]
8409	1	1	8	60.0	2	0	[]
8413	4	2	8	60.0	2	0	[]
8418	2	1	8	60.0	2	0	[]
8419	3	1	8	60.0	2	0	[]
8426	4	1	6	60.0	2	0	[]
8428	2	2	16	150.0	2	0	[]
8431	1	1	8	60.0	2	0	[]
8434	14	5	8	60.0	2	1	[(798, 0)]
8435	6	1	8	60.0	2	0	[]
8443	6	6	7	60.0	2	0	[]
8467	1	2	8	60.0	2	0	[]
8472	2	4	8	60.0	2	0	[]
8475	14	2	8	60.0	2	1	[(798, 0)]
8479	2	1	2	60.0	2	0	[]
8486	4	1	8	60.0	2	0	[]
8487	2	1	8	60.0	2	1	[(798, 0)]
8497	1	1	8	60.0	2	0	[]
8499	4	1	8	60.0	2	0	[]
8505	1	1	8	60.0	2	0	[]
8508	1	1	8	60.0	2	0	[]
8510	2	1	8	60.0	2	0	[]
8512	2	2	8	60.0	2	0	[]
8515	1	4	8	60.0	2	0	[]
8516	1	1	1	60.0	2	0	[]
8518	1	1	8	60.0	2	0	[]
8522	4	2	8	60.0	2	0	[]
8528	5	5	8	60.0	2	0	[]
8531	4	1	7	60.0	2	0	[]
8535	1	1	16	60.0	1	19	[(7626, 1), (7716, 1), (6097, 1), (2739, 2), (6082, 1), (2851, 2), (6683, 1), (5363, 2), (3117, 1), (5080, 1), (7392, 1), (1637, 2), (704, 1), (4011, 1), (737, 1), (5905, 1), (4630, 1), (6060, 2), (7555, 2)]
8540	1	4	8	60.0	2	0	[]
8542	3	2	8	60.0	2	0	[]
8554	128	6	8	60.0	0	9	[(4480, 0), (6904, 0), (3000, 0), (1187, 0), (1476, 0), (3476, 2), (7348, 0), (798, 0), (3959, 0)]
8555	3	6	8	60.0	2	0	[]
8556	8	1	8	60.0	2	2	[(6235, 0), (798, 0)]
8558	11	2	8	60.0	2	0	[]
8561	1	1	2	60.0	2	0	[]
8563	2	4	8	60.0	2	0	[]
8566	5	3	8	60.0	2	0	[]
8567	2	1	7	60.0	2	0	[]
8568	1	4	8	100.0	2	0	[]
8571	4	1	8	60.0	2	1	[(3469, 2)]
8583	21	4	8	40.0	2	2	[(798, 0), (4210, 2)]
8587	2	8	16	60.0	2	16	[(7626, 2), (7716, 2), (6097, 2), (2851, 2), (6683, 2), (5363, 3), (7392, 2), (1637, 2), (2739, 2), (704, 2), (4011, 2), (737, 2), (5905, 2), (4630, 2), (6060, 3), (7555, 3)]
8588	5	23	32	80.0	2	0	[]
8592	1	2	9	80.0	2	0	[]
8595	1	1	8	60.0	2	0	[]
8597	1	1	8	60.0	2	0	[]
8599	1	1	8	60.0	2	0	[]
8606	12	2	8	60.0	2	0	[]
8612	2	1	8	60.0	2	0	[]
8614	1	8	16	200.0	2	0	[]
8619	2	6	8	60.0	2	0	[]
8620	1	16	32	80.0	2	0	[]
8622	15	1	8	60.0	2	0	[]
8625	2	1	8	60.0	2	0	[]
8627	1	1	1	60.0	2	0	[]
8633	2	1	2	60.0	2	0	[]
8636	3	3	8	60.0	2	0	[]
8637	2	1	8	60.0	2	1	[(4871, 0)]
8639	2	1	8	60.0	2	0	[]
8641	14	6	8	60.0	2	3	[(1284, 2), (1863, 0), (7721, 2)]
8643	52	5	8	60.0	2	9	[(4479, 2), (5553, 1), (4965, 2), (2856, 2), (3651, 2), (5825, 1), (798, 0), (2398, 1), (4806, 2)]
8645	1	1	2	60.0	2	0	[]
8653	101	5	8	60.0	2	7	[(4338, 2), (1391, 0), (1533, 1), (4435, 0), (5470, 0), (6584, 0), (798, 0)]
8657	1	1	16	60.0	2	0	[]
8663	4	2	8	60.0	2	0	[]
8664	3	1	8	60.0	2	0	[]
8668	3	1	8	60.0	2	0	[]
8674	1	2	16	40.0	2	0	[]
8680	12	1	8	60.0	2	0	[]
8695	11	1	8	100.0	2	1	[(147, 0)]
8703	2	3	8	60.0	2	0	[]
8706	1	4	8	60.0	2	0	[]
8707	1	6	16	60.0	2	16	[(7626, 2), (7716, 2), (6097, 2), (2851, 2), (6683, 2), (5363, 3), (7392, 2), (1637, 2), (2739, 2), (704, 2), (4011, 2), (737, 2), (5905, 2), (4630, 2), (6060, 3), (7555, 3)]
8708	2	2	8	60.0	2	1	[(798, 0)]
8709	5	1	8	60.0	2	1	[(798, 0)]
8712	4	1	8	60.0	2	0	[]
8716	37	5	16	60.0	0	4	[(80, 0), (6025, 0), (737, 2), (5490, 0)]
8718	1	1	8	60.0	2	0	[]
8719	4	1	7	60.0	2	0	[]
8724	2	1	8	60.0	2	0	[]
8731	4	2	8	60.0	2	0	[]
8732	3	1	8	60.0	2	0	[]
8735	16	1	8	60.0	2	4	[(5175, 1), (1229, 2), (798, 0), (269, 2)]
8737	2	1	8	60.0	2	0	[]
8739	6	1	8	60.0	2	1	[(5490, 0)]
8743	1	4	8	60.0	2	0	[]
8744	2	1	8	60.0	2	0	[]
8752	1	1	8	60.0	2	0	[]
8755	2	1	8	60.0	2	0	[]
8757	1	1	8	60.0	2	0	[]
8765	8	1	8	60.0	2	0	[]
8770	1	1	7	60.0	2	0	[]
8771	2	1	8	60.0	2	0	[]
8777	2	1	8	60.0	2	0	[]
8778	2	1	8	60.0	2	1	[(147, 0)]
8781	2	1	8	80.0	2	0	[]
8787	14	2	8	80.0	2	1	[(5689, 0)]
8789	7	4	8	60.0	2	0	[]
8791	2	1	8	60.0	2	0	[]
8792	2	3	8	60.0	2	0	[]
8795	5	6	8	60.0	2	0	[]
8796	4	2	2	80.0	2	1	[(798, 0)]
8801	2	1	8	60.0	2	1	[(798, 0)]
8803	2	1	8	60.0	2	0	[]
8807	1	4	16	80.0	2	0	[]
8809	2	1	8	60.0	2	0	[]
8812	3	1	2	60.0	2	0	[]
8814	2	1	8	60.0	2	0	[]
8817	1	1	8	60.0	2	1	[(5022, 1)]
8820	2	4	8	60.0	2	0	[]
8823	1	1	8	60.0	2	0	[]
8825	1	1	8	60.0	2	0	[]
8827	2	1	8	60.0	2	0	[]
8829	2	1	8	60.0	2	0	[]
8830	1	1	2	60.0	2	0	[]
8832	1	1	8	60.0	2	0	[]
8836	4	1	8	60.0	2	0	[]
8838	1	1	1	60.0	2	0	[]
8840	12	1	2	60.0	2	0	[]
8842	151	2	16	60.0	2	6	[(4402, 2), (8653, 0), (7639, 0), (423, 2), (5958, 1), (5490, 0)]
8846	2	2	8	60.0	2	0	[]
8851	2	1	8	60.0	2	0	[]
8854	2	1	8	60.0	2	0	[]
8855	5	3	8	60.0	2	2	[(798, 0), (338, 2)]
8858	1	1	8	60.0	2	0	[]
8861	3	1	8	60.0	2	0	[]
8863	2	2	8	60.0	2	0	[]
8871	8	1	8	60.0	2	0	[]
8873	2	4	8	60.0	2	0	[]
8875	1	1	8	60.0	2	0	[]
8876	1	1	8	60.0	2	0	[]
8883	10	2	16	200.0	2	0	[]
8886	2	1	8	60.0	2	0	[]
8890	2	1	8	60.0	2	0	[]
8891	1	1	6	60.0	2	0	[]
8892	1	1	8	60.0	2	0	[]
8897	8	6	8	60.0	2	0	[]
8898	16	4	8	60.0	2	2	[(5063, 0), (798, 0)]
8899	1	1	6	60.0	2	0	[]
8905	6	1	7	60.0	2	0	[]
8907	4	2	8	60.0	2	0	[]
8912	2	1	8	60.0	2	0	[]
8914	2	1	8	60.0	2	0	[]
8925	2	2	8	60.0	2	0	[]
8926	1	1	7	60.0	2	0	[]
8927	1	1	8	60.0	2	0	[]
8930	5	6	16	80.0	2	0	[]
8935	16	2	8	60.0	2	5	[(7055, 0), (1863, 0), (6873, 0), (3952, 0), (7087, 0)]
8936	2	1	8	60.0	2	2	[(3676, 1), (7671, 2)]
8937	1	1	15	80.0	2	0	[]
8938	2	1	2	60.0	2	0	[]
8945	4	1	8	60.0	2	0	[]
8954	1	1	8	60.0	2	0	[]
8958	4	2	8	60.0	2	0	[]
8959	2	1	8	60.0	2	0	[]
8968	2	1	8	60.0	2	0	[]
8969	1	1	8	60.0	2	0	[]
8973	2	1	8	60.0	2	0	[]
8974	1	1	8	60.0	2	0	[]
8975	2	1	8	80.0	2	0	[]
8978	2	1	8	60.0	2	0	[]
8980	2	1	8	60.0	2	0	[]
8988	1	1	8	60.0	2	0	[]
8990	3	1	2	60.0	2	0	[]
8992	2	1	8	60.0	2	0	[]
8998	5	1	8	60.0	2	0	[]
9000	1	1	2	60.0	2	0	[]
9007	1	1	8	60.0	2	0	[]
9008	1	1	1	40.0	2	0	[]
9010	30	4	8	60.0	2	6	[(80, 2), (5810, 0), (2701, 0), (5812, 0), (614, 0), (798, 0)]
9011	9	3	8	60.0	2	1	[(798, 0)]
9016	4	1	8	60.0	2	0	[]
9020	2	1	8	60.0	2	0	[]
9021	1	1	8	60.0	2	0	[]
9033	2	1	1	60.0	2	0	[]
9038	2	1	5	60.0	2	0	[]
9040	2	1	8	60.0	2	0	[]
9052	152	4	8	60.0	2	16	[(4853, 0), (7634, 0), (6082, 1), (4966, 1), (8554, 2), (8653, 0), (7639, 0), (3487, 0), (8842, 0), (6520, 0), (234, 0), (5056, 1), (4210, 0), (8223, 2), (7555, 1), (82, 2)]
9056	1	1	3	60.0	2	0	[]
9057	3	2	8	60.0	2	0	[]
9064	6	1	8	60.0	2	0	[]
9075	9	2	8	60.0	2	0	[]
9076	1	1	8	60.0	2	0	[]
9079	8	8	16	80.0	2	2	[(1524, 0), (7998, 0)]
9082	1	4	8	60.0	2	0	[]
9084	30	6	16	60.0	2	0	[]
9086	23	3	8	60.0	2	3	[(5905, 0), (798, 0), (8287, 0)]
9098	2	1	8	60.0	2	0	[]
9099	1	1	8	60.0	2	0	[]
9113	3	1	8	60.0	2	0	[]
9114	2	2	8	60.0	2	0	[]
9116	1	1	2	60.0	2	0	[]
9126	1	4	8	60.0	2	0	[]
9127	37	2	8	40.0	2	0	[]
9136	5	1	8	60.0	2	0	[]
9151	1	1	8	80.0	2	0	[]
9155	1	1	8	60.0	2	0	[]
9163	86	12	16	200.0	2	7	[(6962, 1), (1274, 0), (1165, 0), (536, 0), (5905, 0), (8842, 0), (5689, 0)]
9168	13	6	8	60.0	2	1	[(798, 0)]
9175	1	1	2	60.0	2	0	[]
9177	1	1	8	60.0	2	0	[]
9178	1	4	8	60.0	2	0	[]
9179	2	1	8	60.0	2	0	[]
9182	2	1	8	60.0	2	0	[]
9187	4	1	2	60.0	2	0	[]
9202	2	1	8	60.0	2	0	[]
9208	2	1	8	60.0	2	0	[]
9211	2	1	8	60.0	2	0	[]
9212	2	1	8	60.0	2	0	[]
9215	1	1	8	60.0	2	0	[]
9216	5	2	8	60.0	2	1	[(4193, 0)]
9229	1	4	8	60.0	2	0	[]
9231	3	1	8	60.0	2	0	[]
9235	2	2	2	60.0	2	0	[]
9240	2	1	6	60.0	2	0	[]
9241	1	1	7	60.0	2	0	[]
9243	6	1	8	60.0	2	0	[]
9244	3	1	8	60.0	2	0	[]
9248	1	1	8	60.0	2	0	[]
9249	5	1	8	60.0	2	0	[]
9256	1	1	8	60.0	2	0	[]
9261	1	1	8	60.0	2	0	[]
9265	4	1	8	60.0	2	0	[]
9266	2	1	8	60.0	2	0	[]
9267	1	1	1	60.0	2	0	[]
9281	2	1	8	60.0	2	1	[(798, 0)]
9284	2	1	2	60.0	2	0	[]
9285	5	1	8	60.0	2	0	[]
9291	1	4	8	60.0	2	0	[]
9293	1	1	3	60.0	2	0	[]
9295	1	4	8	60.0	2	0	[]
9296	2	1	6	60.0	2	0	[]
9299	1	4	8	60.0	2	0	[]
9305	2	1	8	60.0	2	0	[]
9310	2	4	8	60.0	2	0	[]
9316	2	1	2	60.0	2	0	[]
9320	3	1	8	60.0	2	0	[]
9322	2	1	1	60.0	2	0	[]
9324	12	1	8	100.0	2	0	[]
9331	2	2	8	60.0	2	0	[]
9332	1	3	2	60.0	2	0	[]
9333	2	1	8	60.0	2	0	[]
9335	1	5	8	60.0	2	0	[]
