app_id	nb_instances	core	memory	disk	intra_value	inter_degree	inter_aff
5	18	2	8	60.0	2	4	[(8382, 2), (8468, 2), (4269, 2), (8933, 1)]
8	4	1	8	60.0	2	0	[]
11	1	1	6	60.0	2	0	[]
13	8	2	2	60.0	2	0	[]
27	21	3	8	60.0	2	0	[]
28	10	1	1	60.0	2	8	[(5449, 2), (3952, 2), (4231, 2), (440, 1), (3243, 2), (3489, 2), (7797, 2), (8946, 1)]
36	1	4	8	60.0	2	0	[]
41	2	1	1	60.0	2	0	[]
45	1	1	8	60.0	2	0	[]
48	17	3	8	60.0	2	1	[(5034, 2)]
52	22	2	8	60.0	2	3	[(5862, 2), (1059, 2), (6381, 2)]
55	2	1	6	60.0	2	0	[]
56	5	1	8	60.0	2	0	[]
65	7	1	8	60.0	2	0	[]
68	1	1	7	60.0	2	0	[]
72	1	1	1	60.0	2	0	[]
75	2	1	8	60.0	2	0	[]
78	2	1	8	60.0	2	0	[]
79	1	1	8	60.0	2	0	[]
80	145	12	16	60.0	2	20	[(7626, 2), (3367, 2), (7716, 2), (7033, 2), (188, 0), (3942, 2), (1356, 0), (8347, 2), (6381, 3), (1637, 2), (7552, 0), (2739, 2), (7102, 2), (2688, 2), (3928, 2), (4048, 2), (737, 2), (4630, 2), (8977, 0), (312, 0)]
87	4	1	8	60.0	2	0	[]
96	3	1	8	60.0	2	0	[]
99	1	1	8	60.0	2	0	[]
101	2	1	8	60.0	2	0	[]
102	1	1	8	60.0	2	0	[]
104	1	4	8	60.0	2	0	[]
106	1	10	8	60.0	2	0	[]
111	2	1	8	60.0	2	0	[]
113	1	1	8	60.0	2	0	[]
119	1	2	2	60.0	2	0	[]
129	2	3	8	60.0	2	0	[]
140	3	6	8	60.0	2	0	[]
141	1	1	8	60.0	2	0	[]
143	33	2	8	60.0	2	0	[]
144	2	1	8	60.0	2	0	[]
146	2	1	8	60.0	2	0	[]
147	315	6	8	60.0	2	16	[(1416, 0), (4895, 0), (3554, 0), (8778, 0), (5953, 0), (7217, 0), (3511, 0), (3802, 0), (8767, 0), (6490, 4), (7426, 0), (1443, 1), (4998, 0), (1658, 1), (7813, 0), (4511, 0)]
148	2	1	8	60.0	2	0	[]
149	2	1	8	60.0	2	0	[]
150	3	6	8	60.0	2	0	[]
157	2	1	2	60.0	2	0	[]
158	2	1	8	60.0	2	0	[]
165	2	1	8	60.0	2	0	[]
169	6	1	8	60.0	2	0	[]
170	2	1	2	60.0	2	0	[]
173	4	1	2	60.0	2	0	[]
175	2	1	7	60.0	2	0	[]
176	1	1	32	80.0	0	0	[]
177	1	1	8	60.0	2	0	[]
180	3	1	8	60.0	2	0	[]
186	2	1	8	60.0	2	0	[]
188	20	23	48	60.0	2	4	[(80, 0), (8412, 0), (7333, 0), (577, 0)]
193	2	1	8	80.0	2	0	[]
194	1	1	8	60.0	2	0	[]
195	3	1	2	60.0	2	0	[]
198	3	2	8	60.0	2	0	[]
201	2	1	8	60.0	2	0	[]
202	4	1	16	80.0	2	0	[]
203	1	1	8	60.0	2	0	[]
205	1	1	8	60.0	2	0	[]
215	2	1	8	60.0	2	0	[]
221	1	1	1	60.0	2	0	[]
222	5	1	8	60.0	2	0	[]
223	2	1	8	60.0	2	0	[]
229	2	1	3	60.0	2	0	[]
230	2	1	8	60.0	2	0	[]
231	1	8	16	40.0	2	0	[]
232	17	5	8	60.0	2	2	[(4170, 0), (8979, 0)]
246	1	1	1	60.0	2	0	[]
252	9	1	8	60.0	2	1	[(8824, 1)]
253	2	1	2	60.0	2	0	[]
256	2	2	8	60.0	2	0	[]
257	1	3	8	60.0	2	0	[]
260	19	2	8	60.0	2	6	[(4085, 0), (3909, 1), (636, 0), (6942, 1), (8034, 2), (232, 0)]
261	5	1	8	60.0	2	4	[(4231, 0), (5498, 0), (6478, 0), (3387, 0)]
280	2	1	8	60.0	2	0	[]
282	1	1	8	60.0	2	0	[]
283	4	3	8	60.0	2	0	[]
288	2	1	8	60.0	2	0	[]
290	103	3	8	60.0	2	6	[(9077, 0), (4337, 2), (7414, 2), (7217, 2), (312, 0), (1781, 0)]
293	1	1	1	60.0	2	0	[]
295	2	1	8	60.0	2	0	[]
302	8	12	16	100.0	2	0	[]
305	3	1	8	60.0	2	0	[]
307	11	1	8	60.0	2	1	[(6911, 0)]
310	71	2	8	60.0	2	9	[(3015, 1), (302, 2), (4702, 0), (7087, 2), (6381, 0), (8507, 1), (3540, 2), (8544, 2), (3747, 0)]
312	5	1	8	40.0	2	2	[(80, 1), (7217, 2)]
322	2	1	8	60.0	2	0	[]
323	2	2	8	60.0	2	0	[]
327	5	2	8	60.0	2	0	[]
330	2	1	10	40.0	2	0	[]
350	7	3	8	60.0	2	0	[]
355	106	11	16	100.0	2	2	[(6540, 1), (426, 0)]
357	8	1	8	60.0	2	0	[]
362	2	1	2	60.0	2	0	[]
368	10	2	8	60.0	2	0	[]
375	3	1	1	60.0	2	2	[(1336, 0), (3286, 0)]
380	2	1	8	60.0	2	0	[]
381	1	1	8	60.0	2	0	[]
383	1	1	8	60.0	2	0	[]
384	1	1	8	60.0	2	0	[]
394	2	1	8	60.0	2	0	[]
395	1	4	8	60.0	2	0	[]
397	5	1	8	60.0	2	0	[]
398	2	1	1	60.0	2	0	[]
399	2	1	8	60.0	2	0	[]
400	2	1	8	60.0	2	1	[(4448, 0)]
401	15	4	8	60.0	2	0	[]
402	3	1	8	60.0	2	0	[]
406	2	4	8	60.0	2	0	[]
410	2	1	8	60.0	2	0	[]
414	3	4	8	60.0	2	0	[]
415	1	1	2	60.0	2	0	[]
416	8	2	8	60.0	2	0	[]
417	2	1	8	60.0	2	0	[]
419	5	1	8	60.0	2	0	[]
420	2	2	5	60.0	2	0	[]
424	18	2	8	60.0	2	0	[]
426	1	1	8	60.0	2	0	[]
430	10	2	8	60.0	2	0	[]
438	2	1	8	60.0	2	0	[]
440	4	2	8	60.0	2	1	[(4085, 1)]
443	3	1	8	60.0	2	0	[]
450	5	1	8	60.0	2	0	[]
453	2	1	4	60.0	2	0	[]
457	3	1	8	60.0	2	0	[]
458	2	1	8	60.0	2	0	[]
463	2	1	2	60.0	2	0	[]
465	3	1	8	60.0	2	0	[]
468	6	1	8	60.0	2	0	[]
470	1	1	1	60.0	2	0	[]
475	1	1	3	60.0	2	0	[]
487	19	1	32	200.0	2	0	[]
489	2	1	8	60.0	2	0	[]
491	35	1	8	60.0	2	0	[]
493	6	1	8	60.0	2	0	[]
496	6	1	8	60.0	2	1	[(991, 0)]
497	1	1	5	60.0	2	0	[]
506	2	1	8	60.0	2	0	[]
511	2	1	8	60.0	2	0	[]
515	5	1	8	60.0	2	0	[]
523	2	4	8	60.0	2	0	[]
534	2	1	8	60.0	2	0	[]
535	4	2	8	60.0	2	0	[]
538	2	1	8	60.0	2	0	[]
540	3	1	8	60.0	2	0	[]
542	1	1	8	60.0	2	0	[]
546	2	1	8	60.0	2	0	[]
557	2	1	8	60.0	2	0	[]
559	1	1	8	60.0	2	0	[]
561	2	1	8	60.0	2	0	[]
564	2	1	8	60.0	2	0	[]
565	43	24	32	200.0	2	0	[]
570	8	1	8	60.0	2	0	[]
577	1	2	8	40.0	2	7	[(1416, 0), (8347, 0), (3987, 0), (1356, 0), (2621, 2), (2185, 0), (312, 0)]
580	30	2	8	60.0	2	1	[(4988, 2)]
581	1	1	2	60.0	2	0	[]
587	1	1	8	60.0	2	0	[]
588	2	5	2	60.0	2	0	[]
593	1	1	8	60.0	2	0	[]
594	2	1	8	60.0	2	0	[]
597	3	1	8	60.0	2	0	[]
599	4	3	8	40.0	2	1	[(6381, 0)]
600	1	1	8	60.0	2	0	[]
601	4	1	8	60.0	2	0	[]
603	2	1	8	60.0	2	0	[]
605	1	1	8	60.0	2	0	[]
606	2	1	8	60.0	2	0	[]
626	100	2	8	60.0	2	11	[(3982, 0), (1173, 0), (401, 0), (7880, 0), (290, 0), (5063, 0), (4874, 0), (80, 0), (6003, 0), (3590, 0), (147, 0)]
629	2	1	8	60.0	2	0	[]
635	6	2	8	60.0	2	0	[]
636	95	1	8	60.0	2	11	[(9049, 2), (3015, 0), (968, 0), (4174, 0), (5770, 1), (9074, 2), (7087, 2), (3680, 2), (3286, 0), (7732, 1), (415, 1)]
641	2	1	8	60.0	2	0	[]
642	25	6	8	60.0	2	0	[]
646	27	6	8	60.0	2	9	[(6142, 1), (4995, 0), (8709, 0), (380, 1), (3634, 0), (8541, 1), (1129, 2), (5815, 2), (8180, 0)]
656	2	12	8	60.0	2	0	[]
658	2	2	16	80.0	2	0	[]
660	1	2	8	40.0	0	0	[]
664	6	1	8	60.0	2	0	[]
667	2	1	8	60.0	2	0	[]
676	1	1	8	60.0	2	0	[]
678	1	1	8	60.0	2	0	[]
685	6	1	3	40.0	2	0	[]
694	1	1	5	60.0	2	0	[]
700	2	1	2	60.0	2	0	[]
702	58	3	8	40.0	2	2	[(7217, 2), (48, 2)]
707	7	1	8	60.0	2	0	[]
714	1	1	8	60.0	2	0	[]
715	4	1	8	60.0	2	0	[]
722	1	1	2	60.0	2	0	[]
725	25	1	8	60.0	2	5	[(5288, 0), (8435, 0), (6671, 0), (8980, 0), (1314, 0)]
731	1	1	1	60.0	2	0	[]
732	7	1	2	60.0	2	0	[]
736	37	4	8	60.0	2	0	[]
737	10	5	32	60.0	2	18	[(7626, 2), (6061, 1), (2739, 1), (3942, 2), (8347, 2), (7217, 2), (3117, 1), (4221, 1), (6381, 2), (4520, 2), (5684, 0), (1637, 0), (80, 2), (4550, 1), (4048, 0), (8707, 2), (4630, 2), (4710, 2)]
739	2	2	16	80.0	2	0	[]
740	3	1	2	60.0	2	0	[]
741	2	1	8	60.0	2	0	[]
744	2	4	8	60.0	2	0	[]
753	16	1	8	60.0	2	0	[]
756	23	2	8	60.0	2	3	[(3802, 2), (7681, 1), (1059, 2)]
757	3	2	8	60.0	2	0	[]
759	1	4	16	100.0	2	0	[]
766	4	3	8	60.0	2	0	[]
768	6	2	8	60.0	2	0	[]
774	40	6	8	80.0	2	1	[(80, 2)]
783	1	1	8	60.0	2	0	[]
788	5	4	8	60.0	2	0	[]
791	8	1	7	60.0	2	0	[]
797	3	1	8	60.0	2	0	[]
803	8	3	8	60.0	2	0	[]
807	6	1	8	60.0	2	0	[]
810	9	2	8	40.0	2	2	[(6880, 0), (4048, 0)]
812	2	1	8	60.0	2	0	[]
821	2	1	3	60.0	2	0	[]
826	2	1	2	60.0	2	0	[]
831	2	2	8	60.0	2	0	[]
849	2	1	8	60.0	2	0	[]
854	26	9	2	60.0	2	0	[]
855	1	1	1	60.0	2	0	[]
856	1	1	7	60.0	2	0	[]
859	12	3	16	80.0	2	1	[(4325, 1)]
868	2	1	8	60.0	2	0	[]
873	3	2	8	60.0	2	0	[]
882	1	4	8	60.0	2	0	[]
887	6	1	8	60.0	2	0	[]
889	1	1	8	60.0	2	0	[]
891	2	1	8	60.0	2	0	[]
892	1	1	8	60.0	2	0	[]
893	1	1	8	60.0	2	0	[]
899	2	1	8	60.0	2	0	[]
900	1	8	16	60.0	1	0	[]
901	5	2	8	60.0	2	1	[(4573, 0)]
902	3	1	8	60.0	2	0	[]
903	2	1	8	60.0	2	0	[]
908	1	1	8	60.0	2	0	[]
911	1	1	2	60.0	2	0	[]
912	1	1	2	60.0	2	0	[]
913	5	1	8	60.0	2	0	[]
914	2	1	2	60.0	2	0	[]
918	3	1	8	60.0	2	0	[]
920	4	2	8	200.0	2	2	[(7733, 0), (3327, 2)]
927	1	1	8	60.0	2	0	[]
930	7	3	8	60.0	2	0	[]
933	1	1	8	60.0	2	0	[]
934	1	1	8	60.0	2	0	[]
938	50	1	8	80.0	2	0	[]
943	1	1	8	60.0	2	0	[]
945	21	1	8	60.0	2	5	[(7853, 0), (6911, 0), (7414, 2), (3634, 0), (5148, 0)]
948	1	1	8	60.0	2	0	[]
953	5	1	8	60.0	2	0	[]
963	18	6	8	60.0	2	1	[(8812, 1)]
968	3	1	16	60.0	2	0	[]
969	2	1	8	60.0	2	0	[]
974	1	1	8	60.0	2	0	[]
976	2	1	2	60.0	2	0	[]
986	2	1	8	60.0	2	0	[]
988	2	1	8	80.0	2	0	[]
991	4	1	8	60.0	2	0	[]
995	13	1	8	60.0	2	2	[(2068, 0), (4678, 1)]
998	10	4	8	60.0	2	0	[]
1000	2	1	8	80.0	2	0	[]
1004	3	1	8	60.0	2	0	[]
1008	4	1	8	60.0	2	0	[]
1016	6	2	8	60.0	2	0	[]
1026	12	4	8	60.0	2	4	[(6975, 2), (9324, 1), (4732, 0), (5634, 0)]
1027	2	1	8	60.0	2	0	[]
1034	2	1	8	60.0	2	1	[(8669, 1)]
1036	4	4	8	300.0	2	0	[]
1038	1	8	16	80.0	2	0	[]
1052	1	1	8	60.0	2	0	[]
1059	31	6	8	60.0	2	3	[(4511, 0), (1098, 1), (4087, 2)]
1060	2	1	8	60.0	2	0	[]
1061	1	1	8	60.0	2	0	[]
1062	1	2	8	60.0	2	1	[(3554, 2)]
1065	1	1	8	60.0	2	0	[]
1081	1	1	1	60.0	2	0	[]
1083	5	2	8	60.0	2	0	[]
1089	2	1	8	60.0	2	0	[]
1090	4	1	2	60.0	2	0	[]
1091	12	6	8	60.0	2	1	[(415, 1)]
1093	3	1	8	60.0	2	0	[]
1098	2	1	8	60.0	2	0	[]
1101	9	11	16	60.0	2	0	[]
1107	5	2	8	60.0	2	0	[]
1114	1	4	8	60.0	0	0	[]
1117	2	1	8	60.0	2	0	[]
1125	1	36	30	300.0	2	0	[]
1127	5	1	8	60.0	2	0	[]
1129	2	1	8	60.0	2	0	[]
1130	1	1	8	60.0	2	0	[]
1135	1	1	8	60.0	2	0	[]
1136	1	1	8	60.0	2	0	[]
1140	1	1	8	60.0	2	0	[]
1141	1	1	8	60.0	2	0	[]
1144	32	4	8	60.0	2	3	[(7584, 2), (3155, 0), (6142, 1)]
1163	11	3	8	60.0	2	5	[(149, 0), (8554, 0), (7733, 2), (141, 2), (2773, 0)]
1168	2	4	8	60.0	2	0	[]
1173	53	3	8	60.0	2	7	[(80, 1), (4179, 0), (5862, 2), (7217, 2), (3286, 1), (6622, 2), (6381, 2)]
1175	4	1	8	60.0	2	0	[]
1178	10	2	8	60.0	2	0	[]
1182	5	2	8	60.0	2	0	[]
1185	2	1	8	60.0	2	0	[]
1188	2	2	8	60.0	2	0	[]
1192	2	1	8	60.0	2	0	[]
1193	2	1	8	60.0	2	0	[]
1196	3	1	8	100.0	2	0	[]
1197	6	2	8	60.0	2	0	[]
1199	1	1	8	60.0	2	0	[]
1200	2	1	8	60.0	2	0	[]
1203	7	1	8	60.0	2	0	[]
1208	2	1	8	60.0	2	0	[]
1211	1	1	5	60.0	2	0	[]
1212	2	1	8	60.0	2	0	[]
1213	4	1	8	60.0	2	0	[]
1217	2	1	6	60.0	2	0	[]
1220	2	1	8	60.0	2	0	[]
1231	1	1	8	60.0	2	0	[]
1232	3	1	8	60.0	2	0	[]
1245	1	1	8	60.0	2	0	[]
1246	1	1	8	60.0	2	0	[]
1247	4	1	8	60.0	2	0	[]
1248	63	12	8	100.0	2	0	[]
1250	1	1	8	60.0	2	0	[]
1252	2	1	8	60.0	2	0	[]
1253	2	1	8	60.0	2	0	[]
1254	1	4	8	60.0	2	0	[]
1258	24	3	8	60.0	2	0	[]
1261	1	1	8	60.0	2	0	[]
1265	1	1	8	60.0	2	0	[]
1266	1	1	1	60.0	2	0	[]
1267	5	1	2	60.0	2	0	[]
1269	1	1	8	60.0	2	0	[]
1272	4	1	8	60.0	2	0	[]
1275	3	6	8	60.0	2	0	[]
1277	1	1	8	60.0	2	0	[]
1280	2	1	8	60.0	2	0	[]
1282	1	1	1	60.0	2	0	[]
1283	1	1	1	60.0	2	0	[]
1289	1	4	8	60.0	2	0	[]
1292	4	1	5	60.0	2	0	[]
1294	8	1	8	60.0	2	0	[]
1295	2	1	8	60.0	2	0	[]
1301	2	1	8	60.0	2	0	[]
1302	2	1	8	60.0	2	0	[]
1304	2	1	2	60.0	2	0	[]
1312	6	2	8	60.0	2	0	[]
1313	1	1	8	60.0	2	0	[]
1314	24	2	8	60.0	2	5	[(8669, 1), (5362, 0), (3963, 2), (4811, 2), (8278, 2)]
1315	2	1	2	60.0	2	0	[]
1320	2	1	8	60.0	2	0	[]
1323	6	4	8	60.0	2	0	[]
1325	2	1	8	60.0	2	0	[]
1336	2	4	8	60.0	2	0	[]
1338	4	1	8	60.0	2	0	[]
1342	3	2	8	60.0	2	0	[]
1347	2	1	1	60.0	2	0	[]
1350	2	3	8	60.0	2	0	[]
1356	104	6	8	40.0	2	14	[(7333, 0), (4552, 0), (5366, 0), (4770, 0), (7414, 0), (3987, 0), (3002, 0), (5958, 0), (4581, 0), (3103, 0), (5310, 0), (3873, 0), (6936, 0), (6723, 0)]
1362	7	6	16	80.0	2	1	[(854, 2)]
1372	9	2	12	80.0	2	2	[(1742, 2), (2139, 0)]
1373	7	3	7	60.0	2	0	[]
1380	2	1	8	60.0	2	0	[]
1381	1	2	4	60.0	2	0	[]
1394	2	4	8	60.0	2	0	[]
1398	2	1	8	60.0	2	0	[]
1399	2	2	8	60.0	2	1	[(8283, 2)]
1403	4	1	8	60.0	2	0	[]
1407	8	6	8	60.0	2	0	[]
1408	4	1	7	60.0	2	0	[]
1411	1	1	16	60.0	2	0	[]
1415	2	1	8	60.0	2	0	[]
1416	64	10	16	60.0	0	8	[(3355, 2), (4998, 0), (7217, 1), (7309, 2), (4667, 0), (7102, 0), (80, 2), (3590, 2)]
1418	2	1	8	60.0	2	0	[]
1427	6	2	8	60.0	2	0	[]
1439	1	1	2	60.0	2	0	[]
1441	2	1	2	60.0	2	0	[]
1442	1	1	8	60.0	2	0	[]
1443	103	6	8	60.0	0	7	[(1416, 0), (3554, 0), (4517, 0), (3002, 0), (1447, 0), (1727, 0), (7733, 0)]
1447	33	1	8	60.0	2	0	[]
1454	3	1	8	60.0	2	0	[]
1457	1	1	7	80.0	2	0	[]
1461	2	1	8	60.0	2	0	[]
1467	1	4	8	60.0	2	0	[]
1468	2	1	8	60.0	2	0	[]
1473	3	1	16	60.0	2	0	[]
1480	20	2	3	60.0	2	3	[(4638, 0), (8343, 0), (5001, 0)]
1481	2	4	16	60.0	0	0	[]
1483	58	4	8	60.0	2	4	[(2837, 0), (7741, 0), (8004, 0), (5847, 0)]
1484	2	1	8	60.0	2	0	[]
1489	1	1	8	60.0	2	0	[]
1497	10	2	8	60.0	2	0	[]
1506	4	2	8	60.0	2	14	[(6814, 0), (2533, 0), (5307, 0), (3711, 0), (2138, 0), (6689, 0), (7452, 0), (2145, 2), (6007, 0), (7262, 0), (7556, 0), (8607, 0), (5661, 0), (6020, 0)]
1508	3	1	8	60.0	2	0	[]
1510	4	14	32	80.0	2	0	[]
1512	1	1	4	60.0	2	0	[]
1513	1	1	8	60.0	2	0	[]
1514	1	1	1	60.0	2	0	[]
1515	25	4	8	60.0	2	11	[(7607, 0), (7669, 2), (8280, 0), (8748, 0), (2194, 0), (8889, 2), (4941, 2), (8253, 0), (4896, 0), (3989, 2), (2185, 2)]
1526	2	1	8	60.0	2	0	[]
1532	1	1	16	60.0	2	0	[]
1547	4	1	8	60.0	2	0	[]
1551	2	1	6	60.0	2	0	[]
1553	1	1	1	60.0	2	0	[]
1558	2	1	6	60.0	2	0	[]
1562	2	1	8	100.0	2	0	[]
1567	1	4	8	60.0	2	0	[]
1571	1	1	1	60.0	2	0	[]
1573	1	1	1	60.0	2	0	[]
1586	4	1	8	60.0	2	0	[]
1587	21	8	32	60.0	0	3	[(5366, 0), (1637, 0), (2962, 0)]
1588	2	4	8	60.0	2	0	[]
1590	2	1	6	60.0	2	0	[]
1591	1	1	8	60.0	2	0	[]
1602	51	6	8	60.0	2	1	[(4894, 0)]
1613	1	1	2	60.0	2	0	[]
1614	1	2	8	60.0	2	0	[]
1616	5	1	8	60.0	2	0	[]
1622	1	1	1	60.0	2	0	[]
1626	1	1	8	60.0	2	0	[]
1627	2	1	8	60.0	2	0	[]
1632	1	4	8	60.0	2	0	[]
1635	52	2	8	60.0	2	0	[]
1637	137	24	60	60.0	2	23	[(7626, 2), (3367, 2), (7716, 2), (7033, 2), (6061, 1), (8347, 2), (7217, 2), (3117, 1), (7102, 2), (4221, 1), (3942, 2), (6381, 2), (4520, 2), (2688, 2), (80, 2), (4550, 1), (3928, 2), (4048, 2), (737, 2), (5437, 0), (8707, 2), (4630, 2), (4710, 2)]
1643	4	2	8	60.0	2	0	[]
1646	2	1	8	60.0	2	0	[]
1647	5	2	8	60.0	2	0	[]
1651	2	1	8	60.0	2	0	[]
1654	7	16	32	200.0	2	0	[]
1656	2	1	8	60.0	2	0	[]
1657	3	6	8	60.0	2	0	[]
1658	2	6	8	60.0	2	0	[]
1661	2	2	8	60.0	2	0	[]
1671	1	1	1	60.0	2	0	[]
1680	1	1	8	60.0	2	0	[]
1681	1	1	8	60.0	2	0	[]
1682	2	1	1	60.0	2	0	[]
1684	2	1	8	60.0	2	0	[]
1689	2	1	8	60.0	2	0	[]
1692	1	1	8	60.0	2	0	[]
1694	2	1	1	60.0	2	0	[]
1696	1	2	8	60.0	2	0	[]
1704	1	1	6	60.0	2	0	[]
1705	49	2	8	60.0	2	7	[(6442, 0), (9033, 0), (3001, 1), (5958, 0), (2473, 2), (8733, 0), (6381, 2)]
1706	1	4	8	60.0	2	0	[]
1707	2	1	8	60.0	2	0	[]
1708	5	3	8	60.0	2	0	[]
1711	1	1	8	60.0	2	0	[]
1713	2	1	8	60.0	2	0	[]
1717	1	4	8	60.0	2	0	[]
1724	4	1	8	60.0	2	0	[]
1727	2	6	8	60.0	2	0	[]
1737	2	1	2	60.0	2	0	[]
1742	11	1	8	60.0	2	0	[]
1749	3	1	2	60.0	2	0	[]
1750	1	4	16	80.0	2	0	[]
1756	2	1	1	60.0	2	0	[]
1758	11	2	2	60.0	2	0	[]
1759	2	1	8	60.0	2	0	[]
1763	1	2	8	60.0	2	0	[]
1764	2	1	2	60.0	2	0	[]
1765	1	1	8	60.0	2	0	[]
1769	1	2	8	60.0	2	0	[]
1776	1	4	8	60.0	2	0	[]
1777	26	12	2	60.0	2	0	[]
1781	17	5	8	60.0	0	8	[(9077, 0), (4667, 0), (2224, 0), (1356, 0), (6381, 2), (6123, 0), (3590, 0), (312, 0)]
1784	22	1	8	60.0	2	0	[]
1789	2	2	8	60.0	2	0	[]
1790	4	2	8	60.0	2	0	[]
1796	15	4	3	60.0	2	0	[]
1800	6	2	8	60.0	2	0	[]
1809	1	1	8	60.0	2	0	[]
1817	1	1	1	60.0	2	0	[]
1818	1	1	8	60.0	2	0	[]
1823	1	1	2	60.0	2	0	[]
1824	2	1	8	60.0	2	0	[]
1825	2	4	8	60.0	2	0	[]
1826	1	1	16	60.0	2	0	[]
1831	2	1	1	60.0	2	0	[]
1832	3	1	16	80.0	2	0	[]
1841	4	1	8	60.0	2	0	[]
1846	1	4	8	60.0	2	0	[]
1852	2	1	2	60.0	2	0	[]
1857	3	1	8	60.0	2	0	[]
1860	1	1	2	60.0	2	0	[]
1864	4	5	8	60.0	2	0	[]
1871	4	2	8	60.0	2	0	[]
1872	4	2	8	60.0	2	0	[]
1875	3	1	8	60.0	2	0	[]
1876	2	1	8	80.0	2	0	[]
1878	6	1	8	60.0	2	0	[]
1879	1	36	37	300.0	2	0	[]
1884	212	10	16	100.0	2	1	[(5862, 0)]
1888	2	2	8	60.0	2	0	[]
1893	3	1	8	60.0	2	0	[]
1895	3	4	8	60.0	2	0	[]
1906	3	1	8	80.0	2	0	[]
1910	1	1	2	60.0	2	0	[]
1917	1	1	8	60.0	2	0	[]
1918	3	1	1	60.0	2	0	[]
1924	1	1	3	60.0	2	0	[]
1926	1	1	8	60.0	2	0	[]
1933	1	4	16	60.0	2	0	[]
1936	5	6	8	40.0	2	0	[]
1939	3	1	8	60.0	2	0	[]
1943	2	1	8	60.0	2	0	[]
1945	7	6	8	60.0	2	0	[]
1951	1	1	2	60.0	2	0	[]
1954	1	1	16	60.0	1	0	[]
1955	18	3	3	300.0	2	0	[]
1957	3	1	8	60.0	2	0	[]
1966	1	4	8	60.0	2	0	[]
1968	2	1	8	60.0	2	0	[]
1973	30	2	8	60.0	2	2	[(3097, 1), (7019, 1)]
1975	2	1	8	60.0	2	0	[]
1980	2	1	8	60.0	2	0	[]
1984	4	1	4	60.0	2	0	[]
1988	2	1	8	60.0	2	0	[]
1991	2	1	3	60.0	2	0	[]
1992	1	4	8	60.0	2	0	[]
2004	2	1	8	60.0	2	0	[]
2013	2	1	8	60.0	2	0	[]
2017	2	1	8	60.0	2	0	[]
2020	3	2	8	60.0	2	0	[]
2023	2	2	8	60.0	2	0	[]
2024	2	1	8	60.0	2	0	[]
2027	2	1	8	60.0	2	1	[(3486, 0)]
2030	4	1	8	60.0	2	0	[]
2032	1	2	8	60.0	2	0	[]
2038	1	1	8	60.0	2	0	[]
2042	1	1	8	60.0	2	0	[]
2045	2	1	8	60.0	2	0	[]
2048	24	5	8	60.0	2	4	[(1841, 0), (6626, 0), (8669, 0), (7257, 0)]
2068	1	1	8	60.0	2	0	[]
2074	2	1	2	60.0	2	0	[]
2075	1	1	8	60.0	2	0	[]
2080	1	4	8	60.0	2	0	[]
2086	6	2	8	40.0	2	2	[(4048, 0), (312, 0)]
2092	1	2	8	60.0	2	0	[]
2094	4	1	8	100.0	2	0	[]
2097	1	1	8	60.0	2	0	[]
2102	1	2	6	60.0	2	0	[]
2108	4	4	8	80.0	2	0	[]
2110	2	1	8	60.0	2	0	[]
2119	1	1	2	80.0	2	0	[]
2125	12	6	8	60.0	2	1	[(8764, 2)]
2131	2	1	8	60.0	2	0	[]
2132	3	1	8	60.0	2	0	[]
2133	3	1	8	60.0	2	0	[]
2134	5	1	8	60.0	2	0	[]
2138	4	1	8	60.0	2	13	[(6814, 0), (2533, 0), (5307, 0), (3711, 0), (1506, 0), (6689, 0), (7452, 0), (6007, 0), (7262, 0), (7556, 0), (8607, 0), (5661, 0), (6020, 0)]
2139	5	1	8	60.0	2	0	[]
2142	2	1	8	60.0	2	0	[]
2145	11	1	2	60.0	2	3	[(7733, 0), (5, 0), (6283, 0)]
2153	2	1	6	60.0	2	0	[]
2157	2	2	8	60.0	2	1	[(1742, 1)]
2160	4	1	8	60.0	2	1	[(8609, 2)]
2161	3	5	8	60.0	2	0	[]
2162	2	1	8	60.0	2	0	[]
2164	1	1	8	60.0	2	0	[]
2167	1	1	8	60.0	2	0	[]
2170	2	1	8	60.0	2	0	[]
2174	2	1	8	60.0	2	0	[]
2179	1	1	8	60.0	2	0	[]
2185	134	4	8	40.0	2	21	[(7716, 2), (4517, 0), (5718, 0), (2502, 0), (1356, 0), (6161, 0), (3691, 1), (7414, 2), (1093, 0), (8287, 0), (2621, 0), (7778, 2), (4812, 0), (7426, 0), (8764, 2), (7102, 2), (80, 1), (7217, 0), (1483, 0), (5958, 2), (3574, 1)]
2188	8	8	16	80.0	2	0	[]
2189	10	5	2	200.0	2	0	[]
2194	22	3	8	100.0	2	0	[]
2196	2	1	4	60.0	2	0	[]
2199	5	2	8	60.0	2	0	[]
2201	2	2	8	60.0	2	0	[]
2217	4	3	8	60.0	2	0	[]
2224	40	12	16	200.0	0	3	[(9049, 0), (6919, 0), (1781, 0)]
2236	2	4	8	60.0	2	0	[]
2237	2	1	8	60.0	2	1	[(4895, 0)]
2238	4	3	32	80.0	2	0	[]
2239	2	4	8	60.0	2	1	[(5449, 2)]
2241	3	1	8	60.0	2	0	[]
2253	1	1	8	60.0	2	0	[]
2254	2	1	8	80.0	2	0	[]
2255	2	1	8	60.0	2	0	[]
2257	7	2	8	80.0	2	0	[]
2265	2	1	8	60.0	2	0	[]
2266	2	1	8	60.0	2	0	[]
2276	1	1	8	60.0	2	0	[]
2277	4	1	8	60.0	2	0	[]
2281	2	1	8	60.0	2	0	[]
2291	8	1	1	80.0	2	0	[]
2293	2	1	8	60.0	2	0	[]
2300	6	2	8	60.0	2	0	[]
2302	14	2	16	80.0	2	0	[]
2303	6	1	8	60.0	2	0	[]
2305	1	6	8	100.0	2	0	[]
2310	3	2	8	60.0	2	2	[(1651, 0), (8806, 1)]
2312	2	1	8	60.0	2	0	[]
2313	1	1	8	60.0	2	0	[]
2315	2	1	8	60.0	2	0	[]
2316	2	1	8	60.0	2	0	[]
2327	1	1	2	60.0	2	0	[]
2328	1	2	24	200.0	0	0	[]
2335	1	2	8	40.0	0	0	[]
2336	2	1	1	60.0	2	1	[(3286, 0)]
2348	1	1	2	60.0	2	0	[]
2358	2	1	8	60.0	2	0	[]
2362	1	1	2	60.0	2	0	[]
2363	2	1	8	60.0	2	0	[]
2366	1	4	8	60.0	2	0	[]
2370	1	4	8	60.0	2	0	[]
2376	1	1	7	60.0	2	0	[]
2381	1	1	8	60.0	2	0	[]
2384	1	1	8	60.0	2	0	[]
2393	1	1	8	60.0	2	0	[]
2406	1	8	16	80.0	2	0	[]
2409	1	1	8	60.0	2	0	[]
2411	1	1	8	60.0	2	0	[]
2413	2	4	8	60.0	2	0	[]
2417	2	4	8	60.0	2	0	[]
2424	2	1	8	60.0	2	0	[]
2427	3	1	8	60.0	2	0	[]
2432	3	1	8	60.0	2	0	[]
2433	4	6	8	60.0	2	0	[]
2440	4	1	8	60.0	2	0	[]
2447	4	2	8	60.0	2	0	[]
2448	4	2	8	100.0	2	0	[]
2450	4	1	8	60.0	2	0	[]
2452	5	4	8	60.0	2	0	[]
2453	5	1	8	60.0	2	0	[]
2466	6	1	8	60.0	2	0	[]
2468	6	2	8	60.0	2	0	[]
2470	6	4	8	60.0	2	0	[]
2473	6	1	8	60.0	2	0	[]
2474	6	12	16	100.0	2	0	[]
2475	6	1	8	60.0	2	0	[]
2478	16	1	8	60.0	2	0	[]
2482	24	2	8	60.0	2	1	[(7287, 2)]
2486	519	6	8	100.0	2	5	[(9017, 0), (2815, 0), (3286, 0), (1781, 0), (5063, 0)]
2492	11	2	8	60.0	2	3	[(3802, 1), (7733, 2), (6622, 1)]
2495	10	4	8	60.0	2	0	[]
2496	10	4	8	100.0	2	14	[(3982, 0), (7853, 0), (1558, 0), (7322, 0), (2790, 0), (606, 0), (2486, 2), (3963, 2), (8980, 1), (1955, 0), (2915, 2), (1016, 1), (8979, 0), (1454, 1)]
2500	10	1	16	60.0	2	1	[(6827, 0)]
2502	9	6	8	60.0	2	1	[(4941, 1)]
2508	8	1	8	60.0	2	3	[(4570, 0), (1026, 0), (1483, 0)]
2511	7	1	8	60.0	2	0	[]
2514	3	1	16	80.0	2	0	[]
2519	3	4	8	60.0	2	0	[]
2523	2	2	8	60.0	2	0	[]
2528	2	4	8	60.0	2	0	[]
2533	2	1	8	60.0	2	13	[(6814, 0), (5307, 0), (3711, 0), (2138, 0), (1506, 0), (6689, 0), (7452, 0), (6007, 0), (7262, 0), (7556, 0), (8607, 0), (5661, 0), (6020, 0)]
2538	2	1	2	60.0	2	0	[]
2539	2	1	8	60.0	2	0	[]
2542	2	1	1	60.0	2	0	[]
2543	2	1	16	60.0	2	0	[]
2546	2	1	1	60.0	2	0	[]
2551	2	1	8	60.0	2	0	[]
2552	2	1	8	60.0	2	0	[]
2557	2	1	8	60.0	2	0	[]
2560	2	1	8	60.0	2	0	[]
2562	2	4	8	60.0	2	0	[]
2567	2	4	8	60.0	2	0	[]
2569	2	1	8	60.0	2	0	[]
2571	2	4	8	60.0	2	0	[]
2575	2	1	8	60.0	2	0	[]
2578	2	2	8	60.0	2	0	[]
2581	2	1	4	60.0	2	0	[]
2584	2	1	8	60.0	2	0	[]
2588	2	4	8	60.0	2	3	[(3590, 1), (2300, 0), (6367, 0)]
2590	2	1	8	60.0	2	0	[]
2592	3	1	8	60.0	2	0	[]
2599	4	1	8	60.0	2	0	[]
2602	1	1	2	60.0	2	0	[]
2604	1	1	8	60.0	2	0	[]
2607	4	2	8	60.0	2	0	[]
2614	1	1	2	60.0	2	0	[]
2615	1	1	2	60.0	2	0	[]
2616	35	3	8	60.0	2	0	[]
2619	1	1	2	60.0	2	0	[]
2621	5	1	8	40.0	2	1	[(1356, 0)]
2622	5	1	8	60.0	2	0	[]
2623	2	1	2	60.0	2	0	[]
2625	1	1	1	60.0	2	0	[]
2626	1	1	8	60.0	2	0	[]
2633	2	1	8	60.0	2	0	[]
2637	1	1	1	60.0	2	0	[]
2642	1	1	8	60.0	2	0	[]
2645	1	1	8	60.0	2	0	[]
2647	2	3	8	60.0	2	0	[]
2648	4	1	8	60.0	2	0	[]
2655	2	1	8	60.0	2	0	[]
2659	1	1	2	60.0	2	0	[]
2667	1	1	7	60.0	2	0	[]
2679	2	1	3	60.0	2	0	[]
2680	11	2	8	60.0	2	0	[]
2688	1	7	32	60.0	2	17	[(7626, 2), (6061, 1), (2739, 1), (3942, 2), (8347, 2), (7217, 2), (3117, 1), (4221, 1), (6381, 2), (4520, 2), (1637, 1), (80, 2), (4550, 1), (4048, 2), (8707, 2), (4630, 2), (4710, 2)]
2689	1	1	2	60.0	2	0	[]
2693	9	1	8	60.0	2	0	[]
2703	4	1	8	60.0	2	0	[]
2714	1	1	2	60.0	2	0	[]
2715	2	1	8	60.0	2	0	[]
2721	3	16	48	200.0	2	0	[]
2728	10	3	8	40.0	2	0	[]
2731	7	36	48	300.0	2	3	[(737, 0), (4543, 0), (4801, 0)]
2737	2	2	32	80.0	2	0	[]
2738	2	1	8	60.0	2	0	[]
2739	1	1	60	60.0	2	22	[(7626, 2), (3367, 2), (7716, 2), (7033, 2), (6061, 1), (8347, 2), (7217, 2), (3117, 1), (7102, 2), (4221, 1), (3942, 2), (6381, 2), (4520, 2), (2688, 2), (80, 2), (4550, 1), (3928, 2), (4048, 2), (737, 2), (8707, 2), (4630, 2), (4710, 2)]
2744	2	1	8	60.0	2	0	[]
2747	2	1	8	60.0	2	0	[]
2748	1	1	8	60.0	2	0	[]
2753	1	1	8	60.0	2	0	[]
2754	4	3	8	60.0	2	0	[]
2760	2	1	16	80.0	2	0	[]
2768	1	1	1	60.0	2	0	[]
2773	2	1	8	60.0	2	0	[]
2776	1	1	8	60.0	2	0	[]
2777	4	1	8	60.0	2	1	[(7733, 2)]
2780	1	1	8	60.0	2	0	[]
2782	1	1	2	60.0	2	0	[]
2790	2	1	8	60.0	2	0	[]
2791	1	1	16	60.0	2	0	[]
2795	1	4	8	60.0	2	0	[]
2797	2	1	8	60.0	2	0	[]
2815	60	1	8	60.0	2	0	[]
2816	4	1	8	60.0	2	0	[]
2818	2	2	8	60.0	2	0	[]
2820	1	1	1	60.0	2	0	[]
2821	1	1	8	60.0	2	0	[]
2823	1	1	8	60.0	2	0	[]
2828	4	1	8	60.0	2	0	[]
2832	1	1	8	60.0	2	0	[]
2833	2	1	8	60.0	2	0	[]
2834	1	4	16	100.0	2	0	[]
2836	1	1	6	60.0	2	0	[]
2837	1	1	8	60.0	0	0	[]
2838	1	1	7	60.0	2	0	[]
2842	2	1	8	60.0	2	0	[]
2854	2	1	8	60.0	2	0	[]
2864	2	1	8	60.0	2	0	[]
2865	1	1	8	60.0	2	0	[]
2866	2	1	8	60.0	2	0	[]
2870	2	1	8	60.0	2	0	[]
2871	1	1	2	60.0	2	0	[]
2883	4	1	8	60.0	2	0	[]
2885	1	1	8	60.0	2	0	[]
2886	31	2	2	60.0	2	0	[]
2887	18	3	16	200.0	2	0	[]
2888	2	1	2	60.0	2	0	[]
2891	1	1	8	60.0	2	0	[]
2893	2	1	8	60.0	2	0	[]
2905	2	6	8	60.0	2	0	[]
2907	1	4	8	60.0	2	0	[]
2913	17	2	8	60.0	2	2	[(4585, 2), (8812, 2)]
2914	3	4	8	60.0	2	0	[]
2915	2	1	8	60.0	2	0	[]
2920	1	12	8	60.0	2	0	[]
2923	1	1	8	60.0	2	0	[]
2929	2	1	8	60.0	2	0	[]
2930	2	1	1	60.0	2	0	[]
2935	3	1	8	60.0	2	0	[]
2938	3	1	8	60.0	2	0	[]
2939	2	1	8	60.0	2	0	[]
2942	13	2	8	60.0	2	1	[(1742, 1)]
2944	2	2	8	60.0	0	0	[]
2945	2	1	8	60.0	2	0	[]
2955	2	4	8	60.0	2	0	[]
2959	2	1	8	60.0	2	0	[]
2962	6	6	2	60.0	2	0	[]
2965	2	4	8	60.0	2	0	[]
2966	2	1	8	60.0	2	0	[]
2969	3	1	8	60.0	2	0	[]
2975	1	1	8	60.0	2	0	[]
2980	10	1	8	60.0	2	0	[]
2982	2	2	8	60.0	2	0	[]
2985	1	2	8	40.0	1	0	[]
2993	1	2	8	60.0	2	0	[]
2998	16	2	8	60.0	2	0	[]
3001	14	1	8	60.0	2	1	[(1280, 0)]
3002	18	2	8	60.0	2	0	[]
3003	2	1	8	60.0	2	0	[]
3005	1	4	16	80.0	2	0	[]
3009	24	3	8	60.0	2	5	[(4375, 0), (8767, 2), (7087, 0), (7296, 0), (8064, 0)]
3011	7	2	8	60.0	2	0	[]
3012	2	1	8	60.0	2	0	[]
3014	2	1	8	60.0	2	0	[]
3015	4	4	8	60.0	2	0	[]
3025	1	1	8	60.0	2	0	[]
3026	1	1	40	60.0	2	0	[]
3029	2	1	8	60.0	2	0	[]
3045	2	2	8	60.0	2	0	[]
3046	1	4	8	60.0	2	0	[]
3047	5	1	8	60.0	2	0	[]
3052	2	4	8	60.0	2	0	[]
3053	4	1	8	60.0	2	0	[]
3059	2	1	8	60.0	2	0	[]
3060	2	1	8	60.0	2	0	[]
3065	2	1	1	60.0	2	0	[]
3075	2	1	8	60.0	2	0	[]
3090	1	4	10	60.0	2	0	[]
3094	2	1	1	60.0	2	0	[]
3097	9	3	8	60.0	2	0	[]
3098	2	1	7	60.0	2	0	[]
3101	15	3	8	60.0	2	1	[(147, 0)]
3102	1	1	8	60.0	2	0	[]
3103	8	2	8	60.0	2	1	[(1443, 0)]
3117	3	12	16	60.0	2	22	[(7626, 2), (3367, 2), (7716, 2), (7033, 2), (2739, 2), (8347, 2), (7217, 2), (4221, 1), (3942, 2), (6381, 2), (4520, 2), (1637, 2), (7102, 2), (2688, 2), (80, 2), (4550, 1), (3928, 2), (4048, 2), (737, 2), (8707, 2), (4630, 2), (4710, 2)]
3120	1	1	8	60.0	2	0	[]
3131	1	1	8	60.0	2	0	[]
3132	3	1	8	60.0	2	1	[(4649, 0)]
3138	1	4	8	60.0	2	0	[]
3150	1	1	8	60.0	2	0	[]
3155	2	1	8	60.0	2	0	[]
3156	2	1	8	60.0	2	0	[]
3159	1	1	8	60.0	2	0	[]
3164	25	1	8	60.0	2	0	[]
3168	10	2	8	60.0	2	7	[(489, 0), (8265, 0), (2647, 0), (1473, 0), (2773, 0), (2905, 0), (4448, 0)]
3171	2	4	8	60.0	2	0	[]
3178	2	1	12	60.0	2	1	[(4895, 0)]
3179	2	1	1	60.0	2	0	[]
3181	1	1	2	100.0	2	0	[]
3186	3	1	8	60.0	2	0	[]
3190	2	2	8	60.0	2	0	[]
3191	12	1	6	60.0	2	0	[]
3196	1	1	8	60.0	2	0	[]
3209	2	3	8	60.0	2	0	[]
3212	3	2	8	60.0	2	0	[]
3218	3	1	8	60.0	2	0	[]
3223	5	2	8	60.0	2	3	[(7531, 1), (1059, 0), (8810, 2)]
3224	2	2	8	60.0	2	0	[]
3225	2	1	8	60.0	2	0	[]
3230	1	1	4	200.0	2	0	[]
3231	2	1	8	60.0	2	0	[]
3234	2	1	8	60.0	2	0	[]
3236	1	4	16	80.0	2	0	[]
3237	1	1	6	180.0	2	0	[]
3243	2	1	8	60.0	2	0	[]
3246	3	1	8	60.0	2	1	[(5397, 2)]
3252	47	1	8	60.0	2	4	[(7963, 2), (2199, 2), (149, 1), (3892, 0)]
3254	2	6	8	60.0	2	0	[]
3256	1	1	8	60.0	2	0	[]
3262	2	1	1	60.0	2	0	[]
3267	1	1	16	60.0	2	0	[]
3273	2	2	7	60.0	2	0	[]
3275	2	6	8	60.0	2	0	[]
3277	2	1	8	60.0	2	0	[]
3281	1	1	8	60.0	2	0	[]
3282	1	1	1	60.0	2	0	[]
3285	1	1	2	60.0	2	0	[]
3286	220	6	8	60.0	2	39	[(4281, 0), (9049, 0), (5522, 0), (6764, 0), (6524, 0), (6768, 0), (288, 0), (3441, 0), (3341, 0), (6523, 0), (8131, 0), (1091, 0), (8959, 0), (2027, 0), (3889, 0), (1705, 0), (7995, 0), (2502, 0), (3634, 0), (8566, 0), (6708, 0), (6744, 0), (5040, 0), (7531, 0), (5271, 0), (7564, 0), (4895, 0), (4375, 0), (1689, 0), (7659, 0), (8198, 0), (1824, 0), (3009, 0), (1483, 0), (3425, 0), (5130, 0), (4002, 0), (4257, 0), (8444, 0)]
3288	4	4	8	60.0	2	1	[(6283, 0)]
3290	82	2	8	60.0	2	1	[(7019, 2)]
3291	2	1	8	60.0	2	0	[]
3293	3	1	8	60.0	2	2	[(1026, 0), (3919, 0)]
3295	4	2	8	60.0	2	2	[(7087, 0), (2185, 0)]
3298	1	4	8	60.0	2	0	[]
3302	4	6	8	60.0	2	0	[]
3315	2	1	8	60.0	2	0	[]
3316	2	1	8	60.0	2	0	[]
3320	1	1	2	200.0	2	0	[]
3327	407	4	8	60.0	0	8	[(9046, 0), (4337, 1), (1864, 1), (2578, 2), (3479, 2), (7102, 0), (3430, 0), (8056, 2)]
3329	2	2	8	60.0	2	0	[]
3333	4	1	8	60.0	2	0	[]
3334	2	1	8	60.0	2	0	[]
3338	2	1	8	60.0	2	0	[]
3341	2	1	8	60.0	2	0	[]
3346	4	1	8	60.0	2	0	[]
3355	75	12	16	60.0	1	2	[(8979, 0), (6261, 0)]
3356	6	6	8	60.0	2	49	[(2024, 1), (6935, 2), (1101, 0), (1004, 2), (5557, 1), (1016, 2), (6151, 2), (4083, 1), (8529, 2), (7310, 2), (903, 2), (9324, 2), (8239, 2), (8129, 2), (2942, 2), (9320, 2), (6634, 2), (8993, 2), (55, 1), (5146, 2), (2170, 2), (7558, 2), (7732, 2), (3702, 2), (5462, 1), (3766, 1), (6029, 1), (4327, 2), (7921, 2), (56, 2), (7569, 2), (6007, 2), (6744, 2), (8276, 0), (2004, 1), (1742, 2), (11, 2), (7659, 2), (4231, 1), (5841, 0), (2592, 2), (395, 2), (7712, 1), (3132, 2), (2562, 1), (6774, 2), (8669, 2), (1342, 2), (8761, 2)]
3357	1	1	1	60.0	2	0	[]
3359	50	6	8	60.0	2	1	[(4895, 0)]
3367	2	1	32	60.0	2	17	[(7626, 2), (6061, 1), (2739, 1), (3942, 2), (8347, 2), (7217, 2), (3117, 1), (4221, 1), (6381, 2), (4520, 2), (1637, 1), (80, 2), (4550, 1), (4048, 2), (8707, 2), (4630, 2), (4710, 2)]
3376	2	1	1	60.0	2	0	[]
3384	2	1	6	60.0	2	0	[]
3385	6	3	8	60.0	2	0	[]
3387	5	1	2	60.0	2	0	[]
3389	5	3	16	80.0	2	0	[]
3390	2	2	8	60.0	2	0	[]
3397	22	12	16	100.0	2	0	[]
3398	3	1	8	60.0	2	0	[]
3403	1	2	8	40.0	2	0	[]
3404	1	1	8	60.0	2	1	[(2747, 0)]
3412	1	1	8	60.0	2	0	[]
3422	4	1	8	60.0	2	0	[]
3423	2	4	8	60.0	2	0	[]
3425	53	5	8	60.0	2	3	[(741, 2), (8767, 1), (8500, 2)]
3426	30	5	8	60.0	2	2	[(5951, 1), (3634, 0)]
3427	7	6	8	60.0	2	0	[]
3429	3	4	8	60.0	2	0	[]
3430	1	1	8	60.0	2	0	[]
3432	1	1	8	60.0	2	0	[]
3433	1	1	2	60.0	2	0	[]
3437	2	2	8	60.0	2	0	[]
3441	2	1	8	60.0	2	0	[]
3444	2	1	2	60.0	2	0	[]
3447	1	3	8	60.0	2	0	[]
3448	2	1	8	40.0	2	1	[(1356, 0)]
3458	1	2	2	60.0	2	0	[]
3460	2	1	8	40.0	2	0	[]
3461	2	1	8	60.0	2	0	[]
3466	2	1	8	60.0	2	0	[]
3468	4	1	1	60.0	2	0	[]
3473	4	1	8	60.0	2	0	[]
3479	49	6	8	60.0	2	0	[]
3481	12	4	8	60.0	2	0	[]
3485	3	1	2	60.0	2	0	[]
3486	28	8	16	100.0	2	1	[(4085, 0)]
3489	2	1	8	60.0	2	0	[]
3494	132	7	16	150.0	2	0	[]
3498	1	2	8	60.0	2	0	[]
3502	1	1	8	60.0	2	0	[]
3503	3	1	8	60.0	2	0	[]
3508	1	4	16	40.0	2	0	[]
3509	2	1	8	60.0	2	0	[]
3511	8	6	8	40.0	2	1	[(4048, 2)]
3517	1	1	1	60.0	2	0	[]
3521	2	12	16	200.0	2	0	[]
3522	1	1	1	60.0	2	0	[]
3525	1	1	8	60.0	2	0	[]
3535	1	4	8	60.0	2	0	[]
3537	3	3	8	60.0	2	0	[]
3540	6	2	8	60.0	2	0	[]
3544	4	1	2	100.0	2	0	[]
3550	1	1	8	60.0	2	0	[]
3554	4	1	8	60.0	2	0	[]
3565	45	2	8	60.0	2	3	[(974, 1), (9174, 0), (8810, 1)]
3574	32	9	16	60.0	0	1	[(6754, 2)]
3576	2	1	8	60.0	2	0	[]
3580	8	3	8	80.0	2	1	[(5095, 2)]
3581	3	1	8	60.0	2	0	[]
3583	1	4	8	60.0	2	0	[]
3585	7	2	8	60.0	2	0	[]
3588	9	1	16	80.0	2	2	[(3678, 1), (4085, 1)]
3590	150	3	8	60.0	2	13	[(1416, 0), (4998, 0), (1708, 0), (2468, 2), (307, 0), (7414, 0), (7333, 0), (443, 0), (6736, 0), (4511, 0), (5953, 0), (5490, 0), (7426, 0)]
3594	2	1	1	60.0	2	0	[]
3599	2	1	8	60.0	2	0	[]
3601	1	1	2	60.0	2	0	[]
3603	4	1	8	60.0	2	0	[]
3606	2	2	8	60.0	2	0	[]
3607	2	1	8	60.0	2	0	[]
3611	16	1	8	60.0	2	0	[]
3615	2	1	8	60.0	2	0	[]
3625	1	1	1	60.0	2	0	[]
3634	102	3	8	60.0	2	5	[(3544, 2), (1178, 0), (1975, 0), (3275, 1), (4732, 2)]
3638	1	4	8	60.0	2	0	[]
3640	2	4	8	60.0	2	0	[]
3643	3	6	8	60.0	2	0	[]
3645	5	1	8	60.0	2	0	[]
3646	1	1	1	60.0	2	0	[]
3649	4	4	8	60.0	2	0	[]
3656	1	1	8	60.0	2	0	[]
3663	2	1	8	60.0	2	0	[]
3664	1	1	8	60.0	2	0	[]
3665	1	1	8	60.0	2	0	[]
3669	2	3	8	60.0	2	0	[]
3672	3	1	8	60.0	2	1	[(9161, 2)]
3673	2	2	8	60.0	2	0	[]
3678	2	2	8	1024.0	2	0	[]
3680	10	2	8	60.0	2	3	[(5362, 0), (3766, 1), (7531, 2)]
3682	28	3	8	60.0	2	3	[(9195, 1), (6671, 1), (2655, 2)]
3683	4	7	8	60.0	2	0	[]
3687	1	1	6	60.0	2	0	[]
3689	2	1	8	60.0	2	0	[]
3691	2	5	8	60.0	2	0	[]
3694	2	1	8	60.0	2	0	[]
3700	1	1	8	60.0	2	0	[]
3701	21	1	8	60.0	2	0	[]
3702	3	1	8	80.0	2	0	[]
3703	2	4	8	60.0	2	0	[]
3711	2	3	3	60.0	2	0	[]
3724	1	4	8	60.0	2	0	[]
3725	1	1	8	80.0	2	0	[]
3727	2	1	8	60.0	2	0	[]
3731	191	5	8	60.0	2	29	[(707, 2), (4337, 0), (3634, 0), (774, 1), (8186, 1), (2942, 0), (7581, 2), (7732, 1), (1314, 1), (3426, 0), (9275, 2), (2883, 1), (28, 1), (995, 0), (9174, 2), (6298, 1), (6596, 1), (2500, 0), (9249, 2), (4941, 2), (4198, 2), (2312, 2), (8980, 0), (7019, 2), (938, 0), (5601, 2), (2773, 0), (8669, 2), (7369, 0)]
3734	1	1	8	60.0	2	0	[]
3735	1	1	2	60.0	2	0	[]
3739	1	1	1	60.0	2	0	[]
3740	2	1	8	60.0	2	0	[]
3742	1	1	16	60.0	2	0	[]
3744	1	4	8	60.0	2	0	[]
3745	4	3	8	60.0	2	0	[]
3747	18	1	8	60.0	2	10	[(8554, 2), (8500, 1), (3904, 0), (4649, 1), (3952, 1), (1906, 1), (5490, 1), (7783, 1), (8149, 1), (5039, 1)]
3755	2	1	8	60.0	2	0	[]
3756	2	3	8	60.0	2	1	[(1418, 1)]
3757	1	1	2	60.0	2	0	[]
3766	2	1	2	60.0	2	0	[]
3769	1	1	8	60.0	2	0	[]
3772	1	1	8	60.0	2	0	[]
3778	1	4	8	60.0	2	0	[]
3780	14	1	8	60.0	2	6	[(5626, 0), (8767, 1), (28, 0), (3634, 0), (8663, 0), (7369, 0)]
3781	1	1	8	60.0	2	0	[]
3785	4	2	8	60.0	2	0	[]
3789	1	1	5	60.0	2	0	[]
3790	2	1	8	60.0	2	0	[]
3802	178	6	16	100.0	2	2	[(9077, 0), (7426, 0)]
3807	3	1	2	60.0	2	2	[(310, 1), (1515, 1)]
3809	5	1	8	60.0	2	0	[]
3811	1	1	2	60.0	2	0	[]
3812	1	1	8	60.0	2	0	[]
3813	10	6	8	250.0	2	3	[(5953, 0), (1884, 0), (5871, 0)]
3814	2	1	2	60.0	2	0	[]
3824	1	4	8	60.0	2	0	[]
3826	2	1	8	60.0	2	0	[]
3831	2	1	8	60.0	2	0	[]
3833	1	1	8	60.0	2	0	[]
3836	6	2	8	60.0	2	0	[]
3839	15	2	8	60.0	2	0	[]
3842	24	4	8	60.0	2	0	[]
3844	1	1	8	60.0	2	0	[]
3853	2	1	8	60.0	2	0	[]
3855	6	1	8	60.0	2	0	[]
3857	2	1	8	60.0	2	0	[]
3859	1	7	24	80.0	2	0	[]
3860	3	1	8	60.0	2	0	[]
3866	9	2	2	60.0	2	2	[(8385, 2), (8597, 1)]
3873	13	2	8	40.0	2	3	[(80, 0), (5490, 0), (577, 0)]
3877	1	1	2	60.0	2	0	[]
3878	6	1	8	60.0	2	0	[]
3881	1	4	8	60.0	2	0	[]
3885	14	4	8	60.0	2	0	[]
3889	2	1	8	60.0	2	0	[]
3892	4	10	16	200.0	2	2	[(5366, 1), (2125, 2)]
3899	29	4	8	60.0	2	2	[(5238, 2), (6246, 1)]
3901	2	4	8	60.0	2	0	[]
3904	3	1	8	60.0	2	2	[(80, 1), (3802, 2)]
3908	1	1	1	60.0	2	42	[(2254, 0), (75, 0), (8663, 0), (9033, 0), (2552, 0), (3599, 0), (5830, 0), (6768, 0), (4097, 0), (4965, 0), (903, 0), (8401, 0), (3387, 0), (4322, 0), (6642, 0), (4633, 0), (5322, 0), (2578, 0), (8835, 0), (5316, 0), (8056, 0), (6656, 0), (2791, 0), (2102, 0), (6891, 0), (4219, 0), (6201, 0), (221, 0), (8388, 0), (2097, 0), (6238, 0), (6085, 0), (410, 0), (2312, 0), (2381, 0), (1506, 0), (8889, 0), (2363, 0), (4573, 0), (8345, 0), (5845, 0), (7296, 0)]
3909	2	1	8	60.0	2	0	[]
3911	2	1	8	60.0	2	0	[]
3919	2	1	8	60.0	2	0	[]
3924	1	1	2	60.0	2	0	[]
3928	3	6	32	60.0	2	17	[(7626, 2), (6061, 1), (2739, 1), (3942, 2), (8347, 2), (7217, 2), (3117, 1), (4221, 1), (6381, 2), (4520, 2), (1637, 1), (80, 2), (4550, 1), (4048, 2), (8707, 2), (4630, 2), (4710, 2)]
3930	2	1	8	60.0	2	0	[]
3933	2	1	8	60.0	2	0	[]
3936	6	3	8	60.0	2	0	[]
3937	2	2	8	60.0	2	0	[]
3941	1	1	2	60.0	2	0	[]
3942	6	5	32	100.0	2	19	[(6061, 1), (3367, 2), (7716, 2), (7033, 2), (2739, 1), (7217, 2), (3117, 1), (4221, 1), (6381, 0), (4520, 2), (1637, 1), (7102, 2), (2688, 2), (80, 2), (4550, 1), (3928, 2), (737, 2), (8707, 2), (4710, 2)]
3943	1	4	8	60.0	2	0	[]
3949	2	1	2	60.0	2	1	[(5034, 2)]
3952	35	3	8	60.0	2	9	[(2255, 2), (1759, 1), (355, 0), (7366, 2), (3824, 2), (8408, 2), (5001, 2), (6276, 1), (3842, 2)]
3963	16	3	7	60.0	2	3	[(310, 1), (725, 2), (496, 2)]
3971	1	1	8	60.0	2	0	[]
3973	2	4	8	60.0	2	0	[]
3974	2	4	8	60.0	2	0	[]
3979	19	1	8	60.0	2	0	[]
3982	60	4	8	60.0	2	1	[(2623, 0)]
3984	6	1	8	60.0	2	3	[(5271, 0), (7733, 2), (1473, 0)]
3985	3	1	8	60.0	2	0	[]
3987	26	2	8	40.0	0	2	[(1356, 0), (4048, 0)]
3989	1	1	8	60.0	2	0	[]
3990	1	1	3	60.0	2	0	[]
4002	4	2	8	80.0	2	2	[(357, 1), (5512, 1)]
4008	7	1	16	80.0	2	2	[(7531, 0), (8507, 0)]
4013	7	1	1	60.0	2	0	[]
4018	1	1	2	60.0	2	0	[]
4020	2	1	8	80.0	2	0	[]
4029	8	2	8	60.0	2	1	[(3802, 1)]
4030	1	1	1	60.0	2	0	[]
4043	1	1	8	60.0	2	0	[]
4048	36	12	32	100.0	2	27	[(6880, 0), (7333, 0), (3987, 0), (4520, 2), (6061, 1), (3367, 2), (4550, 1), (3117, 1), (2739, 1), (80, 2), (737, 0), (810, 0), (2185, 0), (1356, 0), (4221, 1), (6381, 2), (1637, 1), (7102, 2), (2688, 2), (3928, 2), (8707, 2), (5490, 0), (7716, 2), (3574, 0), (7033, 2), (7217, 2), (4710, 2)]
4050	5	2	8	60.0	2	0	[]
4055	7	1	8	60.0	2	0	[]
4057	2	4	8	60.0	2	0	[]
4064	1	2	2	60.0	2	0	[]
4067	5	2	8	60.0	2	0	[]
4069	1	2	8	60.0	2	0	[]
4082	1	1	8	60.0	2	0	[]
4083	18	12	16	100.0	2	0	[]
4084	6	2	8	60.0	2	0	[]
4085	84	2	2	60.0	2	19	[(707, 1), (7463, 1), (7388, 1), (2315, 0), (7992, 0), (6442, 0), (7114, 2), (4265, 2), (8375, 0), (7087, 1), (8378, 1), (3295, 0), (7732, 0), (147, 0), (5442, 0), (4505, 0), (3963, 1), (4540, 1), (1480, 2)]
4087	2	1	8	60.0	2	0	[]
4088	1	1	8	60.0	2	0	[]
4089	2	1	8	60.0	2	0	[]
4092	1	4	8	60.0	2	0	[]
4097	3	1	8	60.0	2	0	[]
4099	1	1	1	60.0	2	0	[]
4104	4	1	8	60.0	2	0	[]
4108	6	2	8	60.0	2	0	[]
4122	7	1	8	60.0	2	0	[]
4126	1	4	16	80.0	2	0	[]
4128	1	1	8	60.0	2	0	[]
4142	1	1	8	60.0	2	0	[]
4144	2	1	8	60.0	2	0	[]
4152	11	1	8	60.0	2	0	[]
4159	2	1	8	60.0	2	2	[(2185, 0), (7813, 0)]
4160	2	1	8	60.0	2	0	[]
4163	1	1	8	60.0	2	0	[]
4164	4	2	32	80.0	2	0	[]
4170	43	2	8	60.0	2	2	[(4941, 2), (7251, 1)]
4173	2	2	8	60.0	2	0	[]
4174	2	1	2	60.0	2	0	[]
4176	2	1	6	60.0	2	0	[]
4177	2	3	8	60.0	2	0	[]
4178	2	1	1	60.0	2	0	[]
4179	1	1	8	60.0	2	0	[]
4186	1	1	1	150.0	2	0	[]
4188	4	1	8	60.0	2	0	[]
4192	2	1	8	60.0	2	0	[]
4193	39	6	8	60.0	2	9	[(1416, 2), (8273, 2), (8347, 2), (3831, 2), (7414, 2), (9216, 0), (6736, 0), (854, 2), (5589, 2)]
4198	6	1	8	60.0	2	0	[]
4199	2	1	8	60.0	2	0	[]
4202	2	1	7	60.0	2	0	[]
4204	1	4	8	60.0	2	0	[]
4207	2	1	8	60.0	2	0	[]
4209	3	2	8	60.0	2	1	[(4760, 1)]
4211	3	3	8	60.0	2	0	[]
4212	4	1	8	60.0	2	0	[]
4219	2	1	8	60.0	2	0	[]
4221	88	8	16	60.0	2	24	[(7626, 3), (3367, 3), (7716, 3), (4517, 0), (7033, 3), (2739, 2), (6061, 1), (8347, 3), (7217, 2), (3117, 1), (7102, 3), (3942, 3), (6381, 2), (4520, 2), (1637, 2), (2688, 3), (80, 2), (3928, 3), (4048, 3), (737, 3), (8707, 2), (4630, 3), (6442, 2), (4710, 2)]
4231	31	6	8	60.0	0	9	[(7309, 0), (8500, 0), (8347, 0), (4517, 0), (1637, 0), (2578, 1), (8412, 0), (5490, 0), (2185, 0)]
4233	1	1	2	60.0	2	0	[]
4236	2	1	4	60.0	2	0	[]
4239	8	2	8	60.0	2	0	[]
4245	1	1	8	60.0	2	0	[]
4246	1	4	8	60.0	2	0	[]
4247	1	1	8	60.0	2	0	[]
4257	3	1	2	60.0	2	0	[]
4258	6	2	8	60.0	2	0	[]
4262	71	7	16	100.0	2	1	[(9049, 0)]
4265	2	4	8	60.0	2	0	[]
4268	9	3	20	200.0	2	0	[]
4269	4	4	8	60.0	2	0	[]
4270	3	3	8	60.0	2	0	[]
4276	2	2	8	60.0	2	0	[]
4281	1	4	8	60.0	2	0	[]
4282	7	5	32	200.0	2	1	[(1637, 0)]
4284	4	6	8	200.0	2	0	[]
4289	41	3	8	60.0	2	7	[(8104, 1), (5162, 0), (3011, 0), (5847, 0), (5256, 0), (6942, 0), (4941, 1)]
4303	1	1	16	60.0	2	0	[]
4310	1	1	8	60.0	2	0	[]
4313	1	1	8	60.0	2	0	[]
4315	1	1	48	300.0	2	0	[]
4318	2	1	4	60.0	2	0	[]
4322	3	4	8	60.0	2	0	[]
4325	5	1	8	60.0	2	0	[]
4327	15	1	8	60.0	0	3	[(8155, 0), (6645, 0), (4760, 0)]
4330	1	1	8	60.0	2	0	[]
4337	21	12	16	60.0	2	0	[]
4339	2	1	8	60.0	2	0	[]
4344	1	1	8	60.0	2	0	[]
4354	2	2	4	60.0	2	0	[]
4356	1	1	8	60.0	2	0	[]
4359	5	1	1	80.0	2	0	[]
4362	1	1	8	60.0	2	0	[]
4369	1	1	8	60.0	2	0	[]
4371	1	1	2	60.0	2	0	[]
4372	2	1	8	60.0	2	0	[]
4373	6	12	16	60.0	2	1	[(9049, 0)]
4375	3	1	8	60.0	2	0	[]
4384	1	1	8	60.0	2	0	[]
4391	6	1	8	60.0	2	0	[]
4392	6	1	16	80.0	2	0	[]
4397	2	1	5	60.0	2	0	[]
4398	15	6	8	60.0	2	1	[(2930, 2)]
4400	4	2	8	60.0	2	0	[]
4402	1	1	8	60.0	2	0	[]
4406	12	1	8	60.0	2	0	[]
4408	12	1	8	60.0	2	1	[(8767, 2)]
4425	3	1	8	60.0	2	0	[]
4426	5	4	8	60.0	2	0	[]
4439	1	1	8	60.0	2	0	[]
4448	13	5	8	60.0	2	1	[(8554, 0)]
4452	8	1	8	60.0	2	0	[]
4458	2	4	8	60.0	2	0	[]
4462	3	1	8	60.0	2	0	[]
4466	1	1	8	60.0	2	0	[]
4472	1	1	8	60.0	2	0	[]
4474	10	2	16	40.0	0	0	[]
4475	2	1	1	60.0	2	0	[]
4476	1	1	1	60.0	2	0	[]
4485	1	1	8	60.0	2	0	[]
4487	2	2	48	300.0	2	0	[]
4490	1	4	8	60.0	2	0	[]
4492	1	1	8	60.0	2	0	[]
4497	1	1	2	60.0	2	0	[]
4502	2	8	16	60.0	1	0	[]
4505	4	1	8	60.0	2	0	[]
4506	1	4	8	60.0	2	0	[]
4507	2	1	2	60.0	2	0	[]
4509	8	1	8	60.0	2	1	[(1480, 2)]
4511	4	2	8	60.0	2	7	[(7217, 2), (5953, 1), (3554, 2), (3802, 1), (3574, 1), (7733, 2), (8767, 1)]
4512	3	2	8	60.0	2	2	[(5095, 2), (788, 2)]
4516	1	1	8	60.0	2	0	[]
4517	54	6	8	40.0	2	6	[(3002, 2), (7414, 1), (4221, 0), (3802, 2), (402, 1), (9146, 2)]
4520	1	1	16	60.0	2	15	[(7626, 2), (3367, 2), (7716, 2), (7033, 2), (3942, 2), (8347, 2), (6381, 3), (1637, 2), (2739, 2), (7102, 2), (2688, 2), (3928, 2), (4048, 2), (737, 2), (4630, 2)]
4523	1	1	16	100.0	2	0	[]
4525	2	1	3	60.0	2	0	[]
4526	2	1	8	60.0	2	0	[]
4528	1	1	8	60.0	2	0	[]
4532	2	1	8	60.0	2	0	[]
4536	12	3	8	100.0	2	0	[]
4539	1	4	8	60.0	2	0	[]
4540	1	1	2	60.0	2	1	[(4085, 1)]
4543	44	10	16	60.0	2	2	[(3565, 2), (7995, 2)]
4544	4	1	8	60.0	2	0	[]
4545	1	1	8	60.0	2	0	[]
4546	2	4	8	60.0	2	0	[]
4550	1	8	16	60.0	2	22	[(7626, 3), (3367, 3), (7716, 3), (7033, 3), (2739, 2), (6061, 1), (8347, 3), (7217, 2), (3117, 1), (7102, 3), (3942, 3), (6381, 2), (4520, 2), (1637, 2), (2688, 3), (80, 2), (3928, 3), (4048, 3), (737, 3), (8707, 2), (4630, 3), (4710, 2)]
4552	14	6	8	60.0	2	1	[(80, 1)]
4553	1	1	8	60.0	2	0	[]
4554	2	1	1	60.0	2	0	[]
4557	2	1	8	60.0	2	0	[]
4569	1	1	8	60.0	2	1	[(3885, 0)]
4570	15	4	8	60.0	2	1	[(8004, 0)]
4571	2	1	8	60.0	2	0	[]
4573	23	3	8	60.0	2	0	[]
4580	4	12	24	60.0	2	0	[]
4581	15	2	8	60.0	2	1	[(6622, 2)]
4585	1	1	8	60.0	2	0	[]
4586	1	1	7	60.0	2	0	[]
4587	1	4	8	60.0	2	0	[]
4588	2	2	8	60.0	2	0	[]
4590	1	1	8	60.0	2	0	[]
4610	2	1	8	60.0	2	0	[]
4611	2	1	1	60.0	2	0	[]
4612	1	1	8	60.0	2	0	[]
4614	2	1	5	60.0	2	0	[]
4618	1	1	8	60.0	2	0	[]
4621	2	1	8	60.0	2	0	[]
4622	1	1	1	60.0	2	0	[]
4623	3	1	8	60.0	2	0	[]
4627	4	1	7	60.0	2	0	[]
4629	1	1	8	60.0	2	0	[]
4630	1	3	32	100.0	2	19	[(6061, 1), (3367, 2), (7716, 2), (7033, 2), (2739, 1), (7217, 2), (3117, 1), (4221, 1), (6381, 2), (4520, 2), (1637, 1), (7102, 2), (2688, 2), (80, 2), (4550, 1), (3928, 2), (737, 2), (8707, 2), (4710, 2)]
4631	2	1	8	60.0	2	0	[]
4632	4	7	16	60.0	2	1	[(5657, 0)]
4633	4	1	8	80.0	2	0	[]
4635	13	1	8	60.0	2	2	[(4801, 2), (788, 1)]
4638	2	1	8	60.0	2	0	[]
4640	5	4	8	60.0	2	0	[]
4641	1	1	2	60.0	2	0	[]
4643	1	1	8	60.0	2	0	[]
4649	19	1	10	60.0	2	1	[(3904, 2)]
4655	1	1	8	60.0	2	0	[]
4667	29	5	8	60.0	2	1	[(6750, 2)]
4669	1	1	8	60.0	2	0	[]
4670	1	4	8	60.0	2	0	[]
4672	1	3	8	60.0	2	0	[]
4673	1	4	8	60.0	2	0	[]
4678	15	6	3	60.0	2	0	[]
4679	1	1	6	60.0	2	0	[]
4680	2	1	8	60.0	2	0	[]
4682	2	1	8	60.0	2	0	[]
4683	2	1	8	60.0	2	0	[]
4687	1	1	8	60.0	2	0	[]
4692	14	1	8	60.0	2	3	[(5522, 0), (1178, 0), (8369, 0)]
4693	4	1	8	60.0	2	0	[]
4696	2	1	2	60.0	2	0	[]
4701	1	1	8	60.0	2	0	[]
4702	3	1	8	60.0	2	0	[]
4705	2	1	2	60.0	2	0	[]
4707	1	1	8	60.0	2	0	[]
4708	33	2	8	100.0	2	1	[(2887, 0)]
4710	1	3	16	60.0	2	15	[(7626, 2), (3367, 2), (7716, 2), (7033, 2), (3942, 2), (8347, 2), (6381, 3), (1637, 2), (2739, 2), (7102, 2), (2688, 2), (3928, 2), (4048, 2), (737, 2), (4630, 2)]
4713	2	1	8	60.0	2	0	[]
4714	1	1	8	60.0	2	0	[]
4715	5	4	8	60.0	2	0	[]
4720	2	4	8	60.0	2	0	[]
4724	1	4	8	60.0	2	0	[]
4732	2	2	8	60.0	2	0	[]
4735	2	1	8	60.0	2	0	[]
4739	2	1	8	60.0	2	0	[]
4740	1	1	8	60.0	2	0	[]
4745	1	1	8	60.0	2	0	[]
4747	1	4	8	100.0	2	0	[]
4750	11	1	8	60.0	2	0	[]
4753	2	1	1	60.0	2	1	[(2185, 1)]
4760	51	2	8	60.0	2	3	[(6540, 0), (4209, 2), (8538, 2)]
4765	1	1	8	60.0	2	0	[]
4770	35	2	16	100.0	2	1	[(3971, 2)]
4777	1	1	3	60.0	2	0	[]
4782	3	1	8	60.0	2	0	[]
4787	2	1	16	60.0	2	0	[]
4789	2	1	2	40.0	2	0	[]
4795	1	1	2	60.0	2	0	[]
4801	14	3	2	60.0	2	1	[(7733, 0)]
4804	2	1	8	60.0	2	0	[]
4809	2	1	8	60.0	2	1	[(2470, 1)]
4811	2	1	8	60.0	2	0	[]
4812	6	2	8	60.0	2	0	[]
4814	3	2	8	60.0	2	0	[]
4819	24	1	8	60.0	2	5	[(4988, 0), (580, 0), (8347, 0), (1059, 0), (5063, 0)]
4826	2	4	16	60.0	2	0	[]
4827	2	1	8	60.0	2	0	[]
4832	1	1	8	60.0	2	0	[]
4837	3	1	3	60.0	2	0	[]
4840	5	6	8	60.0	2	0	[]
4841	2	1	8	60.0	2	0	[]
4845	1	1	8	60.0	0	0	[]
4850	1	1	2	60.0	2	0	[]
4852	1	4	8	60.0	2	0	[]
4855	8	2	8	60.0	2	0	[]
4856	2	4	8	60.0	2	0	[]
4864	28	4	8	60.0	2	0	[]
4874	13	3	8	60.0	2	3	[(626, 0), (8889, 2), (7217, 2)]
4878	4	1	8	60.0	2	0	[]
4886	2	1	1	60.0	2	0	[]
4888	1	4	8	60.0	2	0	[]
4891	2	1	8	60.0	2	0	[]
4893	1	1	8	60.0	2	0	[]
4894	2	1	8	60.0	2	0	[]
4895	2	2	8	60.0	2	0	[]
4896	5	1	8	60.0	2	0	[]
4901	4	1	8	60.0	2	0	[]
4905	1	1	2	60.0	2	0	[]
4907	3	1	8	60.0	2	0	[]
4908	4	2	8	100.0	2	0	[]
4909	18	2	8	60.0	2	6	[(8897, 0), (8981, 1), (406, 2), (1711, 1), (4965, 1), (475, 1)]
4919	2	1	8	60.0	2	0	[]
4920	2	1	8	60.0	2	0	[]
4928	2	1	8	60.0	2	0	[]
4932	3	2	8	60.0	2	0	[]
4936	5	1	8	60.0	2	0	[]
4941	11	6	8	100.0	2	0	[]
4948	3	4	8	60.0	2	0	[]
4952	1	2	8	60.0	2	0	[]
4956	2	1	8	60.0	2	1	[(6395, 1)]
4963	6	4	8	60.0	2	0	[]
4965	3	1	8	60.0	2	0	[]
4967	2	1	8	60.0	2	0	[]
4969	1	6	32	60.0	0	0	[]
4970	1	1	3	60.0	2	0	[]
4981	1	1	8	60.0	2	0	[]
4984	3	1	8	60.0	2	0	[]
4988	2	1	8	60.0	2	0	[]
4990	1	2	8	60.0	2	0	[]
4995	2	1	8	60.0	2	0	[]
4998	104	4	8	40.0	2	6	[(3355, 0), (5810, 0), (2886, 0), (1362, 1), (4337, 1), (1602, 0)]
5001	5	1	8	80.0	2	0	[]
5004	30	3	8	60.0	2	7	[(7217, 0), (8959, 0), (6911, 0), (3987, 0), (6020, 0), (963, 0), (6151, 0)]
5007	6	1	8	60.0	2	0	[]
5008	2	1	8	60.0	2	0	[]
5034	4	1	8	60.0	2	0	[]
5039	2	1	8	60.0	2	0	[]
5040	2	1	8	60.0	2	0	[]
5051	3	2	8	60.0	2	0	[]
5055	1	1	1	60.0	2	0	[]
5063	58	4	5	200.0	2	1	[(312, 0)]
5069	2	1	8	60.0	2	0	[]
5072	2	1	8	60.0	2	0	[]
5074	2	1	1	60.0	2	1	[(3286, 0)]
5076	1	1	8	60.0	2	0	[]
5081	2	1	8	60.0	2	0	[]
5083	5	1	8	80.0	2	22	[(7269, 0), (8554, 0), (9065, 0), (8558, 0), (7963, 0), (4262, 0), (355, 0), (7369, 0), (6880, 0), (5463, 0), (7504, 0), (3731, 0), (3780, 0), (3286, 0), (1443, 0), (3702, 0), (3540, 0), (5864, 0), (6895, 0), (1973, 0), (3842, 0), (6991, 0)]
5087	1	1	8	60.0	2	0	[]
5093	1	1	8	60.0	2	0	[]
5094	1	1	8	60.0	2	0	[]
5095	3	1	8	60.0	2	0	[]
5105	4	1	8	60.0	2	0	[]
5109	25	6	8	60.0	2	0	[]
5114	2	1	8	60.0	2	0	[]
5117	1	1	8	80.0	2	0	[]
5119	21	1	2	60.0	2	0	[]
5125	7	2	2	60.0	2	0	[]
5126	1	4	8	60.0	2	0	[]
5130	1	1	1	60.0	2	0	[]
5131	3	2	8	60.0	2	0	[]
5137	1	1	1	60.0	2	0	[]
5146	27	5	8	80.0	2	0	[]
5148	4	1	8	60.0	2	1	[(4170, 2)]
5152	1	4	8	60.0	2	0	[]
5158	1	1	8	60.0	2	0	[]
5160	2	1	8	60.0	2	0	[]
5162	2	1	8	60.0	2	0	[]
5167	2	1	8	60.0	2	1	[(6744, 2)]
5169	2	1	8	60.0	2	0	[]
5176	1	1	8	60.0	2	0	[]
5185	3	1	8	60.0	2	0	[]
5187	2	1	8	60.0	2	0	[]
5196	1	1	8	60.0	2	0	[]
5202	2	4	8	60.0	2	0	[]
5213	4	1	8	100.0	2	0	[]
5218	12	6	8	60.0	2	0	[]
5219	2	1	8	60.0	2	0	[]
5221	1	1	8	60.0	2	0	[]
5223	4	5	16	60.0	2	0	[]
5233	2	1	8	60.0	2	0	[]
5238	3	5	8	60.0	2	0	[]
5240	5	3	8	60.0	2	0	[]
5246	4	1	8	60.0	2	0	[]
5249	2	2	8	60.0	2	0	[]
5250	2	2	8	60.0	2	0	[]
5251	11	6	8	60.0	2	0	[]
5252	2	2	8	60.0	2	0	[]
5256	18	5	8	60.0	2	0	[]
5257	2	1	8	60.0	2	0	[]
5264	145	12	16	60.0	1	6	[(1416, 0), (7217, 0), (1356, 0), (6381, 0), (1637, 0), (8618, 0)]
5270	1	2	8	60.0	2	0	[]
5271	21	1	8	60.0	2	2	[(4941, 1), (310, 1)]
5287	1	1	8	60.0	2	0	[]
5288	6	1	8	60.0	2	0	[]
5292	2	1	8	60.0	2	0	[]
5294	2	1	8	60.0	2	0	[]
5298	2	2	8	60.0	2	0	[]
5300	1	1	8	60.0	2	0	[]
5303	1	1	8	60.0	2	0	[]
5307	4	1	8	60.0	2	13	[(6814, 0), (2533, 0), (3711, 0), (2138, 0), (1506, 0), (6689, 0), (7452, 0), (6007, 0), (7262, 0), (7556, 0), (8607, 0), (5661, 0), (6020, 0)]
5308	1	3	8	60.0	2	0	[]
5309	4	1	8	60.0	2	0	[]
5310	2	1	8	60.0	2	0	[]
5312	2	4	8	60.0	2	0	[]
5314	2	1	128	600.0	2	0	[]
5316	1	1	8	60.0	2	0	[]
5317	3	1	2	60.0	2	0	[]
5319	1	4	8	60.0	2	0	[]
5322	12	1	2	60.0	2	8	[(56, 1), (7568, 0), (5598, 0), (2833, 1), (4585, 0), (5386, 2), (7206, 1), (4760, 0)]
5323	2	1	8	60.0	2	0	[]
5324	1	4	8	60.0	2	0	[]
5331	2	1	8	60.0	2	0	[]
5332	1	1	8	60.0	2	0	[]
5336	19	1	8	60.0	2	3	[(3355, 2), (4268, 2), (4760, 2)]
5338	16	6	8	60.0	2	0	[]
5341	4	1	8	60.0	2	0	[]
5344	4	2	8	60.0	2	0	[]
5348	2	3	8	60.0	2	0	[]
5349	3	1	8	60.0	2	0	[]
5350	2	1	8	60.0	2	0	[]
5351	5	3	8	60.0	2	0	[]
5352	1	1	6	60.0	2	0	[]
5355	1	1	8	60.0	2	0	[]
5362	55	2	8	60.0	2	3	[(7733, 2), (7019, 2), (147, 1)]
5366	142	12	16	60.0	1	5	[(7333, 0), (5310, 2), (4667, 0), (5684, 0), (8760, 0)]
5379	14	1	8	60.0	2	0	[]
5385	5	2	8	60.0	2	0	[]
5386	7	1	8	60.0	2	0	[]
5387	3	1	8	60.0	2	0	[]
5390	1	1	2	60.0	2	0	[]
5393	1	1	8	60.0	2	0	[]
5397	6	1	8	60.0	2	0	[]
5399	2	4	8	60.0	2	0	[]
5402	1	1	8	60.0	2	0	[]
5403	1	4	8	60.0	2	0	[]
5407	1	1	8	60.0	2	0	[]
5409	1	1	8	60.0	2	0	[]
5410	1	1	8	60.0	2	0	[]
5412	2	1	8	60.0	2	0	[]
5413	3	2	16	100.0	2	0	[]
5415	2	1	8	40.0	2	0	[]
5416	2	1	1	60.0	2	0	[]
5430	2	1	8	60.0	2	0	[]
5433	1	1	8	60.0	2	0	[]
5435	5	1	8	60.0	2	0	[]
5436	40	6	8	60.0	2	1	[(3159, 2)]
5437	3	3	16	60.0	2	2	[(80, 0), (1637, 0)]
5439	4	1	8	60.0	2	0	[]
5442	2	1	8	60.0	2	0	[]
5449	35	6	8	60.0	2	3	[(8213, 1), (28, 1), (5915, 2)]
5450	1	1	6	60.0	2	0	[]
5454	1	2	8	60.0	2	0	[]
5460	1	1	1	60.0	2	0	[]
5461	1	1	8	60.0	2	0	[]
5462	2	1	2	60.0	2	0	[]
5463	6	1	8	60.0	2	0	[]
5475	4	2	8	60.0	2	0	[]
5476	20	5	8	60.0	2	1	[(4895, 0)]
5477	17	1	8	60.0	2	0	[]
5490	43	2	8	40.0	2	9	[(7217, 1), (1356, 0), (8347, 0), (7414, 0), (290, 2), (6381, 1), (4998, 2), (8287, 2), (6153, 2)]
5497	5	1	8	60.0	2	0	[]
5498	3	1	2	60.0	2	0	[]
5502	2	1	1	60.0	2	0	[]
5504	2	4	8	60.0	2	1	[(3286, 0)]
5507	3	1	8	60.0	2	0	[]
5508	1	1	2	60.0	2	0	[]
5512	5	1	8	60.0	2	0	[]
5518	1	1	8	60.0	2	0	[]
5520	1	1	8	60.0	2	0	[]
5521	2	1	8	60.0	2	0	[]
5522	25	6	8	60.0	0	11	[(9049, 0), (3277, 2), (3634, 0), (6880, 0), (290, 0), (8778, 0), (4692, 0), (1955, 0), (1178, 0), (963, 0), (147, 0)]
5526	39	3	8	60.0	2	4	[(80, 1), (1884, 0), (7217, 0), (6381, 0)]
5527	2	1	1	60.0	2	0	[]
5529	3	1	8	60.0	2	0	[]
5539	2	1	3	60.0	2	0	[]
5544	3	2	8	60.0	2	0	[]
5554	2	1	8	60.0	2	0	[]
5557	2	2	8	60.0	2	1	[(4318, 2)]
5559	2	1	8	60.0	2	0	[]
5567	2	2	8	60.0	2	0	[]
5568	3	1	8	60.0	2	0	[]
5585	20	1	8	60.0	2	1	[(7733, 2)]
5589	4	1	16	100.0	2	0	[]
5592	1	1	1	200.0	2	0	[]
5596	1	4	8	60.0	2	0	[]
5597	1	1	8	60.0	2	0	[]
5598	4	1	8	60.0	2	2	[(5322, 0), (4760, 0)]
5601	3	1	8	60.0	2	0	[]
5605	2	1	8	60.0	2	0	[]
5616	2	1	8	60.0	2	0	[]
5621	1	1	8	40.0	2	0	[]
5622	2	4	4	60.0	2	0	[]
5626	3	1	8	60.0	2	0	[]
5627	2	1	8	60.0	2	1	[(2125, 2)]
5631	3	1	8	60.0	2	0	[]
5634	8	2	8	60.0	2	1	[(3286, 0)]
5636	2	2	8	60.0	2	0	[]
5639	5	6	8	60.0	2	0	[]
5641	2	1	8	60.0	2	0	[]
5642	2	4	8	60.0	2	0	[]
5644	1	1	1	60.0	2	0	[]
5645	4	1	25	200.0	2	2	[(995, 0), (2134, 0)]
5650	2	4	8	60.0	2	4	[(8735, 0), (310, 0), (2145, 0), (3807, 0)]
5651	4	1	8	60.0	2	0	[]
5654	1	1	8	60.0	2	0	[]
5657	2	1	16	60.0	2	2	[(3711, 0), (4632, 0)]
5659	1	1	8	60.0	2	0	[]
5661	9	6	8	60.0	2	1	[(1059, 2)]
5670	2	1	8	60.0	2	0	[]
5672	2	1	2	60.0	2	0	[]
5673	3	1	8	60.0	2	0	[]
5678	2	4	8	60.0	2	0	[]
5684	46	3	16	60.0	2	7	[(1416, 0), (1356, 0), (7217, 0), (737, 0), (7426, 0), (5490, 0), (577, 0)]
5686	3	6	8	60.0	2	0	[]
5704	2	1	8	60.0	2	0	[]
5714	1	1	8	60.0	2	0	[]
5718	4	1	8	60.0	2	1	[(3574, 2)]
5732	5	1	8	60.0	2	0	[]
5733	1	1	8	60.0	2	0	[]
5734	6	1	8	60.0	2	0	[]
5736	2	1	11	80.0	2	0	[]
5739	2	1	8	300.0	2	0	[]
5745	3	1	2	60.0	2	0	[]
5751	5	1	8	60.0	2	0	[]
5753	2	1	8	60.0	2	0	[]
5756	2	6	8	60.0	2	0	[]
5758	1	4	8	60.0	2	0	[]
5763	2	1	2	60.0	2	0	[]
5764	14	3	8	60.0	2	0	[]
5765	1	1	8	60.0	2	0	[]
5769	1	4	8	60.0	2	0	[]
5770	1	1	3	60.0	2	0	[]
5771	6	2	8	60.0	2	0	[]
5773	2	1	8	60.0	2	0	[]
5776	1	1	8	60.0	2	0	[]
5798	2	1	8	60.0	2	0	[]
5803	2	1	8	60.0	2	0	[]
5810	40	4	8	60.0	2	16	[(3355, 0), (3802, 1), (1325, 2), (2886, 0), (355, 0), (7304, 2), (8347, 2), (6919, 0), (995, 0), (149, 0), (290, 2), (1602, 0), (7610, 1), (4998, 0), (4941, 0), (6381, 1)]
5812	36	6	8	60.0	2	3	[(5861, 2), (3422, 1), (3196, 1)]
5815	2	1	4	60.0	2	0	[]
5818	2	1	8	60.0	2	0	[]
5826	6	1	8	60.0	2	1	[(7733, 2)]
5830	2	1	8	80.0	2	0	[]
5831	2	1	8	60.0	2	0	[]
5841	2	1	8	60.0	2	0	[]
5845	1	1	1	60.0	2	0	[]
5846	2	1	8	60.0	2	0	[]
5847	20	6	8	60.0	2	0	[]
5858	2	2	8	60.0	2	0	[]
5859	5	34	2	600.0	2	0	[]
5861	3	1	8	60.0	2	0	[]
5862	6	1	8	60.0	2	0	[]
5863	1	1	2	60.0	2	0	[]
5864	69	4	8	60.0	2	4	[(9174, 0), (4170, 0), (5585, 0), (3003, 2)]
5867	2	1	1	60.0	2	0	[]
5870	4	3	8	60.0	2	0	[]
5871	15	6	8	60.0	2	0	[]
5873	5	7	16	60.0	2	0	[]
5876	37	2	8	60.0	2	2	[(737, 2), (1646, 2)]
5882	5	14	96	300.0	2	0	[]
5887	1	2	16	100.0	2	0	[]
5895	1	1	1	60.0	2	0	[]
5896	2	1	2	60.0	2	2	[(6756, 0), (1515, 0)]
5898	3	1	8	60.0	2	0	[]
5906	2	1	8	60.0	2	0	[]
5911	1	4	8	60.0	2	0	[]
5915	3	1	8	60.0	2	0	[]
5920	1	1	4	60.0	2	0	[]
5923	2	1	8	60.0	2	0	[]
5936	1	1	3	60.0	2	0	[]
5941	1	1	1	60.0	2	0	[]
5947	1	2	8	60.0	2	0	[]
5949	1	1	8	60.0	2	0	[]
5951	2	1	8	60.0	2	0	[]
5953	3	2	8	60.0	2	0	[]
5955	2	2	8	60.0	2	0	[]
5958	6	2	2	60.0	2	17	[(4789, 0), (3422, 0), (3802, 0), (6067, 0), (7289, 0), (5264, 0), (3831, 0), (3892, 0), (685, 0), (3908, 0), (2828, 0), (2224, 0), (6161, 0), (2888, 0), (6381, 0), (2185, 0), (3327, 0)]
5960	1	1	2	60.0	2	0	[]
5963	3	1	6	60.0	2	0	[]
5968	3	1	8	60.0	2	0	[]
5969	2	1	6	60.0	2	0	[]
5973	1	1	3	60.0	2	0	[]
5990	1	1	2	60.0	2	0	[]
6001	1	1	8	60.0	2	0	[]
6003	5	1	8	40.0	2	0	[]
6006	2	1	8	60.0	2	0	[]
6007	20	2	16	80.0	2	0	[]
6008	2	1	8	60.0	2	0	[]
6011	16	2	8	60.0	2	1	[(7019, 2)]
6016	2	1	8	60.0	2	0	[]
6018	2	1	8	60.0	2	0	[]
6020	31	2	16	60.0	2	17	[(6814, 0), (2533, 0), (5307, 0), (658, 2), (3711, 0), (1506, 0), (6689, 0), (7452, 0), (6007, 0), (7262, 0), (7556, 0), (1356, 2), (7251, 1), (80, 0), (8607, 0), (5661, 0), (2138, 0)]
6029	2	1	8	60.0	2	0	[]
6030	1	1	8	60.0	2	0	[]
6038	6	6	8	60.0	2	1	[(7749, 0)]
6043	1	1	1	60.0	2	0	[]
6054	6	1	8	60.0	2	1	[(854, 2)]
6057	6	1	8	60.0	2	0	[]
6061	1	10	16	60.0	2	22	[(7626, 2), (3367, 2), (7716, 2), (7033, 2), (2739, 2), (8347, 2), (7217, 2), (7102, 2), (4221, 1), (3942, 2), (6381, 2), (4520, 2), (1637, 2), (2688, 2), (80, 2), (4550, 1), (3928, 2), (4048, 2), (737, 2), (8707, 2), (4630, 2), (4710, 2)]
6063	2	1	7	60.0	2	0	[]
6065	2	1	2	1000.0	2	0	[]
6067	17	3	8	60.0	2	0	[]
6068	1	1	8	60.0	2	0	[]
6079	2	4	8	60.0	2	0	[]
6083	1	4	8	60.0	2	0	[]
6085	9	1	8	60.0	2	0	[]
6090	2	1	1	60.0	2	0	[]
6096	2	1	2	60.0	2	0	[]
6109	8	1	8	80.0	2	0	[]
6118	2	2	8	60.0	2	0	[]
6119	2	1	8	60.0	2	0	[]
6121	2	1	8	60.0	2	0	[]
6122	40	6	8	60.0	2	1	[(7568, 2)]
6123	138	6	8	60.0	2	10	[(4337, 0), (3831, 1), (6919, 0), (3942, 1), (5810, 0), (4474, 0), (1362, 0), (80, 1), (5589, 2), (1781, 0)]
6129	10	2	8	60.0	2	0	[]
6135	1	1	8	60.0	2	0	[]
6139	40	12	16	100.0	0	2	[(1705, 0), (6827, 0)]
6141	4	1	8	60.0	2	0	[]
6142	1	1	1	60.0	2	0	[]
6143	3	1	8	60.0	2	0	[]
6145	10	5	8	60.0	2	0	[]
6147	4	3	8	60.0	2	0	[]
6150	5	1	8	60.0	2	1	[(5379, 2)]
6151	28	1	8	60.0	2	0	[]
6153	33	3	8	60.0	2	0	[]
6155	6	2	8	60.0	2	0	[]
6161	9	1	8	40.0	2	1	[(9264, 0)]
6166	2	1	8	60.0	2	0	[]
6173	2	1	8	60.0	2	0	[]
6174	2	4	8	60.0	2	0	[]
6175	1	4	8	60.0	2	0	[]
6180	7	3	8	60.0	2	0	[]
6187	3	1	8	60.0	2	0	[]
6189	2	1	8	60.0	2	0	[]
6193	1	1	1	60.0	2	0	[]
6196	5	2	8	60.0	2	0	[]
6197	3	1	8	60.0	2	0	[]
6198	1	1	8	60.0	2	0	[]
6200	2	1	1	60.0	2	0	[]
6201	6	1	8	60.0	2	0	[]
6204	1	1	8	60.0	2	0	[]
6210	2	2	8	60.0	2	0	[]
6211	5	1	8	60.0	2	0	[]
6212	5	1	8	60.0	2	0	[]
6215	2	1	8	60.0	2	0	[]
6236	1	4	8	60.0	2	0	[]
6237	5	1	8	60.0	2	0	[]
6238	2	1	8	60.0	2	0	[]
6241	2	3	8	60.0	2	0	[]
6246	5	1	8	60.0	2	0	[]
6252	1	1	8	60.0	2	0	[]
6261	1	8	16	80.0	2	0	[]
6262	2	1	8	60.0	2	0	[]
6263	1	1	3	60.0	2	0	[]
6276	4	1	8	60.0	2	0	[]
6279	1	4	8	60.0	2	0	[]
6283	6	12	2	200.0	2	4	[(2838, 2), (6118, 0), (322, 0), (7762, 0)]
6285	7	4	2	300.0	2	0	[]
6287	1	1	8	60.0	2	0	[]
6289	2	1	8	60.0	2	0	[]
6297	1	4	8	60.0	2	0	[]
6298	2	1	8	60.0	2	0	[]
6299	1	1	2	60.0	2	0	[]
6301	2	1	8	60.0	2	0	[]
6306	8	1	8	60.0	2	0	[]
6307	2	1	8	60.0	2	0	[]
6311	4	1	8	60.0	2	0	[]
6312	5	1	8	60.0	2	0	[]
6313	2	1	1	60.0	2	0	[]
6316	2	4	8	60.0	2	0	[]
6318	2	1	2	60.0	2	2	[(3544, 0), (1643, 0)]
6320	2	3	8	60.0	2	0	[]
6327	2	1	8	60.0	2	0	[]
6331	2	1	8	60.0	2	0	[]
6337	2	2	8	60.0	2	0	[]
6339	1	8	16	200.0	2	0	[]
6340	3	1	8	60.0	2	0	[]
6345	2	1	8	60.0	2	0	[]
6354	2	1	8	60.0	2	0	[]
6356	1	1	8	60.0	2	0	[]
6367	2	1	8	60.0	2	0	[]
6368	3	1	8	60.0	2	0	[]
6371	1	1	8	60.0	2	0	[]
6372	2	4	8	60.0	2	0	[]
6376	1	8	8	60.0	2	0	[]
6378	2	1	8	60.0	2	0	[]
6381	282	12	16	60.0	1	27	[(4520, 2), (4048, 2), (6061, 1), (3367, 2), (599, 0), (4550, 1), (3117, 1), (2739, 2), (80, 2), (737, 2), (4630, 2), (7626, 2), (3942, 0), (1356, 0), (7914, 0), (4221, 1), (1637, 2), (8977, 0), (7102, 2), (2688, 2), (3928, 2), (8707, 2), (7716, 2), (7033, 2), (8347, 2), (7217, 2), (4710, 2)]
6386	1	1	8	60.0	2	0	[]
6388	1	4	8	60.0	2	0	[]
6394	1	1	2	60.0	2	0	[]
6395	1	1	8	60.0	2	0	[]
6400	4	1	8	60.0	2	0	[]
6410	2	1	8	60.0	2	0	[]
6412	2	1	8	60.0	2	0	[]
6415	3	1	8	60.0	2	0	[]
6418	1	1	8	60.0	2	0	[]
6422	1	1	6	60.0	2	0	[]
6428	2	1	8	60.0	2	0	[]
6430	1	1	8	60.0	2	0	[]
6435	1	1	1	60.0	2	0	[]
6438	1	1	8	60.0	2	0	[]
6440	2	1	8	60.0	2	0	[]
6442	20	2	8	60.0	2	4	[(4085, 0), (6911, 1), (8554, 1), (2891, 2)]
6451	2	1	8	60.0	2	0	[]
6457	2	1	3	60.0	2	0	[]
6465	1	4	8	60.0	2	0	[]
6466	4	6	8	60.0	2	0	[]
6478	7	2	8	60.0	2	1	[(9074, 2)]
6481	5	2	8	60.0	2	0	[]
6486	15	4	8	60.0	2	1	[(6811, 1)]
6490	3	1	8	60.0	3	1	[(147, 3)]
6492	2	1	8	60.0	2	0	[]
6497	1	1	8	60.0	2	0	[]
6498	1	1	2	60.0	2	0	[]
6509	1	3	2	60.0	2	4	[(3316, 0), (774, 0), (3286, 0), (147, 0)]
6510	4	2	8	60.0	2	0	[]
6515	3	1	3	60.0	2	0	[]
6516	2	1	8	60.0	2	0	[]
6521	3	1	8	60.0	2	0	[]
6522	1	4	10	60.0	2	0	[]
6523	2	1	8	60.0	2	0	[]
6524	1	1	8	60.0	2	0	[]
6528	1	5	8	60.0	2	0	[]
6537	1	1	8	60.0	2	0	[]
6538	2	1	8	60.0	2	0	[]
6540	2	1	8	60.0	2	0	[]
6542	1	1	1	40.0	0	0	[]
6547	1	1	8	60.0	2	0	[]
6549	2	1	8	60.0	2	0	[]
6555	2	4	8	80.0	2	0	[]
6561	5	6	8	60.0	2	0	[]
6567	1	5	8	60.0	2	0	[]
6577	1	1	8	60.0	2	0	[]
6585	2	1	2	60.0	2	0	[]
6587	3	2	8	60.0	2	0	[]
6588	1	1	8	60.0	2	0	[]
6589	2	1	8	60.0	2	0	[]
6590	7	8	16	80.0	2	0	[]
6595	8	2	8	60.0	2	0	[]
6596	2	2	8	60.0	2	0	[]
6602	2	1	2	60.0	2	3	[(9195, 2), (3930, 2), (8690, 2)]
6606	1	3	8	60.0	2	0	[]
6617	2	1	3	60.0	2	0	[]
6622	13	3	8	60.0	2	0	[]
6625	2	1	8	60.0	2	0	[]
6626	24	6	8	60.0	2	1	[(4812, 1)]
6629	3	1	8	60.0	2	0	[]
6634	2	1	2	60.0	2	0	[]
6637	1	1	8	60.0	2	0	[]
6638	2	1	8	60.0	2	0	[]
6642	1	1	8	60.0	2	0	[]
6645	2	1	8	60.0	2	0	[]
6646	2	2	8	60.0	2	0	[]
6647	4	2	8	60.0	2	0	[]
6651	2	1	8	40.0	2	0	[]
6656	6	2	8	60.0	2	0	[]
6671	1	1	2	60.0	2	0	[]
6674	2	1	8	60.0	2	0	[]
6676	1	1	16	150.0	2	0	[]
6678	2	1	6	60.0	2	0	[]
6679	2	1	2	60.0	2	0	[]
6685	1	2	4	60.0	2	0	[]
6689	6	2	8	60.0	2	1	[(7733, 2)]
6690	2	4	16	80.0	2	0	[]
6692	28	12	16	100.0	2	5	[(3015, 2), (6642, 2), (6415, 1), (5841, 1), (470, 0)]
6698	1	1	1	60.0	2	0	[]
6702	1	4	8	60.0	2	0	[]
6707	3	1	7	60.0	2	0	[]
6708	2	36	48	300.0	2	0	[]
6712	1	1	8	60.0	2	0	[]
6713	1	1	8	60.0	2	0	[]
6716	2	1	8	60.0	2	0	[]
6717	1	1	8	60.0	2	0	[]
6719	9	1	8	60.0	2	0	[]
6720	2	1	8	60.0	2	0	[]
6723	13	5	8	60.0	2	3	[(80, 2), (7002, 0), (355, 0)]
6727	1	4	8	60.0	2	0	[]
6736	56	3	8	60.0	2	7	[(3802, 2), (5294, 2), (7217, 1), (9216, 1), (8824, 1), (3691, 1), (854, 1)]
6737	3	1	8	60.0	2	0	[]
6744	31	3	8	60.0	2	1	[(3634, 0)]
6747	1	1	8	40.0	2	0	[]
6749	2	4	8	60.0	2	0	[]
6750	21	4	8	40.0	2	5	[(80, 0), (4048, 0), (7217, 0), (1356, 0), (6381, 0)]
6752	1	1	7	40.0	2	0	[]
6754	2	1	8	60.0	2	0	[]
6755	2	1	8	60.0	2	0	[]
6756	4	1	8	60.0	2	0	[]
6759	2	4	8	60.0	2	0	[]
6760	3	3	8	60.0	2	1	[(8850, 1)]
6761	1	1	8	60.0	2	0	[]
6763	4	1	6	60.0	2	0	[]
6764	2	3	8	60.0	2	0	[]
6768	4	1	8	60.0	2	0	[]
6774	3	1	8	60.0	2	0	[]
6777	1	1	8	60.0	2	0	[]
6782	1	1	8	60.0	2	0	[]
6787	3	1	8	60.0	2	0	[]
6793	1	1	16	60.0	2	0	[]
6794	5	2	8	60.0	2	0	[]
6795	2	1	2	60.0	2	0	[]
6802	1	1	8	60.0	2	0	[]
6805	2	1	8	60.0	2	4	[(6911, 0), (4048, 0), (1447, 0), (3590, 0)]
6811	1	1	2	60.0	2	0	[]
6812	1	1	8	60.0	2	0	[]
6813	1	1	1	60.0	2	0	[]
6814	4	1	5	60.0	2	13	[(2533, 0), (5307, 0), (3711, 0), (2138, 0), (1506, 0), (6689, 0), (7452, 0), (6007, 0), (7262, 0), (7556, 0), (8607, 0), (5661, 0), (6020, 0)]
6817	5	1	2	60.0	2	0	[]
6819	2	1	2	60.0	2	0	[]
6824	2	2	8	60.0	2	0	[]
6827	21	3	16	60.0	2	1	[(6139, 0)]
6828	3	1	8	60.0	2	0	[]
6829	2	1	8	60.0	2	0	[]
6830	1	1	8	40.0	2	0	[]
6833	2	2	8	60.0	2	0	[]
6834	5	1	8	80.0	2	0	[]
6841	5	2	8	60.0	2	0	[]
6843	7	1	8	60.0	2	0	[]
6847	2	1	2	60.0	2	0	[]
6849	1	1	8	60.0	2	0	[]
6851	2	1	8	60.0	2	0	[]
6857	2	1	8	60.0	2	0	[]
6867	3	1	8	60.0	2	0	[]
6869	2	2	8	60.0	2	0	[]
6877	2	1	1	60.0	2	0	[]
6880	75	2	8	40.0	2	5	[(8347, 2), (4048, 1), (7426, 0), (8767, 2), (1356, 2)]
6881	3	1	8	60.0	2	0	[]
6882	2	1	1	60.0	2	0	[]
6883	20	5	8	60.0	2	0	[]
6886	2	1	8	60.0	2	0	[]
6888	1	1	8	60.0	2	0	[]
6891	1	1	8	60.0	2	0	[]
6893	2	1	7	60.0	2	0	[]
6895	6	1	8	60.0	2	0	[]
6898	2	1	8	60.0	2	0	[]
6899	1	3	8	60.0	2	0	[]
6908	2	1	8	60.0	2	0	[]
6911	275	6	8	60.0	2	7	[(9049, 0), (2886, 0), (5264, 0), (1356, 0), (1602, 0), (8767, 0), (1654, 0)]
6912	8	2	2	60.0	2	0	[]
6913	4	6	6	60.0	2	0	[]
6917	2	1	8	60.0	2	0	[]
6919	1	1	8	60.0	2	0	[]
6928	4	1	8	60.0	2	0	[]
6932	1	1	8	60.0	2	0	[]
6935	12	1	8	100.0	2	0	[]
6936	9	12	16	60.0	0	0	[]
6941	4	2	8	60.0	2	0	[]
6942	7	1	8	60.0	2	0	[]
6945	2	1	8	60.0	2	0	[]
6969	1	1	8	60.0	2	0	[]
6974	2	1	8	60.0	2	0	[]
6975	2	4	8	60.0	2	0	[]
6977	1	1	8	60.0	2	0	[]
6978	1	2	8	60.0	2	0	[]
6983	2	1	8	60.0	2	0	[]
6987	2	12	32	200.0	2	0	[]
6991	25	2	8	100.0	2	1	[(280, 2)]
6992	6	8	48	300.0	2	2	[(5657, 0), (8554, 2)]
6995	1	1	4	60.0	2	0	[]
6997	2	1	2	60.0	2	0	[]
7002	2	1	8	60.0	2	0	[]
7003	1	1	2	60.0	2	0	[]
7007	16	3	8	60.0	2	0	[]
7015	2	1	1	60.0	2	0	[]
7019	3	6	8	60.0	2	0	[]
7021	2	1	1	60.0	2	0	[]
7033	1	1	32	60.0	2	17	[(7626, 2), (2739, 1), (6061, 1), (3942, 2), (8347, 2), (7217, 2), (3117, 1), (4221, 1), (6381, 2), (4520, 2), (1637, 1), (80, 2), (4550, 1), (4048, 2), (8707, 2), (4630, 2), (4710, 2)]
7036	2	2	5	60.0	2	0	[]
7038	2	3	8	60.0	2	0	[]
7042	2	1	8	60.0	2	0	[]
7051	1	1	1	60.0	2	0	[]
7052	8	4	8	60.0	2	2	[(1742, 2), (7366, 2)]
7056	1	1	8	60.0	2	0	[]
7087	25	4	2	200.0	2	8	[(7206, 1), (1975, 0), (3731, 2), (725, 2), (310, 1), (5271, 2), (3295, 1), (7959, 2)]
7088	2	1	2	60.0	2	0	[]
7091	10	2	8	60.0	2	0	[]
7094	1	1	8	60.0	2	0	[]
7099	1	1	8	60.0	2	0	[]
7102	69	7	32	60.0	2	20	[(7626, 2), (6061, 1), (2739, 1), (5264, 0), (3942, 2), (4667, 0), (8347, 2), (7217, 2), (3117, 1), (4221, 1), (6381, 2), (4520, 2), (1637, 1), (1781, 0), (80, 2), (4550, 1), (4048, 2), (8707, 2), (4630, 2), (4710, 2)]
7105	1	1	8	60.0	2	0	[]
7109	4	1	8	60.0	2	0	[]
7110	1	1	8	60.0	2	0	[]
7114	15	6	8	60.0	2	0	[]
7118	4	1	8	60.0	2	0	[]
7123	2	6	8	60.0	2	0	[]
7125	9	2	8	60.0	2	0	[]
7131	1	4	8	60.0	2	0	[]
7134	2	2	8	60.0	2	0	[]
7142	2	1	5	60.0	2	1	[(5876, 0)]
7149	1	4	8	60.0	2	0	[]
7156	3	1	1	60.0	2	0	[]
7157	3	1	8	60.0	2	0	[]
7158	7	2	8	60.0	2	2	[(8412, 2), (8036, 2)]
7161	1	1	2	60.0	2	0	[]
7166	2	1	8	60.0	2	0	[]
7179	2	1	8	60.0	2	0	[]
7183	1	2	8	40.0	2	0	[]
7184	20	2	16	150.0	2	0	[]
7188	1	1	8	60.0	2	0	[]
7191	2	1	8	60.0	2	0	[]
7195	2	1	8	60.0	2	0	[]
7205	1	1	8	60.0	2	1	[(6975, 2)]
7206	20	1	8	60.0	2	0	[]
7207	1	1	8	60.0	2	0	[]
7215	2	4	8	60.0	2	0	[]
7217	85	12	16	60.0	2	21	[(7626, 2), (3367, 2), (7716, 2), (7033, 2), (4667, 0), (3942, 2), (8347, 2), (7309, 0), (6381, 3), (1356, 0), (1637, 2), (9264, 0), (2739, 2), (7102, 2), (2688, 2), (3928, 2), (4048, 2), (188, 0), (737, 2), (4630, 2), (2621, 0)]
7220	1	4	8	60.0	2	0	[]
7225	4	4	8	60.0	2	0	[]
7227	1	4	8	60.0	2	0	[]
7231	1	1	4	60.0	2	0	[]
7236	7	1	8	60.0	2	0	[]
7241	1	1	8	60.0	2	0	[]
7251	2	1	8	60.0	2	0	[]
7253	2	1	8	60.0	2	0	[]
7257	2	1	8	60.0	2	0	[]
7262	2	1	8	60.0	2	0	[]
7269	1	1	2	60.0	2	0	[]
7276	2	1	8	60.0	2	1	[(4998, 0)]
7281	1	8	16	80.0	2	0	[]
7282	3	2	8	60.0	2	0	[]
7285	1	1	8	60.0	2	0	[]
7287	3	2	8	60.0	2	0	[]
7288	2	1	2	60.0	2	0	[]
7289	5	2	8	60.0	2	0	[]
7296	1	1	2	60.0	2	0	[]
7298	2	1	8	60.0	2	0	[]
7300	1	1	8	60.0	2	0	[]
7303	2	2	8	60.0	2	0	[]
7304	17	6	8	60.0	2	0	[]
7306	1	4	8	60.0	2	0	[]
7307	1	1	1	60.0	2	0	[]
7308	1	1	2	60.0	2	0	[]
7309	87	5	8	40.0	0	6	[(80, 2), (4231, 0), (7426, 0), (4517, 0), (7217, 0), (1356, 0)]
7310	3	1	8	80.0	2	0	[]
7316	3	1	8	60.0	2	0	[]
7322	6	6	8	60.0	2	0	[]
7324	1	1	2	60.0	2	0	[]
7333	12	2	8	60.0	2	18	[(1416, 2), (3574, 0), (4048, 0), (7733, 2), (4965, 1), (6622, 1), (3002, 2), (4998, 2), (1447, 1), (3987, 2), (4221, 2), (1059, 1), (6381, 1), (3802, 1), (1777, 2), (2797, 0), (80, 0), (7217, 0)]
7335	1	2	8	60.0	2	0	[]
7340	1	1	1	60.0	2	0	[]
7346	1	1	8	60.0	2	0	[]
7349	1	1	1	60.0	2	0	[]
7350	3	1	8	60.0	2	0	[]
7357	2	1	8	60.0	2	0	[]
7366	4	1	2	60.0	2	0	[]
7369	54	6	8	60.0	2	0	[]
7373	2	1	8	60.0	2	0	[]
7375	2	1	3	60.0	2	0	[]
7380	2	1	8	60.0	2	0	[]
7386	5	1	8	60.0	2	0	[]
7388	2	1	7	60.0	2	0	[]
7395	2	1	8	60.0	2	0	[]
7396	3	2	8	60.0	2	0	[]
7398	1	1	8	60.0	2	0	[]
7399	3	2	2	60.0	2	0	[]
7409	1	1	1	60.0	2	0	[]
7414	31	3	8	60.0	2	0	[]
7418	2	1	8	60.0	2	0	[]
7424	1	1	8	60.0	2	0	[]
7426	74	12	16	100.0	1	11	[(5366, 2), (4337, 0), (28, 0), (7217, 0), (6880, 0), (3802, 0), (7874, 1), (7457, 2), (6261, 0), (4257, 1), (1781, 0)]
7427	1	2	8	60.0	2	0	[]
7432	1	4	8	60.0	2	0	[]
7434	2	1	8	60.0	2	0	[]
7435	1	2	8	60.0	2	0	[]
7446	5	3	8	60.0	2	19	[(1373, 0), (6587, 1), (642, 0), (1163, 0), (4231, 0), (636, 0), (3346, 0), (5798, 0), (8529, 0), (4085, 0), (5810, 0), (4398, 0), (3747, 0), (3359, 0), (7282, 0), (8149, 0), (8634, 0), (5507, 0), (3094, 0)]
7450	1	1	1	60.0	2	0	[]
7451	1	4	8	60.0	2	0	[]
7452	2	1	8	60.0	2	13	[(6814, 0), (2533, 0), (5307, 0), (3711, 0), (2138, 0), (1506, 0), (6689, 0), (6007, 0), (7262, 0), (7556, 0), (8607, 0), (5661, 0), (6020, 0)]
7457	5	1	8	60.0	2	0	[]
7459	3	1	8	60.0	2	0	[]
7460	2	1	8	60.0	2	0	[]
7463	3	1	8	60.0	2	0	[]
7469	3	1	8	60.0	2	0	[]
7472	2	1	8	60.0	2	0	[]
7474	2	1	8	60.0	2	0	[]
7479	2	6	8	60.0	2	0	[]
7480	5	4	8	60.0	2	0	[]
7483	1	1	8	60.0	2	0	[]
7491	2	1	8	80.0	2	0	[]
7496	1	1	6	60.0	2	0	[]
7501	1	4	8	60.0	2	0	[]
7504	17	4	8	60.0	2	3	[(7887, 2), (5605, 2), (4581, 2)]
7508	2	6	6	60.0	2	1	[(147, 0)]
7510	3	1	4	60.0	2	1	[(80, 2)]
7519	2	1	3	60.0	2	0	[]
7522	11	3	8	60.0	2	0	[]
7523	2	1	8	60.0	2	0	[]
7525	1	1	2	60.0	2	0	[]
7531	7	7	16	80.0	2	1	[(4941, 0)]
7541	3	1	8	60.0	2	0	[]
7543	3	1	8	60.0	2	0	[]
7552	2	1	8	60.0	2	0	[]
7554	4	1	8	60.0	2	0	[]
7556	2	1	8	60.0	2	0	[]
7558	2	1	8	60.0	2	0	[]
7561	2	1	8	60.0	2	0	[]
7564	5	3	8	60.0	2	0	[]
7565	1	1	8	60.0	2	0	[]
7568	13	1	8	60.0	2	0	[]
7569	11	3	8	60.0	2	0	[]
7571	5	9	16	150.0	2	0	[]
7576	28	6	8	60.0	2	1	[(5798, 1)]
7581	3	1	8	60.0	2	0	[]
7584	2	2	8	60.0	2	0	[]
7591	4	1	8	60.0	2	0	[]
7592	2	1	8	60.0	2	0	[]
7595	1	1	8	60.0	2	0	[]
7607	2	1	8	60.0	2	0	[]
7610	1	1	8	60.0	2	0	[]
7611	1	11	128	600.0	2	0	[]
7618	1	1	2	200.0	2	0	[]
7619	7	1	8	60.0	2	1	[(5063, 0)]
7626	1	4	32	100.0	2	19	[(3367, 2), (7716, 2), (7033, 2), (2739, 1), (6061, 1), (7217, 2), (3117, 1), (7102, 2), (4221, 1), (6381, 2), (4520, 2), (1637, 1), (2688, 2), (80, 2), (4550, 1), (3928, 2), (737, 2), (8707, 2), (4710, 2)]
7630	2	1	8	60.0	2	0	[]
7632	2	1	2	60.0	2	0	[]
7635	2	2	8	60.0	2	0	[]
7642	2	1	8	60.0	2	0	[]
7646	1	1	8	60.0	2	0	[]
7649	6	2	16	60.0	2	0	[]
7651	17	2	8	500.0	2	2	[(9249, 1), (5559, 1)]
7654	1	1	1	60.0	2	0	[]
7655	3	1	8	60.0	2	1	[(4397, 0)]
7657	2	4	8	60.0	2	0	[]
7659	3	1	8	60.0	2	0	[]
7662	2	4	8	60.0	2	0	[]
7664	1	1	8	60.0	2	0	[]
7669	2	1	8	60.0	2	0	[]
7672	2	1	8	60.0	2	1	[(580, 2)]
7680	2	2	8	60.0	2	0	[]
7681	1	1	8	60.0	2	0	[]
7682	1	1	8	60.0	2	0	[]
7684	2	1	8	60.0	2	0	[]
7688	2	1	8	60.0	2	0	[]
7709	4	2	8	60.0	2	0	[]
7711	2	1	1	60.0	2	0	[]
7712	2	1	8	60.0	2	0	[]
7714	2	1	8	60.0	2	0	[]
7716	4	3	32	60.0	2	17	[(7626, 2), (6061, 1), (2739, 1), (3942, 2), (8347, 2), (7217, 2), (3117, 1), (4221, 1), (6381, 2), (4520, 2), (1637, 1), (80, 2), (4550, 1), (4048, 2), (8707, 2), (4630, 2), (4710, 2)]
7717	1	4	8	60.0	2	0	[]
7718	2	1	2	60.0	2	0	[]
7722	1	1	16	100.0	2	0	[]
7728	1	1	8	60.0	2	0	[]
7730	2	1	8	60.0	2	0	[]
7732	6	2	8	60.0	2	0	[]
7733	401	6	8	60.0	2	6	[(9049, 0), (8194, 0), (4801, 0), (8767, 0), (8756, 0), (1781, 0)]
7741	2	1	8	60.0	2	0	[]
7743	2	1	8	60.0	2	0	[]
7749	2	1	8	60.0	2	0	[]
7755	1	1	8	60.0	2	0	[]
7757	2	1	8	60.0	2	0	[]
7759	3	1	8	60.0	2	0	[]
7762	3	1	8	60.0	2	0	[]
7769	1	1	8	60.0	2	0	[]
7774	2	1	8	60.0	2	0	[]
7775	2	1	8	60.0	2	0	[]
7777	2	1	16	200.0	2	0	[]
7778	21	2	16	60.0	2	0	[]
7783	6	2	8	60.0	2	0	[]
7786	2	4	8	60.0	2	0	[]
7787	1	1	16	60.0	2	0	[]
7797	10	2	8	60.0	2	0	[]
7803	2	2	8	60.0	2	0	[]
7805	25	2	8	60.0	2	0	[]
7806	2	1	6	60.0	2	0	[]
7809	8	1	8	60.0	2	0	[]
7812	2	1	8	60.0	2	0	[]
7813	7	4	16	100.0	2	0	[]
7817	1	1	8	60.0	2	0	[]
7820	1	4	8	60.0	2	0	[]
7821	1	1	8	60.0	2	0	[]
7825	19	3	8	60.0	2	0	[]
7829	2	1	8	60.0	2	0	[]
7832	3	2	8	60.0	2	0	[]
7838	1	1	8	60.0	2	0	[]
7840	2	1	8	60.0	2	0	[]
7842	3	2	8	60.0	2	1	[(570, 2)]
7844	3	2	8	60.0	2	0	[]
7849	1	1	8	60.0	2	0	[]
7852	1	2	8	60.0	2	0	[]
7853	22	1	8	60.0	2	3	[(1708, 0), (7820, 2), (3971, 1)]
7860	1	1	8	40.0	0	0	[]
7867	2	1	7	60.0	2	0	[]
7869	5	1	8	60.0	2	0	[]
7874	20	6	8	100.0	2	2	[(6139, 2), (3468, 2)]
7875	2	4	8	60.0	2	0	[]
7879	3	2	8	60.0	2	0	[]
7880	49	6	8	60.0	2	0	[]
7884	1	1	1	60.0	2	0	[]
7887	16	2	8	60.0	2	2	[(7741, 0), (5847, 0)]
7891	3	1	8	100.0	2	0	[]
7895	2	2	2	60.0	2	0	[]
7900	2	1	2	60.0	2	0	[]
7904	2	1	8	60.0	2	0	[]
7914	4	1	8	60.0	2	1	[(6381, 0)]
7919	27	4	8	60.0	2	3	[(5616, 2), (3778, 0), (8645, 2)]
7921	2	2	8	60.0	2	0	[]
7927	6	1	8	60.0	2	1	[(6622, 1)]
7929	1	1	8	60.0	2	0	[]
7936	2	1	8	60.0	2	1	[(3904, 2)]
7940	4	1	8	60.0	2	0	[]
7956	6	1	8	60.0	2	2	[(5522, 2), (7887, 0)]
7959	7	6	8	60.0	2	7	[(6180, 0), (7457, 0), (3878, 0), (8300, 0), (4505, 1), (7276, 0), (1841, 0)]
7963	90	2	8	60.0	2	6	[(7019, 1), (1884, 0), (8155, 2), (8347, 0), (3422, 2), (8120, 2)]
7970	30	1	8	40.0	2	4	[(8062, 2), (7426, 0), (4667, 0), (6381, 2)]
7981	3	8	16	200.0	2	0	[]
7991	2	1	8	60.0	2	0	[]
7992	4	1	8	60.0	2	0	[]
7995	6	1	8	60.0	2	0	[]
7999	1	1	8	60.0	2	0	[]
8004	2	1	8	60.0	2	0	[]
8011	3	1	8	60.0	2	0	[]
8014	10	1	8	60.0	2	6	[(2888, 0), (401, 0), (8270, 1), (8767, 2), (397, 0), (4268, 2)]
8020	1	3	8	60.0	2	0	[]
8022	2	1	2	60.0	2	0	[]
8031	2	1	8	60.0	2	0	[]
8034	2	1	2	60.0	2	0	[]
8036	2	1	8	60.0	2	0	[]
8039	1	1	1	60.0	2	0	[]
8056	2	1	8	60.0	2	0	[]
8060	2	1	8	500.0	2	0	[]
8062	1	1	8	60.0	2	0	[]
8064	2	1	8	60.0	2	0	[]
8066	1	2	8	60.0	2	0	[]
8070	4	1	8	60.0	2	0	[]
8072	4	1	8	60.0	2	0	[]
8073	6	2	8	60.0	2	0	[]
8083	1	1	8	80.0	2	0	[]
8092	1	4	8	60.0	2	0	[]
8093	1	1	2	60.0	2	0	[]
8095	5	1	8	60.0	2	0	[]
8096	1	4	8	60.0	2	0	[]
8097	2	2	8	60.0	2	0	[]
8099	4	1	8	60.0	2	0	[]
8104	3	1	8	60.0	2	0	[]
8109	3	1	8	60.0	2	0	[]
8112	12	1	2	60.0	2	0	[]
8113	4	1	16	100.0	2	1	[(3355, 1)]
8120	2	1	8	60.0	2	0	[]
8122	10	1	2	60.0	2	1	[(8723, 1)]
8128	4	3	8	60.0	2	0	[]
8129	10	6	8	60.0	2	0	[]
8131	5	2	8	60.0	2	2	[(4202, 1), (3682, 0)]
8143	2	1	2	60.0	2	0	[]
8144	103	6	8	60.0	2	2	[(4170, 1), (4811, 0)]
8149	4	1	4	60.0	2	0	[]
8152	5	1	8	60.0	2	0	[]
8155	18	4	8	60.0	2	0	[]
8157	1	1	8	60.0	2	0	[]
8158	2	4	8	60.0	2	0	[]
8165	4	1	4	60.0	2	0	[]
8172	26	4	8	60.0	2	0	[]
8175	1	1	8	500.0	2	0	[]
8176	2	1	8	60.0	2	0	[]
8178	1	2	8	40.0	0	0	[]
8180	3	1	8	60.0	2	0	[]
8182	2	1	1	60.0	2	0	[]
8184	1	1	8	60.0	2	0	[]
8185	3	1	8	60.0	2	0	[]
8186	2	1	8	60.0	2	0	[]
8187	2	1	8	60.0	2	0	[]
8192	1	3	3	60.0	2	0	[]
8193	1	1	2	60.0	2	0	[]
8194	18	2	8	60.0	2	0	[]
8196	2	1	8	60.0	2	0	[]
8198	4	2	8	60.0	2	1	[(6723, 1)]
8207	3	1	8	60.0	2	0	[]
8208	6	1	8	60.0	2	0	[]
8213	2	1	8	100.0	2	0	[]
8219	4	1	8	60.0	2	0	[]
8224	1	1	8	60.0	2	0	[]
8231	3	1	8	60.0	2	0	[]
8235	3	1	8	60.0	2	0	[]
8239	2	1	8	60.0	2	0	[]
8241	4	5	8	60.0	2	0	[]
8253	12	2	8	60.0	2	0	[]
8257	2	1	8	60.0	2	0	[]
8260	6	6	8	100.0	2	0	[]
8265	5	5	8	60.0	2	0	[]
8269	1	1	8	60.0	2	0	[]
8270	6	1	7	60.0	2	1	[(854, 0)]
8271	2	1	2	60.0	2	0	[]
8273	11	1	2	60.0	2	1	[(4048, 0)]
8274	3	1	2	60.0	2	0	[]
8275	1	8	16	200.0	2	0	[]
8276	11	6	8	100.0	2	0	[]
8278	3	3	7	60.0	2	0	[]
8280	2	1	2	60.0	2	0	[]
8283	2	1	8	60.0	2	0	[]
8287	18	3	8	40.0	2	2	[(6261, 1), (2185, 0)]
8295	1	1	2	60.0	2	0	[]
8296	2	1	8	60.0	2	0	[]
8300	6	3	8	60.0	2	0	[]
8307	1	1	16	60.0	2	0	[]
8308	3	2	8	60.0	2	1	[(1906, 2)]
8313	10	1	8	60.0	2	2	[(8131, 0), (4202, 0)]
8315	8	1	8	60.0	2	0	[]
8316	2	1	18	100.0	2	0	[]
8319	2	1	8	60.0	2	1	[(2125, 2)]
8321	2	5	8	60.0	2	0	[]
8333	10	2	16	80.0	2	1	[(27, 0)]
8339	4	6	8	60.0	2	0	[]
8343	26	1	8	80.0	2	0	[]
8345	2	1	8	60.0	2	0	[]
8347	24	12	32	100.0	2	23	[(6061, 1), (3367, 2), (7716, 2), (7033, 2), (2739, 1), (7217, 2), (3117, 1), (4221, 1), (4581, 0), (6381, 2), (4520, 2), (1637, 1), (7963, 0), (8144, 0), (7102, 2), (2688, 2), (80, 2), (4550, 1), (3928, 2), (737, 2), (8707, 2), (312, 0), (4710, 2)]
8350	1	4	8	60.0	2	0	[]
8353	4	1	3	60.0	2	0	[]
8356	2	1	8	60.0	2	0	[]
8357	3	1	8	60.0	2	0	[]
8361	2	2	16	200.0	2	0	[]
8362	2	2	8	60.0	2	0	[]
8366	4	1	16	60.0	2	0	[]
8367	3	1	8	60.0	2	0	[]
8369	2	1	8	60.0	2	0	[]
8373	1	2	8	60.0	2	0	[]
8375	5	1	8	60.0	2	0	[]
8377	2	1	8	60.0	2	0	[]
8378	6	1	2	60.0	2	0	[]
8382	1	1	2	60.0	2	0	[]
8385	2	5	8	60.0	2	2	[(80, 2), (7732, 0)]
8388	2	1	8	60.0	2	0	[]
8390	1	1	8	60.0	2	0	[]
8394	2	1	5	60.0	2	0	[]
8395	2	1	8	60.0	2	0	[]
8396	3	1	8	60.0	2	0	[]
8401	1	1	8	60.0	2	0	[]
8403	2	4	8	60.0	2	0	[]
8408	4	1	8	60.0	2	0	[]
8410	9	2	8	60.0	2	0	[]
8412	31	3	8	60.0	2	5	[(80, 1), (4231, 0), (5366, 0), (1356, 0), (2621, 0)]
8414	5	3	8	60.0	2	0	[]
8421	1	4	8	60.0	2	0	[]
8427	2	1	6	60.0	2	0	[]
8431	1	1	8	60.0	2	0	[]
8432	2	1	8	60.0	2	0	[]
8435	6	1	8	60.0	2	0	[]
8443	6	6	7	60.0	2	0	[]
8444	3	1	8	60.0	2	0	[]
8447	1	1	8	60.0	2	0	[]
8449	1	2	8	60.0	2	0	[]
8450	1	1	2	60.0	2	0	[]
8453	9	1	8	60.0	2	0	[]
8456	1	1	8	60.0	2	0	[]
8458	1	1	8	60.0	2	0	[]
8460	13	2	8	60.0	2	0	[]
8462	2	1	6	60.0	2	0	[]
8464	2	1	8	60.0	2	0	[]
8468	1	1	8	60.0	2	0	[]
8470	5	1	8	60.0	2	0	[]
8471	2	1	8	60.0	2	0	[]
8474	1	4	8	60.0	2	0	[]
8483	5	1	16	60.0	2	0	[]
8484	8	2	8	60.0	2	0	[]
8486	4	1	8	60.0	2	1	[(8767, 1)]
8491	4	1	8	60.0	2	0	[]
8492	2	1	8	60.0	2	0	[]
8500	28	4	8	40.0	0	2	[(1356, 0), (1059, 2)]
8502	6	2	8	60.0	2	0	[]
8503	4	6	8	60.0	2	0	[]
8507	4	5	8	60.0	2	0	[]
8513	2	1	8	60.0	2	0	[]
8514	2	1	7	60.0	2	0	[]
8516	1	1	1	60.0	2	0	[]
8517	4	1	8	60.0	2	0	[]
8521	2	1	8	60.0	2	0	[]
8525	1	4	8	60.0	2	0	[]
8526	2	1	8	60.0	2	0	[]
8529	31	4	8	60.0	2	1	[(2134, 0)]
8530	2	1	8	60.0	2	0	[]
8538	3	1	8	60.0	2	0	[]
8539	3	2	8	60.0	2	0	[]
8541	3	2	8	60.0	2	0	[]
8542	3	2	8	60.0	2	0	[]
8543	7	1	8	60.0	2	0	[]
8544	2	2	8	60.0	2	0	[]
8546	2	1	8	60.0	2	0	[]
8549	3	1	2	60.0	2	0	[]
8554	128	6	8	60.0	0	2	[(3437, 0), (5095, 0)]
8557	1	1	8	60.0	2	0	[]
8558	11	2	8	60.0	2	0	[]
8561	1	1	2	60.0	2	0	[]
8566	5	3	8	60.0	2	0	[]
8572	1	1	8	60.0	2	0	[]
8574	4	1	8	60.0	2	0	[]
8575	2	1	8	60.0	2	0	[]
8576	1	6	8	60.0	2	0	[]
8582	14	24	32	80.0	2	0	[]
8585	2	1	4	60.0	2	0	[]
8594	2	1	8	60.0	2	0	[]
8595	1	1	8	60.0	2	0	[]
8597	1	1	8	60.0	2	0	[]
8607	2	1	2	60.0	2	1	[(580, 2)]
8609	2	1	6	60.0	2	0	[]
8611	1	4	8	60.0	2	0	[]
8613	2	1	8	60.0	2	0	[]
8614	1	8	16	200.0	2	0	[]
8617	2	4	8	60.0	2	0	[]
8618	23	1	8	60.0	2	0	[]
8621	1	1	8	60.0	2	8	[(3908, 0), (9222, 0), (9318, 0), (194, 0), (9029, 0), (6824, 0), (8851, 0), (5240, 0)]
8627	1	1	1	60.0	2	0	[]
8628	2	2	8	60.0	2	0	[]
8633	2	1	2	60.0	2	0	[]
8634	26	2	8	60.0	2	0	[]
8635	2	1	8	60.0	2	0	[]
8644	2	4	8	60.0	2	0	[]
8645	1	1	2	60.0	2	0	[]
8647	4	1	1	60.0	2	0	[]
8650	1	1	1	60.0	2	0	[]
8654	1	1	8	60.0	2	0	[]
8656	3	2	8	60.0	2	0	[]
8657	1	1	16	60.0	2	0	[]
8659	1	2	8	60.0	2	0	[]
8663	4	2	8	60.0	2	0	[]
8669	41	4	16	60.0	2	6	[(7257, 0), (1841, 0), (6626, 0), (3286, 1), (2048, 0), (415, 1)]
8671	7	1	8	60.0	2	0	[]
8674	1	2	16	40.0	2	0	[]
8680	12	1	8	60.0	2	0	[]
8684	13	2	8	60.0	2	0	[]
8687	2	1	8	60.0	2	0	[]
8690	2	1	2	60.0	2	0	[]
8693	1	1	2	60.0	2	0	[]
8694	1	1	2	60.0	2	0	[]
8698	18	3	8	40.0	2	2	[(6201, 1), (6622, 1)]
8702	2	1	7	60.0	2	0	[]
8705	3	2	8	60.0	2	0	[]
8707	1	6	16	60.0	2	15	[(7626, 2), (3367, 2), (7716, 2), (7033, 2), (3942, 2), (8347, 2), (6381, 3), (1637, 2), (2739, 2), (7102, 2), (2688, 2), (3928, 2), (4048, 2), (737, 2), (4630, 2)]
8709	5	1	8	60.0	2	0	[]
8714	1	4	8	60.0	2	0	[]
8718	1	1	8	60.0	2	0	[]
8719	4	1	7	60.0	2	0	[]
8723	14	1	6	100.0	2	0	[]
8724	2	1	8	60.0	2	0	[]
8727	1	1	8	60.0	2	0	[]
8728	2	4	8	80.0	2	0	[]
8729	2	1	8	60.0	2	0	[]
8731	4	2	8	60.0	2	0	[]
8733	2	1	8	60.0	2	0	[]
8735	16	1	8	60.0	2	0	[]
8740	8	1	8	40.0	2	0	[]
8743	1	4	8	60.0	2	0	[]
8746	2	1	1	60.0	2	0	[]
8748	2	1	8	60.0	2	0	[]
8753	2	1	6	60.0	2	0	[]
8754	18	1	6	200.0	2	0	[]
8756	1	1	8	40.0	2	0	[]
8757	1	1	8	60.0	2	0	[]
8760	3	1	8	60.0	2	0	[]
8761	3	4	8	60.0	2	1	[(3356, 2)]
8764	1	1	1	60.0	2	0	[]
8766	6	6	8	60.0	2	0	[]
8767	180	5	8	60.0	2	5	[(6911, 0), (6161, 2), (80, 2), (350, 2), (2153, 1)]
8778	2	1	8	60.0	2	2	[(147, 0), (7217, 0)]
8781	2	1	8	80.0	2	0	[]
8793	1	1	2	60.0	2	0	[]
8794	1	4	8	60.0	2	0	[]
8797	2	1	8	60.0	2	0	[]
8806	2	1	8	60.0	2	0	[]
8808	1	1	8	60.0	2	0	[]
8810	2	2	8	60.0	2	0	[]
8811	2	1	8	60.0	2	0	[]
8812	3	1	2	60.0	2	0	[]
8813	1	4	2	60.0	2	0	[]
8815	2	1	3	60.0	2	0	[]
8817	1	1	8	60.0	2	0	[]
8823	1	1	8	60.0	2	0	[]
8824	3	4	10	60.0	2	0	[]
8828	7	1	16	80.0	2	0	[]
8833	1	1	8	60.0	2	0	[]
8835	1	1	8	60.0	2	0	[]
8839	1	1	8	60.0	2	0	[]
8840	12	1	2	60.0	2	0	[]
8843	3	1	8	60.0	2	0	[]
8844	2	3	8	60.0	2	0	[]
8848	14	3	16	80.0	2	0	[]
8849	23	3	8	60.0	2	1	[(8412, 2)]
8850	2	1	8	60.0	2	0	[]
8851	2	1	8	60.0	2	0	[]
8855	5	3	8	60.0	2	0	[]
8872	6	1	8	60.0	2	0	[]
8875	1	1	8	60.0	2	0	[]
8876	1	1	8	60.0	2	0	[]
8884	5	2	8	100.0	2	1	[(5034, 2)]
8889	2	1	8	60.0	2	0	[]
8890	2	1	8	60.0	2	0	[]
8893	2	1	8	60.0	2	0	[]
8897	8	6	8	60.0	2	0	[]
8903	2	1	7	60.0	2	0	[]
8906	2	1	8	60.0	2	0	[]
8908	2	1	8	60.0	2	0	[]
8915	1	1	8	60.0	2	0	[]
8916	1	4	8	60.0	2	0	[]
8920	5	1	8	60.0	2	0	[]
8926	1	1	7	60.0	2	0	[]
8928	4	1	8	60.0	2	0	[]
8930	5	6	16	80.0	2	1	[(4633, 0)]
8932	1	6	8	60.0	2	0	[]
8933	2	1	1	60.0	2	0	[]
8939	3	1	8	60.0	2	0	[]
8940	2	1	8	60.0	2	0	[]
8946	6	2	8	60.0	2	0	[]
8959	2	1	8	60.0	2	0	[]
8962	1	1	4	100.0	2	0	[]
8965	2	1	8	60.0	2	0	[]
8968	2	1	8	60.0	2	0	[]
8973	2	1	8	60.0	2	0	[]
8975	2	1	8	80.0	2	0	[]
8977	4	1	8	60.0	2	2	[(80, 0), (6381, 0)]
8979	40	3	8	60.0	2	3	[(5862, 2), (7522, 2), (5185, 2)]
8980	2	1	8	60.0	2	0	[]
8981	1	1	8	60.0	2	0	[]
8982	2	1	8	60.0	2	0	[]
8983	2	4	8	60.0	2	0	[]
8984	1	1	8	60.0	2	0	[]
8992	2	1	8	60.0	2	0	[]
8993	1	2	8	60.0	2	0	[]
8999	1	1	1	60.0	2	0	[]
9001	1	1	8	60.0	2	0	[]
9007	1	1	8	60.0	2	0	[]
9012	2	1	8	60.0	2	0	[]
9014	28	3	8	60.0	2	0	[]
9017	33	1	8	60.0	2	0	[]
9024	1	1	8	60.0	2	0	[]
9029	3	1	8	60.0	2	0	[]
9033	2	1	1	60.0	2	0	[]
9034	1	1	8	60.0	2	0	[]
9040	2	1	8	60.0	2	0	[]
9046	4	2	2	60.0	2	1	[(3327, 0)]
9048	2	4	8	60.0	2	0	[]
9049	99	2	8	60.0	2	0	[]
9053	2	1	8	60.0	2	0	[]
9055	1	4	8	60.0	2	0	[]
9056	1	1	3	60.0	2	0	[]
9057	3	2	8	60.0	2	0	[]
9060	2	4	8	60.0	2	0	[]
9062	1	4	8	60.0	2	0	[]
9063	1	1	2	60.0	2	0	[]
9065	3	1	8	60.0	2	0	[]
9067	2	1	8	60.0	2	0	[]
9069	1	1	7	60.0	2	0	[]
9074	3	2	8	60.0	2	0	[]
9077	33	4	8	60.0	2	0	[]
9091	7	5	8	60.0	2	0	[]
9092	1	1	8	60.0	2	0	[]
9096	7	1	2	60.0	2	0	[]
9099	1	1	8	60.0	2	0	[]
9108	10	1	8	60.0	2	0	[]
9110	7	1	8	60.0	2	0	[]
9111	4	4	8	60.0	2	0	[]
9113	3	1	8	60.0	2	0	[]
9114	2	2	8	60.0	2	0	[]
9125	2	1	8	60.0	2	0	[]
9128	2	2	4	60.0	2	0	[]
9129	1	1	8	60.0	2	0	[]
9140	4	1	8	60.0	2	0	[]
9146	2	3	16	60.0	0	0	[]
9147	1	4	8	60.0	2	0	[]
9153	2	1	8	60.0	2	0	[]
9161	6	1	8	60.0	2	0	[]
9164	1	1	8	60.0	2	0	[]
9166	9	1	2	60.0	2	0	[]
9169	1	1	8	60.0	2	0	[]
9170	1	1	8	60.0	2	0	[]
9173	4	1	2	60.0	2	1	[(7357, 2)]
9174	9	2	8	60.0	2	2	[(3565, 0), (5864, 0)]
9177	1	1	8	60.0	2	0	[]
9179	2	1	8	60.0	2	0	[]
9183	1	1	8	60.0	2	0	[]
9187	4	1	2	60.0	2	0	[]
9195	2	1	2	60.0	2	0	[]
9206	1	1	3	60.0	2	0	[]
9213	2	1	8	60.0	2	0	[]
9216	5	2	8	60.0	2	3	[(4193, 0), (6736, 0), (290, 0)]
9217	1	1	1	300.0	2	0	[]
9219	5	3	8	60.0	2	0	[]
9220	7	2	8	60.0	2	0	[]
9222	2	1	7	60.0	2	0	[]
9230	2	1	1	60.0	2	0	[]
9231	3	1	8	60.0	2	0	[]
9233	3	4	8	60.0	2	0	[]
9234	2	1	8	60.0	2	0	[]
9237	1	1	2	60.0	2	0	[]
9240	2	1	6	60.0	2	0	[]
9243	6	1	8	60.0	2	0	[]
9248	1	1	8	60.0	2	0	[]
9249	5	1	8	60.0	2	0	[]
9252	5	6	8	60.0	2	2	[(2578, 2), (8273, 0)]
9253	2	1	8	60.0	2	0	[]
9255	1	1	8	60.0	2	0	[]
9257	4	2	8	60.0	2	0	[]
9264	6	5	8	60.0	2	0	[]
9267	1	1	1	60.0	2	0	[]
9270	2	1	8	60.0	2	0	[]
9275	3	1	8	60.0	2	0	[]
9279	1	1	8	60.0	2	0	[]
9292	2	3	16	60.0	2	0	[]
9299	1	4	8	60.0	2	0	[]
9302	2	2	2	60.0	2	0	[]
9308	2	1	8	60.0	2	0	[]
9313	1	8	32	80.0	0	0	[]
9315	3	1	8	60.0	2	0	[]
9317	2	1	8	60.0	2	0	[]
9318	2	2	4	60.0	2	0	[]
9320	3	1	8	60.0	2	0	[]
9321	1	4	8	60.0	2	0	[]
9323	1	1	1	40.0	2	0	[]
9324	12	1	8	100.0	2	1	[(2068, 1)]
9330	11	6	8	60.0	2	0	[]
9331	2	2	8	60.0	2	0	[]
9335	1	5	8	60.0	2	0	[]
