app_id	nb_instances	core	memory	disk	intra_value	inter_degree	inter_aff
6	1	1	7	60.0	2	0	[]
8	4	1	8	60.0	2	0	[]
11	1	1	6	60.0	2	0	[]
13	8	2	2	60.0	2	0	[]
15	2	1	2	60.0	2	0	[]
18	6	1	8	60.0	2	0	[]
20	4	6	8	60.0	2	0	[]
24	2	2	8	60.0	2	0	[]
25	2	2	2	60.0	2	0	[]
26	4	1	16	40.0	2	0	[]
39	2	1	8	80.0	2	0	[]
41	2	1	1	60.0	2	0	[]
42	1	1	16	200.0	2	0	[]
45	1	1	8	60.0	2	0	[]
46	2	1	4	60.0	2	0	[]
50	8	3	8	60.0	2	0	[]
51	2	1	8	60.0	2	0	[]
53	6	1	8	60.0	2	0	[]
56	5	1	8	60.0	2	0	[]
61	2	1	2	60.0	2	0	[]
64	1	1	8	60.0	2	0	[]
65	7	1	8	60.0	2	0	[]
69	4	6	8	60.0	2	0	[]
79	1	1	8	60.0	2	0	[]
84	2	1	7	60.0	2	0	[]
88	5	1	8	60.0	2	0	[]
90	2	2	8	60.0	2	0	[]
91	2	4	8	60.0	2	0	[]
93	2	4	8	300.0	2	0	[]
94	1	1	1	60.0	2	0	[]
99	1	1	8	60.0	2	0	[]
102	1	1	8	60.0	2	0	[]
105	1	1	1	60.0	2	0	[]
107	1	4	8	60.0	2	0	[]
109	2	4	16	60.0	2	0	[]
111	2	1	8	60.0	2	0	[]
120	7	1	8	60.0	2	0	[]
124	1	1	8	60.0	2	0	[]
126	1	1	3	60.0	2	0	[]
131	2	4	8	60.0	2	0	[]
132	2	6	8	60.0	2	0	[]
133	2	1	1	60.0	2	0	[]
135	36	3	2	60.0	2	0	[]
137	2	1	2	60.0	2	0	[]
151	2	1	8	60.0	2	0	[]
159	3	2	8	60.0	2	0	[]
164	3	1	8	60.0	2	0	[]
171	1	1	8	60.0	2	0	[]
175	2	1	7	60.0	2	0	[]
177	1	1	8	60.0	2	0	[]
188	20	23	48	60.0	2	4	[(3886, 0), (6269, 0), (5022, 0), (3370, 0)]
189	1	1	8	60.0	2	0	[]
190	4	3	8	60.0	2	0	[]
195	3	1	2	60.0	2	0	[]
202	4	1	16	80.0	2	0	[]
203	1	1	8	60.0	2	0	[]
204	1	1	2	60.0	2	0	[]
205	1	1	8	60.0	2	0	[]
206	2	4	8	60.0	2	0	[]
208	62	3	8	40.0	2	2	[(5022, 0), (6659, 0)]
217	3	1	8	60.0	2	0	[]
218	1	1	8	60.0	2	0	[]
219	2	2	8	60.0	2	0	[]
222	5	1	8	60.0	2	1	[(3321, 2)]
223	2	1	8	60.0	2	0	[]
229	2	1	3	60.0	2	0	[]
236	10	3	8	60.0	2	0	[]
241	1	1	6	60.0	2	0	[]
245	2	1	8	60.0	2	0	[]
246	1	1	1	60.0	2	0	[]
250	13	2	8	100.0	2	4	[(6121, 1), (1997, 2), (159, 1), (8436, 2)]
252	9	1	8	60.0	2	1	[(8824, 1)]
255	38	5	16	60.0	1	19	[(7716, 1), (4608, 1), (3414, 1), (3886, 0), (2851, 2), (6683, 1), (3942, 1), (1637, 2), (3241, 2), (5022, 0), (5420, 2), (2688, 1), (3928, 1), (3108, 2), (3321, 1), (4011, 1), (6429, 1), (5905, 0), (4630, 1)]
259	3	1	8	60.0	2	0	[]
263	2	1	8	60.0	2	0	[]
270	11	1	8	60.0	2	2	[(2525, 2), (4956, 1)]
271	3	2	8	60.0	2	0	[]
272	1	4	16	80.0	2	0	[]
274	1	4	8	60.0	2	0	[]
277	1	1	8	60.0	2	0	[]
279	7	1	7	60.0	2	0	[]
280	2	1	8	60.0	2	0	[]
281	8	3	8	40.0	2	3	[(1637, 0), (6659, 0), (1592, 0)]
291	1	1	8	60.0	2	0	[]
295	2	1	8	60.0	2	0	[]
297	1	1	8	60.0	2	0	[]
300	2	2	8	60.0	2	0	[]
301	21	12	16	200.0	2	0	[]
305	3	1	8	60.0	2	0	[]
306	4	1	8	60.0	2	0	[]
308	2	1	2	60.0	2	0	[]
310	71	2	8	60.0	2	15	[(3806, 0), (7447, 2), (847, 1), (4946, 2), (4702, 0), (8053, 0), (4993, 0), (5655, 0), (8507, 1), (6558, 1), (5220, 0), (435, 0), (8938, 0), (8209, 1), (7290, 2)]
318	6	1	8	60.0	2	0	[]
324	1	1	8	60.0	2	0	[]
325	3	1	2	60.0	2	0	[]
328	2	1	8	60.0	2	0	[]
333	1	1	8	60.0	2	0	[]
336	2	1	8	60.0	2	0	[]
343	2	6	8	60.0	2	0	[]
346	3	1	8	60.0	2	0	[]
349	3	2	8	60.0	2	1	[(4283, 1)]
351	24	1	4	60.0	2	0	[]
353	2	1	8	60.0	2	0	[]
360	11	1	8	60.0	2	3	[(4522, 1), (2263, 2), (3879, 1)]
364	2	5	8	60.0	2	0	[]
374	2	1	40	60.0	2	0	[]
379	1	1	2	60.0	2	0	[]
383	1	1	8	60.0	2	0	[]
393	5	1	8	60.0	2	7	[(1638, 0), (5138, 0), (3291, 0), (7007, 0), (9219, 0), (5767, 0), (5531, 0)]
406	2	4	8	60.0	2	0	[]
409	2	3	8	60.0	2	0	[]
410	2	1	8	60.0	2	0	[]
413	3	1	8	60.0	2	0	[]
418	5	2	8	60.0	2	0	[]
420	2	2	5	60.0	2	0	[]
426	1	1	8	60.0	2	0	[]
427	1	6	8	60.0	2	0	[]
432	2	1	8	60.0	2	0	[]
435	25	1	8	80.0	2	0	[]
443	3	1	8	60.0	2	0	[]
445	4	1	8	60.0	2	0	[]
453	2	1	4	60.0	2	0	[]
454	1	4	8	60.0	2	0	[]
464	73	6	8	60.0	2	7	[(6683, 0), (4608, 0), (281, 0), (6873, 0), (7778, 2), (1637, 0), (9047, 0)]
469	2	1	2	200.0	2	0	[]
470	1	1	1	60.0	2	0	[]
475	1	1	3	60.0	2	0	[]
476	5	6	8	40.0	2	0	[]
485	3	1	8	60.0	2	0	[]
489	2	1	8	60.0	2	0	[]
490	2	1	8	60.0	2	0	[]
493	6	1	8	60.0	2	0	[]
496	6	1	8	60.0	2	0	[]
498	2	1	8	60.0	2	0	[]
506	2	1	8	60.0	2	0	[]
511	2	1	8	60.0	2	0	[]
512	1	1	1	60.0	2	0	[]
517	1	1	8	60.0	2	0	[]
523	2	4	8	60.0	2	0	[]
539	2	1	8	60.0	2	0	[]
540	3	1	8	60.0	2	0	[]
551	16	3	8	100.0	2	0	[]
553	1	1	8	60.0	2	0	[]
554	2	1	2	60.0	2	0	[]
558	4	2	8	60.0	2	0	[]
559	1	1	8	60.0	2	0	[]
568	3	1	8	60.0	2	0	[]
572	18	2	8	100.0	2	1	[(8842, 0)]
574	2	1	8	60.0	2	0	[]
580	30	2	8	60.0	2	1	[(4988, 2)]
587	1	1	8	60.0	2	0	[]
599	4	3	8	40.0	2	0	[]
606	2	1	8	60.0	2	0	[]
611	3	1	8	60.0	2	0	[]
615	14	2	8	60.0	2	0	[]
618	53	2	8	60.0	2	3	[(2033, 0), (7426, 0), (4996, 2)]
619	2	1	8	60.0	2	0	[]
623	2	1	8	60.0	2	0	[]
625	5	2	8	60.0	2	1	[(4941, 1)]
628	4	1	8	60.0	2	0	[]
632	5	1	8	60.0	2	0	[]
635	6	2	8	60.0	2	0	[]
648	1	4	8	60.0	2	0	[]
649	1	1	2	60.0	2	0	[]
650	5	1	2	60.0	2	0	[]
652	2	1	8	60.0	2	0	[]
660	1	2	8	40.0	0	0	[]
663	2	2	4	60.0	2	0	[]
667	2	1	8	60.0	2	0	[]
669	2	1	8	60.0	2	0	[]
675	1	4	8	60.0	2	0	[]
677	1	11	16	80.0	2	0	[]
688	36	6	8	100.0	2	7	[(7268, 0), (6259, 0), (3283, 0), (6406, 0), (6269, 0), (1153, 0), (4511, 0)]
689	5	6	8	60.0	2	0	[]
690	2	1	8	60.0	2	0	[]
693	14	2	8	60.0	2	1	[(3534, 1)]
695	27	4	8	60.0	2	4	[(3108, 1), (6659, 0), (3526, 0), (3414, 2)]
697	2	1	8	60.0	2	0	[]
700	2	1	2	60.0	2	0	[]
703	8	1	8	60.0	2	0	[]
709	3	4	8	60.0	2	2	[(3283, 1), (5022, 0)]
715	4	1	8	60.0	2	0	[]
716	3	3	8	100.0	2	1	[(4941, 0)]
724	2	1	8	60.0	2	0	[]
729	2	1	8	60.0	2	0	[]
732	7	1	2	60.0	2	0	[]
739	2	2	16	80.0	2	0	[]
749	2	4	8	60.0	2	0	[]
751	1	1	1	60.0	2	0	[]
754	2	1	8	60.0	2	0	[]
755	6	12	16	60.0	2	0	[]
756	23	2	8	60.0	2	1	[(648, 0)]
760	2	1	8	60.0	2	0	[]
763	3	1	8	60.0	2	0	[]
766	4	3	8	60.0	2	0	[]
779	3	1	8	60.0	2	0	[]
781	2	3	8	60.0	2	0	[]
783	1	1	8	60.0	2	0	[]
785	2	1	1	60.0	2	0	[]
786	2	1	8	60.0	2	0	[]
787	2	1	8	60.0	2	0	[]
800	19	1	8	60.0	2	1	[(6659, 0)]
801	1	4	8	60.0	2	0	[]
805	1	1	8	60.0	2	0	[]
809	1	1	8	60.0	2	0	[]
811	1	4	8	60.0	2	0	[]
815	3	1	8	60.0	2	0	[]
822	1	4	8	100.0	2	0	[]
828	1	1	8	60.0	2	0	[]
831	2	2	8	60.0	2	0	[]
835	7	2	8	60.0	2	0	[]
842	1	1	1	60.0	2	0	[]
845	3	1	8	60.0	2	0	[]
847	2	5	8	60.0	2	0	[]
848	2	1	8	60.0	2	0	[]
849	2	1	8	60.0	2	0	[]
854	26	9	2	60.0	2	2	[(6659, 0), (6269, 0)]
863	1	2	8	60.0	2	0	[]
868	2	1	8	60.0	2	0	[]
870	2	4	8	60.0	2	0	[]
880	7	1	8	60.0	2	0	[]
881	1	1	4	60.0	2	0	[]
882	1	4	8	60.0	2	0	[]
883	13	6	8	60.0	2	0	[]
885	1	1	8	60.0	2	0	[]
891	2	1	8	60.0	2	0	[]
894	9	3	8	60.0	2	1	[(4179, 1)]
909	8	12	16	100.0	2	1	[(5852, 2)]
910	1	1	8	60.0	2	0	[]
913	5	1	8	60.0	2	0	[]
915	2	4	8	60.0	2	0	[]
921	6	2	8	60.0	2	0	[]
931	1	1	8	60.0	2	0	[]
932	1	1	8	100.0	2	0	[]
936	65	4	8	60.0	2	3	[(107, 0), (2263, 0), (6659, 0)]
940	20	3	8	60.0	2	0	[]
943	1	1	8	60.0	2	0	[]
947	3	2	8	60.0	2	0	[]
950	2	2	8	60.0	2	0	[]
951	1	1	8	60.0	2	0	[]
960	1	1	2	60.0	2	0	[]
963	18	6	8	60.0	2	0	[]
966	2	2	16	80.0	2	0	[]
979	2	4	8	60.0	2	0	[]
980	3	1	8	60.0	2	0	[]
983	1	1	7	60.0	2	0	[]
988	2	1	8	80.0	2	0	[]
989	11	2	8	60.0	2	0	[]
996	2	1	8	60.0	2	0	[]
1009	11	3	8	60.0	2	1	[(6659, 0)]
1012	7	1	8	60.0	2	0	[]
1014	3	1	8	60.0	2	7	[(6814, 0), (3711, 0), (4646, 0), (7452, 0), (7770, 0), (3004, 0), (8607, 0)]
1019	6	2	8	60.0	2	0	[]
1021	3	1	8	60.0	2	3	[(5264, 0), (5022, 0), (6694, 0)]
1022	2	1	8	60.0	2	0	[]
1027	2	1	8	60.0	2	0	[]
1029	1	1	8	80.0	2	0	[]
1033	4	1	8	60.0	2	0	[]
1035	1	1	7	60.0	2	0	[]
1050	5	1	8	60.0	2	0	[]
1054	1	3	8	60.0	2	0	[]
1061	1	1	8	60.0	2	0	[]
1065	1	1	8	60.0	2	0	[]
1068	2	1	8	60.0	2	0	[]
1072	6	1	16	80.0	2	1	[(6975, 1)]
1074	1	1	2	60.0	2	0	[]
1076	1	1	8	60.0	2	0	[]
1078	2	1	8	60.0	2	0	[]
1081	1	1	1	60.0	2	0	[]
1082	1	1	8	60.0	2	0	[]
1085	2	2	8	60.0	2	0	[]
1090	4	1	2	60.0	2	0	[]
1094	1	4	8	60.0	2	0	[]
1097	34	5	8	60.0	2	1	[(8669, 0)]
1104	2	1	2	60.0	2	2	[(3676, 1), (3648, 1)]
1107	5	2	8	60.0	2	0	[]
1111	1	1	1	60.0	2	0	[]
1118	2	1	8	60.0	2	0	[]
1119	3	5	8	100.0	2	0	[]
1121	2	4	8	60.0	2	0	[]
1123	76	2	8	60.0	2	59	[(6334, 0), (6683, 1), (6745, 1), (1768, 0), (7214, 2), (5427, 1), (4025, 1), (5607, 2), (6235, 1), (2224, 1), (1549, 1), (6095, 1), (3321, 0), (6694, 1), (8155, 1), (7080, 0), (3226, 1), (4551, 1), (3526, 1), (3994, 1), (8583, 1), (208, 2), (618, 1), (1027, 2), (2668, 1), (351, 1), (7778, 1), (4011, 1), (854, 0), (5248, 0), (2185, 2), (3414, 0), (8698, 0), (8194, 0), (3108, 1), (255, 2), (9149, 1), (9095, 1), (6201, 2), (5914, 1), (8410, 0), (8168, 0), (6520, 0), (7928, 0), (9047, 2), (7511, 0), (2153, 0), (6232, 1), (7716, 1), (3759, 1), (688, 1), (9138, 1), (4341, 0), (8842, 2), (4704, 1), (2033, 1), (3105, 1), (4055, 1), (6611, 0)]
1133	1	1	8	60.0	2	0	[]
1134	2	1	7	100.0	2	0	[]
1137	1	1	8	60.0	2	0	[]
1138	27	2	8	60.0	2	1	[(409, 0)]
1145	2	1	8	60.0	2	0	[]
1151	1	2	8	60.0	2	0	[]
1153	135	6	8	60.0	2	8	[(842, 2), (3277, 1), (8573, 1), (5840, 1), (6566, 2), (4382, 2), (1676, 1), (4109, 1)]
1157	2	1	8	60.0	2	0	[]
1159	5	1	8	60.0	2	0	[]
1173	53	3	8	60.0	2	4	[(2458, 2), (3321, 2), (4179, 0), (6659, 0)]
1185	2	1	8	60.0	2	0	[]
1194	3	1	8	60.0	2	0	[]
1196	3	1	8	100.0	2	0	[]
1197	6	2	8	60.0	2	0	[]
1204	2	1	8	60.0	2	1	[(3680, 1)]
1221	3	1	8	60.0	2	0	[]
1225	1	4	8	60.0	2	0	[]
1230	1	4	8	60.0	2	0	[]
1232	3	1	8	60.0	2	0	[]
1235	6	2	8	60.0	2	0	[]
1237	5	1	8	60.0	2	1	[(693, 1)]
1244	2	1	8	60.0	2	0	[]
1255	2	1	8	60.0	2	0	[]
1258	24	3	8	60.0	2	1	[(3994, 0)]
1262	7	1	8	60.0	2	0	[]
1264	1	4	8	60.0	2	0	[]
1271	2	4	8	60.0	2	0	[]
1274	4	1	8	60.0	2	2	[(6659, 0), (8842, 0)]
1283	1	1	1	60.0	2	0	[]
1289	1	4	8	60.0	2	0	[]
1298	27	4	8	60.0	2	0	[]
1312	6	2	8	60.0	2	0	[]
1331	1	1	8	60.0	2	0	[]
1332	1	1	1	60.0	2	1	[(3806, 1)]
1336	2	4	8	60.0	2	0	[]
1340	1	1	1	60.0	2	0	[]
1343	40	6	8	60.0	2	1	[(328, 2)]
1346	3	1	8	60.0	2	1	[(689, 2)]
1358	3	6	8	60.0	2	0	[]
1374	10	1	8	60.0	2	1	[(3283, 0)]
1377	8	3	16	100.0	2	0	[]
1385	2	3	8	60.0	2	0	[]
1392	3	1	16	80.0	2	0	[]
1399	2	2	8	60.0	2	1	[(4792, 1)]
1400	1	1	8	60.0	2	0	[]
1401	3	1	8	60.0	2	0	[]
1404	1	1	26	300.0	2	0	[]
1407	8	6	8	60.0	2	0	[]
1411	1	1	16	60.0	2	0	[]
1416	64	10	16	60.0	0	13	[(4608, 2), (6659, 0), (3108, 1), (1123, 2), (7639, 2), (9095, 1), (8842, 2), (208, 0), (1728, 2), (464, 2), (4947, 0), (1851, 0), (3250, 1)]
1421	4	1	8	60.0	2	0	[]
1423	2	1	1	60.0	2	0	[]
1427	6	2	8	60.0	2	0	[]
1428	2	1	8	60.0	2	0	[]
1430	1	1	8	60.0	2	0	[]
1431	5	6	8	60.0	2	0	[]
1433	2	1	8	60.0	2	1	[(7214, 2)]
1437	95	6	8	60.0	2	28	[(8976, 0), (2391, 2), (2682, 2), (3603, 1), (5019, 1), (2487, 2), (663, 2), (1802, 1), (3670, 0), (6355, 0), (2998, 1), (628, 0), (413, 1), (6610, 2), (885, 2), (4967, 2), (6253, 1), (3287, 1), (6520, 1), (5228, 0), (6485, 0), (2277, 1), (6639, 2), (6367, 0), (7355, 2), (1258, 1), (2666, 0), (3385, 1)]
1438	8	2	8	60.0	2	0	[]
1453	1	1	5	60.0	2	0	[]
1454	3	1	8	60.0	2	0	[]
1455	18	6	8	60.0	2	2	[(6659, 0), (648, 0)]
1456	4	1	8	60.0	2	2	[(580, 2), (6112, 0)]
1459	4	2	8	60.0	2	0	[]
1460	1	1	8	60.0	2	0	[]
1463	2	1	8	60.0	2	0	[]
1464	8	1	8	40.0	2	4	[(5022, 0), (6659, 0), (2185, 0), (8653, 0)]
1467	1	4	8	60.0	2	0	[]
1469	3	1	8	60.0	2	0	[]
1473	3	1	16	60.0	2	0	[]
1474	1	1	6	60.0	2	0	[]
1476	2	1	8	60.0	2	0	[]
1480	20	2	3	60.0	2	2	[(4429, 0), (4996, 0)]
1482	2	1	8	60.0	2	0	[]
1489	1	1	8	60.0	2	0	[]
1496	1	1	8	60.0	2	0	[]
1497	10	2	8	60.0	2	0	[]
1498	2	1	8	60.0	2	0	[]
1508	3	1	8	60.0	2	0	[]
1512	1	1	4	60.0	2	0	[]
1520	1	1	5	60.0	2	0	[]
1528	1	4	8	60.0	2	0	[]
1529	4	1	8	60.0	2	0	[]
1534	2	1	8	40.0	2	0	[]
1536	2	1	8	60.0	2	0	[]
1545	2	2	8	60.0	2	0	[]
1547	4	1	8	60.0	2	0	[]
1548	5	1	8	60.0	2	1	[(693, 2)]
1549	8	2	8	60.0	2	0	[]
1551	2	1	6	60.0	2	0	[]
1552	1	4	8	60.0	2	0	[]
1556	1	1	8	60.0	2	0	[]
1560	2	1	28	80.0	2	0	[]
1562	2	1	8	100.0	2	0	[]
1563	2	2	8	60.0	2	0	[]
1568	1	4	16	80.0	2	0	[]
1572	2	1	8	60.0	2	0	[]
1576	2	1	8	60.0	2	0	[]
1582	1	1	8	60.0	2	0	[]
1584	2	1	8	80.0	2	0	[]
1585	1	4	8	60.0	2	0	[]
1592	43	3	8	40.0	2	2	[(3321, 0), (6659, 0)]
1594	4	1	2	60.0	2	0	[]
1596	3	12	16	80.0	2	1	[(3602, 2)]
1601	1	2	16	60.0	2	0	[]
1604	2	1	8	60.0	2	0	[]
1610	1	4	8	60.0	2	0	[]
1613	1	1	2	60.0	2	0	[]
1615	2	1	8	100.0	2	0	[]
1618	3	1	8	60.0	2	0	[]
1620	1	1	8	60.0	2	0	[]
1623	2	1	2	60.0	2	0	[]
1630	2	4	8	60.0	2	0	[]
1631	1	1	8	60.0	2	0	[]
1637	137	24	60	60.0	2	18	[(7716, 2), (4608, 2), (3414, 1), (6659, 0), (255, 2), (3942, 2), (4520, 2), (3370, 0), (5420, 2), (2688, 2), (3928, 2), (4011, 2), (6429, 2), (5905, 2), (6683, 2), (4630, 2), (3321, 1), (4710, 2)]
1638	4	1	8	60.0	2	0	[]
1642	2	1	1	500.0	2	0	[]
1646	2	1	8	60.0	2	0	[]
1650	2	1	8	60.0	2	0	[]
1654	7	16	32	200.0	2	0	[]
1666	1	6	3	60.0	2	0	[]
1667	1	1	8	60.0	2	0	[]
1668	10	2	8	60.0	2	0	[]
1676	4	6	8	60.0	2	0	[]
1677	2	2	8	60.0	2	0	[]
1679	2	1	8	60.0	2	0	[]
1684	2	1	8	60.0	2	0	[]
1692	1	1	8	60.0	2	0	[]
1698	2	1	1	80.0	2	0	[]
1707	2	1	8	60.0	2	0	[]
1711	1	1	8	60.0	2	0	[]
1715	3	1	8	60.0	2	0	[]
1720	2	1	8	60.0	2	0	[]
1728	139	6	8	60.0	0	7	[(6880, 0), (6659, 0), (208, 1), (5313, 0), (1851, 0), (6261, 0), (3370, 0)]
1729	7	1	8	60.0	2	0	[]
1731	2	2	8	60.0	2	0	[]
1732	2	1	8	60.0	2	0	[]
1733	8	1	1	60.0	2	0	[]
1734	5	5	8	60.0	2	0	[]
1747	1	1	8	60.0	2	0	[]
1749	3	1	2	60.0	2	0	[]
1750	1	4	16	80.0	2	0	[]
1753	1	1	7	60.0	2	0	[]
1755	1	1	1	60.0	2	0	[]
1757	6	2	16	80.0	2	0	[]
1768	3	1	8	60.0	2	0	[]
1772	17	2	8	60.0	2	1	[(6659, 0)]
1780	2	1	8	60.0	2	0	[]
1781	17	5	8	60.0	0	6	[(6495, 0), (6659, 0), (6450, 0), (2224, 0), (7268, 0), (3395, 0)]
1782	14	2	16	60.0	2	0	[]
1783	2	1	8	60.0	2	0	[]
1787	2	4	8	60.0	2	0	[]
1790	4	2	8	60.0	2	0	[]
1791	1	1	8	60.0	2	0	[]
1792	1	4	8	60.0	2	0	[]
1796	15	4	3	60.0	2	1	[(3628, 0)]
1802	2	1	8	60.0	2	0	[]
1822	10	4	16	200.0	2	0	[]
1826	1	1	16	60.0	2	0	[]
1827	2	1	8	60.0	2	0	[]
1831	2	1	1	60.0	2	0	[]
1833	3	2	8	60.0	2	0	[]
1845	2	2	8	60.0	2	0	[]
1850	1	2	10	40.0	2	0	[]
1851	2	1	8	60.0	2	0	[]
1857	3	1	8	60.0	2	0	[]
1858	52	1	8	80.0	2	6	[(8723, 0), (2475, 0), (6414, 1), (5696, 2), (9057, 0), (7350, 0)]
1859	1	1	8	60.0	2	0	[]
1860	1	1	2	60.0	2	0	[]
1861	4	1	8	60.0	2	0	[]
1864	4	5	8	60.0	2	0	[]
1866	2	1	2	60.0	2	0	[]
1869	3	1	8	60.0	2	0	[]
1870	1	1	16	100.0	2	0	[]
1871	4	2	8	60.0	2	0	[]
1875	3	1	8	60.0	2	0	[]
1878	6	1	8	60.0	2	0	[]
1879	1	36	37	300.0	2	0	[]
1884	212	10	16	100.0	2	2	[(6659, 0), (4943, 0)]
1887	11	1	8	40.0	2	0	[]
1890	2	1	2	60.0	2	0	[]
1891	2	1	8	60.0	2	1	[(5879, 3)]
1896	1	4	8	60.0	2	0	[]
1898	4	2	8	60.0	2	0	[]
1911	2	5	8	60.0	2	0	[]
1921	1	4	8	60.0	2	0	[]
1926	1	1	8	60.0	2	0	[]
1929	7	4	16	60.0	2	0	[]
1931	2	4	8	60.0	2	0	[]
1943	2	1	8	60.0	2	0	[]
1952	152	6	8	60.0	2	7	[(4179, 1), (3021, 0), (6416, 0), (4376, 0), (2964, 0), (4109, 1), (3250, 0)]
1954	1	1	16	60.0	1	0	[]
1955	18	3	3	300.0	2	0	[]
1957	3	1	8	60.0	2	0	[]
1964	1	4	8	80.0	2	0	[]
1966	1	4	8	60.0	2	0	[]
1972	14	12	16	60.0	2	1	[(5930, 2)]
1975	2	1	8	60.0	2	0	[]
1976	3	1	8	60.0	2	0	[]
1983	5	2	2	60.0	2	0	[]
1985	1	2	8	60.0	2	0	[]
1988	2	1	8	60.0	2	0	[]
1989	1	4	8	60.0	2	0	[]
1995	1	1	1	60.0	2	0	[]
1997	16	1	8	60.0	2	0	[]
2003	1	1	1	60.0	2	0	[]
2006	1	1	8	60.0	2	0	[]
2008	1	1	8	60.0	2	0	[]
2011	1	8	16	200.0	2	0	[]
2014	1	1	8	60.0	2	0	[]
2016	2	2	8	60.0	2	0	[]
2021	1	1	2	60.0	2	0	[]
2022	7	16	96	300.0	2	0	[]
2025	1	4	8	60.0	2	0	[]
2033	94	5	8	60.0	2	12	[(7474, 2), (7046, 2), (4996, 0), (6659, 0), (3019, 0), (3108, 0), (9095, 0), (1728, 0), (3318, 0), (2797, 0), (3321, 0), (8155, 0)]
2038	1	1	8	60.0	2	0	[]
2041	2	1	8	60.0	2	0	[]
2045	2	1	8	60.0	2	0	[]
2051	2	1	1	60.0	2	0	[]
2055	2	1	8	60.0	2	2	[(6791, 0), (8935, 0)]
2056	1	1	8	60.0	2	0	[]
2057	3	1	8	60.0	2	0	[]
2058	3	1	2	200.0	2	0	[]
2062	1	1	16	100.0	2	0	[]
2064	2	4	8	60.0	2	1	[(3180, 2)]
2071	2	1	8	60.0	2	0	[]
2072	2	1	8	60.0	2	0	[]
2073	2	3	16	60.0	2	1	[(6659, 0)]
2074	2	1	2	60.0	2	0	[]
2077	4	1	8	60.0	2	0	[]
2083	3	2	16	80.0	2	0	[]
2090	40	3	8	60.0	2	5	[(8053, 0), (6463, 2), (4429, 0), (4941, 1), (1258, 2)]
2091	2	1	8	60.0	2	0	[]
2092	1	2	8	60.0	2	0	[]
2100	2	1	1	60.0	2	0	[]
2104	4	1	8	60.0	2	0	[]
2105	1	1	8	60.0	2	0	[]
2118	1	1	6	60.0	2	0	[]
2126	11	6	8	60.0	2	0	[]
2129	38	6	16	60.0	0	2	[(7426, 0), (1274, 0)]
2132	3	1	8	60.0	2	0	[]
2135	2	1	8	60.0	2	0	[]
2141	1	1	2	60.0	2	0	[]
2147	6	1	8	250.0	2	0	[]
2153	2	1	6	60.0	2	0	[]
2156	2	1	8	60.0	2	0	[]
2161	3	5	8	60.0	2	0	[]
2168	1	1	8	60.0	2	0	[]
2178	12	6	8	60.0	2	0	[]
2180	10	1	8	60.0	2	0	[]
2185	134	4	8	40.0	2	27	[(7716, 2), (5718, 0), (1274, 2), (1464, 0), (6659, 0), (281, 0), (8653, 0), (3108, 2), (7980, 1), (6161, 0), (3691, 1), (2347, 0), (9095, 0), (5113, 0), (2621, 0), (7338, 0), (7778, 2), (8137, 2), (9319, 0), (7426, 0), (8764, 2), (5016, 2), (8061, 0), (6597, 0), (4011, 1), (1728, 2), (5958, 2)]
2190	1	1	1	60.0	2	0	[]
2191	1	2	8	60.0	2	0	[]
2196	2	1	4	60.0	2	1	[(1822, 0)]
2197	5	2	6	60.0	2	0	[]
2203	1	1	8	60.0	2	0	[]
2204	1	1	8	60.0	2	0	[]
2210	1	1	8	60.0	2	0	[]
2215	3	1	8	60.0	2	0	[]
2218	2	1	8	167.0	2	0	[]
2221	2	1	8	60.0	2	0	[]
2222	1	5	8	60.0	2	0	[]
2224	40	12	16	200.0	0	4	[(4367, 0), (5905, 0), (1781, 0), (6659, 0)]
2225	2	1	2	60.0	2	0	[]
2227	2	1	8	60.0	2	0	[]
2228	1	8	16	60.0	2	0	[]
2231	17	2	8	60.0	2	3	[(6980, 1), (3088, 0), (61, 2)]
2232	2	2	8	60.0	2	0	[]
2233	2	1	8	60.0	2	0	[]
2238	4	3	32	80.0	2	0	[]
2240	2	1	8	60.0	2	0	[]
2245	3	4	8	60.0	2	0	[]
2250	2	1	8	60.0	2	0	[]
2254	2	1	8	80.0	2	0	[]
2256	3	1	8	60.0	2	0	[]
2257	7	2	8	80.0	2	0	[]
2263	318	5	8	60.0	2	6	[(6269, 0), (5879, 3), (6659, 0), (4341, 1), (5914, 0), (3569, 0)]
2274	4	2	8	40.0	2	0	[]
2277	4	1	8	60.0	2	0	[]
2282	1	4	8	60.0	2	0	[]
2283	1	1	4	60.0	2	1	[(3759, 2)]
2284	4	1	8	60.0	2	0	[]
2285	3	1	8	60.0	2	0	[]
2288	1	1	8	60.0	2	0	[]
2297	2	4	8	60.0	2	0	[]
2299	5	1	8	60.0	2	0	[]
2308	1	1	8	60.0	2	0	[]
2318	1	1	8	60.0	2	0	[]
2321	2	3	8	60.0	2	0	[]
2325	2	1	8	60.0	2	0	[]
2329	2	1	8	60.0	2	0	[]
2331	1	1	4	60.0	2	0	[]
2337	2	1	2	60.0	2	0	[]
2343	2	1	8	60.0	2	0	[]
2347	3	1	8	60.0	2	0	[]
2348	1	1	2	60.0	2	0	[]
2359	1	1	8	60.0	2	0	[]
2360	2	4	8	60.0	2	0	[]
2363	2	1	8	60.0	2	0	[]
2365	1	1	8	60.0	2	0	[]
2368	1	4	16	80.0	2	0	[]
2370	1	4	8	60.0	2	0	[]
2375	1	4	16	80.0	2	0	[]
2384	1	1	8	60.0	2	0	[]
2386	1	1	8	60.0	2	0	[]
2388	1	4	8	60.0	2	0	[]
2391	1	1	16	60.0	2	0	[]
2394	1	1	8	60.0	2	0	[]
2397	1	1	1	60.0	2	0	[]
2399	1	1	2	60.0	2	0	[]
2402	1	1	8	60.0	2	0	[]
2403	1	4	8	60.0	2	0	[]
2404	1	2	8	60.0	2	0	[]
2407	1	1	4	60.0	2	0	[]
2413	2	4	8	60.0	2	0	[]
2415	2	1	8	60.0	2	0	[]
2416	2	1	8	60.0	2	0	[]
2418	2	1	8	60.0	2	0	[]
2421	2	1	6	60.0	2	0	[]
2429	3	1	8	60.0	2	0	[]
2430	3	4	8	60.0	2	0	[]
2436	4	4	8	60.0	2	0	[]
2437	4	4	8	60.0	2	1	[(4966, 1)]
2438	4	1	8	60.0	2	0	[]
2441	4	2	8	60.0	2	1	[(1377, 1)]
2445	4	1	8	60.0	2	0	[]
2448	4	2	8	100.0	2	0	[]
2450	4	1	8	60.0	2	0	[]
2455	5	6	8	60.0	2	0	[]
2458	5	1	2	60.0	2	0	[]
2462	5	3	8	60.0	2	0	[]
2464	6	4	8	60.0	2	0	[]
2471	6	5	16	80.0	2	0	[]
2472	6	1	8	60.0	2	0	[]
2475	6	1	8	60.0	2	0	[]
2481	24	12	16	200.0	2	1	[(5401, 2)]
2487	138	6	8	60.0	2	11	[(4923, 2), (6659, 0), (5324, 2), (1019, 2), (4558, 0), (8990, 0), (1232, 0), (4930, 0), (4541, 0), (5531, 0), (4818, 1)]
2489	14	2	8	60.0	2	1	[(7290, 0)]
2491	12	4	8	60.0	2	0	[]
2494	10	1	8	60.0	2	2	[(2870, 2), (5022, 0)]
2495	10	4	8	60.0	2	0	[]
2499	10	1	8	60.0	2	1	[(693, 0)]
2509	8	1	8	60.0	2	0	[]
2511	7	1	8	60.0	2	0	[]
2516	3	3	8	60.0	2	0	[]
2517	3	1	8	60.0	2	0	[]
2518	3	3	8	60.0	2	0	[]
2521	3	4	8	60.0	2	0	[]
2522	3	1	8	60.0	2	0	[]
2524	2	5	8	60.0	2	0	[]
2525	2	1	8	60.0	2	0	[]
2528	2	4	8	60.0	2	0	[]
2530	2	12	16	60.0	2	0	[]
2534	2	1	8	60.0	2	0	[]
2536	2	2	8	60.0	2	1	[(4698, 0)]
2538	2	1	2	60.0	2	0	[]
2554	2	1	8	60.0	2	0	[]
2555	2	1	16	80.0	2	0	[]
2556	2	1	1	60.0	2	0	[]
2567	2	4	8	60.0	2	1	[(2761, 0)]
2568	2	1	1	60.0	2	4	[(3994, 0), (8979, 0), (2129, 0), (1454, 0)]
2574	2	1	8	60.0	2	0	[]
2575	2	1	8	60.0	2	0	[]
2576	2	1	8	60.0	2	0	[]
2580	2	1	2	60.0	2	0	[]
2582	2	1	2	60.0	2	0	[]
2585	1	1	8	60.0	2	0	[]
2587	6	3	8	60.0	2	0	[]
2588	2	4	8	60.0	2	1	[(6367, 0)]
2589	3	1	8	60.0	2	0	[]
2590	2	1	8	60.0	2	0	[]
2592	3	1	8	60.0	2	0	[]
2593	29	6	8	60.0	2	46	[(6235, 0), (5063, 0), (8569, 0), (5264, 0), (7219, 0), (1336, 0), (1185, 0), (7058, 0), (3994, 0), (3321, 0), (4608, 0), (6269, 0), (1983, 0), (7023, 0), (618, 0), (2668, 0), (3788, 0), (5427, 0), (7778, 0), (4173, 0), (2185, 0), (6025, 0), (281, 0), (8716, 0), (208, 0), (3908, 0), (8168, 0), (3691, 0), (1796, 0), (3349, 0), (188, 0), (7747, 0), (6232, 0), (572, 0), (3759, 0), (688, 0), (8436, 0), (6694, 0), (9138, 0), (8273, 0), (6841, 0), (8842, 0), (2033, 0), (5470, 0), (1781, 0), (8194, 0)]
2599	4	1	8	60.0	2	1	[(4412, 1)]
2604	1	1	8	60.0	2	0	[]
2605	1	1	8	60.0	2	0	[]
2606	2	2	2	60.0	2	0	[]
2607	4	2	8	60.0	2	0	[]
2609	5	1	8	60.0	2	1	[(6659, 0)]
2611	3	1	8	60.0	2	0	[]
2612	6	5	8	60.0	2	0	[]
2621	5	1	8	40.0	2	1	[(3657, 0)]
2622	5	1	8	60.0	2	0	[]
2624	1	1	2	60.0	2	0	[]
2626	1	1	8	60.0	2	0	[]
2637	1	1	1	60.0	2	0	[]
2645	1	1	8	60.0	2	0	[]
2652	1	1	8	60.0	2	0	[]
2653	2	1	8	60.0	2	0	[]
2655	2	1	8	60.0	2	0	[]
2656	2	1	8	60.0	2	0	[]
2657	26	2	8	60.0	2	0	[]
2658	12	5	8	60.0	2	2	[(1729, 1), (3806, 1)]
2665	1	1	2	60.0	2	0	[]
2666	2	1	8	60.0	2	0	[]
2668	114	6	2	60.0	2	8	[(4231, 0), (5470, 2), (8494, 1), (854, 0), (8938, 0), (3993, 2), (6659, 0), (8333, 0)]
2670	2	1	2	60.0	2	0	[]
2676	1	1	1	60.0	2	0	[]
2677	2	1	2	60.0	2	1	[(6659, 0)]
2678	1	1	8	60.0	2	0	[]
2681	1	4	8	60.0	2	0	[]
2682	4	1	8	100.0	2	0	[]
2687	1	1	8	60.0	2	0	[]
2688	1	7	32	60.0	2	11	[(3241, 1), (3414, 1), (3942, 2), (2851, 1), (4520, 2), (1637, 1), (5420, 2), (3321, 1), (5905, 2), (4630, 2), (4710, 2)]
2690	9	3	8	60.0	2	1	[(3414, 1)]
2692	119	12	16	200.0	2	0	[]
2695	4	1	32	80.0	2	0	[]
2697	6	6	16	40.0	2	0	[]
2705	2	1	8	60.0	2	0	[]
2710	78	6	10	60.0	0	6	[(8900, 0), (8824, 1), (3592, 0), (1772, 0), (281, 1), (5820, 0)]
2716	10	1	16	60.0	2	0	[]
2717	1	1	8	60.0	2	0	[]
2723	2	1	8	40.0	2	0	[]
2730	1	1	8	60.0	2	0	[]
2732	1	1	8	60.0	2	0	[]
2733	1	1	8	60.0	2	0	[]
2737	2	2	32	80.0	2	0	[]
2738	2	1	8	60.0	2	0	[]
2743	1	1	8	60.0	2	0	[]
2744	2	1	8	60.0	2	0	[]
2749	19	3	8	60.0	2	2	[(580, 2), (6550, 2)]
2752	1	3	16	60.0	0	0	[]
2756	1	4	8	60.0	2	0	[]
2759	2	1	8	60.0	2	0	[]
2761	9	1	8	60.0	2	0	[]
2776	1	1	8	60.0	2	0	[]
2782	1	1	2	60.0	2	0	[]
2783	2	1	8	60.0	2	0	[]
2786	2	4	8	60.0	2	0	[]
2787	2	1	8	60.0	2	0	[]
2796	1	1	8	60.0	2	0	[]
2797	2	1	8	60.0	2	0	[]
2802	2	1	8	60.0	2	0	[]
2810	1	2	8	60.0	2	0	[]
2813	4	5	8	60.0	2	1	[(8669, 1)]
2814	25	1	8	60.0	2	0	[]
2819	4	2	8	60.0	2	0	[]
2822	2	3	8	80.0	2	0	[]
2828	4	1	8	60.0	2	0	[]
2830	1	1	2	60.0	2	0	[]
2838	1	1	7	60.0	2	0	[]
2839	10	6	8	60.0	2	0	[]
2846	3	1	8	60.0	2	0	[]
2849	4	1	8	60.0	2	0	[]
2851	1	16	60	60.0	2	16	[(7716, 2), (4608, 2), (3414, 1), (255, 2), (3942, 2), (4520, 2), (5420, 2), (2688, 2), (3928, 2), (4011, 2), (6429, 2), (5905, 2), (6683, 2), (4630, 2), (3321, 1), (4710, 2)]
2856	4	1	8	60.0	2	0	[]
2863	1	4	8	60.0	2	0	[]
2864	2	1	8	60.0	2	0	[]
2870	2	1	8	60.0	2	0	[]
2872	4	1	8	60.0	2	0	[]
2881	1	1	2	60.0	2	0	[]
2884	2	1	8	60.0	2	0	[]
2888	2	1	2	60.0	2	0	[]
2897	1	1	8	60.0	2	0	[]
2898	1	1	8	60.0	2	0	[]
2904	108	5	8	100.0	0	16	[(5616, 2), (1469, 2), (7601, 2), (6597, 0), (8679, 2), (7863, 2), (8053, 0), (2475, 2), (8296, 1), (1831, 2), (8120, 0), (5568, 2), (6950, 0), (8761, 1), (4941, 1), (7487, 2)]
2905	2	6	8	60.0	2	0	[]
2907	1	4	8	60.0	2	0	[]
2909	2	1	8	60.0	2	0	[]
2914	3	4	8	60.0	2	0	[]
2916	2	4	8	60.0	2	0	[]
2921	2	6	8	60.0	2	0	[]
2924	4	2	8	60.0	2	0	[]
2929	2	1	8	60.0	2	0	[]
2930	2	1	1	60.0	2	0	[]
2933	1	3	8	60.0	2	0	[]
2937	3	4	8	60.0	2	0	[]
2940	59	1	8	60.0	2	1	[(1796, 2)]
2941	1	1	8	60.0	2	0	[]
2946	2	2	16	100.0	2	0	[]
2949	6	5	8	60.0	2	0	[]
2950	1	1	3	60.0	2	0	[]
2953	2	2	8	60.0	2	0	[]
2955	2	4	8	60.0	2	0	[]
2961	3	1	8	60.0	2	0	[]
2964	99	4	8	60.0	2	4	[(3095, 2), (7126, 1), (5022, 1), (6628, 1)]
2965	2	4	8	60.0	2	0	[]
2971	1	1	8	100.0	2	0	[]
2972	1	1	8	60.0	2	0	[]
2973	4	1	1	60.0	2	0	[]
2975	1	1	8	60.0	2	0	[]
2977	7	4	8	60.0	2	17	[(6627, 0), (6511, 1), (4012, 1), (8696, 0), (3050, 0), (7691, 1), (4690, 0), (7113, 1), (7445, 1), (4703, 2), (8061, 2), (7770, 2), (554, 2), (4542, 1), (8818, 0), (5890, 1), (5748, 1)]
2983	3	6	8	60.0	2	0	[]
2985	1	2	8	40.0	1	0	[]
2991	2	1	8	60.0	2	1	[(4252, 2)]
2993	1	2	8	60.0	2	0	[]
2994	1	1	8	60.0	2	0	[]
2998	16	2	8	60.0	2	0	[]
3001	14	1	8	60.0	2	2	[(6659, 0), (7980, 1)]
3004	1	1	8	60.0	2	7	[(6814, 0), (3711, 0), (4646, 0), (7452, 0), (7770, 0), (8607, 0), (1014, 0)]
3006	1	4	8	60.0	2	0	[]
3007	4	1	8	60.0	2	0	[]
3019	7	3	2	60.0	2	0	[]
3021	37	4	8	60.0	2	0	[]
3027	6	1	2	60.0	2	1	[(6659, 0)]
3028	1	4	8	60.0	2	0	[]
3029	2	1	8	60.0	2	0	[]
3034	2	1	8	60.0	2	0	[]
3042	2	1	8	80.0	2	0	[]
3045	2	2	8	60.0	2	0	[]
3050	4	1	8	60.0	2	0	[]
3051	1	1	8	60.0	2	0	[]
3058	1	1	1	60.0	2	0	[]
3063	2	1	8	60.0	2	0	[]
3064	1	2	8	60.0	2	0	[]
3066	13	2	8	100.0	2	1	[(580, 0)]
3071	2	1	8	60.0	2	0	[]
3072	1	1	8	60.0	2	0	[]
3074	2	1	6	60.0	2	0	[]
3078	4	1	8	60.0	2	0	[]
3084	2	1	8	60.0	2	0	[]
3086	2	2	8	60.0	2	0	[]
3088	24	3	8	60.0	2	0	[]
3091	40	5	8	60.0	2	2	[(1884, 0), (3831, 2)]
3094	2	1	1	60.0	2	0	[]
3095	15	3	8	60.0	2	1	[(4582, 2)]
3104	3	2	8	60.0	2	0	[]
3105	13	4	8	40.0	2	1	[(6660, 2)]
3107	12	2	8	60.0	2	4	[(4570, 0), (5022, 2), (6494, 0), (3019, 0)]
3108	63	8	16	60.0	2	1	[(6659, 0)]
3121	6	3	2	60.0	2	1	[(6269, 0)]
3136	8	1	2	60.0	2	0	[]
3137	1	2	7	60.0	2	0	[]
3141	1	1	8	60.0	2	0	[]
3143	2	1	8	60.0	2	0	[]
3145	5	2	8	60.0	2	0	[]
3150	1	1	8	60.0	2	0	[]
3152	3	1	8	60.0	2	0	[]
3166	2	1	8	60.0	2	0	[]
3169	126	6	8	60.0	2	3	[(3942, 1), (8067, 2), (6659, 0)]
3170	3	1	8	60.0	2	0	[]
3171	2	4	8	60.0	2	0	[]
3172	6	1	16	80.0	2	0	[]
3173	1	1	2	60.0	2	0	[]
3174	1	1	2	100.0	2	0	[]
3179	2	1	1	60.0	2	0	[]
3180	3	1	8	60.0	2	2	[(8120, 1), (6597, 0)]
3187	5	1	8	60.0	2	0	[]
3189	5	1	8	60.0	2	0	[]
3193	2	2	7	60.0	2	0	[]
3195	3	1	8	60.0	2	0	[]
3199	147	4	8	60.0	2	6	[(9216, 2), (6165, 2), (8938, 1), (1879, 1), (6659, 0), (2517, 1)]
3204	6	1	8	60.0	2	1	[(5022, 2)]
3207	1	1	8	60.0	2	0	[]
3209	2	3	8	60.0	2	0	[]
3215	1	4	8	100.0	2	0	[]
3216	3	1	8	60.0	2	0	[]
3217	3	1	8	60.0	2	0	[]
3219	2	1	8	60.0	2	0	[]
3226	2	1	8	60.0	2	0	[]
3233	3	1	8	60.0	2	0	[]
3237	1	1	6	180.0	2	0	[]
3238	1	4	8	60.0	2	0	[]
3239	4	1	8	60.0	2	0	[]
3241	1	16	60	60.0	2	16	[(7716, 2), (4608, 2), (3414, 1), (255, 2), (3942, 2), (4520, 2), (5420, 2), (2688, 2), (3928, 2), (4011, 2), (6429, 2), (5905, 2), (6683, 2), (4630, 2), (3321, 1), (4710, 2)]
3245	1	1	2	60.0	2	0	[]
3249	3	1	8	60.0	2	0	[]
3250	155	2	8	40.0	0	6	[(2621, 0), (2458, 2), (599, 1), (6659, 0), (7287, 0), (3370, 0)]
3251	3	1	8	300.0	2	0	[]
3254	2	6	8	60.0	2	0	[]
3266	1	1	1	60.0	2	0	[]
3272	16	3	8	60.0	2	1	[(6659, 0)]
3274	1	1	3	60.0	2	0	[]
3275	2	6	8	60.0	2	0	[]
3277	2	1	8	60.0	2	0	[]
3280	3	1	8	60.0	2	0	[]
3283	240	6	8	60.0	2	18	[(6269, 0), (688, 0), (6659, 0), (1153, 0), (3526, 0), (8653, 0), (8842, 0), (1781, 0), (3064, 1), (9336, 0), (1374, 0), (5470, 0), (7026, 0), (1021, 2), (5905, 0), (2203, 2), (5915, 2), (2752, 1)]
3287	2	1	2	60.0	2	0	[]
3289	2	2	8	60.0	2	0	[]
3291	2	1	8	60.0	2	0	[]
3292	8	3	8	40.0	2	2	[(2185, 0), (8653, 0)]
3305	2	1	3	60.0	2	0	[]
3318	2	3	8	60.0	2	0	[]
3319	3	1	8	60.0	2	0	[]
3321	150	12	16	60.0	2	23	[(7716, 2), (4608, 2), (4947, 0), (3414, 1), (6659, 0), (3886, 0), (1123, 0), (2851, 2), (1416, 0), (3942, 2), (4520, 2), (1637, 2), (3241, 2), (3370, 0), (5420, 2), (2688, 2), (3928, 2), (4011, 2), (6429, 2), (5905, 2), (6683, 2), (4630, 2), (4710, 2)]
3322	2	2	8	60.0	2	0	[]
3324	1	6	16	200.0	2	0	[]
3328	5	6	32	200.0	2	0	[]
3332	1	1	8	60.0	2	0	[]
3338	2	1	8	60.0	2	0	[]
3340	4	1	8	60.0	2	1	[(5022, 2)]
3344	35	4	8	60.0	2	5	[(2462, 1), (3994, 0), (4234, 0), (4941, 1), (435, 0)]
3347	2	1	8	60.0	2	0	[]
3349	116	12	16	60.0	0	9	[(4608, 0), (6269, 0), (8653, 0), (6161, 0), (8979, 0), (2668, 0), (4576, 0), (4704, 0), (5905, 0)]
3363	5	1	8	60.0	2	0	[]
3366	5	1	8	60.0	2	0	[]
3370	50	6	8	60.0	2	10	[(7447, 0), (6235, 0), (2263, 0), (6659, 0), (3886, 0), (7674, 0), (5965, 2), (5022, 0), (3321, 0), (4941, 1)]
3384	2	1	6	60.0	2	0	[]
3385	6	3	8	60.0	2	0	[]
3390	2	2	8	60.0	2	0	[]
3392	2	1	2	60.0	2	0	[]
3395	4	1	8	60.0	2	0	[]
3402	2	1	8	60.0	2	0	[]
3409	2	1	8	40.0	2	1	[(4608, 2)]
3411	2	1	2	60.0	2	0	[]
3414	77	12	16	60.0	2	20	[(1123, 0), (7716, 3), (4608, 3), (3241, 2), (8716, 0), (6161, 0), (2851, 2), (3942, 3), (4520, 2), (1637, 2), (5420, 2), (2688, 3), (3928, 3), (4011, 3), (6429, 3), (5905, 3), (6683, 3), (4630, 3), (3321, 1), (4710, 2)]
3421	1	2	8	60.0	2	0	[]
3424	2	1	2	100.0	2	0	[]
3425	53	5	8	60.0	2	5	[(3283, 2), (7402, 1), (815, 2), (6963, 1), (8500, 2)]
3426	30	5	8	60.0	2	3	[(7113, 2), (328, 2), (3363, 2)]
3427	7	6	8	60.0	2	0	[]
3433	1	1	2	60.0	2	0	[]
3438	1	1	8	60.0	2	0	[]
3439	1	1	8	60.0	2	0	[]
3444	2	1	2	60.0	2	0	[]
3451	2	1	8	60.0	2	0	[]
3465	1	1	1	60.0	2	0	[]
3471	1	1	2	60.0	2	0	[]
3475	3	2	8	60.0	2	0	[]
3483	2	1	8	60.0	2	0	[]
3484	5	1	16	60.0	2	0	[]
3490	22	1	8	60.0	2	2	[(310, 2), (4941, 1)]
3492	1	4	8	60.0	2	0	[]
3497	1	1	8	60.0	2	0	[]
3499	6	1	8	60.0	2	0	[]
3509	2	1	8	60.0	2	0	[]
3522	1	1	1	60.0	2	0	[]
3526	63	6	8	60.0	2	3	[(2129, 0), (6659, 0), (8710, 2)]
3529	1	1	8	60.0	2	0	[]
3534	34	2	8	60.0	2	3	[(107, 0), (2668, 0), (2129, 1)]
3543	4	1	8	60.0	2	0	[]
3547	17	1	8	60.0	2	1	[(188, 1)]
3549	1	4	8	60.0	2	0	[]
3553	3	1	1	60.0	2	0	[]
3555	60	3	8	60.0	2	11	[(271, 2), (4156, 2), (3277, 1), (6340, 2), (6523, 0), (5793, 2), (4698, 0), (3064, 1), (4214, 1), (1050, 1), (7445, 0)]
3560	4	1	8	60.0	2	0	[]
3566	1	1	3	60.0	2	0	[]
3568	2	4	8	60.0	2	0	[]
3569	2	1	8	60.0	2	0	[]
3572	4	2	8	60.0	2	0	[]
3575	1	1	2	60.0	2	0	[]
3576	2	1	8	60.0	2	0	[]
3577	2	1	3	60.0	2	0	[]
3580	8	3	8	80.0	2	0	[]
3581	3	1	8	60.0	2	0	[]
3584	2	1	8	60.0	2	0	[]
3586	1	6	8	60.0	2	0	[]
3589	2	1	8	60.0	2	0	[]
3592	4	1	8	60.0	2	0	[]
3594	2	1	1	60.0	2	0	[]
3596	2	1	8	60.0	2	0	[]
3597	8	1	8	60.0	2	0	[]
3598	2	2	2	60.0	2	0	[]
3602	3	1	8	60.0	2	0	[]
3603	4	1	8	60.0	2	0	[]
3609	1	4	16	80.0	2	0	[]
3610	1	4	8	60.0	2	0	[]
3617	5	2	8	80.0	2	1	[(6659, 0)]
3621	12	2	8	60.0	2	0	[]
3622	3	1	8	60.0	2	0	[]
3626	1	1	2	60.0	2	0	[]
3628	55	2	8	60.0	2	4	[(1336, 0), (3108, 1), (6683, 2), (6659, 0)]
3631	14	3	8	60.0	2	5	[(1879, 0), (6926, 2), (3266, 0), (8673, 2), (2178, 1)]
3635	4	1	4	60.0	2	0	[]
3644	1	1	8	60.0	2	0	[]
3645	5	1	8	60.0	2	0	[]
3646	1	1	1	60.0	2	0	[]
3648	2	4	8	60.0	2	1	[(1104, 2)]
3649	4	4	8	60.0	2	0	[]
3652	4	6	8	60.0	2	0	[]
3657	103	6	16	60.0	1	6	[(8106, 0), (6715, 1), (689, 1), (3370, 0), (6659, 0), (2621, 0)]
3661	2	2	8	60.0	2	0	[]
3670	2	2	8	60.0	2	1	[(4412, 2)]
3676	2	1	7	60.0	2	2	[(1104, 1), (3648, 2)]
3678	2	2	8	1024.0	2	0	[]
3679	2	1	8	60.0	2	0	[]
3680	10	2	8	60.0	2	3	[(3766, 1), (4792, 1), (1952, 0)]
3682	28	3	8	60.0	2	1	[(2655, 2)]
3684	1	1	8	60.0	2	0	[]
3689	2	1	8	60.0	2	0	[]
3691	2	5	8	60.0	2	1	[(6659, 0)]
3694	2	1	8	60.0	2	0	[]
3697	1	1	8	60.0	2	0	[]
3699	2	1	2	60.0	2	0	[]
3700	1	1	8	60.0	2	0	[]
3704	7	1	8	60.0	2	0	[]
3707	1	3	16	60.0	2	0	[]
3708	1	1	8	100.0	2	0	[]
3710	2	1	4	60.0	2	0	[]
3711	2	3	3	60.0	2	0	[]
3727	2	1	8	60.0	2	0	[]
3728	1	4	8	60.0	2	0	[]
3738	3	1	16	60.0	2	0	[]
3741	2	1	8	60.0	2	0	[]
3742	1	1	16	60.0	2	0	[]
3745	4	3	8	60.0	2	1	[(4522, 2)]
3749	1	1	8	60.0	2	0	[]
3752	1	4	8	60.0	2	0	[]
3755	2	1	8	60.0	2	0	[]
3759	19	6	8	60.0	2	1	[(6659, 0)]
3761	2	1	8	60.0	2	0	[]
3763	1	1	8	60.0	2	0	[]
3766	2	1	2	60.0	2	1	[(4792, 1)]
3769	1	1	8	60.0	2	0	[]
3772	1	1	8	60.0	2	0	[]
3775	1	8	16	80.0	2	0	[]
3788	20	2	8	60.0	2	1	[(3321, 2)]
3790	2	1	8	60.0	2	0	[]
3792	2	1	8	80.0	2	1	[(3997, 2)]
3798	1	1	8	60.0	2	0	[]
3799	2	1	2	60.0	2	0	[]
3803	2	1	1	60.0	2	0	[]
3805	9	2	8	40.0	2	5	[(6269, 0), (4576, 0), (3414, 0), (1728, 0), (8653, 0)]
3806	27	6	8	60.0	2	2	[(8884, 2), (5885, 2)]
3811	1	1	2	60.0	2	0	[]
3813	10	6	8	250.0	2	3	[(5953, 0), (1884, 0), (5871, 0)]
3823	1	1	8	60.0	2	0	[]
3824	1	4	8	60.0	2	0	[]
3826	2	1	8	60.0	2	0	[]
3828	1	1	1	60.0	2	0	[]
3831	2	1	8	60.0	2	0	[]
3832	1	1	8	60.0	2	0	[]
3833	1	1	8	60.0	2	0	[]
3834	3	1	1	60.0	2	1	[(3988, 1)]
3842	24	4	8	60.0	2	0	[]
3850	2	1	8	60.0	2	0	[]
3851	29	6	8	60.0	2	3	[(5808, 1), (7101, 2), (2737, 1)]
3853	2	1	8	60.0	2	0	[]
3856	2	2	8	60.0	2	0	[]
3859	1	7	24	80.0	2	0	[]
3871	2	4	8	60.0	2	0	[]
3878	6	1	8	60.0	2	0	[]
3879	25	2	8	60.0	2	1	[(6659, 0)]
3886	47	21	32	200.0	0	5	[(6659, 0), (3321, 0), (4608, 0), (3370, 0), (5958, 2)]
3887	1	4	8	60.0	2	0	[]
3892	4	10	16	200.0	2	0	[]
3893	3	1	5	60.0	2	0	[]
3896	2	4	8	60.0	2	0	[]
3901	2	4	8	60.0	2	0	[]
3908	1	1	1	60.0	2	39	[(2141, 0), (2254, 0), (8663, 0), (7746, 0), (2924, 0), (6870, 0), (9172, 0), (6642, 0), (46, 0), (8835, 0), (1401, 0), (6614, 0), (5316, 0), (6832, 0), (6319, 0), (6201, 0), (3187, 0), (6670, 0), (2430, 0), (1358, 0), (8745, 0), (4249, 0), (4775, 0), (6487, 0), (7723, 0), (1833, 0), (410, 0), (4918, 0), (4962, 0), (7955, 0), (5282, 0), (7339, 0), (2556, 0), (2404, 0), (2363, 0), (1890, 0), (7685, 0), (1459, 0), (7296, 0)]
3910	1	2	16	60.0	2	0	[]
3918	4	3	8	60.0	2	0	[]
3920	4	1	8	60.0	2	0	[]
3923	6	1	8	60.0	2	0	[]
3928	3	6	32	60.0	2	11	[(3241, 1), (3414, 1), (3942, 2), (2851, 1), (4520, 2), (1637, 1), (5420, 2), (3321, 1), (5905, 2), (4630, 2), (4710, 2)]
3936	6	3	8	60.0	2	0	[]
3938	1	1	8	60.0	2	0	[]
3942	6	5	32	100.0	2	15	[(7716, 2), (4608, 2), (3414, 1), (2851, 1), (4520, 2), (1637, 1), (3241, 1), (5420, 2), (2688, 2), (3928, 2), (3321, 1), (4011, 2), (6429, 2), (6683, 2), (4710, 2)]
3944	2	1	8	60.0	2	0	[]
3946	1	2	8	60.0	2	0	[]
3949	2	1	2	60.0	2	1	[(5034, 2)]
3955	28	6	8	60.0	2	0	[]
3956	2	1	8	60.0	2	0	[]
3958	2	1	1	60.0	2	0	[]
3967	1	4	8	60.0	2	0	[]
3968	4	2	8	60.0	2	0	[]
3978	1	2	8	60.0	2	0	[]
3980	2	4	8	60.0	2	0	[]
3988	10	1	8	60.0	2	0	[]
3993	2	1	8	60.0	2	0	[]
3994	211	6	8	60.0	2	2	[(5618, 1), (6659, 0)]
3997	7	6	8	60.0	2	0	[]
4000	2	1	2	60.0	2	0	[]
4006	1	1	1	60.0	2	0	[]
4011	19	4	32	60.0	2	11	[(3241, 1), (3414, 1), (3942, 2), (2851, 1), (4520, 2), (1637, 1), (5420, 2), (3321, 1), (5905, 2), (4630, 2), (4710, 2)]
4012	5	4	8	60.0	2	0	[]
4015	2	1	8	60.0	2	0	[]
4020	2	1	8	80.0	2	0	[]
4025	21	3	16	60.0	2	1	[(6659, 0)]
4026	11	3	8	60.0	2	64	[(7892, 1), (6468, 1), (7463, 1), (4874, 1), (6993, 1), (8673, 1), (950, 0), (2518, 0), (5876, 2), (3752, 1), (1050, 1), (5880, 1), (693, 1), (5025, 1), (6660, 1), (4287, 1), (8586, 1), (9225, 1), (1536, 0), (4821, 1), (8494, 1), (6761, 0), (3792, 0), (6808, 1), (5917, 1), (6147, 2), (4057, 1), (921, 1), (4967, 1), (6843, 0), (6187, 1), (4744, 0), (3851, 2), (5014, 1), (6285, 1), (5246, 1), (4544, 1), (3021, 2), (7282, 1), (1668, 1), (2337, 1), (2622, 1), (2221, 1), (3589, 2), (3766, 0), (3652, 1), (9302, 2), (310, 2), (2940, 2), (9172, 2), (4231, 0), (648, 1), (409, 0), (8246, 1), (2347, 1), (3251, 1), (8216, 1), (6092, 0), (2556, 1), (3484, 1), (7921, 1), (8061, 2), (3385, 1), (6725, 1)]
4030	1	1	1	60.0	2	0	[]
4036	2	2	8	60.0	2	0	[]
4046	3	6	8	60.0	2	0	[]
4050	5	2	8	60.0	2	0	[]
4054	2	1	8	60.0	2	0	[]
4055	7	1	8	60.0	2	0	[]
4057	2	4	8	60.0	2	0	[]
4065	3	1	8	60.0	2	0	[]
4066	2	1	1	60.0	2	0	[]
4077	4	2	8	60.0	2	1	[(4412, 2)]
4080	3	1	2	60.0	2	1	[(6659, 0)]
4082	1	1	8	60.0	2	0	[]
4083	18	12	16	100.0	2	0	[]
4084	6	2	8	60.0	2	0	[]
4099	1	1	1	60.0	2	0	[]
4102	6	2	8	60.0	2	0	[]
4106	2	1	8	60.0	2	0	[]
4109	6	1	8	100.0	2	0	[]
4111	2	4	8	60.0	2	0	[]
4113	2	1	8	60.0	2	0	[]
4115	2	4	8	60.0	2	0	[]
4121	3	1	8	60.0	2	0	[]
4122	7	1	8	60.0	2	0	[]
4126	1	4	16	80.0	2	0	[]
4130	2	1	8	60.0	2	0	[]
4131	1	1	8	60.0	2	0	[]
4132	2	1	8	60.0	2	0	[]
4134	2	1	8	60.0	2	0	[]
4135	1	1	8	60.0	2	0	[]
4140	1	1	8	60.0	2	0	[]
4141	1	1	8	60.0	2	0	[]
4153	2	5	8	60.0	2	0	[]
4156	2	1	8	60.0	2	0	[]
4159	2	1	8	60.0	2	1	[(2185, 0)]
4162	4	1	8	60.0	2	0	[]
4163	1	1	8	60.0	2	0	[]
4171	3	1	8	60.0	2	1	[(4522, 2)]
4172	4	1	2	60.0	2	0	[]
4173	2	2	8	60.0	2	0	[]
4177	2	3	8	60.0	2	0	[]
4179	1	1	8	60.0	2	0	[]
4180	1	1	2	60.0	2	0	[]
4181	2	1	13	80.0	2	0	[]
4183	4	4	8	80.0	2	0	[]
4184	1	1	8	60.0	2	0	[]
4186	1	1	1	150.0	2	0	[]
4195	1	4	8	60.0	2	0	[]
4198	6	1	8	60.0	2	0	[]
4203	1	7	60	60.0	0	0	[]
4205	6	1	8	60.0	2	0	[]
4207	2	1	8	60.0	2	0	[]
4214	2	1	2	60.0	2	0	[]
4215	2	4	8	60.0	2	0	[]
4220	1	1	8	60.0	2	0	[]
4231	31	6	8	60.0	0	10	[(8500, 0), (281, 0), (9095, 0), (1592, 0), (6659, 0), (1637, 0), (9047, 0), (4011, 1), (3250, 0), (2185, 0)]
4234	13	6	8	60.0	2	1	[(4109, 2)]
4236	2	1	4	60.0	2	0	[]
4238	1	1	8	40.0	2	0	[]
4241	1	2	8	100.0	2	0	[]
4248	2	1	2	60.0	2	0	[]
4249	4	1	8	60.0	2	1	[(6659, 0)]
4251	1	1	8	60.0	2	0	[]
4252	19	12	16	100.0	2	0	[]
4254	10	3	4	60.0	2	0	[]
4255	1	1	8	60.0	2	0	[]
4256	1	1	8	60.0	2	0	[]
4257	3	1	2	60.0	2	0	[]
4263	3	3	8	60.0	2	0	[]
4270	3	3	8	60.0	2	0	[]
4271	2	1	8	60.0	2	0	[]
4283	2	1	8	60.0	2	0	[]
4287	5	22	32	80.0	2	0	[]
4294	4	1	5	60.0	2	0	[]
4296	2	2	16	80.0	2	0	[]
4302	4	1	8	60.0	2	0	[]
4315	1	1	48	300.0	2	0	[]
4316	1	1	8	60.0	2	0	[]
4317	1	1	2	60.0	2	0	[]
4320	2	1	8	60.0	2	0	[]
4323	2	1	8	60.0	2	0	[]
4325	5	1	8	60.0	2	0	[]
4332	2	2	8	60.0	2	0	[]
4333	2	1	5	80.0	2	0	[]
4334	1	4	8	60.0	2	0	[]
4335	5	5	8	60.0	2	0	[]
4336	1	4	8	80.0	2	0	[]
4338	8	6	8	60.0	2	0	[]
4339	2	1	8	60.0	2	0	[]
4341	2	2	8	60.0	2	0	[]
4342	2	4	8	60.0	2	0	[]
4352	2	2	8	60.0	2	0	[]
4355	2	1	8	60.0	2	0	[]
4356	1	1	8	60.0	2	0	[]
4359	5	1	1	80.0	2	0	[]
4362	1	1	8	60.0	2	0	[]
4364	2	1	8	60.0	2	0	[]
4365	2	1	8	60.0	2	0	[]
4367	2	2	5	60.0	2	0	[]
4372	2	1	8	60.0	2	0	[]
4374	1	4	8	60.0	2	0	[]
4375	3	1	8	60.0	2	0	[]
4376	10	3	8	60.0	0	8	[(1952, 0), (8653, 2), (2090, 0), (8774, 0), (8152, 0), (1298, 0), (20, 0), (3001, 0)]
4380	1	1	8	60.0	2	0	[]
4382	6	1	8	60.0	2	1	[(4996, 2)]
4384	1	1	8	60.0	2	0	[]
4385	4	1	8	60.0	2	0	[]
4388	2	2	8	100.0	2	0	[]
4392	6	1	16	80.0	2	0	[]
4403	1	1	8	60.0	2	0	[]
4406	12	1	8	60.0	2	0	[]
4411	2	1	8	60.0	2	0	[]
4412	2	1	8	60.0	2	0	[]
4419	1	1	8	60.0	2	0	[]
4421	10	2	8	60.0	2	2	[(2593, 1), (3321, 1)]
4425	3	1	8	60.0	2	0	[]
4429	4	4	8	60.0	2	2	[(2090, 0), (8053, 0)]
4448	13	5	8	60.0	2	2	[(8829, 0), (6597, 0)]
4449	11	1	8	200.0	2	0	[]
4450	3	1	2	60.0	2	0	[]
4452	8	1	8	60.0	2	1	[(6659, 0)]
4454	31	1	8	60.0	2	1	[(6659, 0)]
4456	7	1	8	60.0	2	0	[]
4460	2	1	8	60.0	2	0	[]
4467	1	1	1	80.0	2	0	[]
4468	4	1	8	60.0	2	0	[]
4470	1	1	1	60.0	2	0	[]
4483	2	1	8	60.0	2	0	[]
4484	1	1	1	60.0	2	0	[]
4489	2	2	8	60.0	2	0	[]
4498	1	1	8	60.0	2	0	[]
4500	2	1	1	60.0	2	0	[]
4502	2	8	16	60.0	1	0	[]
4504	2	1	8	60.0	2	0	[]
4505	4	1	8	60.0	2	0	[]
4511	4	2	8	60.0	2	6	[(9047, 2), (5953, 1), (6235, 2), (2593, 2), (3095, 1), (6269, 2)]
4514	14	2	8	60.0	2	1	[(6659, 0)]
4516	1	1	8	60.0	2	0	[]
4520	1	1	16	60.0	2	14	[(7716, 2), (4608, 2), (5420, 3), (3241, 2), (3942, 2), (2851, 2), (6683, 2), (1637, 2), (2688, 2), (3928, 2), (4011, 2), (6429, 2), (5905, 2), (4630, 2)]
4522	42	12	16	100.0	2	3	[(6269, 0), (8842, 0), (6659, 0)]
4524	4	2	8	60.0	2	0	[]
4531	99	4	8	60.0	2	0	[]
4536	12	3	8	100.0	2	0	[]
4541	2	3	8	60.0	2	0	[]
4542	3	4	8	60.0	2	0	[]
4544	4	1	8	60.0	2	1	[(3108, 1)]
4545	1	1	8	60.0	2	0	[]
4547	1	1	8	60.0	2	0	[]
4551	29	2	8	40.0	2	0	[]
4557	2	1	8	60.0	2	0	[]
4558	41	3	3	60.0	2	1	[(883, 1)]
4561	1	1	2	60.0	2	0	[]
4570	15	4	8	60.0	2	1	[(6230, 0)]
4572	3	1	8	60.0	2	0	[]
4576	61	4	8	40.0	0	9	[(6659, 0), (3095, 1), (7261, 0), (206, 1), (4608, 0), (5022, 0), (9095, 0), (8500, 0), (4582, 2)]
4578	8	2	8	60.0	2	0	[]
4582	4	1	8	60.0	2	0	[]
4596	2	1	2	60.0	2	0	[]
4600	2	1	8	60.0	2	0	[]
4607	2	1	2	60.0	2	0	[]
4608	143	12	32	60.0	2	19	[(3241, 1), (3414, 1), (1153, 0), (3942, 2), (255, 0), (2851, 1), (1416, 0), (6520, 0), (4520, 2), (7261, 0), (1637, 1), (4576, 0), (5420, 2), (8106, 0), (3321, 1), (5905, 2), (1850, 0), (4630, 2), (4710, 2)]
4609	2	1	4	60.0	2	0	[]
4611	2	1	1	60.0	2	0	[]
4612	1	1	8	60.0	2	0	[]
4613	2	1	8	60.0	2	0	[]
4614	2	1	5	60.0	2	0	[]
4616	4	1	8	60.0	2	0	[]
4623	3	1	8	60.0	2	0	[]
4625	1	1	8	60.0	2	0	[]
4627	4	1	7	60.0	2	0	[]
4630	1	3	32	100.0	2	15	[(7716, 2), (4608, 2), (3414, 1), (2851, 1), (4520, 2), (1637, 1), (3241, 1), (5420, 2), (2688, 2), (3928, 2), (3321, 1), (4011, 2), (6429, 2), (6683, 2), (4710, 2)]
4635	13	1	8	60.0	2	2	[(4531, 2), (435, 2)]
4640	5	4	8	60.0	2	0	[]
4643	1	1	8	60.0	2	0	[]
4644	2	8	16	100.0	2	0	[]
4645	1	4	8	60.0	2	0	[]
4646	3	3	8	60.0	2	7	[(6814, 0), (3711, 0), (7452, 0), (7770, 0), (3004, 0), (8607, 0), (1014, 0)]
4647	25	6	8	60.0	2	3	[(4853, 2), (1374, 1), (7066, 1)]
4649	19	1	10	60.0	2	0	[]
4650	7	1	8	60.0	2	0	[]
4654	4	2	8	60.0	2	0	[]
4656	8	1	6	60.0	2	0	[]
4657	2	1	8	60.0	2	0	[]
4668	3	1	8	60.0	2	0	[]
4670	1	4	8	60.0	2	0	[]
4676	2	2	8	60.0	2	0	[]
4678	15	6	3	60.0	2	1	[(2668, 0)]
4682	2	1	8	60.0	2	0	[]
4684	2	1	8	60.0	2	0	[]
4686	3	2	8	60.0	2	0	[]
4690	3	1	8	60.0	2	1	[(4923, 2)]
4692	14	1	8	60.0	2	1	[(6344, 0)]
4693	4	1	8	60.0	2	0	[]
4694	4	1	1	60.0	2	0	[]
4698	565	1	2	60.0	2	1	[(5655, 0)]
4700	1	1	8	60.0	2	0	[]
4701	1	1	8	60.0	2	0	[]
4702	3	1	8	60.0	2	0	[]
4703	2	1	8	60.0	2	0	[]
4704	29	2	8	60.0	2	2	[(6659, 0), (3831, 2)]
4710	1	3	16	60.0	2	14	[(7716, 2), (4608, 2), (5420, 3), (3241, 2), (3942, 2), (2851, 2), (6683, 2), (1637, 2), (2688, 2), (3928, 2), (4011, 2), (6429, 2), (5905, 2), (4630, 2)]
4726	1	1	8	60.0	2	0	[]
4736	2	1	8	60.0	2	0	[]
4738	7	1	2	60.0	2	0	[]
4744	1	1	8	60.0	2	0	[]
4746	3	1	2	60.0	2	0	[]
4748	4	4	8	60.0	2	0	[]
4753	2	1	1	60.0	2	1	[(2185, 1)]
4755	1	1	3	60.0	2	0	[]
4759	2	1	8	60.0	2	0	[]
4764	1	4	8	60.0	2	0	[]
4771	4	2	8	60.0	2	0	[]
4772	7	1	8	60.0	2	0	[]
4775	1	1	1	60.0	2	0	[]
4777	1	1	3	60.0	2	0	[]
4782	3	1	8	60.0	2	0	[]
4783	2	1	8	60.0	2	0	[]
4786	5	2	8	60.0	2	0	[]
4792	5	1	2	60.0	2	1	[(3766, 0)]
4793	2	2	8	60.0	2	0	[]
4794	1	1	2	60.0	2	0	[]
4795	1	1	2	60.0	2	0	[]
4796	2	1	8	60.0	2	0	[]
4803	2	1	8	60.0	2	0	[]
4807	2	1	1	100.0	2	0	[]
4813	2	1	6	60.0	2	0	[]
4817	1	1	2	60.0	2	0	[]
4818	1	2	8	60.0	2	0	[]
4821	6	1	8	60.0	2	0	[]
4822	1	1	7	60.0	2	0	[]
4831	4	2	8	60.0	2	0	[]
4838	1	4	8	60.0	2	0	[]
4839	1	1	8	60.0	2	0	[]
4845	1	1	8	60.0	0	0	[]
4846	1	4	8	60.0	2	0	[]
4847	4	6	8	60.0	2	0	[]
4849	4	2	8	60.0	2	0	[]
4853	4	1	8	60.0	2	2	[(7261, 0), (5022, 2)]
4854	5	6	8	60.0	2	0	[]
4857	2	2	8	60.0	2	0	[]
4865	1	1	8	60.0	2	0	[]
4874	13	3	8	60.0	2	4	[(4341, 0), (9095, 0), (6694, 0), (2555, 2)]
4878	4	1	8	60.0	2	0	[]
4886	2	1	1	60.0	2	0	[]
4891	2	1	8	60.0	2	0	[]
4897	2	1	2	60.0	2	0	[]
4903	1	2	8	60.0	2	0	[]
4905	1	1	2	60.0	2	0	[]
4907	3	1	8	60.0	2	0	[]
4910	2	1	1	60.0	2	0	[]
4915	1	1	8	60.0	2	0	[]
4918	1	4	8	60.0	2	0	[]
4923	3	36	48	300.0	2	0	[]
4924	1	1	8	60.0	2	0	[]
4928	2	1	8	60.0	2	0	[]
4930	2	1	8	60.0	2	0	[]
4941	11	6	8	100.0	2	0	[]
4943	6	36	30	300.0	2	0	[]
4944	2	2	8	60.0	2	0	[]
4946	3	2	8	60.0	2	0	[]
4947	2	1	8	60.0	2	0	[]
4950	4	1	8	60.0	2	0	[]
4954	2	1	8	60.0	2	0	[]
4956	2	1	8	60.0	2	1	[(6130, 2)]
4962	2	1	8	60.0	2	0	[]
4964	1	1	8	60.0	2	0	[]
4966	3	4	8	60.0	2	0	[]
4967	2	1	8	60.0	2	0	[]
4968	2	1	8	60.0	2	0	[]
4969	1	6	32	60.0	0	0	[]
4972	1	1	8	100.0	2	0	[]
4981	1	1	8	60.0	2	0	[]
4984	3	1	8	60.0	2	0	[]
4985	1	1	3	60.0	2	0	[]
4988	2	1	8	60.0	2	0	[]
4989	1	1	8	60.0	2	0	[]
4991	1	4	8	60.0	2	0	[]
4993	3	1	8	60.0	2	0	[]
4995	2	1	8	60.0	2	0	[]
4996	100	6	16	100.0	2	3	[(4429, 0), (1480, 0), (6659, 0)]
5005	1	1	7	60.0	2	0	[]
5007	6	1	8	60.0	2	1	[(6659, 0)]
5008	2	1	8	60.0	2	0	[]
5010	1	1	8	100.0	2	0	[]
5014	2	1	8	60.0	2	0	[]
5016	8	2	8	60.0	2	0	[]
5019	2	1	8	60.0	2	0	[]
5022	282	12	16	60.0	0	15	[(1601, 2), (5264, 0), (5854, 2), (6659, 0), (8178, 2), (318, 1), (2856, 1), (8817, 2), (6694, 0), (3370, 0), (6763, 1), (4257, 2), (9047, 0), (1021, 0), (4131, 2)]
5024	2	1	2	100.0	2	0	[]
5025	7	1	8	60.0	2	0	[]
5029	1	1	1	60.0	2	0	[]
5034	4	1	8	60.0	2	0	[]
5036	1	1	1	60.0	2	0	[]
5038	4	1	8	60.0	2	0	[]
5039	2	1	8	60.0	2	0	[]
5049	6	1	8	60.0	2	0	[]
5053	11	1	8	200.0	2	0	[]
5063	58	4	5	200.0	2	6	[(6964, 0), (3250, 0), (6611, 0), (6269, 0), (6659, 0), (208, 0)]
5069	2	1	8	60.0	2	0	[]
5071	9	1	8	60.0	2	1	[(5905, 0)]
5075	1	1	2	60.0	2	0	[]
5078	2	4	8	60.0	2	0	[]
5079	2	4	8	60.0	2	0	[]
5088	1	1	2	60.0	2	0	[]
5090	1	2	8	60.0	2	0	[]
5094	1	1	8	60.0	2	0	[]
5106	5	3	24	60.0	2	1	[(6659, 0)]
5109	25	6	8	60.0	2	0	[]
5113	3	1	8	60.0	2	0	[]
5115	1	1	8	60.0	2	0	[]
5116	2	1	8	60.0	2	0	[]
5120	1	1	8	60.0	2	0	[]
5121	1	1	2	60.0	2	0	[]
5122	1	3	8	60.0	2	0	[]
5133	2	1	16	150.0	2	0	[]
5136	2	4	8	60.0	2	0	[]
5138	7	3	8	60.0	2	0	[]
5150	1	1	8	60.0	2	0	[]
5152	1	4	8	60.0	2	0	[]
5155	3	1	8	100.0	2	0	[]
5160	2	1	8	60.0	2	0	[]
5162	2	1	8	60.0	2	0	[]
5166	2	1	8	60.0	2	0	[]
5167	2	1	8	60.0	2	1	[(6744, 2)]
5168	4	1	8	167.0	2	0	[]
5170	4	1	8	60.0	2	0	[]
5184	2	1	8	60.0	2	0	[]
5185	3	1	8	60.0	2	0	[]
5187	2	1	8	60.0	2	0	[]
5190	2	1	8	60.0	2	0	[]
5193	2	1	8	60.0	2	0	[]
5196	1	1	8	60.0	2	0	[]
5199	1	1	8	180.0	2	0	[]
5200	3	1	8	60.0	2	0	[]
5205	1	3	8	60.0	2	0	[]
5206	7	1	8	60.0	2	0	[]
5207	2	1	8	60.0	2	0	[]
5214	1	1	8	60.0	2	0	[]
5216	2	1	8	60.0	2	0	[]
5218	12	6	8	60.0	2	0	[]
5220	72	3	8	60.0	2	3	[(648, 1), (1898, 2), (4941, 1)]
5221	1	1	8	60.0	2	0	[]
5225	2	1	8	60.0	2	3	[(5034, 2), (6334, 0), (1887, 0)]
5228	7	2	8	60.0	2	1	[(4522, 2)]
5246	4	1	8	60.0	2	0	[]
5248	2	1	5	60.0	2	0	[]
5263	2	1	8	60.0	2	0	[]
5264	145	12	16	60.0	1	8	[(1416, 0), (6683, 0), (6659, 0), (1153, 0), (2197, 0), (1637, 0), (5619, 2), (4736, 1)]
5269	4	1	2	60.0	2	1	[(4215, 2)]
5273	1	1	2	60.0	2	0	[]
5274	1	1	2	60.0	2	0	[]
5281	1	4	8	60.0	2	0	[]
5282	1	1	4	60.0	2	0	[]
5285	2	1	7	60.0	2	0	[]
5287	1	1	8	60.0	2	0	[]
5300	1	1	8	60.0	2	0	[]
5309	4	1	8	60.0	2	0	[]
5313	9	1	8	60.0	2	2	[(7261, 0), (6304, 0)]
5315	2	1	5	60.0	2	0	[]
5316	1	1	8	60.0	2	0	[]
5317	3	1	2	60.0	2	0	[]
5318	25	2	8	60.0	2	0	[]
5324	1	4	8	60.0	2	0	[]
5326	2	1	2	60.0	2	0	[]
5330	2	1	8	60.0	2	0	[]
5333	2	1	8	60.0	2	0	[]
5335	2	10	16	200.0	2	0	[]
5340	6	1	8	60.0	2	2	[(1676, 0), (1153, 0)]
5347	3	2	16	60.0	2	0	[]
5348	2	3	8	60.0	2	0	[]
5350	2	1	8	60.0	2	0	[]
5360	1	1	2	60.0	2	0	[]
5364	4	1	8	60.0	2	0	[]
5368	4	1	8	60.0	2	0	[]
5369	2	2	8	200.0	2	0	[]
5370	3	1	8	100.0	2	0	[]
5389	2	1	43	60.0	2	0	[]
5390	1	1	2	60.0	2	0	[]
5395	2	1	2	60.0	2	0	[]
5399	2	4	8	60.0	2	0	[]
5401	5	1	8	60.0	2	0	[]
5406	13	4	8	80.0	2	0	[]
5410	1	1	8	60.0	2	0	[]
5420	1	2	16	60.0	1	18	[(7716, 2), (4608, 2), (3414, 1), (255, 2), (2851, 2), (3942, 2), (4520, 2), (1637, 2), (3241, 2), (2688, 2), (3928, 2), (4011, 2), (6429, 2), (5905, 2), (6683, 2), (4630, 2), (3321, 1), (4710, 2)]
5421	4	1	8	60.0	2	0	[]
5423	12	2	8	60.0	2	0	[]
5427	15	2	8	40.0	2	0	[]
5432	1	1	7	60.0	2	0	[]
5434	3	1	8	60.0	2	0	[]
5440	2	1	2	60.0	2	0	[]
5445	1	1	8	60.0	2	0	[]
5456	1	1	8	60.0	2	0	[]
5467	5	1	8	60.0	2	0	[]
5470	11	1	8	60.0	2	3	[(3283, 0), (1781, 0), (8653, 0)]
5474	2	1	7	60.0	2	0	[]
5475	4	2	8	60.0	2	0	[]
5493	9	2	8	60.0	2	0	[]
5495	1	1	3	60.0	2	0	[]
5499	3	1	8	60.0	2	0	[]
5500	3	1	8	60.0	2	0	[]
5505	2	5	8	60.0	2	0	[]
5507	3	1	8	60.0	2	0	[]
5508	1	1	2	60.0	2	0	[]
5512	5	1	8	60.0	2	0	[]
5516	3	1	8	60.0	2	0	[]
5523	8	2	8	60.0	2	0	[]
5527	2	1	1	60.0	2	0	[]
5529	3	1	8	60.0	2	0	[]
5530	2	1	8	60.0	2	0	[]
5531	15	6	8	60.0	2	1	[(420, 0)]
5532	2	1	2	60.0	2	0	[]
5537	3	2	8	60.0	2	0	[]
5539	2	1	3	60.0	2	0	[]
5540	1	1	8	60.0	2	0	[]
5543	3	1	2	60.0	2	0	[]
5544	3	2	8	60.0	2	0	[]
5561	1	1	2	60.0	2	0	[]
5564	15	2	8	60.0	2	2	[(7785, 2), (4483, 2)]
5567	2	2	8	60.0	2	0	[]
5568	3	1	8	60.0	2	0	[]
5571	1	1	8	60.0	2	0	[]
5572	1	1	7	60.0	2	0	[]
5573	2	1	8	60.0	2	0	[]
5574	1	8	16	60.0	2	0	[]
5575	1	1	2	60.0	2	0	[]
5591	3	1	8	60.0	2	0	[]
5599	1	4	8	60.0	2	0	[]
5607	38	2	8	40.0	0	5	[(1416, 0), (3414, 0), (1637, 0), (615, 0), (5022, 0)]
5611	2	1	8	60.0	2	0	[]
5616	2	1	8	60.0	2	0	[]
5618	2	1	8	60.0	2	1	[(6659, 0)]
5619	9	4	2	60.0	2	1	[(6659, 0)]
5622	2	4	4	60.0	2	0	[]
5628	5	10	8	100.0	2	0	[]
5629	1	1	8	60.0	2	0	[]
5632	3	2	8	60.0	2	2	[(6659, 0), (8176, 0)]
5633	7	2	8	60.0	2	2	[(6237, 0), (8444, 0)]
5636	2	2	8	60.0	2	0	[]
5638	2	1	2	60.0	2	0	[]
5641	2	1	8	60.0	2	0	[]
5642	2	4	8	60.0	2	0	[]
5648	2	1	5	60.0	2	0	[]
5652	2	1	8	60.0	2	0	[]
5653	2	1	8	60.0	2	0	[]
5655	2	2	8	60.0	2	0	[]
5656	2	1	2	60.0	2	0	[]
5660	4	4	8	60.0	2	1	[(8673, 2)]
5667	2	1	8	60.0	2	0	[]
5680	1	1	8	60.0	2	0	[]
5685	2	1	8	60.0	2	0	[]
5687	5	1	8	100.0	2	0	[]
5693	3	1	2	60.0	2	0	[]
5696	3	6	8	60.0	2	4	[(1173, 1), (3813, 1), (7904, 1), (6421, 2)]
5697	1	1	7	60.0	2	0	[]
5704	2	1	8	60.0	2	0	[]
5705	59	3	8	60.0	2	19	[(1416, 0), (1884, 0), (1274, 1), (6269, 0), (5712, 0), (6659, 0), (281, 2), (3108, 0), (7511, 0), (4576, 0), (5225, 1), (4996, 2), (2593, 0), (5619, 1), (8258, 1), (5905, 1), (443, 1), (4941, 2), (2197, 2)]
5710	2	1	3	60.0	2	0	[]
5712	2	1	8	60.0	2	0	[]
5718	4	1	8	60.0	2	0	[]
5719	5	1	8	60.0	2	1	[(6725, 0)]
5727	1	4	8	60.0	2	0	[]
5728	1	4	8	60.0	2	0	[]
5732	5	1	8	60.0	2	0	[]
5738	3	1	8	60.0	2	0	[]
5744	1	12	8	60.0	2	0	[]
5745	3	1	2	60.0	2	0	[]
5748	2	1	8	60.0	2	0	[]
5752	3	1	2	60.0	2	0	[]
5754	3	1	8	60.0	2	0	[]
5756	2	6	8	60.0	2	0	[]
5758	1	4	8	60.0	2	0	[]
5761	1	1	8	60.0	2	0	[]
5767	6	1	8	60.0	2	0	[]
5785	2	1	16	80.0	2	0	[]
5792	5	1	8	60.0	2	0	[]
5793	2	1	8	60.0	2	0	[]
5800	2	1	8	60.0	2	0	[]
5804	1	1	4	60.0	2	0	[]
5808	1	1	8	60.0	2	0	[]
5809	2	1	8	60.0	2	0	[]
5813	2	1	1	60.0	2	0	[]
5818	2	1	8	60.0	2	0	[]
5820	154	6	8	60.0	2	7	[(6127, 2), (2458, 2), (6597, 0), (2710, 0), (3592, 0), (1772, 0), (693, 0)]
5834	5	1	8	60.0	2	0	[]
5837	2	1	8	60.0	2	0	[]
5840	3	1	8	60.0	2	0	[]
5843	1	1	8	60.0	2	0	[]
5847	20	6	8	60.0	2	0	[]
5852	1	1	8	60.0	2	0	[]
5854	2	1	8	60.0	2	0	[]
5855	2	4	8	60.0	2	2	[(6659, 0), (3691, 1)]
5856	46	4	8	60.0	2	6	[(8636, 0), (3088, 0), (6873, 2), (6421, 0), (9219, 0), (4941, 1)]
5859	5	34	2	600.0	2	0	[]
5863	1	1	2	60.0	2	0	[]
5866	2	1	8	60.0	2	0	[]
5870	4	3	8	60.0	2	0	[]
5871	15	6	8	60.0	2	1	[(7445, 1)]
5873	5	7	16	60.0	2	0	[]
5874	1	1	8	60.0	2	0	[]
5876	37	2	8	60.0	2	1	[(1646, 2)]
5878	4	1	8	80.0	2	0	[]
5879	2	2	8	60.0	2	2	[(2263, 3), (1891, 3)]
5880	2	1	8	60.0	2	0	[]
5884	2	1	8	60.0	2	0	[]
5885	2	1	8	60.0	2	0	[]
5886	12	6	8	60.0	2	2	[(1584, 0), (2141, 2)]
5887	1	2	16	100.0	2	0	[]
5888	4	1	1	60.0	2	0	[]
5890	2	1	8	60.0	2	0	[]
5905	149	12	32	100.0	2	21	[(6683, 0), (4520, 2), (3370, 0), (3321, 1), (4608, 2), (4011, 2), (6334, 0), (3414, 1), (2851, 1), (9095, 0), (1637, 1), (2688, 2), (9047, 0), (3928, 2), (6429, 2), (3241, 1), (7716, 2), (3886, 0), (6421, 0), (5420, 2), (4710, 2)]
5909	12	2	8	60.0	2	0	[]
5910	4	3	8	60.0	2	0	[]
5913	2	1	8	60.0	2	0	[]
5914	23	12	2	60.0	2	2	[(2263, 0), (6269, 0)]
5915	3	1	8	60.0	2	0	[]
5916	2	4	8	100.0	2	0	[]
5917	2	1	8	60.0	2	0	[]
5924	2	1	7	60.0	2	0	[]
5925	1	1	8	60.0	2	0	[]
5930	1	1	8	60.0	2	0	[]
5933	3	1	8	60.0	2	0	[]
5936	1	1	3	60.0	2	0	[]
5939	2	4	8	60.0	2	0	[]
5940	3	1	8	60.0	2	0	[]
5943	2	1	1	60.0	2	0	[]
5945	1	1	1	60.0	2	0	[]
5950	1	1	2	60.0	2	0	[]
5953	3	2	8	60.0	2	0	[]
5957	1	1	8	60.0	2	0	[]
5958	6	2	2	60.0	2	22	[(6067, 0), (5264, 0), (5427, 0), (5965, 0), (7023, 0), (1123, 0), (5071, 0), (3831, 0), (9039, 0), (2014, 0), (3892, 0), (3908, 0), (2828, 0), (6611, 0), (2224, 0), (3923, 0), (7272, 0), (6161, 0), (3596, 0), (2888, 0), (351, 0), (2185, 0)]
5965	2	3	8	60.0	2	0	[]
5981	3	1	8	60.0	2	0	[]
5986	1	4	8	60.0	2	0	[]
6000	1	4	8	60.0	2	0	[]
6004	1	1	1	60.0	2	0	[]
6006	2	1	8	60.0	2	0	[]
6013	2	1	8	60.0	2	0	[]
6014	1	4	8	60.0	2	0	[]
6015	12	4	8	60.0	2	1	[(7507, 2)]
6025	19	1	8	40.0	0	6	[(1637, 0), (6269, 0), (5022, 0), (3250, 0), (208, 0), (8716, 0)]
6027	1	1	16	60.0	2	0	[]
6028	2	1	8	60.0	2	0	[]
6030	1	1	8	60.0	2	0	[]
6033	2	1	8	60.0	2	0	[]
6035	3	1	8	60.0	2	0	[]
6039	2	1	8	60.0	2	0	[]
6041	2	1	5	60.0	2	0	[]
6042	2	2	8	60.0	2	0	[]
6048	4	1	8	60.0	2	0	[]
6053	1	1	8	60.0	2	0	[]
6059	2	2	8	60.0	2	0	[]
6067	17	3	8	60.0	2	0	[]
6069	3	2	8	60.0	2	0	[]
6077	6	4	32	80.0	2	0	[]
6078	14	1	8	60.0	2	1	[(6659, 0)]
6079	2	4	8	60.0	2	0	[]
6086	2	1	2	60.0	2	0	[]
6088	3	1	8	60.0	2	0	[]
6092	1	1	8	60.0	2	0	[]
6095	17	3	16	200.0	2	0	[]
6098	2	1	2	60.0	2	0	[]
6099	2	1	8	60.0	2	0	[]
6100	1	1	2	60.0	2	0	[]
6112	2	1	2	60.0	2	0	[]
6113	2	1	6	60.0	2	0	[]
6121	2	1	8	60.0	2	0	[]
6125	2	1	8	60.0	2	0	[]
6127	4	1	8	60.0	2	0	[]
6130	2	1	8	60.0	2	0	[]
6135	1	1	8	60.0	2	0	[]
6137	17	1	8	60.0	2	1	[(4551, 2)]
6147	4	3	8	60.0	2	0	[]
6149	1	1	8	60.0	2	0	[]
6150	5	1	8	60.0	2	1	[(7063, 2)]
6155	6	2	8	60.0	2	0	[]
6158	2	1	8	60.0	2	0	[]
6159	1	4	8	60.0	2	0	[]
6161	9	1	8	40.0	2	0	[]
6165	2	1	4	60.0	2	0	[]
6168	1	1	8	60.0	2	0	[]
6171	16	1	1	60.0	2	0	[]
6173	2	1	8	60.0	2	0	[]
6174	2	4	8	60.0	2	0	[]
6180	7	3	8	60.0	2	0	[]
6181	1	1	8	60.0	2	0	[]
6187	3	1	8	60.0	2	0	[]
6189	2	1	8	60.0	2	0	[]
6190	3	1	2	60.0	2	0	[]
6200	2	1	1	60.0	2	0	[]
6201	6	1	8	60.0	2	0	[]
6206	1	3	8	60.0	2	0	[]
6221	2	1	8	60.0	2	0	[]
6223	2	1	2	60.0	2	0	[]
6224	2	1	5	60.0	2	1	[(4412, 2)]
6225	2	1	8	60.0	2	0	[]
6226	10	6	8	60.0	2	0	[]
6227	4	6	8	60.0	2	0	[]
6230	57	5	8	60.0	0	15	[(3283, 0), (1153, 0), (6659, 0), (3266, 0), (2658, 0), (8211, 0), (8959, 0), (3340, 0), (8053, 0), (2668, 0), (7907, 0), (8979, 0), (5512, 0), (1861, 0), (3631, 0)]
6232	45	6	8	40.0	2	6	[(6659, 0), (3108, 2), (7639, 0), (5034, 2), (7908, 1), (5905, 0)]
6235	67	3	8	60.0	2	1	[(6659, 0)]
6236	1	4	8	60.0	2	0	[]
6237	5	1	8	60.0	2	0	[]
6239	17	1	8	60.0	2	1	[(6201, 2)]
6246	5	1	8	60.0	2	0	[]
6249	2	1	5	60.0	2	0	[]
6253	2	1	8	60.0	2	0	[]
6254	1	1	8	60.0	2	0	[]
6256	15	3	8	60.0	2	7	[(5264, 0), (6880, 0), (4541, 2), (3851, 1), (5767, 0), (3657, 0), (5847, 0)]
6257	2	1	8	60.0	2	0	[]
6259	1	3	8	60.0	2	0	[]
6261	1	8	16	80.0	2	0	[]
6267	3	2	1	100.0	2	0	[]
6269	174	10	16	80.0	2	7	[(6495, 0), (6659, 0), (3409, 0), (9095, 2), (6520, 0), (1728, 2), (3370, 0)]
6271	1	1	8	60.0	2	0	[]
6274	2	1	8	60.0	2	0	[]
6279	1	4	8	60.0	2	0	[]
6280	3	5	8	60.0	2	0	[]
6285	7	4	2	300.0	2	0	[]
6300	5	6	8	100.0	2	1	[(7641, 0)]
6304	10	2	8	60.0	0	7	[(7980, 0), (5313, 0), (615, 0), (5022, 0), (9095, 0), (6659, 0), (1728, 0)]
6305	4	1	8	60.0	2	0	[]
6307	2	1	8	60.0	2	0	[]
6308	2	1	8	60.0	2	0	[]
6316	2	4	8	60.0	2	0	[]
6317	13	1	8	60.0	2	2	[(5544, 0), (435, 1)]
6319	2	1	8	60.0	2	0	[]
6328	1	1	8	60.0	2	0	[]
6329	2	1	8	60.0	2	0	[]
6330	1	4	8	60.0	2	0	[]
6334	50	12	16	100.0	2	2	[(6694, 0), (6269, 0)]
6335	6	1	8	60.0	2	0	[]
6337	2	2	8	60.0	2	0	[]
6340	3	1	8	60.0	2	0	[]
6344	3	1	8	60.0	2	0	[]
6350	1	1	8	60.0	2	0	[]
6355	2	1	8	60.0	2	0	[]
6358	2	1	2	60.0	2	0	[]
6360	2	1	8	60.0	2	0	[]
6362	1	1	8	60.0	2	0	[]
6365	7	1	8	60.0	2	0	[]
6366	1	1	8	60.0	2	0	[]
6367	2	1	8	60.0	2	0	[]
6368	3	1	8	60.0	2	0	[]
6376	1	8	8	60.0	2	0	[]
6384	3	1	8	100.0	2	0	[]
6386	1	1	8	60.0	2	0	[]
6398	6	4	8	60.0	2	1	[(2710, 0)]
6399	1	1	8	60.0	2	0	[]
6403	1	1	8	60.0	2	0	[]
6404	2	1	8	60.0	2	0	[]
6406	17	1	8	80.0	2	29	[(8569, 0), (5264, 0), (8871, 0), (6745, 0), (8977, 0), (7447, 0), (8583, 0), (7214, 0), (7805, 0), (5905, 0), (7928, 0), (6334, 0), (1983, 0), (3942, 1), (7639, 0), (9095, 0), (208, 0), (3908, 0), (8333, 0), (4854, 0), (6750, 0), (7747, 0), (688, 0), (3886, 0), (8842, 0), (4704, 0), (3272, 0), (1955, 0), (3105, 0)]
6409	10	1	16	60.0	2	0	[]
6413	1	1	8	60.0	2	0	[]
6414	2	1	8	60.0	2	0	[]
6416	9	2	8	60.0	2	6	[(7716, 1), (4011, 1), (3321, 2), (1592, 2), (5619, 2), (4996, 2)]
6420	1	1	2	60.0	2	0	[]
6421	188	12	16	100.0	2	4	[(3993, 1), (7426, 0), (4130, 2), (6659, 0)]
6422	1	1	6	60.0	2	0	[]
6426	4	1	8	60.0	2	0	[]
6429	2	4	32	60.0	2	11	[(3241, 1), (3414, 1), (3942, 2), (2851, 1), (4520, 2), (1637, 1), (5420, 2), (5905, 2), (3321, 1), (4630, 2), (4710, 2)]
6433	1	4	8	80.0	2	0	[]
6435	1	1	1	60.0	2	0	[]
6438	1	1	8	60.0	2	0	[]
6441	1	1	8	60.0	2	0	[]
6450	5	2	16	60.0	2	1	[(8194, 0)]
6452	1	1	8	60.0	2	0	[]
6453	1	1	2	60.0	2	0	[]
6459	1	1	8	60.0	2	0	[]
6462	1	1	4	60.0	2	0	[]
6463	10	2	8	60.0	2	0	[]
6464	2	1	8	60.0	2	0	[]
6467	1	4	8	40.0	0	0	[]
6468	2	1	8	60.0	2	0	[]
6469	2	1	8	60.0	2	0	[]
6477	14	1	8	100.0	2	1	[(6659, 0)]
6485	3	3	8	60.0	2	0	[]
6487	1	1	8	60.0	2	0	[]
6494	3	1	8	60.0	2	0	[]
6495	11	2	8	60.0	2	1	[(6659, 0)]
6498	1	1	2	60.0	2	0	[]
6505	2	1	8	60.0	2	0	[]
6509	1	3	2	60.0	2	3	[(7198, 0), (1592, 0), (3994, 0)]
6511	4	1	2	60.0	2	0	[]
6512	1	1	2	60.0	2	0	[]
6516	2	1	8	60.0	2	0	[]
6520	36	3	8	40.0	2	12	[(4608, 0), (6269, 0), (6659, 0), (8653, 0), (5965, 2), (1728, 0), (7261, 0), (4576, 0), (849, 2), (2458, 2), (6694, 0), (1781, 0)]
6523	2	1	8	60.0	2	0	[]
6525	1	1	8	60.0	2	0	[]
6527	1	2	8	60.0	2	0	[]
6532	5	2	8	40.0	0	0	[]
6533	3	2	2	60.0	2	0	[]
6538	2	1	8	60.0	2	0	[]
6541	1	2	8	60.0	2	0	[]
6542	1	1	1	40.0	0	0	[]
6546	1	1	2	60.0	2	0	[]
6548	1	4	8	60.0	2	0	[]
6550	21	12	16	100.0	2	0	[]
6552	1	1	8	60.0	2	0	[]
6557	43	6	8	60.0	2	13	[(4570, 0), (5138, 0), (6039, 0), (1019, 0), (3851, 0), (3759, 0), (756, 0), (1151, 0), (435, 0), (4668, 0), (5785, 0), (4698, 0), (3426, 0)]
6558	4	1	8	60.0	2	0	[]
6565	4	2	8	60.0	2	0	[]
6566	1	1	1	60.0	2	0	[]
6569	1	1	8	60.0	2	0	[]
6570	2	3	16	100.0	2	0	[]
6573	3	1	8	60.0	2	0	[]
6579	2	1	4	60.0	2	0	[]
6585	2	1	2	60.0	2	0	[]
6587	3	2	8	60.0	2	0	[]
6589	2	1	8	60.0	2	0	[]
6597	108	12	8	100.0	2	5	[(2475, 0), (310, 1), (9057, 0), (435, 0), (7350, 0)]
6600	12	1	8	60.0	2	1	[(5022, 1)]
6601	1	4	8	60.0	2	0	[]
6603	1	1	2	60.0	2	0	[]
6607	1	1	8	60.0	2	0	[]
6610	12	2	8	60.0	2	1	[(693, 2)]
6611	6	1	8	60.0	2	4	[(6964, 0), (5063, 0), (8215, 2), (6659, 0)]
6614	1	1	8	60.0	2	0	[]
6616	1	1	8	60.0	2	0	[]
6627	2	2	8	60.0	2	0	[]
6628	21	5	8	60.0	2	0	[]
6632	1	1	2	60.0	2	0	[]
6636	2	1	8	60.0	2	2	[(7700, 0), (6409, 0)]
6639	3	1	5	60.0	2	0	[]
6640	4	1	6	60.0	2	0	[]
6641	1	3	8	60.0	2	0	[]
6642	1	1	8	60.0	2	0	[]
6646	2	2	8	60.0	2	0	[]
6650	1	1	8	60.0	2	0	[]
6659	117	3	8	120.0	0	108	[(1173, 0), (7258, 0), (2263, 0), (5632, 0), (3370, 0), (8979, 0), (2487, 0), (4514, 0), (800, 0), (4080, 0), (4576, 0), (3169, 0), (6230, 0), (6304, 0), (8190, 0), (3108, 0), (6520, 0), (8470, 0), (5619, 0), (3250, 0), (2073, 0), (2224, 0), (1455, 0), (4704, 0), (6794, 0), (2185, 0), (2609, 0), (6235, 0), (5063, 0), (6745, 0), (8500, 0), (7064, 0), (4522, 0), (854, 0), (3283, 0), (5618, 0), (3657, 0), (6611, 0), (281, 0), (7447, 0), (208, 0), (7338, 0), (1274, 0), (4249, 0), (5705, 0), (3759, 0), (4231, 0), (7026, 0), (1009, 0), (7085, 0), (7928, 0), (1464, 0), (8548, 0), (1781, 0), (4996, 0), (6880, 0), (5264, 0), (4454, 0), (7261, 0), (6078, 0), (3321, 0), (3027, 0), (8144, 0), (8258, 0), (3879, 0), (2677, 0), (7374, 0), (3617, 0), (6477, 0), (3628, 0), (3001, 0), (9095, 0), (695, 0), (1637, 0), (1592, 0), (3994, 0), (1884, 0), (9138, 0), (6421, 0), (6694, 0), (5855, 0), (4025, 0), (1728, 0), (5022, 0), (8135, 0), (6495, 0), (6269, 0), (3199, 0), (5106, 0), (3526, 0), (2033, 0), (4452, 0), (8484, 0), (1416, 0), (5007, 0), (7619, 0), (8824, 0), (3691, 0), (7511, 0), (6232, 0), (936, 0), (1772, 0), (8842, 0), (7563, 0), (3886, 0), (3272, 0), (2668, 0), (8795, 0)]
6660	2	1	8	60.0	2	0	[]
6664	3	2	8	60.0	2	0	[]
6670	3	1	8	60.0	2	1	[(8669, 1)]
6673	1	1	1	60.0	2	0	[]
6676	1	1	16	150.0	2	0	[]
6683	153	12	32	60.0	2	14	[(3241, 1), (3414, 1), (3942, 2), (2851, 1), (1416, 0), (9095, 0), (4520, 2), (1637, 0), (4576, 0), (5420, 2), (3321, 1), (5905, 0), (4630, 2), (4710, 2)]
6685	1	2	4	60.0	2	0	[]
6694	70	5	16	200.0	2	3	[(4341, 0), (6659, 0), (1728, 0)]
6697	1	8	16	80.0	2	0	[]
6699	2	4	8	60.0	2	0	[]
6702	1	4	8	60.0	2	0	[]
6709	5	1	8	60.0	2	3	[(8679, 1), (8979, 1), (4703, 2)]
6715	13	6	2	60.0	2	0	[]
6716	2	1	8	60.0	2	0	[]
6718	2	1	2	60.0	2	0	[]
6722	2	1	2	60.0	2	0	[]
6725	28	6	8	100.0	2	3	[(847, 1), (1677, 2), (7290, 2)]
6728	1	1	6	60.0	2	0	[]
6741	1	1	8	60.0	2	0	[]
6744	31	3	8	60.0	2	1	[(3108, 1)]
6745	23	2	8	40.0	2	2	[(6659, 0), (3321, 2)]
6748	2	1	8	60.0	2	0	[]
6749	2	4	8	60.0	2	0	[]
6750	21	4	8	40.0	2	5	[(3886, 0), (3414, 0), (3321, 0), (5022, 0), (3370, 0)]
6753	1	4	8	60.0	2	0	[]
6756	4	1	8	60.0	2	0	[]
6759	2	4	8	60.0	2	0	[]
6761	1	1	8	60.0	2	0	[]
6763	4	1	6	60.0	2	0	[]
6767	2	1	8	60.0	2	0	[]
6770	2	2	3	60.0	2	0	[]
6773	1	1	7	60.0	2	0	[]
6777	1	1	8	60.0	2	0	[]
6778	1	4	8	60.0	2	0	[]
6784	1	1	10	300.0	2	0	[]
6791	21	3	8	60.0	2	0	[]
6792	3	1	8	60.0	2	0	[]
6794	5	2	8	60.0	2	1	[(6659, 0)]
6795	2	1	2	60.0	2	0	[]
6799	2	1	1	60.0	2	0	[]
6800	2	3	8	60.0	2	0	[]
6801	3	2	8	60.0	2	0	[]
6804	11	6	8	60.0	2	0	[]
6808	39	2	8	60.0	2	1	[(9093, 1)]
6809	1	4	8	60.0	2	0	[]
6814	4	1	5	60.0	2	7	[(3711, 0), (4646, 0), (7452, 0), (7770, 0), (3004, 0), (8607, 0), (1014, 0)]
6816	2	1	8	60.0	2	0	[]
6824	2	2	8	60.0	2	0	[]
6832	2	1	1	60.0	2	0	[]
6834	5	1	8	80.0	2	0	[]
6836	1	4	8	60.0	2	0	[]
6837	5	1	8	60.0	2	0	[]
6841	5	2	8	60.0	2	0	[]
6843	7	1	8	60.0	2	2	[(5813, 1), (2141, 1)]
6847	2	1	2	60.0	2	0	[]
6849	1	1	8	60.0	2	0	[]
6852	2	1	8	60.0	2	0	[]
6861	2	1	2	60.0	2	0	[]
6862	1	1	2	60.0	2	0	[]
6863	1	1	8	60.0	2	0	[]
6866	1	1	8	60.0	2	0	[]
6868	1	1	8	60.0	2	0	[]
6870	5	1	8	60.0	2	0	[]
6872	1	1	7	60.0	2	0	[]
6873	12	2	8	40.0	2	1	[(5022, 0)]
6880	75	2	8	40.0	2	8	[(3108, 2), (4338, 2), (4531, 2), (7426, 0), (5905, 2), (3136, 2), (6659, 0), (4996, 2)]
6885	2	1	4	60.0	2	0	[]
6893	2	1	7	60.0	2	0	[]
6898	2	1	8	60.0	2	0	[]
6899	1	3	8	60.0	2	0	[]
6901	1	4	10	180.0	2	0	[]
6903	8	4	8	60.0	2	0	[]
6908	2	1	8	60.0	2	0	[]
6917	2	1	8	60.0	2	0	[]
6926	2	1	8	80.0	2	0	[]
6927	1	4	8	60.0	2	0	[]
6929	2	1	8	60.0	2	0	[]
6931	1	1	8	60.0	2	0	[]
6932	1	1	8	60.0	2	0	[]
6933	2	1	8	60.0	2	0	[]
6934	2	1	8	80.0	2	0	[]
6944	2	1	8	60.0	2	0	[]
6945	2	1	8	60.0	2	0	[]
6947	3	1	8	60.0	2	0	[]
6950	1	4	8	60.0	2	0	[]
6963	2	1	4	60.0	2	0	[]
6964	19	11	2	60.0	2	0	[]
6967	1	1	16	40.0	2	0	[]
6975	2	4	8	60.0	2	0	[]
6976	76	5	16	150.0	2	0	[]
6977	1	1	8	60.0	2	0	[]
6980	1	1	2	60.0	2	0	[]
6981	2	1	7	60.0	2	0	[]
6985	5	6	8	60.0	2	0	[]
6993	3	1	8	60.0	2	0	[]
6997	2	1	2	60.0	2	0	[]
7007	16	3	8	60.0	2	0	[]
7011	1	1	8	60.0	2	0	[]
7017	2	1	8	60.0	2	0	[]
7023	2	2	8	60.0	2	0	[]
7024	2	1	8	60.0	2	0	[]
7026	4	4	8	60.0	2	1	[(6659, 0)]
7034	1	4	8	60.0	2	0	[]
7035	14	2	8	100.0	2	1	[(5022, 2)]
7038	2	3	8	60.0	2	0	[]
7043	2	1	8	60.0	2	0	[]
7046	2	1	8	60.0	2	0	[]
7047	2	1	8	60.0	2	0	[]
7054	2	1	8	60.0	2	0	[]
7056	1	1	8	60.0	2	0	[]
7058	19	9	16	200.0	2	5	[(7904, 2), (5767, 1), (7426, 0), (208, 0), (1781, 0)]
7062	4	1	8	60.0	2	0	[]
7063	3	5	8	60.0	2	0	[]
7064	11	5	8	60.0	2	1	[(6659, 0)]
7066	2	1	8	60.0	2	0	[]
7069	1	1	2	60.0	2	0	[]
7070	16	3	8	60.0	2	0	[]
7079	2	5	8	60.0	2	0	[]
7080	26	3	8	60.0	2	1	[(3589, 0)]
7085	20	4	2	100.0	2	1	[(6659, 0)]
7097	1	1	8	60.0	2	0	[]
7101	2	1	24	60.0	2	0	[]
7103	2	1	8	60.0	2	0	[]
7105	1	1	8	60.0	2	0	[]
7106	6	2	8	60.0	2	0	[]
7107	2	3	8	60.0	2	0	[]
7109	4	1	8	60.0	2	0	[]
7111	2	4	8	60.0	2	0	[]
7113	8	2	8	60.0	2	0	[]
7126	2	1	1	60.0	2	0	[]
7132	1	1	8	60.0	2	0	[]
7134	2	2	8	60.0	2	0	[]
7135	1	1	4	60.0	2	0	[]
7138	1	4	8	60.0	2	0	[]
7139	1	1	8	60.0	2	0	[]
7140	2	2	8	60.0	2	0	[]
7141	1	1	8	60.0	2	0	[]
7143	9	2	8	300.0	2	0	[]
7145	2	1	8	60.0	2	0	[]
7152	2	4	8	60.0	2	0	[]
7158	7	2	8	60.0	2	2	[(4596, 1), (5022, 0)]
7159	1	1	8	60.0	2	0	[]
7162	1	1	16	80.0	2	0	[]
7167	1	1	8	60.0	2	0	[]
7168	2	1	8	60.0	2	0	[]
7169	1	1	8	60.0	2	0	[]
7173	1	4	8	60.0	2	0	[]
7175	1	1	1	60.0	2	0	[]
7182	3	1	10	80.0	2	0	[]
7187	1	4	8	60.0	2	0	[]
7191	2	1	8	60.0	2	0	[]
7194	1	4	8	60.0	2	0	[]
7198	5	1	6	60.0	2	0	[]
7209	1	1	8	60.0	2	0	[]
7212	1	1	8	60.0	2	0	[]
7214	16	2	8	40.0	2	3	[(1637, 0), (5022, 0), (3414, 0)]
7219	4	1	8	60.0	2	0	[]
7222	12	1	8	60.0	2	0	[]
7223	2	4	16	200.0	2	0	[]
7232	1	4	8	60.0	2	0	[]
7234	2	1	8	60.0	2	0	[]
7235	1	4	8	60.0	2	0	[]
7240	1	1	2	60.0	2	0	[]
7248	5	2	8	60.0	2	0	[]
7256	11	4	8	60.0	2	0	[]
7258	3	3	8	60.0	2	1	[(6659, 0)]
7261	18	6	8	60.0	2	2	[(6659, 0), (6715, 2)]
7266	10	6	8	60.0	2	1	[(5053, 1)]
7268	14	2	16	60.0	2	0	[]
7271	3	1	2	60.0	2	0	[]
7272	2	1	8	60.0	2	0	[]
7273	2	1	16	60.0	2	0	[]
7280	1	1	8	60.0	2	0	[]
7281	1	8	16	80.0	2	0	[]
7282	3	2	8	60.0	2	1	[(409, 2)]
7283	2	1	8	60.0	2	0	[]
7286	3	1	18	100.0	2	0	[]
7287	3	2	8	60.0	2	0	[]
7290	9	1	4	60.0	2	0	[]
7292	2	4	8	60.0	2	0	[]
7296	1	1	2	60.0	2	0	[]
7304	17	6	8	60.0	2	0	[]
7305	1	4	8	80.0	2	0	[]
7312	4	1	8	60.0	2	0	[]
7317	2	1	1	60.0	2	0	[]
7320	1	4	1	60.0	2	0	[]
7326	5	1	8	60.0	2	0	[]
7331	4	2	8	60.0	2	0	[]
7336	2	4	8	60.0	2	0	[]
7338	120	6	8	60.0	0	11	[(6232, 0), (6659, 0), (7980, 0), (3691, 0), (208, 0), (7080, 0), (3370, 0), (3292, 0), (2593, 0), (5905, 0), (20, 0)]
7339	2	1	1	60.0	2	0	[]
7343	17	1	1	60.0	2	0	[]
7346	1	1	8	60.0	2	0	[]
7349	1	1	1	60.0	2	0	[]
7350	3	1	8	60.0	2	0	[]
7353	1	1	8	60.0	2	0	[]
7355	14	6	8	60.0	2	0	[]
7356	9	2	7	60.0	2	0	[]
7360	7	2	8	60.0	2	0	[]
7373	2	1	8	60.0	2	0	[]
7374	6	1	8	60.0	2	1	[(6659, 0)]
7377	5	1	8	60.0	2	0	[]
7388	2	1	7	60.0	2	0	[]
7393	2	4	8	60.0	2	0	[]
7400	4	1	8	60.0	2	0	[]
7402	5	2	8	60.0	2	0	[]
7405	1	1	1	60.0	2	0	[]
7406	4	6	8	60.0	2	0	[]
7409	1	1	1	60.0	2	0	[]
7410	13	2	2	60.0	2	0	[]
7422	2	2	8	40.0	2	0	[]
7426	74	12	16	100.0	1	15	[(6232, 2), (1274, 0), (6550, 2), (3526, 0), (6880, 0), (2129, 0), (6421, 0), (7058, 0), (618, 0), (6261, 0), (7026, 0), (208, 0), (4257, 1), (6694, 0), (1781, 0)]
7432	1	4	8	60.0	2	0	[]
7433	2	1	8	60.0	2	0	[]
7438	3	1	8	60.0	2	0	[]
7442	1	4	8	60.0	2	2	[(8251, 2), (5168, 2)]
7445	4	1	8	60.0	2	0	[]
7447	20	4	8	60.0	2	1	[(6659, 0)]
7449	2	1	8	60.0	2	0	[]
7452	2	1	8	60.0	2	7	[(6814, 0), (3711, 0), (4646, 0), (7770, 0), (3004, 0), (8607, 0), (1014, 0)]
7455	1	4	8	80.0	2	0	[]
7462	1	1	8	60.0	2	0	[]
7463	3	1	8	60.0	2	0	[]
7464	2	1	8	60.0	2	0	[]
7470	1	1	8	40.0	2	0	[]
7474	2	1	8	60.0	2	0	[]
7478	2	1	8	60.0	2	0	[]
7479	2	6	8	60.0	2	0	[]
7487	1	1	2	60.0	2	0	[]
7489	2	1	8	60.0	2	0	[]
7494	2	1	8	60.0	2	0	[]
7507	6	1	8	60.0	2	0	[]
7511	19	1	8	60.0	2	1	[(6659, 0)]
7512	2	1	8	60.0	2	0	[]
7515	3	1	16	60.0	1	0	[]
7520	4	11	16	200.0	2	0	[]
7525	1	1	2	60.0	2	0	[]
7526	1	4	8	60.0	2	0	[]
7533	1	2	16	60.0	0	0	[]
7535	1	1	8	60.0	2	0	[]
7544	1	1	1	60.0	2	0	[]
7545	4	1	8	60.0	2	0	[]
7546	2	1	8	60.0	2	0	[]
7549	1	1	8	60.0	2	0	[]
7550	1	1	8	60.0	2	0	[]
7553	1	1	1	60.0	2	0	[]
7554	4	1	8	60.0	2	0	[]
7557	2	1	8	60.0	2	0	[]
7560	1	6	8	60.0	2	0	[]
7563	18	3	8	60.0	2	2	[(6659, 0), (2517, 1)]
7565	1	1	8	60.0	2	0	[]
7566	2	3	8	60.0	2	0	[]
7567	1	1	8	60.0	2	0	[]
7578	6	3	8	60.0	2	0	[]
7591	4	1	8	60.0	2	0	[]
7601	3	1	8	60.0	2	0	[]
7607	2	1	8	60.0	2	0	[]
7611	1	11	128	600.0	2	0	[]
7619	7	1	8	60.0	2	5	[(5063, 0), (208, 0), (6659, 0), (8653, 0), (8904, 2)]
7623	3	1	8	60.0	2	1	[(3896, 0)]
7625	2	1	6	60.0	2	0	[]
7629	2	4	16	80.0	2	0	[]
7630	2	1	8	60.0	2	0	[]
7635	2	2	8	60.0	2	0	[]
7639	22	2	8	40.0	0	9	[(1416, 1), (6334, 0), (4531, 0), (6269, 1), (3108, 1), (9095, 0), (9047, 0), (3321, 2), (5905, 2)]
7641	7	3	8	60.0	2	0	[]
7643	6	1	8	60.0	2	0	[]
7652	9	2	8	60.0	2	2	[(4793, 1), (5022, 2)]
7653	1	4	8	60.0	2	0	[]
7660	1	1	8	60.0	2	0	[]
7672	2	1	8	60.0	2	1	[(580, 2)]
7674	2	1	1	60.0	2	0	[]
7678	1	4	8	80.0	2	0	[]
7683	16	12	16	100.0	2	0	[]
7685	2	1	8	60.0	2	0	[]
7691	2	1	6	60.0	2	0	[]
7695	2	2	8	60.0	2	0	[]
7700	67	21	48	300.0	2	0	[]
7703	1	1	8	40.0	0	0	[]
7704	2	1	8	60.0	2	0	[]
7709	4	2	8	60.0	2	0	[]
7710	2	1	8	60.0	2	0	[]
7712	2	1	8	60.0	2	0	[]
7713	2	1	8	60.0	2	1	[(4412, 1)]
7716	4	3	32	60.0	2	11	[(3241, 1), (3414, 1), (3942, 2), (2851, 1), (4520, 2), (1637, 1), (5420, 2), (3321, 1), (5905, 2), (4630, 2), (4710, 2)]
7717	1	4	8	60.0	2	0	[]
7721	1	1	8	60.0	2	0	[]
7723	2	1	2	60.0	2	0	[]
7727	4	6	8	60.0	2	1	[(5847, 2)]
7729	1	4	8	60.0	2	0	[]
7730	2	1	8	60.0	2	0	[]
7734	7	2	8	40.0	0	5	[(6269, 0), (5022, 0), (3414, 0), (6406, 0), (1728, 0)]
7737	3	1	8	60.0	2	0	[]
7746	1	1	1	60.0	2	0	[]
7747	10	2	8	60.0	2	1	[(6414, 2)]
7752	2	1	8	60.0	2	0	[]
7756	1	1	6	60.0	2	0	[]
7759	3	1	8	60.0	2	0	[]
7762	3	1	8	60.0	2	0	[]
7767	2	1	1	60.0	2	0	[]
7769	1	1	8	60.0	2	0	[]
7770	4	1	2	60.0	2	0	[]
7771	2	1	8	60.0	2	0	[]
7772	10	4	16	60.0	2	0	[]
7774	2	1	8	60.0	2	0	[]
7778	21	2	16	60.0	2	0	[]
7779	1	4	8	60.0	2	0	[]
7782	1	1	8	60.0	2	0	[]
7784	4	1	8	60.0	2	0	[]
7785	2	1	8	60.0	2	0	[]
7786	2	4	8	60.0	2	0	[]
7787	1	1	16	60.0	2	0	[]
7795	3	5	8	60.0	2	0	[]
7798	16	3	8	60.0	2	0	[]
7801	1	1	8	60.0	2	0	[]
7805	25	2	8	60.0	2	1	[(6421, 0)]
7808	6	1	8	60.0	2	0	[]
7812	2	1	8	60.0	2	0	[]
7817	1	1	8	60.0	2	0	[]
7818	2	1	8	60.0	2	0	[]
7821	1	1	8	60.0	2	0	[]
7831	7	1	8	80.0	2	0	[]
7834	4	4	8	60.0	2	0	[]
7839	2	4	8	60.0	2	0	[]
7841	2	1	8	60.0	2	0	[]
7842	3	2	8	60.0	2	1	[(4522, 2)]
7847	2	1	8	60.0	2	0	[]
7848	1	1	8	60.0	2	0	[]
7849	1	1	8	60.0	2	0	[]
7856	2	1	8	60.0	2	0	[]
7858	2	2	8	60.0	2	0	[]
7859	1	4	8	60.0	2	0	[]
7863	6	1	8	60.0	2	0	[]
7866	3	1	8	60.0	2	0	[]
7869	5	1	8	60.0	2	0	[]
7872	2	4	8	60.0	2	0	[]
7875	2	4	8	60.0	2	0	[]
7877	3	1	8	60.0	2	0	[]
7881	2	1	8	60.0	2	0	[]
7883	2	1	8	60.0	2	0	[]
7885	3	1	8	60.0	2	0	[]
7890	3	2	8	60.0	2	0	[]
7892	3	2	8	60.0	2	0	[]
7901	1	1	6	60.0	2	0	[]
7904	2	1	8	60.0	2	0	[]
7906	1	1	8	60.0	2	0	[]
7907	2	2	8	60.0	2	0	[]
7908	2	4	8	60.0	2	0	[]
7909	1	2	8	60.0	2	0	[]
7910	1	4	8	60.0	2	0	[]
7912	1	1	8	60.0	2	0	[]
7918	2	1	8	60.0	2	0	[]
7921	2	2	8	60.0	2	0	[]
7928	90	2	8	60.0	2	4	[(2458, 1), (5022, 0), (8155, 0), (6659, 0)]
7929	1	1	8	60.0	2	0	[]
7939	6	2	3	100.0	2	1	[(1858, 1)]
7954	1	4	8	80.0	2	0	[]
7955	2	1	8	60.0	2	0	[]
7956	6	1	8	60.0	2	1	[(4996, 1)]
7967	2	1	1	60.0	2	0	[]
7968	3	2	8	60.0	2	0	[]
7979	3	2	8	60.0	2	0	[]
7980	55	5	16	60.0	0	4	[(3414, 0), (7261, 0), (8137, 2), (6304, 0)]
7992	4	1	8	60.0	2	0	[]
8006	4	6	8	60.0	2	1	[(4966, 1)]
8007	2	4	8	60.0	2	0	[]
8009	2	1	8	60.0	2	0	[]
8014	10	1	8	60.0	2	7	[(7892, 2), (6025, 2), (2888, 0), (4025, 2), (8842, 2), (3923, 2), (3349, 2)]
8015	2	1	8	60.0	2	3	[(880, 1), (8155, 1), (69, 1)]
8025	1	1	1	60.0	2	0	[]
8029	1	1	3	60.0	2	0	[]
8030	2	1	2	60.0	2	0	[]
8043	2	1	6	60.0	2	0	[]
8052	7	1	8	60.0	2	0	[]
8053	21	6	8	60.0	2	0	[]
8057	6	3	8	100.0	2	0	[]
8058	2	1	2	60.0	2	0	[]
8059	2	4	8	60.0	2	0	[]
8061	44	3	16	100.0	2	9	[(4692, 1), (8761, 1), (5874, 2), (7877, 2), (5113, 0), (5022, 1), (6523, 2), (20, 0), (2185, 0)]
8062	1	1	8	60.0	2	0	[]
8066	1	2	8	60.0	2	0	[]
8067	1	1	8	60.0	2	0	[]
8073	6	2	8	60.0	2	0	[]
8077	2	1	2	60.0	2	0	[]
8080	2	1	8	60.0	2	0	[]
8087	1	1	4	60.0	2	0	[]
8093	1	1	2	60.0	2	0	[]
8095	5	1	8	60.0	2	0	[]
8096	1	4	8	60.0	2	0	[]
8100	5	2	8	60.0	2	0	[]
8106	36	2	8	60.0	2	6	[(3019, 1), (8842, 0), (2964, 0), (7338, 0), (3370, 0), (4011, 0)]
8108	1	1	8	60.0	2	0	[]
8111	2	1	8	60.0	2	0	[]
8120	2	1	8	60.0	2	0	[]
8123	2	1	8	60.0	2	0	[]
8127	2	1	8	60.0	2	0	[]
8130	1	1	8	60.0	2	1	[(5053, 0)]
8134	2	1	8	60.0	2	0	[]
8135	2	1	8	60.0	2	1	[(6659, 0)]
8137	4	3	8	60.0	2	0	[]
8143	2	1	2	60.0	2	0	[]
8144	103	6	8	60.0	2	2	[(6659, 0), (4736, 1)]
8150	2	4	8	60.0	2	0	[]
8151	5	1	8	60.0	2	0	[]
8152	5	1	8	60.0	2	0	[]
8154	1	1	8	60.0	2	0	[]
8155	18	4	8	60.0	2	0	[]
8164	1	1	8	60.0	2	0	[]
8166	13	1	8	100.0	2	0	[]
8168	12	3	8	60.0	2	0	[]
8174	1	4	8	60.0	2	0	[]
8176	2	1	8	60.0	2	0	[]
8178	1	2	8	40.0	0	0	[]
8181	1	1	8	60.0	2	0	[]
8188	2	1	8	80.0	2	0	[]
8190	2	2	8	60.0	2	1	[(6659, 0)]
8194	18	2	8	60.0	2	0	[]
8198	4	2	8	60.0	2	0	[]
8201	2	4	8	60.0	2	0	[]
8203	9	2	8	60.0	2	2	[(4993, 0), (4702, 0)]
8205	2	1	8	60.0	2	0	[]
8207	3	1	8	60.0	2	0	[]
8209	8	1	8	60.0	2	0	[]
8211	2	1	8	60.0	2	0	[]
8215	6	2	8	60.0	2	0	[]
8216	2	1	8	60.0	2	0	[]
8218	4	1	8	60.0	2	0	[]
8219	4	1	8	60.0	2	0	[]
8236	2	3	8	60.0	2	0	[]
8245	2	1	8	60.0	2	0	[]
8246	3	1	8	60.0	2	0	[]
8251	3	5	8	60.0	2	1	[(4541, 2)]
8255	2	1	8	60.0	2	0	[]
8257	2	1	8	60.0	2	0	[]
8258	5	1	2	60.0	2	1	[(6659, 0)]
8259	1	1	1	60.0	2	0	[]
8261	7	1	8	40.0	2	0	[]
8273	11	1	2	60.0	2	0	[]
8281	6	1	8	60.0	2	0	[]
8292	2	2	8	60.0	2	0	[]
8296	2	1	8	60.0	2	0	[]
8306	2	1	8	60.0	2	0	[]
8315	8	1	8	60.0	2	0	[]
8317	1	6	8	60.0	2	0	[]
8319	2	1	8	60.0	2	0	[]
8328	15	3	8	60.0	2	1	[(5544, 1)]
8333	10	2	16	80.0	2	3	[(5965, 2), (2668, 0), (3526, 0)]
8341	3	1	8	60.0	2	0	[]
8350	1	4	8	60.0	2	0	[]
8351	1	1	8	60.0	2	0	[]
8354	2	1	5	60.0	2	0	[]
8359	1	1	8	60.0	2	0	[]
8365	7	1	8	60.0	2	4	[(7798, 2), (1019, 0), (3001, 2), (1480, 1)]
8372	2	1	8	60.0	2	0	[]
8373	1	2	8	60.0	2	0	[]
8378	6	1	2	60.0	2	0	[]
8380	2	1	8	60.0	2	0	[]
8385	2	5	8	60.0	2	1	[(4412, 1)]
8390	1	1	8	60.0	2	0	[]
8393	3	1	2	60.0	2	0	[]
8395	2	1	8	60.0	2	0	[]
8398	1	1	2	60.0	2	0	[]
8402	2	1	8	60.0	2	0	[]
8404	1	1	8	60.0	2	0	[]
8406	2	1	8	60.0	2	0	[]
8407	7	2	8	60.0	2	0	[]
8410	9	2	8	60.0	2	1	[(1720, 2)]
8415	2	1	8	60.0	2	0	[]
8419	3	1	8	60.0	2	0	[]
8423	4	1	6	60.0	2	0	[]
8425	1	1	6	60.0	2	0	[]
8427	2	1	6	60.0	2	0	[]
8436	3	1	8	80.0	2	5	[(1637, 0), (15, 0), (1728, 0), (3879, 0), (208, 0)]
8438	5	3	8	60.0	2	0	[]
8440	2	1	8	60.0	2	0	[]
8444	3	1	8	60.0	2	0	[]
8450	1	1	2	60.0	2	0	[]
8453	9	1	8	60.0	2	0	[]
8459	1	1	1	60.0	2	0	[]
8461	1	8	16	100.0	2	0	[]
8462	2	1	6	60.0	2	0	[]
8463	4	1	8	60.0	2	0	[]
8465	10	3	8	60.0	2	0	[]
8470	5	1	8	60.0	2	1	[(6659, 0)]
8472	2	4	8	60.0	2	0	[]
8482	7	3	8	60.0	2	0	[]
8484	8	2	8	60.0	2	1	[(6659, 0)]
8485	4	1	8	40.0	2	0	[]
8487	2	1	8	60.0	2	0	[]
8494	3	1	8	60.0	2	0	[]
8496	3	1	8	60.0	2	0	[]
8497	1	1	8	60.0	2	0	[]
8500	28	4	8	40.0	0	5	[(3108, 2), (4576, 0), (689, 2), (5905, 2), (6659, 0)]
8503	4	6	8	60.0	2	0	[]
8507	4	5	8	60.0	2	0	[]
8508	1	1	8	60.0	2	0	[]
8509	2	1	8	60.0	2	0	[]
8510	2	1	8	60.0	2	0	[]
8513	2	1	8	60.0	2	0	[]
8520	6	2	8	60.0	2	0	[]
8526	2	1	8	60.0	2	0	[]
8527	6	1	8	60.0	2	0	[]
8528	5	5	8	60.0	2	0	[]
8529	31	4	8	60.0	2	0	[]
8533	1	1	8	60.0	2	0	[]
8537	2	1	8	60.0	2	0	[]
8546	2	1	8	60.0	2	0	[]
8548	2	1	8	60.0	2	1	[(6659, 0)]
8550	1	1	8	60.0	2	0	[]
8558	11	2	8	60.0	2	0	[]
8559	2	32	128	600.0	2	0	[]
8563	2	4	8	60.0	2	0	[]
8566	5	3	8	60.0	2	0	[]
8569	24	1	8	60.0	2	0	[]
8571	4	1	8	60.0	2	0	[]
8573	1	1	8	60.0	2	0	[]
8574	4	1	8	60.0	2	0	[]
8575	2	1	8	60.0	2	0	[]
8577	1	4	8	60.0	2	0	[]
8583	21	4	8	40.0	2	1	[(3108, 2)]
8586	3	1	8	60.0	2	0	[]
8595	1	1	8	60.0	2	0	[]
8596	2	1	8	60.0	2	0	[]
8597	1	1	8	60.0	2	0	[]
8603	1	1	8	60.0	2	0	[]
8605	6	2	8	60.0	2	0	[]
8607	2	1	2	60.0	2	1	[(580, 2)]
8609	2	1	6	60.0	2	0	[]
8612	2	1	8	60.0	2	0	[]
8617	2	4	8	60.0	2	0	[]
8621	1	1	8	60.0	2	5	[(3908, 0), (4993, 0), (9029, 0), (490, 0), (6824, 0)]
8636	3	3	8	60.0	2	0	[]
8639	2	1	8	60.0	2	0	[]
8651	2	1	8	60.0	2	0	[]
8653	101	5	8	60.0	2	6	[(4338, 2), (3283, 0), (1781, 0), (6269, 0), (5470, 0), (2458, 1)]
8659	1	2	8	60.0	2	0	[]
8663	4	2	8	60.0	2	0	[]
8666	1	1	16	60.0	2	0	[]
8669	41	4	16	60.0	2	6	[(5053, 0), (8251, 0), (6335, 0), (1404, 0), (1298, 0), (6725, 0)]
8671	7	1	8	60.0	2	0	[]
8672	2	4	8	60.0	2	0	[]
8673	17	2	8	60.0	2	0	[]
8677	2	3	8	60.0	2	0	[]
8679	2	1	1	100.0	2	0	[]
8680	12	1	8	60.0	2	0	[]
8687	2	1	8	60.0	2	0	[]
8689	1	1	8	60.0	2	0	[]
8690	2	1	2	60.0	2	0	[]
8695	11	1	8	100.0	2	0	[]
8696	2	1	8	60.0	2	0	[]
8697	2	1	16	60.0	2	0	[]
8698	18	3	8	40.0	2	1	[(6201, 1)]
8699	1	1	8	60.0	2	0	[]
8708	2	2	8	60.0	2	0	[]
8710	23	4	8	60.0	2	2	[(3322, 1), (5022, 2)]
8712	4	1	8	60.0	2	0	[]
8713	8	1	4	60.0	2	0	[]
8716	37	5	16	60.0	0	1	[(6025, 0)]
8720	2	1	8	60.0	2	0	[]
8723	14	1	6	100.0	2	0	[]
8725	13	1	8	60.0	2	0	[]
8742	3	1	8	60.0	2	1	[(7024, 1)]
8744	2	1	8	60.0	2	0	[]
8745	2	1	8	60.0	2	0	[]
8757	1	1	8	60.0	2	0	[]
8761	3	4	8	60.0	2	0	[]
8764	1	1	1	60.0	2	0	[]
8766	6	6	8	60.0	2	0	[]
8768	1	1	6	60.0	2	0	[]
8770	1	1	7	60.0	2	0	[]
8773	8	2	8	60.0	2	0	[]
8774	25	6	8	60.0	2	1	[(4376, 0)]
8776	6	2	8	60.0	2	0	[]
8785	1	1	8	60.0	2	0	[]
8786	4	4	8	60.0	2	0	[]
8795	5	6	8	60.0	2	1	[(6659, 0)]
8797	2	1	8	60.0	2	0	[]
8800	2	1	3	60.0	2	0	[]
8802	2	4	8	60.0	2	0	[]
8806	2	1	8	60.0	2	0	[]
8810	2	2	8	60.0	2	0	[]
8814	2	1	8	60.0	2	0	[]
8817	1	1	8	60.0	2	1	[(5022, 1)]
8818	25	2	8	60.0	2	1	[(5874, 1)]
8823	1	1	8	60.0	2	0	[]
8824	3	4	10	60.0	2	1	[(6659, 0)]
8829	2	1	8	60.0	2	0	[]
8832	1	1	8	60.0	2	0	[]
8835	1	1	8	60.0	2	0	[]
8836	4	1	8	60.0	2	0	[]
8842	151	2	16	60.0	2	11	[(1416, 0), (3759, 0), (6659, 0), (8653, 0), (7639, 0), (6715, 2), (7778, 2), (3321, 0), (3250, 0), (5958, 1), (4755, 2)]
8847	1	1	8	60.0	2	0	[]
8852	24	6	8	60.0	2	0	[]
8855	5	3	8	60.0	2	0	[]
8856	3	1	8	60.0	2	0	[]
8857	1	2	8	60.0	2	0	[]
8867	2	1	7	60.0	2	0	[]
8868	1	3	16	40.0	2	0	[]
8870	2	2	13	150.0	2	0	[]
8871	8	1	8	60.0	2	0	[]
8873	2	4	8	60.0	2	0	[]
8875	1	1	8	60.0	2	0	[]
8876	1	1	8	60.0	2	0	[]
8877	1	1	2	60.0	2	0	[]
8884	5	2	8	100.0	2	2	[(5034, 2), (4966, 2)]
8891	1	1	6	60.0	2	0	[]
8896	4	1	8	60.0	2	0	[]
8900	1	3	16	60.0	1	0	[]
8904	24	4	8	60.0	2	0	[]
8906	2	1	8	60.0	2	0	[]
8912	2	1	8	60.0	2	0	[]
8921	1	1	8	60.0	2	0	[]
8922	6	2	8	60.0	2	0	[]
8924	4	1	8	60.0	2	0	[]
8925	2	2	8	60.0	2	0	[]
8926	1	1	7	60.0	2	0	[]
8928	4	1	8	60.0	2	0	[]
8932	1	6	8	60.0	2	0	[]
8933	2	1	1	60.0	2	0	[]
8935	16	2	8	60.0	2	7	[(2090, 0), (6873, 0), (13, 0), (3555, 0), (4448, 0), (2585, 0), (6725, 0)]
8938	2	1	2	60.0	2	0	[]
8939	3	1	8	60.0	2	0	[]
8940	2	1	8	60.0	2	0	[]
8941	2	2	8	60.0	2	0	[]
8942	4	1	8	60.0	2	0	[]
8949	2	4	8	60.0	2	0	[]
8952	1	1	6	60.0	2	0	[]
8959	2	1	8	60.0	2	0	[]
8963	1	1	1	60.0	2	0	[]
8964	2	1	8	60.0	2	0	[]
8969	1	1	8	60.0	2	0	[]
8973	2	1	8	60.0	2	0	[]
8975	2	1	8	80.0	2	0	[]
8976	5	1	8	60.0	2	0	[]
8977	4	1	8	60.0	2	1	[(2263, 0)]
8979	40	3	8	60.0	2	3	[(2856, 2), (5185, 2), (6659, 0)]
8982	2	1	8	60.0	2	0	[]
8990	3	1	2	60.0	2	0	[]
8991	1	1	16	100.0	2	0	[]
8999	1	1	1	60.0	2	0	[]
9001	1	1	8	60.0	2	0	[]
9008	1	1	1	40.0	2	0	[]
9015	2	1	11	200.0	2	0	[]
9019	1	1	8	60.0	2	0	[]
9020	2	1	8	60.0	2	0	[]
9022	2	2	8	60.0	2	0	[]
9024	1	1	8	60.0	2	0	[]
9029	3	1	8	60.0	2	0	[]
9037	5	1	8	60.0	2	0	[]
9039	2	1	8	60.0	2	0	[]
9041	2	4	8	60.0	2	0	[]
9047	55	3	8	40.0	0	6	[(1416, 0), (4341, 0), (1637, 0), (3108, 2), (5022, 0), (3321, 2)]
9048	2	4	8	60.0	2	0	[]
9057	3	2	8	60.0	2	0	[]
9063	1	1	2	60.0	2	0	[]
9064	6	1	8	60.0	2	0	[]
9068	1	4	8	60.0	2	0	[]
9070	3	2	8	60.0	2	0	[]
9075	9	2	8	60.0	2	1	[(7980, 0)]
9088	1	1	8	60.0	2	0	[]
9091	7	5	8	60.0	2	0	[]
9093	9	1	32	100.0	2	0	[]
9095	179	6	8	40.0	1	10	[(4608, 0), (3831, 1), (6659, 0), (3942, 0), (7639, 0), (7261, 0), (4947, 0), (6304, 0), (4576, 0), (3370, 0)]
9107	2	4	8	60.0	2	0	[]
9110	7	1	8	60.0	2	0	[]
9113	3	1	8	60.0	2	0	[]
9121	2	1	2	60.0	2	0	[]
9129	1	1	8	60.0	2	0	[]
9130	1	1	1	60.0	2	0	[]
9134	2	1	8	60.0	2	0	[]
9137	1	1	8	60.0	2	0	[]
9138	72	6	8	60.0	2	3	[(2487, 0), (1781, 0), (6659, 0)]
9149	5	2	8	60.0	2	0	[]
9153	2	1	8	60.0	2	0	[]
9155	1	1	8	60.0	2	0	[]
9157	5	2	8	60.0	2	1	[(4923, 1)]
9162	8	1	8	60.0	2	0	[]
9164	1	1	8	60.0	2	0	[]
9165	62	6	8	60.0	2	12	[(3088, 0), (1111, 0), (8653, 0), (4287, 0), (3994, 0), (2998, 0), (3759, 0), (2856, 0), (756, 0), (1952, 0), (4668, 0), (3589, 1)]
9172	1	1	8	60.0	2	0	[]
9173	4	1	2	60.0	2	1	[(3806, 1)]
9178	1	4	8	60.0	2	0	[]
9179	2	1	8	60.0	2	0	[]
9180	5	2	8	60.0	2	1	[(6355, 2)]
9181	1	1	8	60.0	2	0	[]
9183	1	1	8	60.0	2	0	[]
9184	1	1	4	60.0	2	0	[]
9187	4	1	2	60.0	2	0	[]
9189	1	1	8	60.0	2	0	[]
9191	3	1	8	60.0	2	0	[]
9193	7	2	8	100.0	2	2	[(4582, 0), (6235, 0)]
9197	2	12	16	100.0	2	0	[]
9198	1	2	16	60.0	0	0	[]
9202	2	1	8	60.0	2	0	[]
9204	6	1	8	60.0	2	0	[]
9210	1	1	8	60.0	2	0	[]
9215	1	1	8	60.0	2	0	[]
9216	5	2	8	60.0	2	1	[(3199, 0)]
9219	5	3	8	60.0	2	0	[]
9221	1	1	8	60.0	2	0	[]
9223	2	1	8	60.0	2	0	[]
9224	2	1	3	60.0	2	0	[]
9225	1	1	7	60.0	2	0	[]
9227	1	4	8	60.0	2	0	[]
9229	1	4	8	60.0	2	0	[]
9233	3	4	8	60.0	2	0	[]
9235	2	2	2	60.0	2	0	[]
9242	2	1	8	60.0	2	0	[]
9243	6	1	8	60.0	2	0	[]
9247	2	1	1	60.0	2	0	[]
9255	1	1	8	60.0	2	0	[]
9258	2	1	8	60.0	2	0	[]
9271	1	1	8	60.0	2	0	[]
9274	2	1	8	60.0	2	0	[]
9275	3	1	8	60.0	2	0	[]
9276	4	3	16	100.0	2	0	[]
9284	2	1	2	60.0	2	0	[]
9287	1	4	16	80.0	2	0	[]
9297	25	2	8	60.0	2	0	[]
9298	3	2	8	60.0	2	0	[]
9299	1	4	8	60.0	2	0	[]
9300	2	4	8	60.0	2	0	[]
9302	2	2	2	60.0	2	0	[]
9304	2	1	8	60.0	2	0	[]
9305	2	1	8	60.0	2	1	[(4173, 2)]
9309	1	4	8	60.0	2	0	[]
9312	2	1	3	60.0	2	0	[]
9316	2	1	2	60.0	2	0	[]
9319	4	2	8	60.0	2	0	[]
9336	8	1	2	80.0	2	0	[]
9337	6	1	8	60.0	2	0	[]
