app_id	nb_instances	core	memory	disk	intra_value	inter_degree	inter_aff
1	1	1	8	60.0	2	0	[]
8	4	1	8	60.0	2	0	[]
9	1	1	2	60.0	2	0	[]
10	1	4	8	60.0	2	0	[]
13	8	2	2	60.0	2	0	[]
23	2	1	8	60.0	2	0	[]
32	2	1	8	60.0	2	0	[]
36	1	4	8	60.0	2	0	[]
50	8	3	8	60.0	2	1	[(3861, 0)]
56	5	1	8	60.0	2	0	[]
57	1	4	8	60.0	2	0	[]
64	1	1	8	60.0	2	0	[]
65	7	1	8	60.0	2	0	[]
66	3	4	8	60.0	2	0	[]
67	21	1	8	60.0	2	0	[]
75	2	1	8	60.0	2	0	[]
76	1	1	8	60.0	2	0	[]
77	6	3	8	60.0	2	4	[(3321, 0), (5740, 0), (4471, 0), (5022, 0)]
80	145	12	16	60.0	2	11	[(3241, 2), (1741, 3), (7392, 2), (1637, 2), (1851, 0), (8834, 2), (7102, 2), (2175, 3), (704, 2), (6429, 2), (312, 0)]
82	2	1	2	60.0	2	0	[]
84	2	1	7	60.0	2	0	[]
85	3	6	8	60.0	2	0	[]
88	5	1	8	60.0	2	0	[]
90	2	2	8	60.0	2	0	[]
93	2	4	8	300.0	2	0	[]
95	2	2	2	60.0	2	0	[]
101	2	1	8	60.0	2	0	[]
109	2	4	16	60.0	2	0	[]
112	2	1	2	60.0	2	0	[]
116	3	1	8	60.0	2	0	[]
120	7	1	8	60.0	2	0	[]
128	2	1	8	60.0	2	0	[]
130	1	2	8	40.0	2	0	[]
132	2	6	8	60.0	2	0	[]
135	36	3	2	60.0	2	0	[]
137	2	1	2	60.0	2	0	[]
138	1	1	8	60.0	2	0	[]
139	2	1	6	60.0	2	0	[]
153	2	1	8	60.0	2	0	[]
156	1	1	8	60.0	2	0	[]
157	2	1	2	60.0	2	0	[]
160	6	1	8	40.0	2	0	[]
161	1	1	8	60.0	2	0	[]
162	1	1	7	60.0	2	0	[]
170	2	1	2	60.0	2	0	[]
172	2	1	3	60.0	2	0	[]
176	1	1	32	80.0	0	0	[]
177	1	1	8	60.0	2	0	[]
179	2	1	2	60.0	2	0	[]
182	6	1	8	60.0	2	0	[]
191	7	1	2	60.0	2	0	[]
193	2	1	8	80.0	2	0	[]
195	3	1	2	60.0	2	0	[]
198	3	2	8	60.0	2	0	[]
201	2	1	8	60.0	2	0	[]
204	1	1	2	60.0	2	0	[]
210	4	1	8	60.0	2	1	[(4193, 0)]
213	4	1	8	60.0	2	0	[]
223	2	1	8	60.0	2	0	[]
225	2	2	8	60.0	2	0	[]
231	1	8	16	40.0	2	0	[]
245	2	1	8	60.0	2	0	[]
249	1	1	8	60.0	2	0	[]
250	13	2	8	100.0	2	5	[(4913, 2), (6121, 1), (1997, 2), (3010, 2), (1499, 1)]
263	2	1	8	60.0	2	0	[]
269	6	1	8	60.0	2	0	[]
270	11	1	8	60.0	2	0	[]
277	1	1	8	60.0	2	0	[]
280	2	1	8	60.0	2	0	[]
281	8	3	8	40.0	2	5	[(7092, 0), (5366, 0), (7309, 0), (1637, 0), (1592, 0)]
282	1	1	8	60.0	2	0	[]
291	1	1	8	60.0	2	0	[]
294	2	1	8	60.0	2	0	[]
295	2	1	8	60.0	2	0	[]
296	2	1	8	60.0	2	0	[]
298	2	1	8	60.0	2	0	[]
299	2	1	2	60.0	2	0	[]
306	4	1	8	60.0	2	0	[]
312	5	1	8	40.0	2	1	[(80, 1)]
314	1	6	8	60.0	2	0	[]
317	6	2	8	60.0	2	1	[(5022, 1)]
320	3	1	8	60.0	2	0	[]
327	5	2	8	60.0	2	0	[]
328	2	1	8	60.0	2	0	[]
332	2	4	2	60.0	2	0	[]
337	1	1	7	60.0	2	0	[]
344	17	2	8	60.0	2	0	[]
348	2	1	8	60.0	2	0	[]
350	7	3	8	60.0	2	0	[]
351	24	1	4	60.0	2	0	[]
354	6	1	8	60.0	2	0	[]
355	106	11	16	100.0	2	4	[(6825, 1), (5339, 2), (1099, 1), (693, 0)]
359	3	3	48	300.0	2	0	[]
373	1	4	8	60.0	2	0	[]
374	2	1	40	60.0	2	0	[]
375	3	1	1	60.0	2	2	[(1336, 0), (3286, 0)]
376	37	2	8	60.0	2	4	[(6710, 2), (4531, 2), (4007, 1), (5022, 2)]
377	1	1	8	60.0	2	0	[]
383	1	1	8	60.0	2	0	[]
387	2	4	8	60.0	2	1	[(2980, 0)]
390	2	2	8	60.0	2	0	[]
393	5	1	8	60.0	2	4	[(519, 0), (3469, 0), (7007, 0), (9219, 0)]
395	1	4	8	60.0	2	0	[]
396	4	1	8	60.0	2	0	[]
398	2	1	1	60.0	2	0	[]
399	2	1	8	60.0	2	0	[]
400	2	1	8	60.0	2	1	[(4448, 0)]
402	3	1	8	60.0	2	0	[]
410	2	1	8	60.0	2	0	[]
415	1	1	2	60.0	2	0	[]
417	2	1	8	60.0	2	0	[]
418	5	2	8	60.0	2	0	[]
424	18	2	8	60.0	2	1	[(6695, 2)]
428	3	5	16	200.0	2	0	[]
433	1	1	8	60.0	2	0	[]
442	25	2	8	60.0	2	1	[(4730, 0)]
446	2	2	8	60.0	2	0	[]
454	1	4	8	60.0	2	0	[]
467	4	1	8	60.0	2	0	[]
469	2	1	2	200.0	2	0	[]
470	1	1	1	60.0	2	1	[(3157, 1)]
478	2	1	8	60.0	2	0	[]
480	3	3	8	60.0	2	0	[]
483	14	1	8	60.0	2	0	[]
486	2	1	6	60.0	2	0	[]
487	19	1	32	200.0	2	0	[]
489	2	1	8	60.0	2	0	[]
494	2	1	2	60.0	2	0	[]
504	1	1	8	60.0	2	0	[]
505	14	2	8	60.0	2	0	[]
510	2	1	16	60.0	2	0	[]
511	2	1	8	60.0	2	0	[]
518	1	1	8	60.0	2	0	[]
519	3	1	8	80.0	2	0	[]
520	1	1	8	60.0	2	0	[]
526	3	1	8	60.0	2	0	[]
527	2	2	8	60.0	2	0	[]
528	2	1	8	60.0	2	0	[]
532	1	1	8	60.0	2	0	[]
534	2	1	8	60.0	2	0	[]
537	2	4	8	60.0	2	0	[]
539	2	1	8	60.0	2	0	[]
542	1	1	8	60.0	2	0	[]
543	1	1	8	60.0	2	0	[]
546	2	1	8	60.0	2	0	[]
551	16	3	8	100.0	2	0	[]
554	2	1	2	60.0	2	0	[]
562	33	2	8	60.0	2	5	[(575, 0), (2224, 0), (5522, 0), (182, 2), (2668, 0)]
563	2	1	8	60.0	2	0	[]
566	2	1	8	60.0	2	0	[]
567	2	1	5	60.0	2	0	[]
569	4	1	8	60.0	2	0	[]
575	7	1	4	100.0	2	0	[]
577	1	2	8	40.0	2	4	[(6269, 0), (281, 0), (9052, 0), (312, 0)]
586	6	3	8	60.0	2	0	[]
587	1	1	8	60.0	2	0	[]
591	1	1	2	60.0	2	0	[]
592	1	16	32	200.0	2	0	[]
594	2	1	8	60.0	2	0	[]
595	3	5	8	60.0	2	1	[(7548, 1)]
598	3	1	8	60.0	2	0	[]
600	1	1	8	60.0	2	0	[]
601	4	1	8	60.0	2	0	[]
605	1	1	8	60.0	2	0	[]
606	2	1	8	60.0	2	0	[]
607	2	4	8	60.0	2	2	[(50, 0), (2007, 0)]
610	2	1	8	60.0	2	0	[]
611	3	1	8	60.0	2	0	[]
612	4	5	8	60.0	2	0	[]
613	13	6	8	60.0	2	1	[(8897, 0)]
615	14	2	8	60.0	2	0	[]
619	2	1	8	60.0	2	0	[]
623	2	1	8	60.0	2	0	[]
627	1	2	8	60.0	2	0	[]
632	5	1	8	60.0	2	0	[]
637	1	1	32	200.0	0	0	[]
639	2	1	8	60.0	2	0	[]
642	25	6	8	60.0	2	0	[]
646	27	6	8	60.0	2	7	[(6748, 1), (3634, 0), (5840, 2), (2902, 2), (8469, 2), (8180, 0), (3896, 1)]
647	2	3	2	60.0	2	0	[]
653	2	1	8	60.0	2	0	[]
656	2	12	8	60.0	2	0	[]
658	2	2	16	80.0	2	0	[]
669	2	1	8	60.0	2	0	[]
670	2	1	5	60.0	2	0	[]
671	2	4	8	60.0	2	0	[]
672	1	1	2	60.0	2	0	[]
673	1	1	8	60.0	2	0	[]
676	1	1	8	60.0	2	0	[]
677	1	11	16	80.0	2	0	[]
684	2	1	8	60.0	2	0	[]
693	14	2	8	60.0	2	2	[(3534, 1), (8753, 0)]
695	27	4	8	60.0	2	3	[(7732, 2), (5864, 0), (3526, 0)]
697	2	1	8	60.0	2	0	[]
698	1	1	2	80.0	2	0	[]
700	2	1	2	60.0	2	0	[]
704	61	5	32	60.0	2	13	[(3241, 1), (1741, 2), (2964, 2), (9216, 2), (971, 2), (7392, 2), (1637, 1), (8834, 2), (80, 2), (4550, 1), (2175, 2), (6034, 2), (3321, 1)]
705	1	1	8	60.0	2	0	[]
715	4	1	8	60.0	2	0	[]
718	2	5	8	60.0	2	0	[]
722	1	1	2	60.0	2	0	[]
729	2	1	8	60.0	2	0	[]
730	3	1	2	60.0	2	0	[]
731	1	1	1	60.0	2	0	[]
734	1	12	16	60.0	2	0	[]
740	3	1	2	60.0	2	0	[]
741	2	1	8	60.0	2	0	[]
744	2	4	8	60.0	2	0	[]
752	2	1	8	60.0	2	0	[]
755	6	12	16	60.0	2	0	[]
757	3	2	8	60.0	2	0	[]
762	2	1	8	60.0	2	0	[]
772	1	1	8	60.0	2	0	[]
773	5	1	8	60.0	2	0	[]
774	40	6	8	80.0	2	2	[(80, 2), (2889, 2)]
777	2	1	8	60.0	2	0	[]
786	2	1	8	60.0	2	0	[]
791	8	1	7	60.0	2	0	[]
793	15	2	2	60.0	2	0	[]
796	7	1	8	60.0	2	0	[]
800	19	1	8	60.0	2	1	[(2917, 0)]
803	8	3	8	60.0	2	0	[]
806	1	1	8	60.0	2	0	[]
820	2	1	8	60.0	2	0	[]
822	1	4	8	100.0	2	0	[]
825	1	4	8	60.0	2	0	[]
826	2	1	2	60.0	2	0	[]
830	2	1	8	60.0	2	0	[]
832	6	1	8	60.0	2	4	[(3321, 2), (9145, 2), (7338, 0), (7309, 2)]
834	1	1	1	60.0	2	0	[]
835	7	2	8	60.0	2	0	[]
839	10	6	8	60.0	2	0	[]
840	6	2	8	60.0	2	0	[]
845	3	1	8	60.0	2	0	[]
847	2	5	8	60.0	2	0	[]
850	3	1	8	60.0	2	1	[(328, 1)]
856	1	1	7	60.0	2	0	[]
858	2	1	8	60.0	2	0	[]
864	4	2	8	60.0	2	0	[]
865	4	3	8	60.0	2	0	[]
867	1	1	8	60.0	2	0	[]
871	2	1	4	60.0	2	0	[]
872	1	1	8	60.0	2	0	[]
873	3	2	8	60.0	2	0	[]
874	1	1	8	60.0	2	0	[]
877	5	1	8	60.0	2	0	[]
886	2	2	8	60.0	2	0	[]
893	1	1	8	60.0	2	0	[]
900	1	8	16	60.0	1	0	[]
903	2	1	8	60.0	2	0	[]
911	1	1	2	60.0	2	0	[]
917	2	2	8	60.0	2	0	[]
918	3	1	8	60.0	2	0	[]
920	4	2	8	200.0	2	2	[(3495, 0), (8138, 2)]
929	2	1	8	60.0	2	0	[]
930	7	3	8	60.0	2	0	[]
949	16	2	8	40.0	2	1	[(5022, 0)]
953	5	1	8	60.0	2	0	[]
956	2	1	8	60.0	2	0	[]
962	2	1	8	60.0	2	0	[]
964	1	1	8	60.0	2	0	[]
965	1	1	8	60.0	2	1	[(9165, 2)]
966	2	2	16	80.0	2	0	[]
969	2	1	8	60.0	2	0	[]
971	7	2	8	60.0	2	1	[(4825, 2)]
973	3	1	8	60.0	2	0	[]
976	2	1	2	60.0	2	0	[]
983	1	1	7	60.0	2	0	[]
988	2	1	8	80.0	2	0	[]
995	13	1	8	60.0	2	3	[(4825, 2), (1721, 1), (5022, 0)]
1001	3	1	8	60.0	2	0	[]
1003	1	1	8	60.0	2	0	[]
1004	3	1	8	60.0	2	0	[]
1008	4	1	8	60.0	2	0	[]
1010	1	1	8	60.0	2	0	[]
1015	2	1	8	60.0	2	0	[]
1021	3	1	8	60.0	2	2	[(5022, 0), (6911, 0)]
1025	4	1	8	40.0	2	1	[(577, 0)]
1034	2	1	8	60.0	2	0	[]
1035	1	1	7	60.0	2	0	[]
1038	1	8	16	80.0	2	0	[]
1039	1	4	8	60.0	2	0	[]
1048	4	1	8	60.0	2	0	[]
1052	1	1	8	60.0	2	0	[]
1054	1	3	8	60.0	2	0	[]
1057	4	1	8	60.0	2	0	[]
1058	1	1	8	60.0	2	0	[]
1064	1	1	8	60.0	2	0	[]
1069	2	1	8	60.0	2	0	[]
1075	2	1	5	60.0	2	0	[]
1079	1	1	1	60.0	2	0	[]
1082	1	1	8	60.0	2	0	[]
1084	2	1	8	60.0	2	0	[]
1085	2	2	8	60.0	2	0	[]
1086	2	1	8	60.0	2	0	[]
1087	2	1	2	60.0	2	0	[]
1091	12	6	8	60.0	2	1	[(415, 1)]
1094	1	4	8	60.0	2	0	[]
1097	34	5	8	60.0	2	2	[(5779, 2), (8278, 0)]
1099	15	1	2	60.0	2	0	[]
1108	2	1	8	60.0	2	0	[]
1109	2	1	8	60.0	2	0	[]
1110	5	2	8	60.0	2	0	[]
1111	1	1	1	60.0	2	0	[]
1112	2	1	8	60.0	2	0	[]
1114	1	4	8	60.0	0	0	[]
1116	2	4	8	80.0	2	0	[]
1117	2	1	8	60.0	2	0	[]
1120	2	1	2	60.0	2	0	[]
1125	1	36	30	300.0	2	0	[]
1131	2	1	8	60.0	2	0	[]
1133	1	1	8	60.0	2	0	[]
1135	1	1	8	60.0	2	0	[]
1143	3	1	7	60.0	2	0	[]
1155	9	3	8	60.0	2	0	[]
1156	2	1	3	100.0	2	0	[]
1167	4	3	7	60.0	2	0	[]
1168	2	4	8	60.0	2	0	[]
1169	4	2	8	60.0	2	0	[]
1170	2	1	8	60.0	2	0	[]
1171	1	1	8	60.0	2	0	[]
1173	53	3	8	60.0	2	7	[(839, 2), (80, 1), (3247, 2), (3321, 2), (7648, 2), (4471, 1), (3286, 1)]
1176	4	1	2	60.0	2	0	[]
1180	2	1	8	60.0	2	0	[]
1181	1	1	8	60.0	2	0	[]
1186	1	1	5	60.0	2	0	[]
1187	2	1	8	60.0	2	0	[]
1193	2	1	8	60.0	2	0	[]
1194	3	1	8	60.0	2	0	[]
1197	6	2	8	60.0	2	0	[]
1198	1	2	8	60.0	2	0	[]
1204	2	1	8	60.0	2	0	[]
1214	2	1	8	60.0	2	0	[]
1215	1	1	8	60.0	2	0	[]
1216	5	1	8	60.0	2	0	[]
1220	2	1	8	60.0	2	0	[]
1226	2	2	2	60.0	2	0	[]
1227	76	3	8	60.0	2	3	[(80, 2), (9127, 0), (577, 0)]
1231	1	1	8	60.0	2	0	[]
1241	3	1	8	60.0	2	0	[]
1247	4	1	8	60.0	2	0	[]
1249	2	4	8	60.0	2	0	[]
1250	1	1	8	60.0	2	0	[]
1257	2	1	1	60.0	2	0	[]
1258	24	3	8	60.0	2	0	[]
1259	21	4	8	60.0	2	1	[(7267, 0)]
1267	5	1	2	60.0	2	0	[]
1272	4	1	8	60.0	2	0	[]
1273	2	1	7	60.0	2	0	[]
1282	1	1	1	60.0	2	0	[]
1291	4	1	8	60.0	2	0	[]
1294	8	1	8	60.0	2	0	[]
1296	12	1	8	60.0	2	1	[(704, 1)]
1298	27	4	8	60.0	2	0	[]
1303	2	1	8	60.0	2	0	[]
1310	151	5	8	60.0	2	13	[(3802, 1), (1781, 0), (7826, 1), (2263, 0), (7935, 2), (9216, 1), (2917, 0), (4825, 1), (7338, 0), (6597, 0), (7102, 1), (704, 0), (2153, 0)]
1314	24	2	8	60.0	2	1	[(8278, 2)]
1322	4	4	8	60.0	2	0	[]
1324	10	6	8	60.0	2	1	[(5868, 0)]
1325	2	1	8	60.0	2	0	[]
1336	2	4	8	60.0	2	0	[]
1337	1	3	8	60.0	2	0	[]
1341	1	1	7	60.0	2	0	[]
1344	25	3	8	60.0	2	0	[]
1345	3	1	8	60.0	2	0	[]
1350	2	3	8	60.0	2	0	[]
1351	1	2	2	60.0	2	0	[]
1353	1	1	1	60.0	2	0	[]
1357	1	1	2	60.0	2	0	[]
1361	7	1	8	60.0	2	2	[(5570, 0), (2917, 0)]
1368	1	1	8	60.0	2	0	[]
1370	1	4	16	80.0	2	0	[]
1371	1	1	8	60.0	2	0	[]
1374	10	1	8	60.0	2	2	[(3283, 0), (6827, 0)]
1375	3	4	8	60.0	2	0	[]
1384	1	1	8	60.0	2	0	[]
1386	2	1	8	60.0	2	0	[]
1388	8	2	8	60.0	2	0	[]
1395	3	2	8	60.0	2	0	[]
1397	1	1	8	60.0	2	0	[]
1412	6	5	8	60.0	2	0	[]
1413	2	1	8	60.0	2	0	[]
1417	1	2	8	60.0	2	0	[]
1418	2	1	8	60.0	2	0	[]
1420	2	1	32	100.0	2	0	[]
1426	10	6	8	100.0	2	0	[]
1435	3	1	8	60.0	2	0	[]
1436	1	1	8	60.0	2	0	[]
1438	8	2	8	60.0	2	0	[]
1441	2	1	2	60.0	2	0	[]
1442	1	1	8	60.0	2	0	[]
1443	103	6	8	60.0	0	6	[(7935, 0), (971, 0), (2033, 0), (704, 2), (7026, 0), (4825, 0)]
1444	1	1	8	60.0	2	0	[]
1448	1	1	5	60.0	2	0	[]
1449	10	1	8	60.0	2	0	[]
1452	3	5	8	60.0	2	0	[]
1462	1	1	8	60.0	2	0	[]
1464	8	1	8	40.0	2	2	[(5022, 0), (312, 0)]
1469	3	1	8	60.0	2	0	[]
1470	2	1	8	100.0	2	0	[]
1471	1	1	8	60.0	2	0	[]
1473	3	1	16	60.0	2	0	[]
1478	2	1	8	60.0	2	0	[]
1481	2	4	16	60.0	0	0	[]
1485	8	3	8	60.0	2	0	[]
1487	2	1	1	60.0	2	0	[]
1495	2	2	8	60.0	2	0	[]
1499	2	1	8	60.0	2	0	[]
1501	1	1	2	60.0	2	0	[]
1506	4	2	8	60.0	2	5	[(6689, 0), (5107, 0), (7452, 0), (2644, 0), (4045, 0)]
1507	3	2	8	60.0	2	0	[]
1509	151	5	8	60.0	2	7	[(4825, 0), (191, 0), (3802, 0), (1672, 0), (2224, 0), (1637, 0), (704, 2)]
1513	1	1	8	60.0	2	0	[]
1514	1	1	1	60.0	2	0	[]
1518	3	1	8	60.0	2	0	[]
1519	1	1	8	60.0	2	0	[]
1521	1	1	8	167.0	2	0	[]
1524	8	1	8	100.0	2	0	[]
1527	2	1	8	60.0	2	0	[]
1528	1	4	8	60.0	2	0	[]
1533	3	1	8	60.0	2	0	[]
1537	4	1	2	60.0	2	1	[(7200, 2)]
1539	2	1	8	60.0	2	0	[]
1540	4	1	8	60.0	2	0	[]
1545	2	2	8	60.0	2	0	[]
1550	2	1	8	60.0	2	0	[]
1556	1	1	8	60.0	2	0	[]
1561	5	1	8	60.0	2	0	[]
1566	1	1	8	60.0	2	0	[]
1581	1	1	1	60.0	2	0	[]
1586	4	1	8	60.0	2	0	[]
1587	21	8	32	60.0	0	6	[(5366, 0), (730, 0), (1637, 0), (1021, 0), (3283, 0), (6628, 0)]
1592	43	3	8	40.0	2	2	[(3321, 0), (2910, 0)]
1593	9	2	8	60.0	2	5	[(7338, 0), (4153, 2), (6076, 0), (8994, 0), (3634, 0)]
1598	2	1	8	60.0	2	0	[]
1601	1	2	16	60.0	2	0	[]
1602	51	6	8	60.0	2	3	[(9138, 0), (3283, 0), (1435, 0)]
1610	1	4	8	60.0	2	0	[]
1611	1	1	6	60.0	2	0	[]
1614	1	2	8	60.0	2	0	[]
1622	1	1	1	60.0	2	0	[]
1629	1	1	8	60.0	2	0	[]
1631	1	1	8	60.0	2	0	[]
1632	1	4	8	60.0	2	0	[]
1634	5	6	8	60.0	2	0	[]
1636	1	1	8	60.0	2	0	[]
1637	137	24	60	60.0	2	12	[(1741, 2), (7102, 2), (7392, 2), (6104, 2), (8834, 2), (80, 2), (4550, 1), (2175, 2), (6034, 2), (704, 2), (6429, 2), (3321, 1)]
1647	5	2	8	60.0	2	0	[]
1648	4	1	8	60.0	2	0	[]
1649	1	2	8	60.0	2	0	[]
1655	1	4	8	60.0	2	0	[]
1660	1	4	8	60.0	2	0	[]
1664	4	1	8	60.0	2	0	[]
1671	1	1	1	60.0	2	0	[]
1672	1	4	8	60.0	2	0	[]
1674	2	1	8	60.0	2	0	[]
1678	1	1	8	100.0	2	0	[]
1680	1	1	8	60.0	2	0	[]
1697	2	1	8	60.0	2	0	[]
1700	15	6	16	100.0	2	2	[(673, 2), (6597, 0)]
1701	1	1	8	60.0	2	0	[]
1703	21	1	16	60.0	2	0	[]
1706	1	4	8	60.0	2	0	[]
1710	6	2	8	60.0	2	0	[]
1711	1	1	8	60.0	2	0	[]
1715	3	1	8	60.0	2	0	[]
1718	2	2	8	60.0	2	0	[]
1721	2	4	8	60.0	2	0	[]
1722	8	1	8	60.0	2	0	[]
1725	3	1	8	60.0	2	0	[]
1733	8	1	1	60.0	2	0	[]
1734	5	5	8	60.0	2	0	[]
1739	2	1	3	60.0	2	0	[]
1741	1	2	16	60.0	1	12	[(7102, 2), (7392, 2), (1637, 2), (3241, 2), (6104, 2), (8834, 2), (80, 2), (4550, 1), (6034, 2), (704, 2), (6429, 2), (3321, 1)]
1745	1	4	16	80.0	2	0	[]
1748	5	2	16	200.0	2	0	[]
1757	6	2	16	80.0	2	1	[(762, 1)]
1759	2	1	8	60.0	2	1	[(2917, 0)]
1761	2	6	8	60.0	2	0	[]
1764	2	1	2	60.0	2	1	[(8002, 2)]
1767	2	1	2	60.0	2	0	[]
1768	3	1	8	60.0	2	0	[]
1770	6	3	8	60.0	2	0	[]
1772	17	2	8	60.0	2	1	[(7074, 1)]
1774	2	1	8	60.0	2	0	[]
1781	17	5	8	60.0	0	7	[(6495, 0), (4667, 0), (6450, 0), (2224, 0), (2148, 0), (9145, 2), (312, 0)]
1782	14	2	16	60.0	2	0	[]
1787	2	4	8	60.0	2	0	[]
1798	2	1	8	60.0	2	0	[]
1799	1	4	8	60.0	2	0	[]
1802	2	1	8	60.0	2	0	[]
1805	7	2	8	60.0	2	1	[(1781, 0)]
1806	1	1	2	60.0	2	0	[]
1807	1	1	8	60.0	2	0	[]
1811	1	1	8	60.0	2	0	[]
1814	1	1	2	60.0	2	0	[]
1815	2	1	8	60.0	2	0	[]
1819	3	1	8	60.0	2	0	[]
1821	12	1	8	60.0	2	0	[]
1825	2	4	8	60.0	2	0	[]
1827	2	1	8	60.0	2	0	[]
1828	2	1	8	60.0	2	0	[]
1829	2	1	8	60.0	2	0	[]
1833	3	2	8	60.0	2	0	[]
1834	21	4	8	60.0	2	5	[(4611, 1), (8002, 1), (1671, 2), (9087, 0), (2301, 1)]
1837	6	1	3	60.0	2	0	[]
1843	4	1	8	60.0	2	0	[]
1844	1	1	3	200.0	2	0	[]
1851	2	1	8	60.0	2	0	[]
1861	4	1	8	60.0	2	0	[]
1870	1	1	16	100.0	2	0	[]
1873	2	1	8	60.0	2	0	[]
1881	2	1	2	60.0	2	0	[]
1884	212	10	16	100.0	2	3	[(4499, 1), (6710, 2), (2488, 2)]
1890	2	1	2	60.0	2	0	[]
1893	3	1	8	60.0	2	0	[]
1894	2	3	8	60.0	2	0	[]
1896	1	4	8	60.0	2	0	[]
1900	50	1	16	60.0	2	74	[(5555, 0), (6880, 0), (1561, 1), (6021, 1), (3306, 1), (161, 1), (2658, 2), (6568, 0), (2263, 0), (2890, 0), (4912, 0), (2089, 1), (7798, 1), (3235, 1), (3286, 0), (3534, 0), (5820, 0), (8144, 1), (4373, 0), (2798, 0), (5261, 0), (6911, 0), (7184, 1), (5740, 0), (1310, 0), (2029, 2), (3091, 0), (2486, 1), (1298, 0), (4459, 1), (7338, 0), (1977, 0), (803, 0), (4385, 0), (1449, 1), (6605, 1), (3158, 1), (5876, 0), (3843, 0), (4170, 0), (3593, 0), (1995, 0), (4393, 0), (893, 0), (8684, 1), (8084, 0), (4335, 0), (2186, 0), (695, 1), (2319, 0), (1487, 0), (5670, 2), (3693, 2), (7067, 0), (7401, 0), (4647, 0), (8434, 0), (9243, 1), (4611, 0), (6837, 0), (4667, 0), (7302, 0), (8774, 0), (1509, 0), (6864, 1), (3802, 0), (6091, 1), (6128, 1), (1592, 1), (5515, 1), (4499, 1), (2485, 1), (5884, 2), (8708, 1)]
1901	4	1	8	60.0	2	0	[]
1905	10	1	8	60.0	2	3	[(8783, 0), (4825, 0), (2541, 2)]
1907	1	1	8	60.0	2	0	[]
1908	2	1	8	60.0	2	0	[]
1909	2	1	1	60.0	2	0	[]
1910	1	1	2	60.0	2	0	[]
1911	2	5	8	60.0	2	0	[]
1920	1	1	2	60.0	2	0	[]
1921	1	4	8	60.0	2	0	[]
1923	2	1	2	60.0	2	0	[]
1924	1	1	3	60.0	2	0	[]
1926	1	1	8	60.0	2	0	[]
1928	1	1	8	60.0	2	0	[]
1930	2	1	2	60.0	2	0	[]
1931	2	4	8	60.0	2	0	[]
1934	1	1	8	60.0	2	0	[]
1941	3	1	12	80.0	2	0	[]
1944	4	2	8	60.0	2	0	[]
1945	7	6	8	60.0	2	1	[(8386, 2)]
1946	3	3	4	200.0	2	0	[]
1947	2	1	8	60.0	2	0	[]
1957	3	1	8	60.0	2	0	[]
1958	2	1	8	60.0	2	0	[]
1959	5	2	8	60.0	2	0	[]
1963	1	4	8	60.0	2	0	[]
1965	1	1	8	40.0	0	0	[]
1968	2	1	8	60.0	2	0	[]
1977	4	1	8	60.0	2	0	[]
1983	5	2	2	60.0	2	0	[]
1985	1	2	8	60.0	2	0	[]
1987	8	2	8	60.0	2	0	[]
1992	1	4	8	60.0	2	0	[]
1995	1	1	1	60.0	2	0	[]
1997	16	1	8	60.0	2	0	[]
2001	1	1	4	60.0	2	0	[]
2004	2	1	8	60.0	2	0	[]
2005	3	1	8	60.0	2	0	[]
2007	6	2	8	60.0	2	0	[]
2008	1	1	8	60.0	2	0	[]
2018	3	2	8	80.0	2	0	[]
2022	7	16	96	300.0	2	0	[]
2025	1	4	8	60.0	2	0	[]
2029	55	2	8	60.0	2	3	[(135, 2), (1350, 1), (1395, 2)]
2031	2	1	8	60.0	2	1	[(3286, 2)]
2032	1	2	8	60.0	2	0	[]
2033	94	5	8	60.0	2	11	[(7474, 2), (4041, 0), (8412, 0), (9010, 0), (5112, 0), (1443, 0), (2917, 0), (3321, 0), (7067, 0), (8155, 0), (9145, 0)]
2034	10	2	8	60.0	2	0	[]
2036	1	1	8	60.0	2	0	[]
2039	1	1	2	60.0	2	0	[]
2043	1	1	8	60.0	2	0	[]
2044	2	1	8	60.0	2	0	[]
2045	2	1	8	60.0	2	0	[]
2062	1	1	16	100.0	2	0	[]
2067	3	1	8	60.0	2	0	[]
2069	1	1	1	60.0	2	0	[]
2071	2	1	8	60.0	2	0	[]
2086	6	2	8	40.0	2	1	[(312, 0)]
2087	1	1	2	60.0	2	0	[]
2089	50	6	8	60.0	1	1	[(7309, 0)]
2091	2	1	8	60.0	2	0	[]
2093	10	1	1	80.0	2	0	[]
2094	4	1	8	100.0	2	0	[]
2098	3	2	8	60.0	2	0	[]
2100	2	1	1	60.0	2	0	[]
2102	1	2	6	60.0	2	0	[]
2106	1	1	3	60.0	2	0	[]
2108	4	4	8	80.0	2	0	[]
2110	2	1	8	60.0	2	0	[]
2112	11	2	8	60.0	2	0	[]
2120	16	1	8	60.0	2	0	[]
2123	1	2	5	60.0	2	0	[]
2125	12	6	8	60.0	2	0	[]
2130	3	1	8	60.0	2	0	[]
2133	3	1	8	60.0	2	0	[]
2137	1	1	8	60.0	2	0	[]
2140	7	1	8	60.0	2	0	[]
2146	2	1	8	60.0	2	0	[]
2147	6	1	8	250.0	2	0	[]
2148	15	2	8	60.0	2	3	[(6450, 0), (6269, 0), (1781, 0)]
2153	2	1	6	60.0	2	0	[]
2162	2	1	8	60.0	2	0	[]
2168	1	1	8	60.0	2	0	[]
2171	1	1	8	60.0	2	0	[]
2175	1	2	16	60.0	1	12	[(7102, 2), (7392, 2), (1637, 2), (3241, 2), (6104, 2), (8834, 2), (80, 2), (4550, 1), (6034, 2), (704, 2), (6429, 2), (3321, 1)]
2182	1	1	8	60.0	2	0	[]
2183	1	1	8	60.0	2	0	[]
2184	2	4	8	60.0	2	0	[]
2186	124	6	8	60.0	2	19	[(4071, 2), (4551, 1), (6827, 1), (5997, 1), (1636, 1), (3469, 2), (1843, 1), (9196, 1), (7052, 2), (3729, 2), (9127, 2), (2263, 1), (6499, 1), (4877, 1), (5378, 0), (6597, 0), (198, 2), (8732, 2), (4531, 0)]
2188	8	8	16	80.0	2	0	[]
2189	10	5	2	200.0	2	0	[]
2190	1	1	1	60.0	2	0	[]
2199	5	2	8	60.0	2	0	[]
2204	1	1	8	60.0	2	0	[]
2205	2	1	8	60.0	2	0	[]
2206	6	3	8	60.0	2	0	[]
2212	2	1	8	60.0	2	0	[]
2215	3	1	8	60.0	2	0	[]
2218	2	1	8	167.0	2	0	[]
2223	1	10	8	60.0	2	0	[]
2224	40	12	16	200.0	0	4	[(4154, 0), (5028, 0), (1781, 0), (562, 0)]
2225	2	1	2	60.0	2	0	[]
2227	2	1	8	60.0	2	0	[]
2230	1	1	7	60.0	2	0	[]
2234	5	2	8	60.0	2	0	[]
2242	4	12	8	60.0	2	0	[]
2255	2	1	8	60.0	2	0	[]
2257	7	2	8	80.0	2	0	[]
2259	1	4	8	60.0	2	0	[]
2260	2	1	8	60.0	2	0	[]
2262	1	1	5	60.0	2	0	[]
2263	318	5	8	60.0	2	6	[(1672, 1), (6269, 0), (4341, 1), (5914, 0), (2335, 0), (179, 2)]
2265	2	1	8	60.0	2	1	[(2206, 2)]
2276	1	1	8	60.0	2	0	[]
2294	1	1	1	60.0	2	0	[]
2301	2	1	8	60.0	2	0	[]
2317	5	3	2	650.0	2	0	[]
2319	50	1	8	60.0	2	1	[(80, 1)]
2322	2	1	3	60.0	2	0	[]
2326	1	1	2	60.0	2	0	[]
2329	2	1	8	60.0	2	0	[]
2332	26	2	8	80.0	2	44	[(7309, 0), (7067, 0), (2910, 0), (7196, 0), (2224, 0), (5614, 0), (2751, 0), (7267, 0), (6269, 0), (1227, 0), (3526, 0), (5028, 0), (8194, 0), (7935, 0), (7874, 0), (2668, 0), (793, 0), (80, 0), (5411, 0), (6710, 0), (4280, 0), (9037, 0), (4393, 0), (1351, 0), (8139, 0), (1587, 0), (4825, 0), (773, 0), (1602, 0), (3908, 0), (2770, 0), (198, 0), (3349, 0), (9207, 0), (9122, 0), (9145, 0), (3802, 0), (2033, 0), (1781, 0), (351, 0), (5470, 0), (704, 0), (2485, 0), (1443, 0)]
2333	2	12	16	80.0	2	0	[]
2334	1	4	8	80.0	2	0	[]
2335	1	2	8	40.0	0	0	[]
2339	1	1	8	60.0	2	0	[]
2349	2	5	16	80.0	2	0	[]
2355	1	1	8	60.0	2	0	[]
2359	1	1	8	60.0	2	0	[]
2362	1	1	2	60.0	2	0	[]
2375	1	4	16	80.0	2	0	[]
2378	1	4	8	60.0	2	0	[]
2380	1	1	8	60.0	2	0	[]
2381	1	1	8	60.0	2	0	[]
2388	1	4	8	60.0	2	0	[]
2389	1	4	8	60.0	2	0	[]
2398	1	1	8	60.0	2	0	[]
2399	1	1	2	60.0	2	0	[]
2405	1	1	8	60.0	2	0	[]
2411	1	1	8	60.0	2	0	[]
2412	1	1	8	60.0	2	0	[]
2416	2	1	8	60.0	2	0	[]
2419	2	1	8	60.0	2	0	[]
2420	2	1	8	60.0	2	0	[]
2423	2	1	8	60.0	2	0	[]
2433	4	6	8	60.0	2	0	[]
2434	4	4	8	60.0	2	0	[]
2436	4	4	8	60.0	2	0	[]
2437	4	4	8	60.0	2	0	[]
2442	4	1	8	60.0	2	1	[(8080, 1)]
2444	4	1	8	60.0	2	0	[]
2451	4	1	2	60.0	2	0	[]
2456	5	4	8	60.0	2	0	[]
2468	6	2	8	60.0	2	0	[]
2469	6	1	2	60.0	2	0	[]
2473	6	1	8	60.0	2	0	[]
2476	7	2	8	60.0	2	1	[(7705, 2)]
2477	7	12	16	60.0	2	0	[]
2479	17	4	1	100.0	2	0	[]
2485	419	6	8	40.0	2	19	[(6880, 1), (7309, 0), (1173, 0), (6911, 0), (8569, 0), (6269, 0), (6568, 0), (4825, 0), (2263, 0), (7338, 0), (2186, 0), (1602, 0), (4877, 0), (4499, 0), (8940, 0), (5864, 0), (1008, 2), (1310, 0), (5022, 0)]
2486	519	6	8	100.0	2	9	[(9017, 0), (2917, 0), (2029, 0), (592, 2), (5022, 0), (3286, 0), (1781, 0), (4568, 0), (2148, 2)]
2488	42	6	7	60.0	2	45	[(3565, 2), (2996, 1), (9127, 2), (3899, 1), (2910, 1), (4471, 1), (2964, 0), (7031, 2), (9328, 1), (5022, 1), (7007, 2), (5631, 1), (3321, 1), (8776, 1), (4366, 1), (1388, 1), (7421, 0), (2029, 2), (4386, 0), (9087, 0), (5795, 0), (7805, 2), (417, 0), (3593, 2), (8955, 1), (80, 1), (7619, 2), (8523, 2), (6384, 2), (7601, 0), (995, 2), (7338, 2), (6096, 0), (1834, 0), (9165, 1), (4595, 1), (7441, 2), (1110, 2), (9138, 0), (5038, 2), (3802, 1), (5601, 2), (835, 0), (4085, 1), (6791, 0)]
2496	10	4	8	100.0	2	15	[(2568, 0), (4551, 0), (9011, 1), (2485, 1), (2790, 0), (2263, 0), (606, 0), (2486, 2), (2033, 0), (2479, 0), (504, 0), (2506, 0), (478, 1), (2332, 0), (2857, 0)]
2498	10	1	8	60.0	2	0	[]
2501	9	2	8	60.0	2	0	[]
2502	9	6	8	60.0	2	0	[]
2505	9	1	8	60.0	2	2	[(2713, 2), (3286, 2)]
2506	9	4	1	100.0	2	1	[(2485, 0)]
2514	3	1	16	80.0	2	0	[]
2517	3	1	8	60.0	2	0	[]
2519	3	4	8	60.0	2	0	[]
2522	3	1	8	60.0	2	0	[]
2526	2	1	2	60.0	2	0	[]
2531	2	1	10	80.0	2	0	[]
2537	2	1	8	60.0	2	0	[]
2541	2	1	8	60.0	2	0	[]
2544	2	1	8	60.0	2	0	[]
2545	2	1	8	60.0	2	0	[]
2548	2	4	8	60.0	2	0	[]
2550	2	1	2	60.0	2	0	[]
2568	2	1	1	60.0	2	3	[(2496, 0), (2486, 0), (6295, 0)]
2569	2	1	8	60.0	2	0	[]
2571	2	4	8	60.0	2	0	[]
2579	2	1	8	60.0	2	0	[]
2581	2	1	4	60.0	2	0	[]
2584	2	1	8	60.0	2	0	[]
2587	6	3	8	60.0	2	0	[]
2595	2	1	8	60.0	2	0	[]
2606	2	2	2	60.0	2	0	[]
2608	2	4	8	100.0	2	0	[]
2613	8	1	8	60.0	2	0	[]
2615	1	1	2	60.0	2	0	[]
2616	35	3	8	60.0	2	2	[(5028, 0), (6269, 0)]
2627	4	1	2	60.0	2	0	[]
2628	5	2	8	60.0	2	0	[]
2630	5	2	8	60.0	2	0	[]
2643	6	8	12	60.0	2	0	[]
2644	3	2	8	60.0	2	5	[(1506, 0), (6689, 0), (5107, 0), (7452, 0), (4045, 0)]
2645	1	1	8	60.0	2	0	[]
2651	8	5	8	60.0	2	1	[(873, 2)]
2653	2	1	8	60.0	2	0	[]
2656	2	1	8	60.0	2	0	[]
2658	12	5	8	60.0	2	0	[]
2667	1	1	7	60.0	2	0	[]
2668	114	6	2	60.0	2	5	[(4231, 0), (5470, 2), (8494, 1), (3993, 2), (7267, 0)]
2669	2	1	8	60.0	2	0	[]
2671	1	1	6	60.0	2	0	[]
2677	2	1	2	60.0	2	0	[]
2679	2	1	3	60.0	2	0	[]
2683	2	1	8	60.0	2	0	[]
2684	1	1	7	60.0	2	0	[]
2686	2	1	2	60.0	2	0	[]
2693	9	1	8	60.0	2	0	[]
2696	21	6	8	60.0	2	2	[(3634, 0), (4015, 0)]
2698	2	1	16	60.0	2	1	[(6744, 0)]
2699	1	2	8	80.0	2	0	[]
2713	2	2	8	60.0	2	0	[]
2716	10	1	16	60.0	2	0	[]
2719	1	1	8	60.0	2	0	[]
2720	1	1	8	60.0	2	0	[]
2729	2	1	8	60.0	2	0	[]
2736	2	1	2	60.0	2	0	[]
2737	2	2	32	80.0	2	0	[]
2740	3	1	8	60.0	2	0	[]
2743	1	1	8	60.0	2	0	[]
2744	2	1	8	60.0	2	0	[]
2746	3	1	8	60.0	2	0	[]
2747	2	1	8	60.0	2	0	[]
2751	16	5	2	60.0	2	0	[]
2756	1	4	8	60.0	2	0	[]
2758	1	1	2	60.0	2	0	[]
2759	2	1	8	60.0	2	0	[]
2760	2	1	16	80.0	2	0	[]
2762	1	1	8	60.0	2	0	[]
2764	2	6	8	60.0	2	0	[]
2769	6	2	8	40.0	2	4	[(2486, 0), (4825, 0), (7369, 0), (2485, 0)]
2770	8	2	8	60.0	2	1	[(4170, 2)]
2772	10	12	2	60.0	2	0	[]
2776	1	1	8	60.0	2	0	[]
2777	4	1	8	60.0	2	0	[]
2780	1	1	8	60.0	2	0	[]
2786	2	4	8	60.0	2	0	[]
2790	2	1	8	60.0	2	0	[]
2795	1	4	8	60.0	2	0	[]
2796	1	1	8	60.0	2	0	[]
2798	5	3	8	60.0	2	0	[]
2800	2	1	8	60.0	2	0	[]
2804	2	1	8	60.0	2	0	[]
2805	2	3	13	100.0	2	0	[]
2807	2	1	1	60.0	2	0	[]
2809	2	2	8	60.0	2	0	[]
2813	4	5	8	60.0	2	0	[]
2818	2	2	8	60.0	2	0	[]
2819	4	2	8	60.0	2	0	[]
2821	1	1	8	60.0	2	0	[]
2824	1	1	8	60.0	2	0	[]
2826	4	6	8	60.0	2	0	[]
2830	1	1	2	60.0	2	0	[]
2837	1	1	8	60.0	0	0	[]
2845	4	1	8	60.0	2	0	[]
2846	3	1	8	60.0	2	0	[]
2847	5	1	8	60.0	2	0	[]
2852	18	4	8	60.0	2	0	[]
2857	1	11	16	100.0	2	0	[]
2865	1	1	8	60.0	2	0	[]
2870	2	1	8	60.0	2	0	[]
2874	98	3	3	60.0	2	6	[(7426, 0), (2423, 0), (442, 0), (7907, 0), (3851, 0), (8002, 1)]
2875	7	3	8	60.0	2	0	[]
2876	8	2	8	60.0	2	0	[]
2878	2	4	8	60.0	2	0	[]
2881	1	1	2	60.0	2	0	[]
2889	4	1	8	60.0	2	0	[]
2890	2	3	8	60.0	2	0	[]
2891	1	1	8	60.0	2	0	[]
2896	5	2	16	80.0	2	0	[]
2902	2	1	7	60.0	2	0	[]
2909	2	1	8	60.0	2	0	[]
2910	50	5	8	60.0	2	4	[(80, 1), (3321, 1), (4982, 1), (1227, 2)]
2911	4	1	8	60.0	2	0	[]
2917	3	6	8	60.0	2	0	[]
2919	1	1	8	60.0	2	0	[]
2935	3	1	8	60.0	2	0	[]
2937	3	4	8	60.0	2	0	[]
2939	2	1	8	60.0	2	0	[]
2944	2	2	8	60.0	0	0	[]
2946	2	2	16	100.0	2	0	[]
2951	1	1	8	60.0	2	0	[]
2954	5	5	8	60.0	2	3	[(3861, 0), (1082, 1), (9145, 2)]
2959	2	1	8	60.0	2	0	[]
2963	2	6	16	80.0	2	0	[]
2964	99	4	8	60.0	2	5	[(9145, 2), (5022, 1), (2917, 0), (704, 1), (6628, 1)]
2965	2	4	8	60.0	2	0	[]
2970	14	6	16	100.0	0	46	[(6334, 0), (7492, 0), (7309, 0), (5427, 0), (7058, 0), (8582, 0), (2224, 0), (4393, 0), (3709, 0), (5009, 0), (6095, 0), (7792, 0), (8155, 0), (6269, 0), (1227, 0), (3032, 0), (3526, 0), (5366, 0), (7935, 0), (2485, 0), (793, 0), (80, 0), (7026, 0), (2212, 0), (6139, 0), (4825, 0), (7648, 0), (8419, 0), (1602, 0), (6907, 0), (1259, 0), (1637, 0), (4471, 0), (3349, 0), (3908, 0), (9122, 0), (8410, 0), (9138, 0), (3802, 0), (2769, 0), (1216, 0), (8412, 0), (7067, 0), (1025, 0), (1781, 0), (1443, 0)]
2973	4	1	1	60.0	2	0	[]
2977	7	4	8	60.0	2	17	[(6511, 1), (1611, 0), (6553, 0), (2857, 0), (3087, 0), (4170, 1), (1249, 1), (6298, 0), (1220, 0), (2876, 1), (554, 2), (1345, 0), (3551, 0), (1008, 0), (9328, 1), (6361, 1), (5869, 0)]
2978	12	2	8	60.0	2	0	[]
2980	10	1	8	60.0	2	0	[]
2982	2	2	8	60.0	2	0	[]
2985	1	2	8	40.0	1	0	[]
2988	1	1	8	60.0	2	0	[]
2991	2	1	8	60.0	2	1	[(4252, 2)]
2995	1	1	8	60.0	2	0	[]
2996	3	2	8	60.0	2	0	[]
2998	16	2	8	60.0	2	0	[]
3003	2	1	8	60.0	2	0	[]
3005	1	4	16	80.0	2	0	[]
3010	10	1	8	60.0	2	1	[(4825, 2)]
3014	2	1	8	60.0	2	0	[]
3015	4	4	8	60.0	2	0	[]
3017	2	1	8	60.0	2	0	[]
3029	2	1	8	60.0	2	0	[]
3032	12	3	8	40.0	2	2	[(80, 0), (2089, 0)]
3043	1	2	8	60.0	2	0	[]
3045	2	2	8	60.0	2	1	[(2206, 2)]
3053	4	1	8	60.0	2	0	[]
3065	2	1	1	60.0	2	0	[]
3066	13	2	8	100.0	2	1	[(1241, 0)]
3067	2	1	8	60.0	2	0	[]
3071	2	1	8	60.0	2	0	[]
3074	2	1	6	60.0	2	0	[]
3084	2	1	8	60.0	2	0	[]
3086	2	2	8	60.0	2	0	[]
3087	18	1	8	60.0	2	0	[]
3090	1	4	10	60.0	2	0	[]
3091	40	5	8	60.0	2	2	[(1884, 0), (3831, 2)]
3101	15	3	8	60.0	2	0	[]
3104	3	2	8	60.0	2	0	[]
3109	1	1	2	60.0	2	0	[]
3111	2	1	8	60.0	2	0	[]
3113	1	1	7	60.0	2	0	[]
3115	1	4	8	60.0	2	0	[]
3122	1	4	8	60.0	2	0	[]
3125	2	2	16	60.0	2	0	[]
3133	2	1	8	60.0	2	0	[]
3140	2	1	8	60.0	2	0	[]
3142	1	1	2	60.0	2	0	[]
3146	3	1	8	60.0	2	0	[]
3151	2	1	2	60.0	2	0	[]
3155	2	1	8	60.0	2	0	[]
3157	3	1	8	60.0	2	2	[(470, 0), (3490, 1)]
3158	28	1	8	60.0	2	2	[(8759, 2), (5837, 2)]
3165	8	5	8	60.0	2	1	[(4327, 2)]
3175	1	2	16	60.0	2	0	[]
3176	3	1	8	60.0	2	0	[]
3177	2	1	8	80.0	2	0	[]
3180	3	1	8	60.0	2	1	[(6597, 0)]
3182	9	6	8	60.0	2	0	[]
3187	5	1	8	60.0	2	0	[]
3190	2	2	8	60.0	2	0	[]
3192	3	1	14	80.0	2	0	[]
3193	2	2	7	60.0	2	0	[]
3196	1	1	8	60.0	2	0	[]
3198	1	1	8	60.0	2	0	[]
3201	2	3	16	60.0	0	0	[]
3204	6	1	8	60.0	2	1	[(5022, 2)]
3205	2	1	8	60.0	2	0	[]
3207	1	1	8	60.0	2	0	[]
3214	1	1	8	60.0	2	0	[]
3215	1	4	8	100.0	2	0	[]
3231	2	1	8	60.0	2	0	[]
3233	3	1	8	60.0	2	0	[]
3235	11	2	8	60.0	2	0	[]
3238	1	4	8	60.0	2	0	[]
3241	1	16	60	60.0	2	12	[(1741, 2), (7102, 2), (7392, 2), (6104, 2), (8834, 2), (80, 2), (4550, 1), (2175, 2), (6034, 2), (704, 2), (6429, 2), (3321, 1)]
3242	2	2	8	60.0	2	0	[]
3245	1	1	2	60.0	2	0	[]
3246	3	1	8	60.0	2	1	[(3490, 2)]
3247	21	3	8	60.0	2	1	[(80, 2)]
3253	4	3	8	60.0	2	0	[]
3254	2	6	8	60.0	2	0	[]
3261	2	1	8	60.0	2	0	[]
3262	2	1	1	60.0	2	0	[]
3269	1	1	8	60.0	2	0	[]
3274	1	1	3	60.0	2	0	[]
3275	2	6	8	60.0	2	0	[]
3279	3	1	7	60.0	2	0	[]
3283	240	6	8	60.0	2	19	[(3721, 0), (6269, 0), (3634, 0), (3526, 0), (5028, 0), (2087, 2), (1324, 0), (2627, 2), (5522, 0), (1602, 0), (1781, 0), (9336, 0), (1374, 0), (6827, 0), (5470, 0), (7026, 0), (8081, 2), (1021, 2), (4568, 0)]
3285	1	1	2	60.0	2	0	[]
3286	220	6	8	60.0	2	38	[(5522, 0), (7196, 0), (632, 0), (1438, 0), (1176, 0), (9268, 0), (6597, 0), (1298, 0), (6124, 0), (5779, 0), (8346, 0), (1091, 0), (3548, 0), (3551, 1), (5564, 0), (4727, 0), (8292, 0), (4957, 0), (3582, 0), (6256, 0), (8145, 0), (2502, 0), (3634, 0), (4480, 0), (6744, 0), (8619, 0), (1834, 0), (3693, 0), (2917, 0), (7255, 0), (5271, 0), (7564, 0), (8010, 0), (1748, 0), (1361, 0), (4218, 0), (6563, 0), (6725, 0)]
3287	2	1	2	60.0	2	0	[]
3290	82	2	8	60.0	2	3	[(7648, 2), (8711, 2), (5931, 1)]
3293	3	1	8	60.0	2	3	[(1015, 0), (8641, 0), (9165, 0)]
3295	4	2	8	60.0	2	2	[(7087, 0), (442, 0)]
3306	6	2	8	60.0	2	0	[]
3310	1	2	2	60.0	2	0	[]
3321	150	12	16	60.0	2	16	[(4667, 0), (1741, 2), (9145, 0), (7392, 2), (1637, 2), (3241, 2), (5490, 0), (8834, 2), (7102, 2), (80, 2), (4550, 1), (2175, 2), (577, 0), (6034, 2), (704, 2), (6429, 2)]
3328	5	6	32	200.0	2	0	[]
3335	5	1	8	60.0	2	3	[(5470, 0), (4430, 0), (7763, 0)]
3347	2	1	8	60.0	2	0	[]
3349	116	12	16	60.0	0	9	[(6269, 0), (6161, 0), (2186, 0), (7935, 0), (2668, 0), (4877, 0), (793, 0), (1171, 2), (2917, 0)]
3353	1	1	8	60.0	2	0	[]
3356	6	6	8	60.0	2	52	[(8242, 2), (1507, 2), (6935, 2), (1770, 1), (6134, 2), (7260, 2), (5956, 1), (2613, 1), (1004, 2), (5557, 1), (6151, 2), (903, 2), (4977, 2), (8239, 2), (9320, 2), (6370, 2), (5580, 2), (8782, 2), (2736, 2), (7152, 2), (7798, 1), (5538, 2), (4821, 2), (7732, 2), (551, 2), (4368, 2), (4327, 2), (7921, 2), (3563, 2), (56, 2), (7569, 2), (4302, 2), (6744, 2), (5228, 2), (1099, 2), (2004, 1), (1533, 1), (4916, 2), (4364, 1), (4231, 1), (3840, 1), (23, 2), (8774, 2), (5452, 1), (5068, 1), (619, 2), (395, 2), (7234, 1), (1748, 2), (3378, 1), (8246, 1), (8761, 2)]
3361	1	1	8	60.0	2	0	[]
3362	1	1	3	60.0	2	0	[]
3364	1	1	1	60.0	2	0	[]
3371	6	1	8	200.0	2	0	[]
3372	18	2	8	60.0	2	1	[(4376, 0)]
3378	2	1	8	60.0	2	0	[]
3381	3	1	8	60.0	2	0	[]
3390	2	2	8	60.0	2	0	[]
3393	1	1	1	60.0	2	0	[]
3405	3	1	8	60.0	2	0	[]
3406	1	1	8	60.0	2	0	[]
3413	15	4	8	60.0	2	0	[]
3416	3	1	8	60.0	2	0	[]
3419	1	1	4	60.0	2	0	[]
3420	2	1	8	60.0	2	0	[]
3426	30	5	8	60.0	2	4	[(839, 1), (9266, 1), (3634, 0), (328, 2)]
3428	5	1	8	60.0	2	0	[]
3432	1	1	8	60.0	2	0	[]
3434	2	2	8	60.0	2	0	[]
3435	1	1	8	60.0	2	0	[]
3444	2	1	2	60.0	2	0	[]
3445	3	1	8	60.0	2	0	[]
3455	4	3	8	60.0	2	1	[(8138, 0)]
3459	5	1	8	60.0	2	0	[]
3463	2	4	8	60.0	2	0	[]
3466	2	1	8	60.0	2	0	[]
3468	4	1	1	60.0	2	0	[]
3469	19	3	8	60.0	2	2	[(5022, 0), (1637, 0)]
3471	1	1	2	60.0	2	0	[]
3473	4	1	8	60.0	2	0	[]
3474	5	6	8	60.0	2	1	[(1296, 2)]
3475	3	2	8	60.0	2	0	[]
3488	1	1	8	60.0	2	0	[]
3490	22	1	8	60.0	2	1	[(415, 1)]
3492	1	4	8	60.0	2	0	[]
3495	2	1	2	60.0	2	0	[]
3496	1	1	4	60.0	2	0	[]
3497	1	1	8	60.0	2	0	[]
3498	1	2	8	60.0	2	0	[]
3501	2	1	8	60.0	2	0	[]
3519	1	3	8	60.0	2	0	[]
3520	11	2	8	60.0	2	1	[(2917, 0)]
3526	63	6	8	60.0	2	1	[(5060, 0)]
3534	34	2	8	60.0	2	4	[(4085, 0), (2668, 0), (3286, 1), (4430, 2)]
3538	2	4	8	60.0	2	0	[]
3545	2	2	8	60.0	2	0	[]
3547	17	1	8	60.0	2	0	[]
3548	2	1	8	60.0	2	0	[]
3549	1	4	8	60.0	2	0	[]
3551	5	6	8	100.0	2	0	[]
3560	4	1	8	60.0	2	0	[]
3563	2	1	8	60.0	2	0	[]
3565	45	2	8	60.0	2	5	[(647, 1), (9131, 1), (9196, 0), (6417, 1), (5022, 0)]
3568	2	4	8	60.0	2	0	[]
3571	10	6	16	200.0	2	0	[]
3581	3	1	8	60.0	2	0	[]
3582	2	1	2	60.0	2	0	[]
3587	3	4	8	60.0	2	1	[(1721, 0)]
3593	54	4	8	60.0	2	4	[(1336, 0), (6246, 0), (3416, 1), (5543, 2)]
3598	2	2	2	60.0	2	0	[]
3600	2	1	1	60.0	2	0	[]
3601	1	1	2	60.0	2	0	[]
3603	4	1	8	60.0	2	0	[]
3608	8	5	8	60.0	2	0	[]
3611	16	1	8	60.0	2	3	[(5533, 2), (6021, 0), (730, 2)]
3616	2	1	8	60.0	2	0	[]
3625	1	1	1	60.0	2	0	[]
3627	4	1	8	60.0	2	0	[]
3634	102	3	8	60.0	2	5	[(4541, 0), (2206, 0), (3551, 0), (3275, 1), (4732, 2)]
3635	4	1	4	60.0	2	0	[]
3644	1	1	8	60.0	2	0	[]
3651	1	1	2	60.0	2	0	[]
3653	3	2	8	60.0	2	0	[]
3655	10	1	8	60.0	2	0	[]
3659	6	3	8	60.0	2	0	[]
3660	5	1	8	60.0	2	0	[]
3662	1	4	8	60.0	2	0	[]
3664	1	1	8	60.0	2	0	[]
3669	2	3	8	60.0	2	0	[]
3670	2	2	8	60.0	2	0	[]
3679	2	1	8	60.0	2	0	[]
3692	7	24	32	200.0	2	1	[(7426, 0)]
3693	18	6	8	60.0	2	4	[(4170, 0), (6911, 0), (4341, 2), (3290, 1)]
3704	7	1	8	60.0	2	0	[]
3709	21	2	8	40.0	2	1	[(4599, 0)]
3715	4	3	8	60.0	2	0	[]
3721	20	12	16	200.0	2	0	[]
3722	9	5	16	60.0	2	0	[]
3726	3	6	8	40.0	2	0	[]
3728	1	4	8	60.0	2	0	[]
3729	15	2	8	60.0	2	1	[(4825, 2)]
3740	2	1	8	60.0	2	0	[]
3746	3	1	8	60.0	2	0	[]
3754	2	1	8	60.0	2	0	[]
3755	2	1	8	60.0	2	0	[]
3756	2	3	8	60.0	2	2	[(1721, 1), (1418, 1)]
3763	1	1	8	60.0	2	0	[]
3764	2	4	8	60.0	2	0	[]
3765	13	2	8	60.0	2	2	[(1426, 0), (693, 1)]
3768	1	1	8	60.0	2	0	[]
3779	3	2	8	60.0	2	0	[]
3787	3	1	12	60.0	2	0	[]
3792	2	1	8	80.0	2	0	[]
3795	2	1	2	60.0	2	0	[]
3800	2	1	8	60.0	2	0	[]
3802	178	6	16	100.0	2	2	[(7426, 0), (5914, 0)]
3818	1	1	1	60.0	2	0	[]
3826	2	1	8	60.0	2	0	[]
3827	1	1	6	60.0	2	0	[]
3831	2	1	8	60.0	2	0	[]
3834	3	1	1	60.0	2	1	[(1593, 2)]
3836	6	2	8	60.0	2	0	[]
3837	1	1	8	40.0	2	0	[]
3840	2	1	8	60.0	2	0	[]
3843	3	1	8	80.0	2	0	[]
3844	1	1	8	60.0	2	0	[]
3851	29	6	8	60.0	2	7	[(7959, 1), (7087, 1), (2505, 2), (7101, 2), (5725, 2), (2737, 1), (7781, 1)]
3857	2	1	8	60.0	2	0	[]
3858	2	1	8	60.0	2	0	[]
3861	2	1	2	60.0	2	0	[]
3869	2	1	8	60.0	2	0	[]
3871	2	4	8	60.0	2	0	[]
3873	13	2	8	40.0	2	5	[(80, 0), (3321, 2), (2627, 1), (5490, 0), (577, 0)]
3876	4	4	4	60.0	2	0	[]
3877	1	1	2	60.0	2	0	[]
3878	6	1	8	60.0	2	0	[]
3880	34	6	8	60.0	2	0	[]
3896	2	4	8	60.0	2	0	[]
3899	29	4	8	60.0	2	4	[(1524, 0), (6230, 0), (6246, 1), (128, 0)]
3901	2	4	8	60.0	2	0	[]
3905	21	1	8	60.0	2	2	[(2627, 0), (2944, 2)]
3908	1	1	1	60.0	2	40	[(433, 0), (75, 0), (8663, 0), (7746, 0), (6489, 0), (4965, 0), (903, 0), (8401, 0), (7083, 0), (5322, 0), (5302, 0), (8835, 0), (730, 0), (6614, 0), (2911, 0), (6924, 0), (8056, 0), (7200, 0), (867, 0), (2102, 0), (4219, 0), (3187, 0), (6670, 0), (1909, 0), (8745, 0), (4249, 0), (1833, 0), (2477, 0), (410, 0), (1524, 0), (2381, 0), (5431, 0), (4962, 0), (9196, 0), (5021, 0), (1506, 0), (7339, 0), (8889, 0), (1890, 0), (7296, 0)]
3916	3	4	8	60.0	2	0	[]
3920	4	1	8	60.0	2	0	[]
3924	1	1	2	60.0	2	0	[]
3925	1	1	8	60.0	2	0	[]
3930	2	1	8	60.0	2	0	[]
3933	2	1	8	60.0	2	0	[]
3935	1	4	8	60.0	2	0	[]
3946	1	2	8	60.0	2	0	[]
3956	2	1	8	60.0	2	0	[]
3960	11	6	8	60.0	2	0	[]
3964	2	1	8	60.0	2	0	[]
3965	2	1	8	80.0	2	0	[]
3971	1	1	8	60.0	2	0	[]
3978	1	2	8	60.0	2	0	[]
3980	2	4	8	60.0	2	0	[]
3985	3	1	8	60.0	2	0	[]
3989	1	1	8	60.0	2	0	[]
3993	2	1	8	60.0	2	0	[]
4005	2	4	8	60.0	2	2	[(1336, 0), (3286, 0)]
4006	1	1	1	60.0	2	0	[]
4007	25	6	8	60.0	2	6	[(489, 0), (2964, 0), (1099, 0), (7087, 0), (8281, 0), (1473, 0)]
4015	2	1	8	60.0	2	0	[]
4024	2	4	8	60.0	2	0	[]
4027	3	1	8	60.0	2	0	[]
4029	8	2	8	60.0	2	1	[(3802, 1)]
4031	1	1	1	60.0	2	0	[]
4036	2	2	8	60.0	2	0	[]
4040	1	1	7	60.0	2	0	[]
4041	6	3	8	40.0	2	0	[]
4045	7	6	8	60.0	2	5	[(1506, 0), (6689, 0), (5107, 0), (7452, 0), (2644, 0)]
4057	2	4	8	60.0	2	0	[]
4062	2	4	8	60.0	2	0	[]
4064	1	2	2	60.0	2	0	[]
4066	2	1	1	60.0	2	0	[]
4067	5	2	8	60.0	2	0	[]
4071	26	2	8	60.0	2	0	[]
4074	1	1	8	60.0	2	0	[]
4077	4	2	8	60.0	2	0	[]
4078	2	2	2	60.0	2	0	[]
4081	1	1	8	60.0	2	0	[]
4084	6	2	8	60.0	2	0	[]
4085	84	2	2	60.0	2	26	[(4974, 2), (7658, 0), (7176, 0), (2488, 0), (3534, 0), (2798, 1), (6417, 1), (8375, 0), (7087, 1), (4728, 1), (3295, 0), (7732, 0), (344, 0), (3644, 2), (5570, 2), (6448, 0), (7601, 2), (5442, 0), (4656, 2), (2917, 0), (390, 0), (9168, 1), (9087, 2), (5378, 2), (9196, 0), (2069, 0)]
4087	2	1	8	60.0	2	0	[]
4088	1	1	8	60.0	2	0	[]
4090	2	1	24	500.0	2	0	[]
4092	1	4	8	60.0	2	0	[]
4096	2	1	8	60.0	2	0	[]
4101	1	1	8	60.0	2	0	[]
4102	6	2	8	60.0	2	0	[]
4103	1	1	8	60.0	2	0	[]
4106	2	1	8	60.0	2	0	[]
4112	1	8	16	200.0	2	0	[]
4115	2	4	8	60.0	2	0	[]
4123	1	4	8	60.0	2	0	[]
4125	9	2	8	60.0	2	0	[]
4129	9	1	16	100.0	2	3	[(6880, 0), (6256, 0), (4568, 0)]
4131	1	1	8	60.0	2	0	[]
4144	2	1	8	60.0	2	0	[]
4153	2	5	8	60.0	2	0	[]
4154	18	6	2	100.0	2	7	[(7338, 0), (6450, 1), (2224, 0), (2263, 0), (6269, 1), (6663, 0), (7763, 0)]
4156	2	1	8	60.0	2	0	[]
4158	2	1	8	60.0	2	0	[]
4159	2	1	8	60.0	2	1	[(7813, 0)]
4162	4	1	8	60.0	2	0	[]
4163	1	1	8	60.0	2	0	[]
4167	1	1	4	60.0	2	0	[]
4168	1	1	8	60.0	2	0	[]
4170	43	2	8	60.0	2	1	[(9052, 2)]
4171	3	1	8	60.0	2	0	[]
4173	2	2	8	60.0	2	0	[]
4175	20	6	8	80.0	2	3	[(3802, 0), (6911, 0), (6710, 0)]
4182	1	1	3	60.0	2	0	[]
4184	1	1	8	60.0	2	0	[]
4185	1	1	8	60.0	2	0	[]
4193	39	6	8	60.0	2	4	[(3721, 2), (8273, 2), (3831, 2), (9216, 0)]
4195	1	4	8	60.0	2	0	[]
4197	2	4	8	60.0	2	0	[]
4201	2	2	8	60.0	2	0	[]
4207	2	1	8	60.0	2	0	[]
4211	3	3	8	60.0	2	0	[]
4212	4	1	8	60.0	2	0	[]
4214	2	1	2	60.0	2	0	[]
4216	1	3	8	60.0	2	0	[]
4217	2	1	8	60.0	2	0	[]
4218	10	6	8	60.0	2	4	[(4541, 2), (4732, 1), (7900, 1), (2206, 2)]
4219	2	1	8	60.0	2	0	[]
4223	2	1	2	60.0	2	0	[]
4224	2	1	7	60.0	2	0	[]
4226	2	1	2	60.0	2	0	[]
4229	2	1	8	60.0	2	0	[]
4231	31	6	8	60.0	0	14	[(7309, 0), (2089, 0), (4471, 0), (8500, 0), (281, 0), (7039, 0), (4825, 0), (1592, 0), (1637, 0), (8412, 0), (704, 2), (5740, 0), (5490, 0), (8664, 1)]
4233	1	1	2	60.0	2	0	[]
4240	5	1	8	60.0	2	0	[]
4249	4	1	8	60.0	2	0	[]
4252	19	12	16	100.0	2	0	[]
4253	27	3	8	60.0	2	0	[]
4260	3	6	8	60.0	2	0	[]
4262	71	7	16	100.0	2	0	[]
4263	3	3	8	60.0	2	0	[]
4268	9	3	20	200.0	2	0	[]
4269	4	4	8	60.0	2	0	[]
4273	1	1	2	60.0	2	0	[]
4274	2	1	8	60.0	2	0	[]
4278	1	1	8	60.0	2	0	[]
4279	2	1	8	60.0	2	0	[]
4280	5	3	8	40.0	2	0	[]
4284	4	6	8	200.0	2	0	[]
4286	24	1	8	80.0	2	5	[(2501, 0), (7196, 0), (8761, 1), (4977, 0), (6597, 0)]
4290	2	1	8	60.0	2	0	[]
4296	2	2	16	80.0	2	0	[]
4301	8	4	16	80.0	2	0	[]
4302	4	1	8	60.0	2	0	[]
4307	2	1	8	60.0	2	0	[]
4308	2	24	48	300.0	2	0	[]
4309	1	1	8	60.0	2	0	[]
4310	1	1	8	60.0	2	0	[]
4311	3	1	8	60.0	2	0	[]
4312	2	1	8	60.0	2	0	[]
4315	1	1	48	300.0	2	0	[]
4321	5	1	8	60.0	2	0	[]
4327	15	1	8	60.0	0	2	[(4071, 0), (8155, 0)]
4331	2	1	2	60.0	2	0	[]
4335	5	5	8	60.0	2	0	[]
4341	2	2	8	60.0	2	0	[]
4347	2	2	8	60.0	2	0	[]
4349	23	1	8	40.0	2	6	[(6161, 0), (1637, 0), (3709, 0), (9145, 0), (5490, 0), (9264, 0)]
4354	2	2	4	60.0	2	0	[]
4364	2	1	8	60.0	2	0	[]
4366	6	2	8	60.0	2	0	[]
4368	2	1	8	60.0	2	0	[]
4373	6	12	16	60.0	2	2	[(5426, 0), (1324, 0)]
4376	10	3	8	60.0	0	10	[(3565, 0), (8774, 0), (7935, 2), (4085, 0), (3372, 0), (7087, 0), (4877, 2), (1834, 0), (1298, 0), (1700, 0)]
4380	1	1	8	60.0	2	0	[]
4383	2	1	8	60.0	2	0	[]
4385	4	1	8	60.0	2	0	[]
4386	69	2	8	60.0	2	5	[(7309, 2), (4311, 2), (3321, 1), (6658, 1), (5194, 2)]
4389	2	1	8	60.0	2	0	[]
4393	67	4	8	80.0	2	3	[(9010, 0), (6911, 0), (6269, 0)]
4394	3	1	8	60.0	2	0	[]
4395	1	5	8	60.0	2	0	[]
4398	15	6	8	60.0	2	2	[(4471, 0), (2263, 2)]
4399	1	1	8	60.0	2	1	[(5522, 2)]
4402	1	1	8	60.0	2	0	[]
4414	1	1	3	60.0	2	0	[]
4422	1	1	8	60.0	2	0	[]
4430	3	1	8	60.0	2	0	[]
4433	1	1	8	60.0	2	0	[]
4437	1	1	1	80.0	2	0	[]
4441	5	1	8	60.0	2	0	[]
4443	4	4	8	60.0	2	0	[]
4446	1	1	2	60.0	2	0	[]
4448	13	5	8	60.0	2	1	[(6597, 0)]
4451	2	6	8	60.0	2	2	[(3908, 0), (5731, 0)]
4453	9	1	8	60.0	2	2	[(3469, 1), (6563, 0)]
4456	7	1	8	60.0	2	0	[]
4459	12	6	8	60.0	2	0	[]
4461	1	4	8	60.0	2	0	[]
4465	1	16	32	200.0	2	0	[]
4468	4	1	8	60.0	2	0	[]
4471	46	6	8	40.0	0	11	[(7309, 0), (281, 0), (4667, 0), (577, 0), (4231, 0), (9052, 0), (9127, 0), (1637, 0), (4398, 2), (5022, 0), (5740, 0)]
4472	1	1	8	60.0	2	0	[]
4473	1	1	8	60.0	2	0	[]
4474	10	2	16	40.0	0	3	[(7092, 0), (3321, 0), (6269, 0)]
4475	2	1	1	60.0	2	0	[]
4476	1	1	1	60.0	2	0	[]
4479	2	1	8	60.0	2	0	[]
4480	4	1	8	60.0	2	0	[]
4482	1	1	8	60.0	2	0	[]
4484	1	1	1	60.0	2	0	[]
4486	7	11	16	100.0	2	0	[]
4490	1	4	8	60.0	2	0	[]
4499	37	1	8	60.0	2	1	[(1336, 0)]
4500	2	1	1	60.0	2	0	[]
4506	1	4	8	60.0	2	0	[]
4509	8	1	8	60.0	2	2	[(8967, 1), (467, 2)]
4515	1	1	8	60.0	2	0	[]
4518	4	1	8	60.0	2	0	[]
4524	4	2	8	60.0	2	0	[]
4528	1	1	8	60.0	2	0	[]
4529	3	1	8	60.0	2	0	[]
4531	99	4	8	60.0	2	0	[]
4541	2	3	8	60.0	2	0	[]
4543	44	10	16	60.0	2	4	[(3565, 2), (2668, 2), (2488, 1), (9196, 1)]
4544	4	1	8	60.0	2	0	[]
4547	1	1	8	60.0	2	0	[]
4549	2	1	8	60.0	2	1	[(1721, 0)]
4550	1	8	16	60.0	2	12	[(3241, 2), (1741, 2), (7102, 3), (7392, 3), (1637, 2), (8834, 3), (80, 2), (2175, 2), (6034, 2), (704, 3), (6429, 3), (3321, 1)]
4551	29	2	8	40.0	2	0	[]
4556	1	1	8	60.0	2	0	[]
4558	41	3	3	60.0	2	2	[(3286, 1), (8002, 2)]
4562	2	1	3	60.0	2	0	[]
4568	125	6	8	60.0	2	5	[(6986, 2), (2917, 0), (1992, 1), (4129, 0), (6880, 0)]
4575	5	1	8	60.0	2	0	[]
4578	8	2	8	60.0	2	0	[]
4581	15	2	8	60.0	2	1	[(704, 2)]
4583	3	1	8	60.0	2	0	[]
4584	2	1	3	60.0	2	0	[]
4587	1	4	8	60.0	2	0	[]
4589	1	1	8	60.0	2	0	[]
4594	2	1	8	60.0	2	0	[]
4595	27	4	8	60.0	2	1	[(704, 1)]
4599	2	1	8	60.0	2	0	[]
4603	1	1	8	60.0	2	0	[]
4606	4	8	16	200.0	2	0	[]
4611	2	1	1	60.0	2	0	[]
4612	1	1	8	60.0	2	0	[]
4616	4	1	8	60.0	2	0	[]
4621	2	1	8	60.0	2	0	[]
4622	1	1	1	60.0	2	0	[]
4624	2	1	8	60.0	2	0	[]
4626	2	3	8	60.0	2	0	[]
4628	2	1	8	60.0	2	0	[]
4629	1	1	8	60.0	2	0	[]
4632	4	7	16	60.0	2	0	[]
4635	13	1	8	60.0	2	2	[(4825, 2), (4531, 2)]
4636	2	1	8	60.0	2	0	[]
4639	3	1	8	60.0	2	1	[(3286, 2)]
4642	13	2	8	60.0	2	2	[(2029, 1), (6597, 2)]
4647	25	6	8	60.0	2	3	[(1374, 1), (6911, 0), (995, 2)]
4651	1	1	8	60.0	2	0	[]
4656	8	1	6	60.0	2	0	[]
4658	1	1	8	60.0	2	0	[]
4659	2	1	8	60.0	2	0	[]
4667	29	5	8	60.0	2	2	[(6750, 2), (4825, 2)]
4668	3	1	8	60.0	2	0	[]
4670	1	4	8	60.0	2	0	[]
4675	1	1	16	60.0	2	0	[]
4681	2	1	1	60.0	2	0	[]
4689	3	3	8	60.0	2	0	[]
4694	4	1	1	60.0	2	0	[]
4701	1	1	8	60.0	2	0	[]
4702	3	1	8	60.0	2	0	[]
4716	1	1	1	60.0	2	0	[]
4719	7	1	2	60.0	2	0	[]
4723	2	1	8	60.0	2	0	[]
4727	2	1	1	60.0	2	0	[]
4728	5	1	8	60.0	2	0	[]
4730	25	6	8	60.0	2	2	[(6652, 0), (2098, 1)]
4732	2	2	8	60.0	2	0	[]
4735	2	1	8	60.0	2	0	[]
4738	7	1	2	60.0	2	0	[]
4745	1	1	8	60.0	2	1	[(5022, 2)]
4746	3	1	2	60.0	2	0	[]
4755	1	1	3	60.0	2	0	[]
4768	1	1	2	60.0	2	0	[]
4774	2	1	8	60.0	2	0	[]
4783	2	1	8	60.0	2	0	[]
4788	1	2	8	60.0	2	0	[]
4789	2	1	2	40.0	2	0	[]
4790	2	1	8	100.0	2	0	[]
4792	5	1	2	60.0	2	0	[]
4794	1	1	2	60.0	2	1	[(7196, 1)]
4799	7	1	8	60.0	2	0	[]
4800	3	4	8	60.0	2	0	[]
4810	2	1	8	60.0	2	0	[]
4821	6	1	8	60.0	2	0	[]
4822	1	1	7	60.0	2	0	[]
4823	2	1	8	60.0	2	0	[]
4825	610	6	8	40.0	0	62	[(2089, 0), (8834, 0), (4341, 1), (8500, 0), (7309, 0), (3469, 0), (4231, 0), (3010, 0), (5022, 0), (6827, 0), (5415, 0), (2954, 0), (3321, 0), (77, 0), (6398, 0), (7267, 0), (5740, 0), (6269, 0), (1227, 0), (5366, 0), (281, 0), (5028, 0), (3873, 0), (9052, 0), (2486, 0), (9216, 0), (7338, 0), (6564, 0), (80, 0), (3253, 0), (1464, 0), (8466, 0), (4280, 0), (4393, 2), (5427, 0), (7039, 0), (773, 1), (8711, 0), (1593, 0), (1637, 0), (9127, 0), (4398, 0), (7426, 0), (4471, 0), (6429, 0), (3349, 0), (5490, 0), (9264, 0), (8202, 0), (4667, 0), (6191, 0), (4349, 0), (3155, 0), (6880, 0), (9145, 0), (7052, 0), (2225, 0), (8412, 0), (2485, 0), (1395, 0), (1781, 0), (2917, 1)]
4831	4	2	8	60.0	2	0	[]
4832	1	1	8	60.0	2	0	[]
4833	2	3	8	60.0	2	0	[]
4834	1	4	8	60.0	2	0	[]
4836	2	3	8	60.0	2	0	[]
4838	1	4	8	60.0	2	0	[]
4841	2	1	8	60.0	2	0	[]
4845	1	1	8	60.0	0	0	[]
4846	1	4	8	60.0	2	0	[]
4848	1	4	8	60.0	2	0	[]
4850	1	1	2	60.0	2	0	[]
4854	5	6	8	60.0	2	0	[]
4857	2	2	8	60.0	2	0	[]
4861	1	1	8	60.0	2	0	[]
4862	3	6	8	60.0	2	0	[]
4866	14	2	8	60.0	2	0	[]
4870	2	1	8	60.0	2	0	[]
4873	8	1	2	60.0	2	0	[]
4877	21	1	8	60.0	2	1	[(6827, 2)]
4879	2	1	8	60.0	2	0	[]
4882	20	6	8	60.0	2	0	[]
4888	1	4	8	60.0	2	0	[]
4899	1	4	8	60.0	2	0	[]
4904	2	1	8	60.0	2	0	[]
4905	1	1	2	60.0	2	0	[]
4912	3	1	8	60.0	2	0	[]
4913	7	2	8	60.0	2	0	[]
4914	1	1	7	60.0	2	0	[]
4916	1	1	8	60.0	2	0	[]
4917	2	1	8	60.0	2	0	[]
4935	2	1	8	60.0	2	0	[]
4938	9	2	8	60.0	2	0	[]
4945	1	4	8	60.0	2	0	[]
4953	31	2	8	60.0	2	1	[(693, 2)]
4954	2	1	8	60.0	2	0	[]
4955	4	4	8	60.0	2	1	[(3286, 0)]
4957	2	1	8	60.0	2	0	[]
4960	2	1	2	60.0	2	0	[]
4962	2	1	8	60.0	2	1	[(8930, 0)]
4965	3	1	8	60.0	2	0	[]
4967	2	1	8	60.0	2	0	[]
4971	3	4	8	60.0	2	0	[]
4974	4	1	2	60.0	2	0	[]
4977	6	2	8	60.0	2	1	[(6597, 0)]
4979	2	1	8	60.0	2	0	[]
4982	2	1	8	60.0	2	0	[]
4986	2	1	8	60.0	2	0	[]
4989	1	1	8	60.0	2	0	[]
4992	1	4	8	40.0	2	0	[]
4998	104	4	8	40.0	2	5	[(2964, 0), (971, 2), (4274, 2), (1602, 0), (6628, 1)]
5002	2	1	8	60.0	2	0	[]
5003	3	1	8	1024.0	2	0	[]
5007	6	1	8	60.0	2	0	[]
5009	2	1	8	60.0	2	4	[(6230, 1), (317, 2), (8967, 2), (9337, 1)]
5016	8	2	8	60.0	2	0	[]
5018	1	1	1	60.0	2	0	[]
5021	1	2	8	60.0	2	0	[]
5022	282	12	16	60.0	0	14	[(1761, 1), (1601, 2), (1413, 2), (5631, 2), (5854, 2), (6474, 2), (9010, 2), (7392, 2), (2954, 0), (4398, 0), (9334, 1), (1021, 0), (4131, 2), (1417, 2)]
5028	71	6	16	60.0	2	6	[(7309, 0), (4825, 2), (7102, 0), (6161, 0), (5490, 0), (312, 0)]
5031	2	1	8	60.0	2	0	[]
5037	2	1	8	60.0	2	0	[]
5038	4	1	8	60.0	2	0	[]
5039	2	1	8	60.0	2	0	[]
5043	2	1	7	60.0	2	0	[]
5049	6	1	8	60.0	2	0	[]
5052	2	4	8	60.0	2	0	[]
5060	33	6	8	60.0	2	4	[(4789, 0), (6269, 0), (2332, 0), (704, 0)]
5062	1	1	8	60.0	2	0	[]
5066	2	1	8	60.0	2	0	[]
5067	3	6	8	60.0	2	0	[]
5068	2	1	8	60.0	2	0	[]
5074	2	1	1	60.0	2	1	[(3286, 0)]
5075	1	1	2	60.0	2	0	[]
5078	2	4	8	60.0	2	1	[(1700, 2)]
5079	2	4	8	60.0	2	0	[]
5092	2	1	8	60.0	2	0	[]
5096	3	1	8	60.0	2	0	[]
5100	1	1	3	60.0	2	0	[]
5104	1	4	8	60.0	2	0	[]
5106	5	3	24	60.0	2	0	[]
5107	1	1	8	60.0	2	0	[]
5108	1	1	2	60.0	2	0	[]
5112	30	6	8	40.0	2	1	[(4262, 1)]
5117	1	1	8	80.0	2	0	[]
5124	2	1	8	60.0	2	0	[]
5131	3	2	8	60.0	2	0	[]
5136	2	4	8	60.0	2	0	[]
5139	31	2	8	60.0	2	0	[]
5147	2	1	8	60.0	2	0	[]
5152	1	4	8	60.0	2	0	[]
5153	1	2	8	60.0	2	0	[]
5154	2	1	8	60.0	2	0	[]
5160	2	1	8	60.0	2	0	[]
5166	2	1	8	60.0	2	0	[]
5174	1	1	2	60.0	2	0	[]
5181	4	1	8	60.0	2	0	[]
5186	5	4	8	60.0	2	0	[]
5187	2	1	8	60.0	2	0	[]
5194	2	1	8	60.0	2	0	[]
5196	1	1	8	60.0	2	0	[]
5208	1	1	8	60.0	2	0	[]
5209	1	1	8	60.0	2	0	[]
5228	7	2	8	60.0	2	0	[]
5231	2	1	8	60.0	2	0	[]
5233	2	1	8	60.0	2	0	[]
5236	1	1	8	60.0	2	0	[]
5242	2	1	8	60.0	2	0	[]
5243	1	1	2	60.0	2	0	[]
5252	2	2	8	60.0	2	0	[]
5261	6	3	8	60.0	2	0	[]
5266	3	1	1	60.0	2	0	[]
5271	21	1	8	60.0	2	0	[]
5275	16	6	8	60.0	2	0	[]
5279	1	1	2	60.0	2	0	[]
5286	2	1	3	200.0	2	0	[]
5289	6	1	8	60.0	2	0	[]
5300	1	1	8	60.0	2	0	[]
5302	1	1	8	60.0	2	0	[]
5303	1	1	8	60.0	2	0	[]
5304	1	4	8	60.0	2	0	[]
5310	2	1	8	60.0	2	0	[]
5314	2	1	128	600.0	2	0	[]
5317	3	1	2	60.0	2	0	[]
5322	12	1	2	60.0	2	2	[(56, 1), (5340, 0)]
5328	1	1	8	60.0	2	0	[]
5329	2	1	8	60.0	2	2	[(4746, 0), (1099, 0)]
5334	1	1	8	60.0	2	0	[]
5338	16	6	8	60.0	2	0	[]
5339	2	1	8	60.0	2	0	[]
5340	6	1	8	60.0	2	1	[(5322, 0)]
5352	1	1	6	60.0	2	0	[]
5354	1	1	8	60.0	2	0	[]
5357	1	1	6	60.0	2	0	[]
5361	1	4	8	60.0	2	0	[]
5365	1	1	2	60.0	2	0	[]
5366	142	12	16	60.0	1	11	[(9336, 2), (1672, 1), (8258, 2), (281, 0), (9010, 2), (5310, 2), (4667, 0), (2234, 2), (8760, 0), (9273, 0), (6628, 1)]
5378	7	1	8	80.0	2	0	[]
5388	16	1	16	60.0	2	0	[]
5390	1	1	2	60.0	2	0	[]
5395	2	1	2	60.0	2	0	[]
5398	7	2	8	60.0	2	3	[(6040, 0), (8588, 2), (693, 2)]
5399	2	4	8	60.0	2	0	[]
5411	34	3	8	60.0	2	3	[(80, 0), (9145, 2), (1388, 2)]
5412	2	1	8	60.0	2	0	[]
5415	2	1	8	40.0	2	0	[]
5416	2	1	1	60.0	2	0	[]
5419	1	4	8	60.0	2	0	[]
5426	5	1	8	60.0	2	0	[]
5427	15	2	8	40.0	2	0	[]
5431	1	1	8	60.0	2	0	[]
5435	5	1	8	60.0	2	0	[]
5442	2	1	8	60.0	2	0	[]
5452	5	1	8	60.0	2	0	[]
5454	1	2	8	60.0	2	0	[]
5456	1	1	8	60.0	2	0	[]
5460	1	1	1	60.0	2	0	[]
5465	1	1	8	60.0	2	0	[]
5469	9	4	8	60.0	2	0	[]
5470	11	1	8	60.0	2	3	[(5028, 0), (3283, 0), (1781, 0)]
5473	2	1	8	60.0	2	0	[]
5477	17	1	8	60.0	2	0	[]
5479	6	1	8	60.0	2	0	[]
5488	1	1	2	60.0	2	0	[]
5490	43	2	8	40.0	2	10	[(4471, 2), (4825, 1), (1388, 1), (6295, 2), (704, 0), (4998, 2), (3459, 2), (4595, 2), (3321, 0), (6269, 1)]
5493	9	2	8	60.0	2	0	[]
5494	1	4	8	60.0	2	0	[]
5501	2	1	8	60.0	2	0	[]
5505	2	5	8	60.0	2	0	[]
5506	2	1	8	60.0	2	0	[]
5511	72	6	8	60.0	2	2	[(4262, 1), (4599, 2)]
5512	5	1	8	60.0	2	0	[]
5515	4	6	8	60.0	2	3	[(7184, 1), (615, 2), (8867, 2)]
5519	4	3	8	60.0	2	0	[]
5522	25	6	8	60.0	0	11	[(3283, 0), (9079, 0), (3634, 0), (6880, 0), (8778, 0), (4531, 0), (1524, 0), (2668, 0), (562, 0), (575, 0), (4568, 0)]
5529	3	1	8	60.0	2	0	[]
5533	2	1	2	60.0	2	0	[]
5535	2	1	8	60.0	2	0	[]
5537	3	2	8	60.0	2	0	[]
5538	9	12	16	60.0	2	0	[]
5542	1	6	8	60.0	2	0	[]
5543	3	1	2	60.0	2	0	[]
5547	2	1	5	60.0	2	0	[]
5555	1	1	2	60.0	2	0	[]
5557	2	2	8	60.0	2	2	[(7200, 1), (1537, 1)]
5564	15	2	8	60.0	2	1	[(8081, 2)]
5566	1	4	8	60.0	2	0	[]
5570	9	1	2	100.0	2	0	[]
5571	1	1	8	60.0	2	0	[]
5578	2	4	8	60.0	2	0	[]
5580	2	4	8	60.0	2	0	[]
5584	1	1	8	40.0	2	0	[]
5588	2	1	8	60.0	2	0	[]
5590	9	1	1	60.0	2	0	[]
5593	2	1	2	60.0	2	0	[]
5596	1	4	8	60.0	2	0	[]
5601	3	1	8	60.0	2	1	[(5022, 2)]
5605	2	1	8	60.0	2	0	[]
5614	19	2	8	60.0	2	0	[]
5622	2	4	4	60.0	2	0	[]
5624	2	1	8	60.0	2	0	[]
5625	1	4	8	60.0	2	0	[]
5630	3	4	8	60.0	2	0	[]
5631	3	1	8	60.0	2	0	[]
5633	7	2	8	60.0	2	0	[]
5639	5	6	8	60.0	2	1	[(6597, 0)]
5644	1	1	1	60.0	2	0	[]
5647	2	1	8	60.0	2	0	[]
5648	2	1	5	60.0	2	0	[]
5650	2	4	8	60.0	2	4	[(2120, 0), (3371, 0), (865, 0), (5762, 0)]
5662	2	1	8	60.0	2	0	[]
5666	1	4	8	60.0	2	0	[]
5667	2	1	8	60.0	2	0	[]
5668	2	1	8	60.0	2	0	[]
5669	2	4	8	60.0	2	0	[]
5670	2	1	8	60.0	2	0	[]
5672	2	1	2	60.0	2	0	[]
5673	3	1	8	60.0	2	0	[]
5687	5	1	8	100.0	2	0	[]
5694	1	1	8	60.0	2	0	[]
5704	2	1	8	60.0	2	0	[]
5706	1	4	16	80.0	2	0	[]
5709	1	1	8	60.0	2	0	[]
5710	2	1	3	60.0	2	0	[]
5714	1	1	8	60.0	2	0	[]
5717	2	1	8	60.0	2	0	[]
5720	1	4	8	60.0	2	1	[(2964, 1)]
5721	2	1	6	60.0	2	0	[]
5725	15	2	8	60.0	2	1	[(7205, 2)]
5731	57	6	16	80.0	2	1	[(2335, 0)]
5740	29	2	8	60.0	0	8	[(7309, 0), (4471, 0), (1592, 0), (6564, 0), (77, 0), (3321, 0), (5022, 0), (5490, 0)]
5741	2	1	8	60.0	2	0	[]
5742	2	1	2	60.0	2	0	[]
5743	2	2	8	60.0	2	0	[]
5749	1	4	8	60.0	2	0	[]
5752	3	1	2	60.0	2	0	[]
5755	3	2	8	60.0	2	0	[]
5758	1	4	8	60.0	2	0	[]
5761	1	1	8	60.0	2	0	[]
5762	3	1	8	60.0	2	0	[]
5770	1	1	3	60.0	2	0	[]
5771	6	2	8	60.0	2	0	[]
5774	1	4	8	60.0	2	0	[]
5779	3	1	8	60.0	2	1	[(3349, 2)]
5787	1	1	8	60.0	2	0	[]
5790	1	1	2	60.0	2	0	[]
5794	4	1	16	200.0	2	0	[]
5795	2	1	8	60.0	2	0	[]
5799	1	8	16	150.0	2	0	[]
5800	2	1	8	60.0	2	0	[]
5804	1	1	4	60.0	2	0	[]
5820	154	6	8	60.0	2	8	[(9000, 1), (3413, 2), (7068, 1), (1987, 0), (6597, 0), (1772, 0), (7485, 1), (693, 0)]
5829	1	1	8	60.0	2	0	[]
5834	5	1	8	60.0	2	0	[]
5837	2	1	8	60.0	2	0	[]
5839	2	1	8	60.0	2	0	[]
5840	3	1	8	60.0	2	0	[]
5843	1	1	8	60.0	2	0	[]
5846	2	1	8	60.0	2	0	[]
5848	2	1	6	60.0	2	0	[]
5851	2	1	8	60.0	2	0	[]
5854	2	1	8	60.0	2	0	[]
5857	2	1	6	60.0	2	0	[]
5858	2	2	8	60.0	2	0	[]
5860	2	1	8	60.0	2	0	[]
5863	1	1	2	60.0	2	0	[]
5864	69	4	8	60.0	2	8	[(2917, 0), (1524, 1), (4170, 0), (2069, 2), (6605, 0), (1111, 0), (7658, 1), (3003, 2)]
5868	2	1	5	60.0	2	0	[]
5869	2	1	8	60.0	2	0	[]
5876	37	2	8	60.0	2	1	[(4825, 1)]
5878	4	1	8	80.0	2	1	[(4825, 2)]
5881	4	3	8	60.0	2	0	[]
5882	5	14	96	300.0	2	0	[]
5884	2	1	8	60.0	2	0	[]
5886	12	6	8	60.0	2	0	[]
5892	1	1	96	300.0	2	0	[]
5902	1	1	8	60.0	2	0	[]
5911	1	4	8	60.0	2	0	[]
5914	23	12	2	60.0	2	4	[(3802, 0), (7176, 0), (2263, 0), (6269, 0)]
5916	2	4	8	100.0	2	0	[]
5919	3	4	8	60.0	2	0	[]
5928	1	1	16	100.0	2	0	[]
5931	1	4	8	60.0	2	0	[]
5941	1	1	1	60.0	2	0	[]
5947	1	2	8	60.0	2	0	[]
5950	1	1	2	60.0	2	0	[]
5956	6	2	8	60.0	2	0	[]
5960	1	1	2	60.0	2	0	[]
5962	4	1	8	60.0	2	0	[]
5964	6	2	8	60.0	2	0	[]
5969	2	1	6	60.0	2	0	[]
5970	3	1	8	60.0	2	0	[]
5984	11	2	8	60.0	2	0	[]
5988	2	1	6	60.0	2	0	[]
5990	1	1	2	60.0	2	0	[]
5992	1	1	8	100.0	2	0	[]
5997	10	1	8	60.0	2	0	[]
5998	1	1	2	60.0	2	0	[]
6008	2	1	8	60.0	2	0	[]
6016	2	1	8	60.0	2	0	[]
6017	2	1	8	60.0	2	0	[]
6018	2	1	8	60.0	2	0	[]
6021	12	3	8	60.0	2	1	[(693, 1)]
6032	2	1	8	60.0	2	0	[]
6034	1	2	16	60.0	2	9	[(3241, 2), (1741, 3), (7392, 2), (1637, 2), (8834, 2), (7102, 2), (2175, 3), (704, 2), (6429, 2)]
6036	6	1	1	60.0	2	1	[(3286, 0)]
6037	2	1	2	60.0	2	0	[]
6039	2	1	8	60.0	2	0	[]
6040	2	1	8	60.0	2	0	[]
6041	2	1	5	60.0	2	0	[]
6043	1	1	1	60.0	2	0	[]
6045	2	1	8	60.0	2	0	[]
6048	4	1	8	60.0	2	0	[]
6049	2	1	8	60.0	2	0	[]
6052	4	1	2	60.0	2	0	[]
6054	6	1	8	60.0	2	0	[]
6058	1	1	8	60.0	2	0	[]
6064	2	1	8	60.0	2	0	[]
6070	2	1	8	60.0	2	0	[]
6071	1	1	5	100.0	2	0	[]
6076	4	1	2	60.0	2	0	[]
6077	6	4	32	80.0	2	0	[]
6084	1	1	3	60.0	2	0	[]
6091	4	2	8	60.0	2	0	[]
6095	17	3	16	200.0	2	0	[]
6096	2	1	2	60.0	2	0	[]
6104	2	1	16	60.0	1	11	[(1741, 2), (7102, 1), (7392, 1), (1637, 2), (3241, 2), (8834, 1), (4550, 1), (2175, 2), (3321, 1), (704, 1), (6429, 1)]
6105	2	6	8	60.0	2	0	[]
6112	2	1	2	60.0	2	0	[]
6113	2	1	6	60.0	2	0	[]
6114	1	1	2	60.0	2	0	[]
6115	9	6	16	60.0	2	2	[(4825, 0), (2260, 0)]
6116	1	1	6	60.0	2	0	[]
6121	2	1	8	60.0	2	0	[]
6124	2	1	8	60.0	2	0	[]
6126	1	1	8	60.0	2	0	[]
6128	15	5	8	80.0	2	0	[]
6131	1	2	8	60.0	2	0	[]
6132	4	2	8	60.0	2	0	[]
6134	4	1	8	60.0	2	0	[]
6139	40	12	16	100.0	0	7	[(2970, 0), (9336, 0), (5028, 0), (7067, 0), (9145, 0), (6827, 0), (7935, 0)]
6140	1	5	8	60.0	2	0	[]
6144	1	1	1	60.0	2	0	[]
6150	5	1	8	60.0	2	3	[(2917, 0), (7063, 2), (5669, 2)]
6151	28	1	8	60.0	2	1	[(8519, 2)]
6154	1	4	8	60.0	2	0	[]
6161	9	1	8	40.0	2	1	[(9264, 0)]
6163	5	2	8	60.0	2	0	[]
6167	3	1	4	60.0	2	0	[]
6169	1	4	8	60.0	2	0	[]
6175	1	4	8	60.0	2	0	[]
6191	12	6	8	60.0	2	3	[(762, 0), (2684, 0), (774, 0)]
6197	3	1	8	60.0	2	0	[]
6200	2	1	1	60.0	2	0	[]
6205	1	1	8	60.0	2	0	[]
6211	5	1	8	60.0	2	0	[]
6213	2	1	8	60.0	2	0	[]
6224	2	1	5	60.0	2	0	[]
6226	10	6	8	60.0	2	0	[]
6230	57	5	8	60.0	0	10	[(4170, 0), (3283, 0), (5153, 0), (2658, 0), (3722, 0), (2668, 0), (7907, 0), (80, 2), (5512, 0), (1861, 0)]
6241	2	3	8	60.0	2	0	[]
6246	5	1	8	60.0	2	0	[]
6251	14	8	16	200.0	2	0	[]
6252	1	1	8	60.0	2	0	[]
6256	15	3	8	60.0	2	7	[(6880, 0), (5366, 0), (4541, 2), (3851, 1), (4129, 0), (2206, 1), (3551, 2)]
6257	2	1	8	60.0	2	0	[]
6268	4	5	8	60.0	2	0	[]
6269	174	10	16	80.0	2	2	[(6495, 0), (4825, 1)]
6273	1	1	8	60.0	2	0	[]
6275	2	1	8	200.0	2	0	[]
6276	4	1	8	60.0	2	1	[(4471, 1)]
6277	1	1	8	60.0	2	0	[]
6284	1	2	8	60.0	2	0	[]
6286	1	1	8	60.0	2	0	[]
6295	14	4	8	40.0	2	3	[(1388, 2), (6018, 2), (577, 0)]
6296	4	1	8	60.0	2	1	[(3286, 2)]
6297	1	4	8	60.0	2	0	[]
6298	2	1	8	60.0	2	0	[]
6303	19	6	8	60.0	2	0	[]
6312	5	1	8	60.0	2	0	[]
6315	1	4	8	60.0	2	0	[]
6327	2	1	8	60.0	2	0	[]
6332	6	1	8	60.0	2	3	[(8523, 2), (5490, 2), (8500, 2)]
6334	50	12	16	100.0	2	2	[(6269, 0), (5411, 0)]
6341	2	2	4	60.0	2	0	[]
6351	2	1	1	60.0	2	0	[]
6358	2	1	2	60.0	2	0	[]
6361	2	1	2	60.0	2	0	[]
6367	2	1	8	60.0	2	0	[]
6368	3	1	8	60.0	2	0	[]
6370	1	1	8	60.0	2	0	[]
6373	2	1	8	60.0	2	0	[]
6375	10	3	8	100.0	2	0	[]
6378	2	1	8	60.0	2	0	[]
6384	3	1	8	100.0	2	0	[]
6391	2	1	8	60.0	2	0	[]
6395	1	1	8	60.0	2	0	[]
6398	6	4	8	60.0	2	1	[(4825, 0)]
6402	29	3	8	60.0	2	7	[(1884, 2), (6269, 0), (9162, 2), (2033, 2), (80, 0), (2954, 2), (1611, 1)]
6405	6	1	8	60.0	2	0	[]
6407	2	1	8	60.0	2	0	[]
6414	2	1	8	60.0	2	0	[]
6415	3	1	8	60.0	2	0	[]
6417	2	1	8	60.0	2	0	[]
6429	2	4	32	60.0	2	10	[(3241, 1), (1741, 2), (7392, 2), (1637, 1), (8834, 2), (80, 2), (4550, 1), (2175, 2), (6034, 2), (3321, 1)]
6431	2	4	8	60.0	2	0	[]
6434	5	1	8	60.0	2	0	[]
6446	3	1	8	60.0	2	0	[]
6447	2	1	7	60.0	2	0	[]
6448	2	1	8	60.0	2	0	[]
6450	5	2	16	60.0	2	1	[(8194, 0)]
6459	1	1	8	60.0	2	0	[]
6460	2	4	8	60.0	2	0	[]
6461	1	2	8	60.0	2	0	[]
6467	1	4	8	40.0	0	0	[]
6470	2	2	8	60.0	2	0	[]
6474	15	6	8	60.0	2	4	[(4825, 0), (6811, 1), (5112, 2), (4810, 2)]
6479	11	1	2	200.0	2	0	[]
6486	15	4	8	60.0	2	2	[(6811, 1), (4810, 2)]
6489	1	1	8	60.0	2	0	[]
6495	11	2	8	60.0	2	0	[]
6498	1	1	2	60.0	2	0	[]
6499	2	2	8	60.0	2	0	[]
6502	1	4	8	60.0	2	0	[]
6504	2	2	8	60.0	2	0	[]
6511	4	1	2	60.0	2	0	[]
6513	2	1	8	60.0	2	0	[]
6514	24	3	8	60.0	2	0	[]
6516	2	1	8	60.0	2	0	[]
6518	1	1	2	60.0	2	0	[]
6519	2	1	8	60.0	2	0	[]
6526	2	4	8	60.0	2	0	[]
6528	1	5	8	60.0	2	0	[]
6539	1	8	16	60.0	2	0	[]
6543	1	4	8	60.0	2	0	[]
6549	2	1	8	60.0	2	0	[]
6552	1	1	8	60.0	2	0	[]
6553	4	1	8	60.0	2	0	[]
6556	1	1	8	60.0	2	0	[]
6558	4	1	8	60.0	2	0	[]
6559	2	5	8	60.0	2	0	[]
6560	1	1	8	60.0	2	0	[]
6563	3	1	1	60.0	2	1	[(2917, 0)]
6564	43	4	8	40.0	0	4	[(5740, 0), (7338, 0), (7229, 0), (2098, 1)]
6565	4	2	8	60.0	2	0	[]
6566	1	1	1	60.0	2	0	[]
6568	31	5	8	60.0	0	7	[(7158, 2), (6911, 1), (6771, 2), (8273, 1), (7058, 1), (2668, 0), (390, 2)]
6569	1	1	8	60.0	2	0	[]
6570	2	3	16	100.0	2	0	[]
6571	2	1	8	60.0	2	0	[]
6572	1	1	8	60.0	2	0	[]
6574	1	1	2	60.0	2	0	[]
6577	1	1	8	60.0	2	0	[]
6581	1	2	8	60.0	2	1	[(3356, 2)]
6587	3	2	8	60.0	2	0	[]
6588	1	1	8	60.0	2	0	[]
6591	2	1	16	80.0	2	0	[]
6597	108	12	8	100.0	2	4	[(1110, 0), (976, 0), (4977, 1), (7350, 0)]
6602	2	1	2	60.0	2	2	[(3930, 2), (9162, 2)]
6603	1	1	2	60.0	2	0	[]
6605	37	6	8	60.0	2	1	[(8777, 0)]
6611	6	1	8	60.0	2	2	[(8215, 2), (1518, 0)]
6614	1	1	8	60.0	2	0	[]
6615	1	6	8	60.0	2	0	[]
6619	2	1	8	60.0	2	1	[(8433, 0)]
6628	21	5	8	60.0	2	0	[]
6631	2	1	8	60.0	2	0	[]
6635	1	2	8	60.0	2	0	[]
6636	2	1	8	60.0	2	0	[]
6639	3	1	5	60.0	2	0	[]
6644	2	1	2	60.0	2	0	[]
6646	2	2	8	60.0	2	0	[]
6647	4	2	8	60.0	2	0	[]
6652	2	1	5	60.0	2	0	[]
6657	2	1	8	100.0	2	0	[]
6658	1	1	2	60.0	2	0	[]
6663	7	3	2	60.0	2	0	[]
6666	2	1	4	60.0	2	0	[]
6670	3	1	8	60.0	2	0	[]
6674	2	1	8	60.0	2	0	[]
6679	2	1	2	60.0	2	0	[]
6684	2	1	8	60.0	2	0	[]
6685	1	2	4	60.0	2	0	[]
6686	3	1	8	60.0	2	0	[]
6688	5	2	8	60.0	2	0	[]
6689	6	2	8	60.0	2	0	[]
6690	2	4	16	80.0	2	0	[]
6695	4	1	8	60.0	2	0	[]
6700	3	1	8	60.0	2	0	[]
6702	1	4	8	60.0	2	0	[]
6704	2	1	8	60.0	2	0	[]
6705	1	1	8	60.0	2	0	[]
6707	3	1	7	60.0	2	0	[]
6709	5	1	8	60.0	2	2	[(9052, 2), (8771, 2)]
6710	69	6	8	60.0	2	7	[(2627, 1), (7648, 2), (95, 1), (82, 2), (704, 2), (8258, 2), (1518, 2)]
6711	14	6	8	60.0	2	1	[(5851, 0)]
6714	2	1	8	60.0	2	0	[]
6716	2	1	8	60.0	2	0	[]
6720	2	1	8	60.0	2	0	[]
6725	28	6	8	100.0	2	3	[(741, 2), (847, 1), (4562, 1)]
6727	1	4	8	60.0	2	0	[]
6731	2	4	8	60.0	2	0	[]
6734	35	6	8	60.0	2	0	[]
6738	1	1	8	40.0	2	0	[]
6744	31	3	8	60.0	2	2	[(4007, 0), (3634, 0)]
6746	2	1	8	60.0	2	0	[]
6748	2	1	8	60.0	2	0	[]
6750	21	4	8	40.0	2	3	[(80, 0), (3321, 0), (5022, 0)]
6765	4	1	8	60.0	2	0	[]
6771	11	6	8	60.0	2	0	[]
6775	4	1	2	100.0	2	0	[]
6784	1	1	10	300.0	2	0	[]
6786	2	1	6	60.0	2	0	[]
6791	21	3	8	60.0	2	2	[(8561, 1), (1941, 2)]
6798	1	1	8	60.0	2	0	[]
6800	2	3	8	60.0	2	0	[]
6811	1	1	2	60.0	2	0	[]
6820	6	2	32	80.0	2	0	[]
6825	1	1	8	60.0	2	0	[]
6826	2	1	8	60.0	2	0	[]
6827	21	3	16	60.0	2	3	[(9052, 0), (6139, 0), (4349, 0)]
6828	3	1	8	60.0	2	0	[]
6834	5	1	8	80.0	2	0	[]
6835	1	4	8	60.0	2	0	[]
6837	5	1	8	60.0	2	0	[]
6840	1	1	8	60.0	2	0	[]
6844	2	1	2	60.0	2	0	[]
6848	1	2	8	60.0	2	0	[]
6861	2	1	2	60.0	2	0	[]
6864	1	1	8	60.0	2	2	[(5522, 0), (7887, 2)]
6865	1	3	16	60.0	2	0	[]
6868	1	1	8	60.0	2	0	[]
6872	1	1	7	60.0	2	0	[]
6875	2	1	8	60.0	2	0	[]
6880	75	2	8	40.0	2	6	[(2954, 0), (4825, 2), (4531, 2), (6710, 2), (7426, 0), (9127, 2)]
6882	2	1	1	60.0	2	0	[]
6883	20	5	8	60.0	2	1	[(2018, 2)]
6886	2	1	8	60.0	2	0	[]
6889	2	1	2	60.0	2	0	[]
6893	2	1	7	60.0	2	0	[]
6895	6	1	8	60.0	2	0	[]
6898	2	1	8	60.0	2	0	[]
6904	2	1	1	60.0	2	0	[]
6906	1	1	2	60.0	2	0	[]
6907	17	1	8	60.0	2	0	[]
6908	2	1	8	60.0	2	0	[]
6911	275	6	8	60.0	2	7	[(6269, 0), (5427, 0), (7826, 2), (1602, 0), (9165, 0), (7792, 0), (1021, 0)]
6912	8	2	2	60.0	2	0	[]
6914	5	6	8	60.0	2	0	[]
6915	1	1	16	60.0	2	0	[]
6917	2	1	8	60.0	2	0	[]
6918	1	1	8	60.0	2	0	[]
6920	3	1	8	60.0	2	0	[]
6921	5	2	8	60.0	2	0	[]
6923	2	1	8	60.0	2	0	[]
6924	1	1	2	60.0	2	0	[]
6929	2	1	8	60.0	2	0	[]
6932	1	1	8	60.0	2	0	[]
6933	2	1	8	60.0	2	0	[]
6934	2	1	8	80.0	2	0	[]
6935	12	1	8	100.0	2	1	[(693, 2)]
6953	2	1	8	60.0	2	0	[]
6954	2	1	8	60.0	2	0	[]
6963	2	1	4	60.0	2	0	[]
6967	1	1	16	40.0	2	0	[]
6968	1	1	8	60.0	2	0	[]
6971	2	2	8	60.0	2	0	[]
6986	1	1	8	60.0	2	0	[]
6988	1	1	8	60.0	2	0	[]
6994	1	1	8	60.0	2	0	[]
6996	2	4	8	60.0	2	0	[]
7005	1	1	1	60.0	2	0	[]
7006	1	1	8	60.0	2	0	[]
7007	16	3	8	60.0	2	0	[]
7011	1	1	8	60.0	2	0	[]
7015	2	1	1	60.0	2	0	[]
7022	1	1	8	60.0	2	1	[(4376, 1)]
7024	2	1	8	60.0	2	0	[]
7025	25	2	8	60.0	2	1	[(3321, 2)]
7026	4	4	8	60.0	2	0	[]
7031	1	1	1	60.0	2	0	[]
7038	2	3	8	60.0	2	0	[]
7039	16	1	8	60.0	2	0	[]
7040	1	1	8	60.0	2	0	[]
7042	2	1	8	60.0	2	0	[]
7048	1	1	12	200.0	1	0	[]
7049	1	1	8	60.0	2	0	[]
7052	8	4	8	60.0	2	0	[]
7054	2	1	8	60.0	2	0	[]
7057	1	4	8	60.0	2	0	[]
7058	19	9	16	200.0	2	3	[(5533, 2), (7426, 0), (1781, 0)]
7060	1	1	8	60.0	2	0	[]
7062	4	1	8	60.0	2	0	[]
7063	3	5	8	60.0	2	0	[]
7065	9	5	8	60.0	2	0	[]
7067	396	12	12	60.0	2	28	[(1173, 0), (9010, 0), (2263, 0), (3634, 0), (2964, 0), (1821, 0), (5411, 0), (2751, 0), (6911, 0), (6269, 0), (7763, 0), (8386, 0), (7874, 2), (80, 0), (6230, 0), (4568, 0), (6334, 0), (6139, 0), (4825, 0), (8777, 0), (4866, 0), (7338, 0), (7426, 0), (5490, 0), (9122, 0), (8410, 0), (9138, 0), (9145, 0)]
7068	2	1	8	60.0	2	0	[]
7074	8	1	1	80.0	2	0	[]
7076	8	5	8	60.0	2	0	[]
7078	2	4	8	60.0	2	0	[]
7079	2	5	8	60.0	2	0	[]
7083	1	1	8	60.0	2	0	[]
7086	2	1	8	60.0	2	0	[]
7087	25	4	2	200.0	2	6	[(3176, 0), (5271, 2), (3295, 1), (6731, 2), (8860, 1), (7959, 2)]
7090	3	1	8	60.0	2	0	[]
7092	6	2	8	60.0	2	4	[(9127, 0), (4474, 0), (281, 0), (577, 0)]
7101	2	1	24	60.0	2	0	[]
7102	69	7	32	60.0	2	14	[(3241, 1), (3526, 0), (1741, 2), (4667, 0), (7392, 2), (1637, 1), (7267, 0), (8834, 2), (1781, 0), (80, 2), (4550, 1), (2175, 2), (6034, 2), (3321, 1)]
7108	2	1	8	60.0	2	0	[]
7110	1	1	8	60.0	2	0	[]
7111	2	4	8	60.0	2	0	[]
7117	20	2	8	60.0	2	5	[(80, 0), (4825, 2), (1721, 0), (3896, 2), (4015, 0)]
7123	2	6	8	60.0	2	0	[]
7127	2	1	8	60.0	2	0	[]
7131	1	4	8	60.0	2	0	[]
7134	2	2	8	60.0	2	0	[]
7139	1	1	8	60.0	2	0	[]
7142	2	1	5	60.0	2	1	[(5876, 0)]
7149	1	4	8	60.0	2	0	[]
7152	2	4	8	60.0	2	0	[]
7153	1	4	8	60.0	2	0	[]
7158	7	2	8	60.0	2	2	[(8412, 2), (5022, 0)]
7163	6	1	8	60.0	2	5	[(270, 0), (4085, 0), (519, 0), (1834, 0), (7887, 0)]
7172	5	2	8	60.0	2	0	[]
7173	1	4	8	60.0	2	0	[]
7176	6	1	2	60.0	2	1	[(4085, 0)]
7183	1	2	8	40.0	2	0	[]
7184	20	2	16	150.0	2	1	[(3896, 2)]
7185	3	1	8	60.0	2	1	[(3693, 1)]
7186	1	1	1	60.0	2	0	[]
7193	1	4	8	300.0	2	0	[]
7196	36	2	8	60.0	2	7	[(6334, 0), (6269, 0), (8582, 0), (5028, 0), (4732, 0), (80, 0), (7026, 0)]
7200	1	1	2	60.0	2	0	[]
7205	1	1	8	60.0	2	0	[]
7208	1	1	1	60.0	2	0	[]
7211	1	2	8	60.0	2	0	[]
7212	1	1	8	60.0	2	0	[]
7219	4	1	8	60.0	2	0	[]
7229	7	1	8	40.0	2	3	[(8760, 0), (5028, 0), (7338, 0)]
7232	1	4	8	60.0	2	0	[]
7234	2	1	8	60.0	2	0	[]
7236	7	1	8	60.0	2	0	[]
7244	1	1	1	60.0	2	0	[]
7247	2	1	8	60.0	2	0	[]
7248	5	2	8	60.0	2	0	[]
7249	6	2	8	100.0	2	0	[]
7250	3	6	8	60.0	2	0	[]
7254	1	4	8	60.0	2	0	[]
7255	45	12	16	100.0	2	12	[(2686, 1), (6273, 1), (4732, 1), (3551, 0), (8619, 1), (6647, 2), (2206, 0), (8955, 2), (1700, 1), (718, 1), (4541, 0), (7007, 1)]
7260	2	1	2	60.0	2	0	[]
7266	10	6	8	60.0	2	0	[]
7267	6	6	8	60.0	2	3	[(1637, 0), (6911, 0), (5490, 0)]
7281	1	8	16	80.0	2	0	[]
7282	3	2	8	60.0	2	0	[]
7288	2	1	2	60.0	2	0	[]
7296	1	1	2	60.0	2	0	[]
7302	5	1	8	60.0	2	0	[]
7308	1	1	2	60.0	2	0	[]
7309	87	5	8	40.0	0	6	[(80, 2), (4231, 0), (7426, 0), (4471, 0), (160, 0), (281, 0)]
7320	1	4	1	60.0	2	0	[]
7321	2	5	8	60.0	2	0	[]
7326	5	1	8	60.0	2	0	[]
7330	3	1	8	60.0	2	0	[]
7334	1	1	8	60.0	2	0	[]
7336	2	4	8	60.0	2	0	[]
7338	120	6	8	60.0	0	3	[(8807, 2), (3032, 0), (1259, 0)]
7339	2	1	1	60.0	2	0	[]
7349	1	1	1	60.0	2	0	[]
7350	3	1	8	60.0	2	0	[]
7352	2	5	8	60.0	2	0	[]
7356	9	2	7	60.0	2	0	[]
7357	2	1	8	60.0	2	0	[]
7361	1	1	8	60.0	2	0	[]
7362	2	2	8	60.0	2	0	[]
7365	1	2	8	40.0	2	0	[]
7369	54	6	8	60.0	2	2	[(3321, 2), (5829, 2)]
7370	10	1	8	60.0	2	0	[]
7371	2	1	2	60.0	2	0	[]
7372	4	1	9	80.0	2	0	[]
7374	6	1	8	60.0	2	0	[]
7379	1	1	16	60.0	2	0	[]
7380	2	1	8	60.0	2	0	[]
7385	4	1	8	60.0	2	0	[]
7386	5	1	8	60.0	2	0	[]
7392	1	2	32	100.0	2	11	[(1741, 2), (1637, 1), (6034, 2), (3241, 1), (7102, 2), (80, 2), (4550, 1), (2175, 2), (3321, 1), (704, 2), (6429, 2)]
7395	2	1	8	60.0	2	0	[]
7397	2	1	16	60.0	2	0	[]
7398	1	1	8	60.0	2	0	[]
7401	23	3	8	60.0	2	5	[(6474, 0), (6911, 0), (4825, 0), (5112, 0), (7658, 2)]
7403	7	1	8	60.0	2	0	[]
7412	1	1	4	60.0	2	0	[]
7417	2	4	8	60.0	2	0	[]
7418	2	1	8	60.0	2	0	[]
7421	6	1	8	60.0	2	0	[]
7422	2	2	8	40.0	2	0	[]
7426	74	12	16	100.0	1	8	[(3526, 0), (5366, 2), (6880, 0), (7058, 0), (3802, 0), (7874, 1), (7026, 0), (1781, 0)]
7429	1	1	1	60.0	2	0	[]
7432	1	4	8	60.0	2	0	[]
7435	1	2	8	60.0	2	0	[]
7439	3	1	8	60.0	2	0	[]
7441	9	3	8	60.0	2	1	[(4170, 1)]
7448	23	3	8	40.0	2	1	[(9264, 0)]
7452	2	1	8	60.0	2	5	[(1506, 0), (6689, 0), (5107, 0), (2644, 0), (4045, 0)]
7454	1	1	3	60.0	2	0	[]
7460	2	1	8	60.0	2	0	[]
7462	1	1	8	60.0	2	0	[]
7466	44	5	8	60.0	2	1	[(4581, 1)]
7469	3	1	8	60.0	2	0	[]
7474	2	1	8	60.0	2	0	[]
7475	5	1	8	60.0	2	0	[]
7480	5	4	8	60.0	2	0	[]
7485	1	4	8	60.0	2	0	[]
7487	1	1	2	60.0	2	0	[]
7491	2	1	8	80.0	2	0	[]
7492	1	1	8	60.0	2	0	[]
7493	2	4	8	60.0	2	0	[]
7496	1	1	6	60.0	2	0	[]
7498	9	10	32	80.0	2	1	[(5279, 0)]
7500	22	1	8	60.0	2	2	[(3831, 1), (2627, 1)]
7502	4	4	8	60.0	2	0	[]
7503	6	1	8	60.0	2	0	[]
7510	3	1	4	60.0	2	1	[(80, 2)]
7516	2	1	8	60.0	2	0	[]
7519	2	1	3	60.0	2	0	[]
7525	1	1	2	60.0	2	0	[]
7530	2	1	8	60.0	2	0	[]
7539	2	1	8	60.0	2	0	[]
7540	1	4	8	60.0	2	0	[]
7542	2	1	8	60.0	2	0	[]
7544	1	1	1	60.0	2	0	[]
7546	2	1	8	60.0	2	0	[]
7548	2	1	8	60.0	2	0	[]
7551	5	2	8	100.0	2	0	[]
7553	1	1	1	60.0	2	1	[(2917, 0)]
7554	4	1	8	60.0	2	0	[]
7560	1	6	8	60.0	2	0	[]
7563	18	3	8	60.0	2	1	[(2517, 1)]
7564	5	3	8	60.0	2	0	[]
7565	1	1	8	60.0	2	0	[]
7569	11	3	8	60.0	2	0	[]
7571	5	9	16	150.0	2	0	[]
7573	1	1	8	60.0	2	0	[]
7577	1	1	8	60.0	2	0	[]
7598	1	1	8	60.0	2	0	[]
7601	3	1	8	60.0	2	0	[]
7606	2	1	16	40.0	2	0	[]
7611	1	11	128	600.0	2	0	[]
7615	2	2	8	60.0	2	0	[]
7616	1	1	8	60.0	2	0	[]
7619	7	1	8	60.0	2	1	[(8904, 2)]
7620	3	1	8	60.0	2	0	[]
7625	2	1	6	60.0	2	0	[]
7648	8	2	2	60.0	2	2	[(6269, 0), (1227, 0)]
7649	6	2	16	60.0	2	0	[]
7658	6	1	4	60.0	2	0	[]
7662	2	4	8	60.0	2	0	[]
7663	1	1	8	60.0	2	0	[]
7669	2	1	8	60.0	2	0	[]
7680	2	2	8	60.0	2	0	[]
7681	1	1	8	60.0	2	0	[]
7686	2	1	8	60.0	2	0	[]
7687	2	1	8	60.0	2	0	[]
7690	2	1	8	60.0	2	0	[]
7692	3	1	8	80.0	2	0	[]
7693	2	4	8	60.0	2	0	[]
7695	2	2	8	60.0	2	0	[]
7698	2	1	8	60.0	2	0	[]
7703	1	1	8	40.0	0	0	[]
7704	2	1	8	60.0	2	0	[]
7705	1	1	8	60.0	2	0	[]
7709	4	2	8	60.0	2	0	[]
7714	2	1	8	60.0	2	0	[]
7715	1	1	8	60.0	2	0	[]
7722	1	1	16	100.0	2	0	[]
7724	6	2	8	60.0	2	1	[(7369, 2)]
7725	2	1	8	60.0	2	0	[]
7727	4	6	8	60.0	2	0	[]
7730	2	1	8	60.0	2	0	[]
7732	6	2	8	60.0	2	0	[]
7739	1	1	1	60.0	2	0	[]
7740	12	6	8	60.0	2	2	[(2033, 1), (4877, 2)]
7742	2	1	8	60.0	2	0	[]
7746	1	1	1	60.0	2	0	[]
7756	1	1	6	60.0	2	0	[]
7758	7	1	8	60.0	2	0	[]
7759	3	1	8	60.0	2	1	[(7935, 2)]
7761	1	6	8	60.0	2	0	[]
7763	1	1	8	60.0	2	2	[(7067, 0), (3321, 2)]
7769	1	1	8	60.0	2	0	[]
7776	8	1	8	60.0	2	0	[]
7781	2	1	5	60.0	2	0	[]
7788	1	1	8	60.0	2	0	[]
7790	1	1	8	60.0	2	0	[]
7792	14	2	8	60.0	2	0	[]
7798	16	3	8	60.0	2	0	[]
7804	2	1	8	60.0	2	0	[]
7805	25	2	8	60.0	2	0	[]
7810	2	4	8	60.0	2	0	[]
7813	7	4	16	100.0	2	0	[]
7821	1	1	8	60.0	2	0	[]
7823	3	1	8	60.0	2	0	[]
7826	2	1	8	60.0	2	0	[]
7828	4	3	8	60.0	2	0	[]
7831	7	1	8	80.0	2	0	[]
7836	4	2	8	60.0	2	1	[(4581, 2)]
7837	1	1	2	60.0	2	0	[]
7840	2	1	8	60.0	2	0	[]
7851	2	1	8	60.0	2	0	[]
7856	2	1	8	60.0	2	0	[]
7857	3	1	8	60.0	2	0	[]
7860	1	1	8	40.0	0	0	[]
7874	20	6	8	100.0	2	4	[(3349, 2), (6139, 2), (8776, 1), (3468, 2)]
7875	2	4	8	60.0	2	0	[]
7887	16	2	8	60.0	2	1	[(8528, 0)]
7890	3	2	8	60.0	2	0	[]
7891	3	1	8	100.0	2	0	[]
7894	2	1	8	60.0	2	0	[]
7896	1	1	2	60.0	2	0	[]
7900	2	1	2	60.0	2	0	[]
7906	1	1	8	60.0	2	0	[]
7907	2	2	8	60.0	2	0	[]
7915	2	1	8	60.0	2	0	[]
7918	2	1	8	60.0	2	0	[]
7921	2	2	8	60.0	2	0	[]
7923	2	4	8	60.0	2	0	[]
7926	2	2	8	60.0	2	0	[]
7935	175	4	16	100.0	2	2	[(2485, 1), (95, 2)]
7937	1	4	8	80.0	2	0	[]
7944	2	1	8	100.0	2	0	[]
7949	1	1	8	60.0	2	0	[]
7950	2	4	8	60.0	2	0	[]
7951	2	1	8	60.0	2	0	[]
7958	2	1	8	60.0	2	0	[]
7959	7	6	8	60.0	2	8	[(6405, 0), (6448, 2), (3878, 0), (8837, 0), (2488, 2), (1923, 0), (1958, 0), (5762, 0)]
7967	2	1	1	60.0	2	0	[]
7971	2	1	16	80.0	2	0	[]
7972	2	2	8	60.0	2	0	[]
7987	7	2	8	60.0	2	0	[]
7989	1	4	8	60.0	2	0	[]
7993	2	1	8	60.0	2	0	[]
7999	1	1	8	60.0	2	0	[]
8002	10	2	8	60.0	2	0	[]
8006	4	6	8	60.0	2	0	[]
8010	2	1	8	60.0	2	0	[]
8012	1	1	1	60.0	2	0	[]
8016	1	1	8	60.0	2	0	[]
8023	3	2	8	60.0	2	0	[]
8028	26	5	8	60.0	2	1	[(7935, 2)]
8030	2	1	2	60.0	2	0	[]
8032	1	1	2	60.0	2	0	[]
8042	1	1	1	60.0	2	0	[]
8043	2	1	6	60.0	2	0	[]
8056	2	1	8	60.0	2	0	[]
8058	2	1	2	60.0	2	0	[]
8064	2	1	8	60.0	2	0	[]
8068	2	1	3	60.0	2	0	[]
8080	2	1	8	60.0	2	0	[]
8081	5	1	8	40.0	2	0	[]
8084	2	1	8	60.0	2	0	[]
8096	1	4	8	60.0	2	0	[]
8099	4	1	8	60.0	2	0	[]
8104	3	1	8	60.0	2	0	[]
8135	2	1	8	60.0	2	0	[]
8138	100	6	8	60.0	2	6	[(1983, 0), (3831, 2), (8955, 2), (3455, 2), (3601, 2), (6628, 0)]
8139	28	6	8	60.0	2	1	[(704, 1)]
8141	3	6	2	60.0	2	0	[]
8144	103	6	8	60.0	2	2	[(4170, 1), (5725, 2)]
8145	2	6	8	60.0	2	0	[]
8149	4	1	4	60.0	2	0	[]
8153	3	1	8	60.0	2	0	[]
8154	1	1	8	60.0	2	0	[]
8155	18	4	8	60.0	2	0	[]
8174	1	4	8	60.0	2	0	[]
8180	3	1	8	60.0	2	0	[]
8184	1	1	8	60.0	2	0	[]
8188	2	1	8	80.0	2	0	[]
8189	1	1	8	60.0	2	0	[]
8190	2	2	8	60.0	2	0	[]
8194	18	2	8	60.0	2	0	[]
8195	2	1	8	60.0	2	0	[]
8197	4	1	8	80.0	2	0	[]
8202	1	2	8	60.0	2	0	[]
8203	9	2	8	60.0	2	1	[(4702, 0)]
8209	8	1	8	60.0	2	0	[]
8210	2	1	8	60.0	2	0	[]
8215	6	2	8	60.0	2	1	[(80, 2)]
8216	2	1	8	60.0	2	0	[]
8226	2	3	8	60.0	2	0	[]
8230	1	1	8	60.0	2	0	[]
8232	1	1	4	60.0	2	0	[]
8239	2	1	8	60.0	2	0	[]
8242	8	5	8	60.0	2	0	[]
8244	1	8	8	60.0	2	0	[]
8245	2	1	8	60.0	2	0	[]
8246	3	1	8	60.0	2	0	[]
8254	2	4	8	60.0	2	0	[]
8258	5	1	2	60.0	2	0	[]
8264	2	2	8	60.0	2	0	[]
8268	2	4	8	60.0	2	0	[]
8273	11	1	2	60.0	2	0	[]
8278	3	3	7	60.0	2	0	[]
8279	2	1	8	60.0	2	0	[]
8280	2	1	2	60.0	2	0	[]
8281	6	1	8	60.0	2	0	[]
8284	2	1	8	60.0	2	0	[]
8292	2	2	8	60.0	2	0	[]
8295	1	1	2	60.0	2	0	[]
8297	5	1	8	60.0	2	0	[]
8304	2	1	3	200.0	2	0	[]
8305	3	1	8	60.0	2	0	[]
8311	1	4	8	60.0	2	0	[]
8320	1	3	8	60.0	2	0	[]
8321	2	5	8	60.0	2	0	[]
8325	2	4	8	60.0	2	0	[]
8328	15	3	8	60.0	2	0	[]
8341	3	1	8	60.0	2	0	[]
8346	2	2	8	60.0	2	0	[]
8348	2	1	8	60.0	2	0	[]
8349	7	2	8	60.0	2	0	[]
8350	1	4	8	60.0	2	0	[]
8352	2	1	6	60.0	2	0	[]
8359	1	1	8	60.0	2	0	[]
8365	7	1	8	60.0	2	2	[(7798, 2), (1829, 1)]
8366	4	1	16	60.0	2	0	[]
8373	1	2	8	60.0	2	0	[]
8375	5	1	8	60.0	2	1	[(3693, 2)]
8382	1	1	2	60.0	2	0	[]
8386	75	2	8	60.0	2	0	[]
8387	1	1	1	60.0	2	0	[]
8390	1	1	8	60.0	2	0	[]
8393	3	1	2	60.0	2	0	[]
8395	2	1	8	60.0	2	0	[]
8401	1	1	8	60.0	2	0	[]
8406	2	1	8	60.0	2	0	[]
8407	7	2	8	60.0	2	0	[]
8410	9	2	8	60.0	2	1	[(7067, 0)]
8412	31	3	8	60.0	2	6	[(80, 1), (4231, 0), (5366, 0), (4825, 1), (7229, 0), (1592, 0)]
8415	2	1	8	60.0	2	0	[]
8419	3	1	8	60.0	2	0	[]
8428	2	2	16	150.0	2	0	[]
8432	2	1	8	60.0	2	0	[]
8433	2	1	4	60.0	2	0	[]
8434	14	5	8	60.0	2	0	[]
8437	1	1	8	60.0	2	0	[]
8438	5	3	8	60.0	2	0	[]
8441	1	4	8	60.0	2	0	[]
8442	1	1	8	60.0	2	0	[]
8446	4	2	8	60.0	2	0	[]
8449	1	2	8	60.0	2	0	[]
8450	1	1	2	60.0	2	0	[]
8456	1	1	8	60.0	2	0	[]
8462	2	1	6	60.0	2	0	[]
8466	2	2	8	60.0	2	0	[]
8468	1	1	8	60.0	2	0	[]
8469	2	1	2	60.0	2	0	[]
8471	2	1	8	60.0	2	0	[]
8472	2	4	8	60.0	2	0	[]
8474	1	4	8	60.0	2	0	[]
8475	14	2	8	60.0	2	0	[]
8480	1	1	8	60.0	2	0	[]
8484	8	2	8	60.0	2	0	[]
8487	2	1	8	60.0	2	0	[]
8494	3	1	8	60.0	2	0	[]
8499	4	1	8	60.0	2	0	[]
8500	28	4	8	40.0	0	2	[(6663, 2), (4471, 2)]
8502	6	2	8	60.0	2	0	[]
8511	1	24	48	300.0	2	0	[]
8516	1	1	1	60.0	2	0	[]
8519	2	2	8	60.0	2	0	[]
8520	6	2	8	60.0	2	0	[]
8523	6	5	8	60.0	2	1	[(7601, 1)]
8528	5	5	8	60.0	2	0	[]
8530	2	1	8	60.0	2	0	[]
8533	1	1	8	60.0	2	0	[]
8538	3	1	8	60.0	2	0	[]
8539	3	2	8	60.0	2	0	[]
8542	3	2	8	60.0	2	0	[]
8543	7	1	8	60.0	2	0	[]
8545	4	1	8	60.0	2	0	[]
8559	2	32	128	600.0	2	0	[]
8561	1	1	2	60.0	2	0	[]
8563	2	4	8	60.0	2	0	[]
8569	24	1	8	60.0	2	0	[]
8571	4	1	8	60.0	2	1	[(3469, 2)]
8573	1	1	8	60.0	2	0	[]
8574	4	1	8	60.0	2	0	[]
8582	14	24	32	80.0	2	0	[]
8586	3	1	8	60.0	2	0	[]
8588	5	23	32	80.0	2	0	[]
8591	1	4	10	40.0	2	0	[]
8595	1	1	8	60.0	2	0	[]
8609	2	1	6	60.0	2	0	[]
8613	2	1	8	60.0	2	0	[]
8617	2	4	8	60.0	2	0	[]
8619	2	6	8	60.0	2	0	[]
8620	1	16	32	80.0	2	0	[]
8633	2	1	2	60.0	2	0	[]
8634	26	2	8	60.0	2	0	[]
8640	1	1	8	60.0	2	0	[]
8641	14	6	8	60.0	2	1	[(8284, 0)]
8642	2	1	8	60.0	2	1	[(505, 0)]
8645	1	1	2	60.0	2	0	[]
8649	2	1	2	60.0	2	0	[]
8651	2	1	8	60.0	2	0	[]
8656	3	2	8	60.0	2	0	[]
8663	4	2	8	60.0	2	0	[]
8664	3	1	8	60.0	2	0	[]
8667	2	1	8	60.0	2	0	[]
8677	2	3	8	60.0	2	0	[]
8684	13	2	8	60.0	2	0	[]
8687	2	1	8	60.0	2	0	[]
8688	1	1	8	60.0	2	0	[]
8689	1	1	8	60.0	2	0	[]
8691	2	4	8	60.0	2	1	[(3180, 2)]
8692	2	1	16	80.0	2	0	[]
8694	1	1	2	60.0	2	0	[]
8695	11	1	8	100.0	2	0	[]
8704	2	4	8	60.0	2	0	[]
8706	1	4	8	60.0	2	0	[]
8708	2	2	8	60.0	2	0	[]
8711	6	2	8	60.0	2	0	[]
8718	1	1	8	60.0	2	0	[]
8719	4	1	7	60.0	2	0	[]
8720	2	1	8	60.0	2	0	[]
8721	1	4	8	60.0	2	0	[]
8729	2	1	8	60.0	2	0	[]
8731	4	2	8	60.0	2	0	[]
8732	3	1	8	60.0	2	0	[]
8737	2	1	8	60.0	2	0	[]
8738	4	1	8	60.0	2	0	[]
8745	2	1	8	60.0	2	0	[]
8748	2	1	8	60.0	2	0	[]
8750	2	1	8	60.0	2	0	[]
8753	2	1	6	60.0	2	0	[]
8759	2	1	8	60.0	2	3	[(519, 0), (7038, 0), (6725, 0)]
8760	3	1	8	60.0	2	0	[]
8761	3	4	8	60.0	2	1	[(3356, 2)]
8762	2	1	2	60.0	2	0	[]
8763	1	1	8	40.0	2	0	[]
8766	6	6	8	60.0	2	0	[]
8769	1	1	16	60.0	0	0	[]
8771	2	1	8	60.0	2	0	[]
8774	25	6	8	60.0	2	1	[(4376, 0)]
8776	6	2	8	60.0	2	0	[]
8777	2	1	8	60.0	2	0	[]
8778	2	1	8	60.0	2	0	[]
8782	1	1	2	60.0	2	0	[]
8783	8	1	8	60.0	2	0	[]
8785	1	1	8	60.0	2	0	[]
8788	2	1	8	60.0	2	0	[]
8789	7	4	8	60.0	2	0	[]
8795	5	6	8	60.0	2	0	[]
8807	1	4	16	80.0	2	0	[]
8809	2	1	8	60.0	2	0	[]
8814	2	1	8	60.0	2	0	[]
8821	5	1	8	60.0	2	0	[]
8824	3	4	10	60.0	2	0	[]
8831	1	1	8	60.0	2	0	[]
8834	8	3	32	100.0	2	12	[(1741, 2), (1227, 0), (1637, 1), (6034, 2), (3241, 1), (7102, 2), (80, 2), (4550, 1), (2175, 2), (3321, 1), (704, 2), (6429, 2)]
8835	1	1	8	60.0	2	0	[]
8836	4	1	8	60.0	2	0	[]
8837	8	2	8	60.0	2	0	[]
8840	12	1	2	60.0	2	0	[]
8857	1	2	8	60.0	2	0	[]
8859	5	1	8	60.0	2	0	[]
8860	4	1	1	60.0	2	0	[]
8867	2	1	7	60.0	2	0	[]
8870	2	2	13	150.0	2	0	[]
8876	1	1	8	60.0	2	0	[]
8877	1	1	2	60.0	2	0	[]
8879	1	1	8	60.0	2	0	[]
8889	2	1	8	60.0	2	0	[]
8890	2	1	8	60.0	2	0	[]
8897	8	6	8	60.0	2	0	[]
8904	24	4	8	60.0	2	0	[]
8908	2	1	8	60.0	2	0	[]
8909	2	1	2	60.0	2	0	[]
8915	1	1	8	60.0	2	0	[]
8920	5	1	8	60.0	2	0	[]
8928	4	1	8	60.0	2	0	[]
8930	5	6	16	80.0	2	0	[]
8933	2	1	1	60.0	2	0	[]
8940	2	1	8	60.0	2	0	[]
8946	6	2	8	60.0	2	0	[]
8947	1	1	8	60.0	2	0	[]
8952	1	1	6	60.0	2	0	[]
8955	12	2	8	60.0	2	1	[(3800, 0)]
8956	2	1	8	60.0	2	0	[]
8957	1	1	8	60.0	2	0	[]
8960	1	1	8	60.0	2	0	[]
8965	2	1	8	60.0	2	0	[]
8967	98	6	8	60.0	2	8	[(4129, 0), (7658, 0), (3800, 0), (6246, 0), (5465, 2), (2069, 1), (693, 2), (7487, 2)]
8969	1	1	8	60.0	2	0	[]
8974	1	1	8	60.0	2	0	[]
8975	2	1	8	80.0	2	0	[]
8978	2	1	8	60.0	2	0	[]
8984	1	1	8	60.0	2	0	[]
8985	2	1	8	60.0	2	0	[]
8987	2	1	8	60.0	2	0	[]
8994	18	1	2	60.0	2	1	[(4171, 1)]
8995	17	2	8	60.0	2	1	[(693, 0)]
9000	1	1	2	60.0	2	0	[]
9004	1	4	8	60.0	2	0	[]
9008	1	1	1	40.0	2	0	[]
9010	30	4	8	60.0	2	2	[(80, 2), (7426, 0)]
9011	9	3	8	60.0	2	0	[]
9012	2	1	8	60.0	2	0	[]
9014	28	3	8	60.0	2	0	[]
9017	33	1	8	60.0	2	0	[]
9037	5	1	8	60.0	2	0	[]
9039	2	1	8	60.0	2	0	[]
9045	1	1	8	60.0	2	0	[]
9051	2	1	8	60.0	2	0	[]
9052	152	4	8	60.0	2	11	[(4471, 0), (2086, 0), (281, 0), (9336, 2), (1324, 2), (2627, 0), (6269, 0), (4825, 2), (82, 2), (95, 1), (9145, 2)]
9053	2	1	8	60.0	2	0	[]
9060	2	4	8	60.0	2	0	[]
9063	1	1	2	60.0	2	0	[]
9064	6	1	8	60.0	2	0	[]
9065	3	1	8	60.0	2	0	[]
9069	1	1	7	60.0	2	0	[]
9070	3	2	8	60.0	2	0	[]
9073	2	4	8	60.0	2	0	[]
9079	8	8	16	80.0	2	2	[(1524, 0), (5522, 0)]
9082	1	4	8	60.0	2	0	[]
9083	1	6	8	60.0	2	0	[]
9087	3	3	8	60.0	2	0	[]
9094	2	1	8	60.0	2	0	[]
9098	2	1	8	60.0	2	0	[]
9099	1	1	8	60.0	2	0	[]
9101	3	1	2	60.0	2	0	[]
9112	1	4	8	60.0	2	0	[]
9113	3	1	8	60.0	2	0	[]
9119	1	1	8	60.0	2	0	[]
9122	45	3	16	60.0	0	1	[(7067, 0)]
9127	37	2	8	40.0	2	0	[]
9131	1	1	3	60.0	2	0	[]
9137	1	1	8	60.0	2	0	[]
9138	72	6	8	60.0	2	3	[(1781, 0), (1435, 0), (1602, 0)]
9140	4	1	8	60.0	2	0	[]
9145	72	5	10	40.0	0	8	[(80, 0), (8412, 0), (7338, 0), (6161, 0), (9127, 0), (4349, 0), (5490, 0), (577, 0)]
9148	1	1	7	60.0	2	0	[]
9152	4	1	15	100.0	2	0	[]
9161	6	1	8	60.0	2	0	[]
9162	8	1	8	60.0	2	0	[]
9165	62	6	8	60.0	2	11	[(6911, 0), (4129, 0), (1111, 0), (2998, 0), (2613, 0), (1015, 0), (3293, 0), (4668, 0), (7510, 0), (6163, 0), (1499, 2)]
9168	13	6	8	60.0	2	0	[]
9170	1	1	8	60.0	2	0	[]
9173	4	1	2	60.0	2	2	[(1821, 2), (7357, 2)]
9179	2	1	8	60.0	2	0	[]
9180	5	2	8	60.0	2	0	[]
9184	1	1	4	60.0	2	0	[]
9196	2	1	8	60.0	2	0	[]
9198	1	2	16	60.0	0	0	[]
9202	2	1	8	60.0	2	0	[]
9203	2	1	8	60.0	2	0	[]
9205	1	1	1	60.0	2	0	[]
9207	31	4	16	60.0	2	0	[]
9216	5	2	8	60.0	2	1	[(4193, 0)]
9218	2	1	3	60.0	2	0	[]
9219	5	3	8	60.0	2	0	[]
9229	1	4	8	60.0	2	0	[]
9231	3	1	8	60.0	2	0	[]
9233	3	4	8	60.0	2	0	[]
9235	2	2	2	60.0	2	0	[]
9241	1	1	7	60.0	2	0	[]
9242	2	1	8	60.0	2	0	[]
9243	6	1	8	60.0	2	0	[]
9246	1	4	8	60.0	2	0	[]
9256	1	1	8	60.0	2	0	[]
9258	2	1	8	60.0	2	0	[]
9260	2	2	8	60.0	2	0	[]
9261	1	1	8	60.0	2	0	[]
9264	6	5	8	60.0	2	0	[]
9265	4	1	8	60.0	2	0	[]
9266	2	1	8	60.0	2	0	[]
9267	1	1	1	60.0	2	0	[]
9268	5	1	8	60.0	2	0	[]
9273	4	2	8	60.0	2	0	[]
9274	2	1	8	60.0	2	0	[]
9276	4	3	16	100.0	2	0	[]
9280	1	1	8	60.0	2	0	[]
9285	5	1	8	60.0	2	0	[]
9288	1	1	1	60.0	2	0	[]
9294	1	1	8	60.0	2	0	[]
9298	3	2	8	60.0	2	0	[]
9299	1	4	8	60.0	2	0	[]
9300	2	4	8	60.0	2	0	[]
9307	2	6	8	60.0	2	0	[]
9311	2	1	2	60.0	2	2	[(803, 0), (7385, 0)]
9317	2	1	8	60.0	2	0	[]
9318	2	2	4	60.0	2	0	[]
9320	3	1	8	60.0	2	0	[]
9327	3	1	8	60.0	2	0	[]
9328	13	6	8	100.0	2	2	[(693, 2), (128, 0)]
9332	1	3	2	60.0	2	0	[]
9333	2	1	8	60.0	2	0	[]
9334	7	4	8	60.0	2	1	[(80, 1)]
9335	1	5	8	60.0	2	0	[]
9336	8	1	2	80.0	2	0	[]
9337	6	1	8	60.0	2	0	[]
