app_id	nb_instances	core	memory	disk	intra_value	inter_degree	inter_aff
2	1	1	8	60.0	2	0	[]
3	4	1	8	60.0	2	0	[]
9	1	1	2	60.0	2	0	[]
13	8	2	2	60.0	2	1	[(798, 0)]
17	2	1	8	60.0	2	0	[]
27	21	3	8	60.0	2	2	[(6659, 0), (5273, 1)]
28	10	1	1	60.0	2	6	[(3952, 2), (5954, 2), (1361, 2), (440, 1), (4781, 0), (8946, 1)]
32	2	1	8	60.0	2	0	[]
33	1	1	8	60.0	2	0	[]
34	12	1	8	60.0	2	0	[]
35	2	1	8	60.0	2	0	[]
39	2	1	8	80.0	2	1	[(798, 0)]
41	2	1	1	60.0	2	0	[]
42	1	1	16	200.0	2	0	[]
43	2	1	8	60.0	2	0	[]
45	1	1	8	60.0	2	0	[]
46	2	1	4	60.0	2	0	[]
51	2	1	8	60.0	2	0	[]
52	22	2	8	60.0	2	3	[(5862, 2), (1059, 2), (6381, 2)]
60	10	4	8	60.0	2	13	[(275, 0), (2857, 0), (6419, 1), (8199, 1), (3531, 2), (2129, 0), (2033, 0), (3327, 0), (2506, 1), (478, 0), (4551, 0), (4054, 0), (3101, 2)]
62	2	1	8	60.0	2	0	[]
67	21	1	8	60.0	2	0	[]
83	2	2	2	60.0	2	0	[]
85	3	6	8	60.0	2	0	[]
90	2	2	8	60.0	2	0	[]
96	3	1	8	60.0	2	0	[]
104	1	4	8	60.0	2	0	[]
109	2	4	16	60.0	2	0	[]
119	1	2	2	60.0	2	0	[]
122	36	2	8	40.0	2	2	[(6659, 0), (798, 0)]
123	1	1	8	60.0	2	0	[]
135	36	3	2	60.0	2	0	[]
137	2	1	2	60.0	2	0	[]
138	1	1	8	60.0	2	0	[]
142	2	1	2	80.0	2	0	[]
144	2	1	8	60.0	2	0	[]
145	2	1	8	60.0	2	0	[]
151	2	1	8	60.0	2	0	[]
152	1	1	8	60.0	2	0	[]
157	2	1	2	60.0	2	0	[]
159	3	2	8	60.0	2	0	[]
161	1	1	8	60.0	2	0	[]
163	1	1	8	60.0	2	0	[]
165	2	1	8	60.0	2	1	[(798, 0)]
174	2	2	8	60.0	2	0	[]
176	1	1	32	80.0	0	0	[]
178	1	1	8	60.0	2	0	[]
197	2	2	8	60.0	2	0	[]
198	3	2	8	60.0	2	1	[(6659, 0)]
200	1	4	8	60.0	2	0	[]
206	2	4	8	60.0	2	0	[]
211	3	1	8	60.0	2	1	[(798, 0)]
212	1	1	8	60.0	2	0	[]
213	4	1	8	60.0	2	0	[]
216	3	1	8	60.0	2	0	[]
217	3	1	8	60.0	2	0	[]
218	1	1	8	60.0	2	0	[]
223	2	1	8	60.0	2	0	[]
227	5	1	8	60.0	2	2	[(7998, 0), (7184, 0)]
231	1	8	16	40.0	2	0	[]
232	17	5	8	60.0	2	3	[(8518, 0), (3631, 0), (6230, 0)]
238	37	3	8	80.0	0	5	[(1884, 0), (6065, 0), (6659, 0), (473, 1), (6431, 1)]
240	1	4	8	60.0	2	0	[]
241	1	1	6	60.0	2	0	[]
248	8	8	16	500.0	2	0	[]
250	13	2	8	100.0	2	2	[(4913, 2), (159, 1)]
257	1	3	8	60.0	2	0	[]
261	5	1	8	60.0	2	1	[(6478, 0)]
263	2	1	8	60.0	2	0	[]
268	3	4	8	60.0	2	0	[]
270	11	1	8	60.0	2	1	[(5764, 0)]
273	1	16	60	60.0	2	19	[(4661, 2), (8587, 2), (3942, 2), (6381, 2), (4520, 2), (9031, 2), (4014, 2), (6185, 2), (6104, 2), (5420, 2), (2175, 2), (6385, 2), (4011, 2), (6429, 2), (6683, 2), (4630, 2), (8162, 1), (3321, 1), (7555, 2)]
275	86	3	8	60.0	2	9	[(7463, 1), (5600, 1), (2299, 2), (7622, 0), (4015, 1), (6919, 0), (7338, 0), (5848, 2), (798, 0)]
280	2	1	8	60.0	2	0	[]
281	8	3	8	40.0	2	3	[(5366, 0), (7309, 0), (6659, 0)]
282	1	1	8	60.0	2	0	[]
285	2	1	8	60.0	2	0	[]
289	5	2	8	60.0	2	0	[]
302	8	12	16	100.0	2	0	[]
307	11	1	8	60.0	2	0	[]
312	5	1	8	40.0	2	0	[]
320	3	1	8	60.0	2	0	[]
322	2	1	8	60.0	2	0	[]
324	1	1	8	60.0	2	0	[]
325	3	1	2	60.0	2	0	[]
326	3	1	7	60.0	2	0	[]
329	1	1	1	60.0	2	0	[]
330	2	1	10	40.0	2	0	[]
331	1	1	8	60.0	2	0	[]
332	2	4	2	60.0	2	0	[]
333	1	1	8	60.0	2	0	[]
336	2	1	8	60.0	2	0	[]
338	27	3	2	80.0	2	3	[(5067, 0), (798, 0), (6659, 0)]
339	2	4	8	60.0	2	0	[]
349	3	2	8	60.0	2	1	[(4283, 1)]
366	1	1	8	60.0	2	0	[]
374	2	1	40	60.0	2	0	[]
385	2	1	8	60.0	2	0	[]
389	3	1	8	60.0	2	0	[]
391	4	1	8	60.0	2	1	[(798, 0)]
393	5	1	8	60.0	2	9	[(4949, 0), (4812, 0), (7376, 0), (3008, 0), (3291, 0), (7007, 0), (6692, 0), (9219, 0), (5767, 0)]
397	5	1	8	60.0	2	0	[]
399	2	1	8	60.0	2	0	[]
414	3	4	8	60.0	2	0	[]
415	1	1	2	60.0	2	0	[]
417	2	1	8	60.0	2	0	[]
418	5	2	8	60.0	2	0	[]
419	5	1	8	60.0	2	0	[]
421	14	3	8	60.0	2	3	[(1884, 0), (6710, 0), (2767, 0)]
422	1	1	8	100.0	2	0	[]
427	1	6	8	60.0	2	0	[]
430	10	2	8	60.0	2	0	[]
435	25	1	8	80.0	2	0	[]
437	1	1	8	60.0	2	0	[]
439	1	1	2	60.0	2	0	[]
440	4	2	8	60.0	2	0	[]
441	18	2	8	60.0	2	2	[(2701, 0), (3286, 0)]
444	3	1	8	60.0	2	0	[]
448	2	1	3	60.0	2	0	[]
449	15	3	16	60.0	1	0	[]
450	5	1	8	60.0	2	0	[]
455	1	4	8	60.0	2	0	[]
456	35	2	8	60.0	2	5	[(473, 1), (2033, 0), (5958, 0), (1051, 0), (798, 0)]
457	3	1	8	60.0	2	0	[]
467	4	1	8	60.0	2	0	[]
471	1	1	8	60.0	2	0	[]
473	77	3	8	40.0	0	5	[(6659, 0), (8135, 2), (798, 0), (6261, 1), (6275, 1)]
477	1	1	8	60.0	2	0	[]
478	2	1	8	60.0	2	0	[]
485	3	1	8	60.0	2	0	[]
488	1	16	60	60.0	0	0	[]
489	2	1	8	60.0	2	0	[]
501	2	1	8	60.0	2	0	[]
504	1	1	8	60.0	2	0	[]
507	3	2	8	60.0	2	1	[(798, 0)]
517	1	1	8	60.0	2	0	[]
521	2	1	8	60.0	2	0	[]
525	1	3	8	60.0	2	0	[]
530	1	1	8	60.0	2	0	[]
532	1	1	8	60.0	2	0	[]
533	15	1	8	60.0	2	0	[]
536	51	2	8	167.0	2	55	[(7309, 0), (6683, 0), (4341, 0), (949, 0), (1051, 0), (1447, 0), (4471, 0), (6964, 0), (2917, 0), (8069, 0), (1024, 0), (1425, 0), (3321, 0), (7970, 0), (5411, 0), (4551, 0), (8191, 0), (5106, 0), (6393, 0), (7080, 0), (6304, 0), (3845, 0), (5740, 0), (122, 0), (2745, 0), (793, 0), (3253, 0), (8931, 0), (6710, 0), (3327, 0), (9049, 0), (238, 0), (3559, 0), (281, 0), (8199, 0), (5313, 0), (7738, 0), (2500, 0), (9163, 0), (1059, 0), (3103, 0), (4939, 0), (6659, 0), (3886, 0), (2900, 0), (4864, 0), (3571, 0), (2767, 0), (1887, 0), (8569, 0), (2033, 0), (3105, 0), (7928, 0), (6578, 0), (4424, 0)]
538	2	1	8	60.0	2	0	[]
542	1	1	8	60.0	2	0	[]
545	3	1	3	60.0	2	0	[]
553	1	1	8	60.0	2	0	[]
568	3	1	8	60.0	2	0	[]
572	18	2	8	100.0	2	0	[]
574	2	1	8	60.0	2	0	[]
580	30	2	8	60.0	2	1	[(798, 0)]
584	2	1	8	60.0	2	0	[]
588	2	5	2	60.0	2	0	[]
590	2	2	8	60.0	2	0	[]
591	1	1	2	60.0	2	0	[]
592	1	16	32	200.0	2	0	[]
607	2	4	8	60.0	2	1	[(1175, 0)]
608	5	1	8	60.0	2	0	[]
615	14	2	8	60.0	2	0	[]
616	9	3	8	60.0	2	1	[(798, 0)]
623	2	1	8	60.0	2	0	[]
624	1	4	8	60.0	2	0	[]
633	4	1	8	60.0	2	0	[]
639	2	1	8	60.0	2	0	[]
645	1	1	8	60.0	2	0	[]
662	2	1	8	60.0	2	0	[]
666	23	11	16	100.0	2	2	[(735, 2), (8088, 0)]
669	2	1	8	60.0	2	0	[]
670	2	1	5	60.0	2	0	[]
674	5	1	8	60.0	2	1	[(7725, 1)]
678	1	1	8	60.0	2	0	[]
679	1	1	8	60.0	2	0	[]
684	2	1	8	60.0	2	0	[]
687	4	6	8	60.0	2	1	[(6659, 0)]
690	2	1	8	60.0	2	0	[]
693	14	2	8	60.0	2	2	[(3534, 1), (6726, 0)]
703	8	1	8	60.0	2	0	[]
707	7	1	8	60.0	2	0	[]
723	1	1	2	60.0	2	0	[]
724	2	1	8	60.0	2	0	[]
727	3	1	8	80.0	2	0	[]
731	1	1	1	60.0	2	0	[]
735	1	1	8	60.0	2	0	[]
739	2	2	16	80.0	2	0	[]
744	2	4	8	60.0	2	0	[]
749	2	4	8	60.0	2	0	[]
759	1	4	16	100.0	2	0	[]
769	12	4	2	100.0	2	0	[]
777	2	1	8	60.0	2	0	[]
783	1	1	8	60.0	2	0	[]
789	6	1	8	60.0	2	0	[]
793	15	2	2	60.0	2	0	[]
795	6	4	16	100.0	2	0	[]
796	7	1	8	60.0	2	0	[]
798	226	6	8	60.0	0	167	[(2710, 0), (6391, 0), (1425, 0), (3370, 0), (3726, 0), (4301, 0), (13, 0), (4220, 0), (4627, 0), (8243, 0), (6710, 0), (7805, 0), (1515, 0), (2779, 0), (8742, 0), (507, 0), (3590, 0), (5060, 0), (5865, 0), (275, 0), (7338, 0), (4162, 0), (1635, 0), (1343, 0), (6404, 0), (473, 0), (3137, 0), (7780, 0), (4161, 0), (7928, 0), (4508, 0), (9110, 0), (4718, 0), (3733, 0), (6659, 0), (5186, 0), (5467, 0), (2935, 0), (391, 0), (1541, 0), (39, 0), (3273, 0), (8553, 0), (3286, 0), (9297, 0), (3101, 0), (901, 0), (7401, 0), (8502, 0), (7123, 0), (5705, 0), (2193, 0), (3806, 0), (2767, 0), (8328, 0), (6375, 0), (2129, 0), (616, 0), (456, 0), (3486, 0), (6946, 0), (3686, 0), (4739, 0), (2233, 0), (6818, 0), (1361, 0), (3699, 0), (7001, 0), (3513, 0), (6916, 0), (2120, 0), (9046, 0), (4253, 0), (9156, 0), (7309, 0), (4322, 0), (5600, 0), (8313, 0), (3637, 0), (1987, 0), (1024, 0), (8019, 0), (1784, 0), (6249, 0), (7649, 0), (5438, 0), (2616, 0), (5085, 0), (4708, 0), (2830, 0), (6817, 0), (8069, 0), (5964, 0), (122, 0), (6568, 0), (5387, 0), (2114, 0), (6477, 0), (7091, 0), (1391, 0), (4133, 0), (5309, 0), (6910, 0), (6654, 0), (5920, 0), (8011, 0), (6196, 0), (9086, 0), (3729, 0), (5958, 0), (1884, 0), (5296, 0), (5997, 0), (2112, 0), (6715, 0), (7167, 0), (6928, 0), (6692, 0), (1239, 0), (8749, 0), (3327, 0), (5388, 0), (7700, 0), (165, 0), (3238, 0), (3902, 0), (7075, 0), (5731, 0), (7467, 0), (5165, 0), (7738, 0), (3290, 0), (7350, 0), (5781, 0), (3534, 0), (1800, 0), (3228, 0), (6689, 0), (6483, 0), (5740, 0), (942, 0), (1152, 0), (6478, 0), (3021, 0), (7803, 0), (6600, 0), (2192, 0), (5240, 0), (4443, 0), (3374, 0), (2357, 0), (211, 0), (580, 0), (927, 0), (5921, 0), (8005, 0), (7377, 0), (988, 0), (8774, 0), (1146, 0), (3009, 0), (2618, 0), (338, 0), (3682, 0), (3425, 0), (3183, 0), (5077, 0)]
801	1	4	8	60.0	2	0	[]
805	1	1	8	60.0	2	0	[]
813	1	1	8	60.0	2	0	[]
816	2	1	8	60.0	2	0	[]
818	1	1	2	60.0	2	0	[]
822	1	4	8	100.0	2	0	[]
823	1	1	2	500.0	2	0	[]
827	3	1	8	60.0	2	0	[]
831	2	2	8	60.0	2	0	[]
832	6	1	8	60.0	2	4	[(3321, 2), (6683, 1), (7338, 0), (7309, 2)]
835	7	2	8	60.0	2	0	[]
836	3	3	8	60.0	2	0	[]
839	10	6	8	60.0	2	0	[]
842	1	1	1	60.0	2	0	[]
844	3	1	8	60.0	2	0	[]
851	5	2	8	60.0	2	0	[]
852	3	2	8	60.0	2	0	[]
858	2	1	8	60.0	2	0	[]
861	3	6	8	60.0	2	0	[]
863	1	2	8	60.0	2	0	[]
865	4	3	8	60.0	2	0	[]
868	2	1	8	60.0	2	0	[]
877	5	1	8	60.0	2	0	[]
879	1	1	8	60.0	2	0	[]
880	7	1	8	60.0	2	0	[]
888	2	4	8	167.0	2	0	[]
892	1	1	8	60.0	2	0	[]
893	1	1	8	60.0	2	0	[]
896	1	1	3	200.0	2	0	[]
898	2	1	2	60.0	2	0	[]
900	1	8	16	60.0	1	0	[]
901	5	2	8	60.0	2	1	[(798, 0)]
904	1	1	8	60.0	2	0	[]
906	2	1	8	60.0	2	0	[]
909	8	12	16	100.0	2	0	[]
916	2	1	8	60.0	2	0	[]
921	6	2	8	60.0	2	0	[]
922	1	1	8	60.0	2	0	[]
927	1	1	8	60.0	2	1	[(798, 0)]
934	1	1	8	60.0	2	0	[]
935	2	1	1	60.0	2	0	[]
940	20	3	8	60.0	2	0	[]
942	23	2	8	80.0	2	1	[(798, 0)]
943	1	1	8	60.0	2	0	[]
946	3	1	8	60.0	2	0	[]
949	16	2	8	40.0	2	2	[(456, 0), (5525, 2)]
953	5	1	8	60.0	2	0	[]
957	1	1	1	60.0	2	0	[]
961	3	3	8	60.0	2	0	[]
968	3	1	16	60.0	2	0	[]
971	7	2	8	60.0	2	0	[]
972	7	2	8	60.0	2	0	[]
975	20	36	48	300.0	2	0	[]
976	2	1	2	60.0	2	0	[]
977	2	1	3	60.0	2	0	[]
980	3	1	8	60.0	2	0	[]
982	2	1	8	60.0	2	0	[]
988	2	1	8	80.0	2	1	[(798, 0)]
990	1	1	7	60.0	2	0	[]
993	1	1	8	60.0	2	0	[]
998	10	4	8	60.0	2	0	[]
1001	3	1	8	60.0	2	0	[]
1003	1	1	8	60.0	2	0	[]
1004	3	1	8	60.0	2	0	[]
1005	2	1	8	60.0	2	0	[]
1012	7	1	8	60.0	2	0	[]
1024	123	5	10	60.0	1	12	[(9049, 0), (5600, 2), (6659, 0), (3495, 1), (1059, 2), (8569, 0), (6485, 1), (798, 0), (3183, 0), (536, 0), (6381, 2), (4424, 0)]
1037	2	1	8	60.0	2	0	[]
1041	1	1	2	60.0	2	0	[]
1047	1	1	1	60.0	2	0	[]
1051	77	5	8	40.0	2	5	[(8553, 0), (8500, 0), (6659, 0), (3590, 0), (4667, 0)]
1059	31	6	8	60.0	2	3	[(1098, 1), (6659, 0), (3845, 2)]
1078	2	1	8	60.0	2	0	[]
1086	2	1	8	60.0	2	0	[]
1088	1	4	8	60.0	2	0	[]
1098	2	1	8	60.0	2	0	[]
1100	3	1	8	60.0	2	0	[]
1102	2	1	8	60.0	2	0	[]
1110	5	2	8	60.0	2	0	[]
1115	6	1	8	60.0	2	0	[]
1117	2	1	8	60.0	2	0	[]
1118	2	1	8	60.0	2	0	[]
1122	7	1	8	40.0	2	2	[(6659, 0), (8069, 2)]
1124	2	1	8	60.0	2	0	[]
1125	1	36	30	300.0	2	0	[]
1127	5	1	8	60.0	2	0	[]
1128	2	1	8	60.0	2	0	[]
1130	1	1	8	60.0	2	0	[]
1132	1	4	8	60.0	2	0	[]
1143	3	1	7	60.0	2	0	[]
1146	1	4	8	60.0	2	1	[(798, 0)]
1152	409	5	8	60.0	2	38	[(3220, 1), (9049, 0), (7075, 2), (2469, 0), (1051, 0), (3779, 0), (1887, 0), (1425, 0), (5961, 0), (3091, 0), (6304, 0), (793, 0), (7765, 0), (7120, 1), (2802, 1), (6230, 0), (798, 0), (1990, 0), (4891, 0), (4154, 2), (27, 0), (4812, 0), (3942, 1), (3486, 0), (7338, 0), (6381, 0), (4699, 0), (326, 0), (5411, 0), (8664, 0), (5868, 0), (2149, 2), (6067, 2), (5967, 0), (3022, 2), (3454, 0), (3183, 0), (9297, 1)]
1159	5	1	8	60.0	2	0	[]
1160	12	1	8	60.0	2	0	[]
1163	11	3	8	60.0	2	3	[(3022, 0), (3644, 1), (326, 0)]
1164	1	1	2	60.0	2	0	[]
1165	4	1	2	60.0	2	0	[]
1168	2	4	8	60.0	2	0	[]
1175	4	1	8	60.0	2	0	[]
1179	1	1	8	60.0	2	0	[]
1180	2	1	8	60.0	2	0	[]
1182	5	2	8	60.0	2	0	[]
1189	3	1	8	60.0	2	0	[]
1192	2	1	8	60.0	2	0	[]
1194	3	1	8	60.0	2	0	[]
1197	6	2	8	60.0	2	0	[]
1199	1	1	8	60.0	2	0	[]
1201	12	6	8	60.0	2	1	[(7998, 0)]
1204	2	1	8	60.0	2	0	[]
1205	3	1	8	60.0	2	0	[]
1207	3	1	8	100.0	2	0	[]
1208	2	1	8	60.0	2	1	[(3806, 2)]
1210	1	1	8	60.0	2	0	[]
1214	2	1	8	60.0	2	0	[]
1221	3	1	8	60.0	2	0	[]
1223	1	1	8	60.0	2	0	[]
1226	2	2	2	60.0	2	0	[]
1236	2	1	2	60.0	2	0	[]
1239	2	1	8	60.0	2	1	[(798, 0)]
1252	2	1	8	60.0	2	0	[]
1256	2	12	16	200.0	2	0	[]
1262	7	1	8	60.0	2	1	[(2874, 0)]
1265	1	1	8	60.0	2	0	[]
1269	1	1	8	60.0	2	0	[]
1273	2	1	7	60.0	2	0	[]
1285	7	5	8	60.0	2	1	[(6659, 0)]
1288	16	2	8	60.0	2	0	[]
1289	1	4	8	60.0	2	0	[]
1294	8	1	8	60.0	2	2	[(6659, 0), (1051, 1)]
1302	2	1	8	60.0	2	0	[]
1307	2	1	8	60.0	2	0	[]
1316	1	5	8	60.0	2	0	[]
1317	4	2	8	60.0	2	0	[]
1321	3	1	8	60.0	2	2	[(1391, 1), (580, 2)]
1330	6	1	8	60.0	2	0	[]
1331	1	1	8	60.0	2	0	[]
1332	1	1	1	60.0	2	3	[(3806, 1), (6817, 0), (4986, 2)]
1335	4	1	8	60.0	2	0	[]
1336	2	4	8	60.0	2	0	[]
1337	1	3	8	60.0	2	0	[]
1340	1	1	1	60.0	2	0	[]
1343	40	6	8	60.0	2	1	[(798, 0)]
1346	3	1	8	60.0	2	2	[(6102, 2), (4773, 2)]
1351	1	2	2	60.0	2	0	[]
1353	1	1	1	60.0	2	0	[]
1354	2	1	8	60.0	2	9	[(6814, 0), (5307, 0), (6689, 0), (3558, 0), (7766, 0), (3004, 0), (7893, 0), (2172, 0), (5661, 0)]
1359	2	4	8	80.0	2	0	[]
1361	7	1	8	60.0	2	3	[(5570, 0), (798, 0), (2917, 0)]
1364	2	1	8	60.0	2	0	[]
1365	8	1	8	60.0	2	0	[]
1370	1	4	16	80.0	2	0	[]
1375	3	4	8	60.0	2	0	[]
1376	2	4	8	60.0	2	0	[]
1379	1	1	8	60.0	2	0	[]
1381	1	2	4	60.0	2	0	[]
1390	1	1	8	60.0	2	0	[]
1391	189	6	8	60.0	2	8	[(8518, 0), (3682, 0), (8375, 0), (2767, 2), (3534, 0), (7732, 1), (798, 0), (844, 0)]
1392	3	1	16	80.0	2	0	[]
1396	3	2	8	60.0	2	0	[]
1398	2	1	8	60.0	2	0	[]
1399	2	2	8	60.0	2	0	[]
1402	4	1	8	60.0	2	0	[]
1403	4	1	8	60.0	2	0	[]
1404	1	1	26	300.0	2	0	[]
1406	1	1	8	60.0	2	0	[]
1408	4	1	7	60.0	2	0	[]
1412	6	5	8	60.0	2	0	[]
1414	13	3	8	60.0	2	1	[(3987, 1)]
1422	1	2	16	100.0	2	0	[]
1424	6	5	8	80.0	2	2	[(3844, 2), (2767, 2)]
1425	39	7	16	200.0	2	2	[(6659, 0), (798, 0)]
1439	1	1	2	60.0	2	0	[]
1444	1	1	8	60.0	2	0	[]
1446	1	1	8	60.0	2	0	[]
1447	33	1	8	60.0	2	0	[]
1458	3	4	8	60.0	2	0	[]
1460	1	1	8	60.0	2	0	[]
1462	1	1	8	60.0	2	0	[]
1465	1	4	8	60.0	2	0	[]
1466	1	1	2	60.0	2	0	[]
1468	2	1	8	60.0	2	0	[]
1469	3	1	8	60.0	2	0	[]
1471	1	1	8	60.0	2	0	[]
1489	1	1	8	60.0	2	0	[]
1497	10	2	8	60.0	2	0	[]
1504	1	1	2	60.0	2	0	[]
1505	2	1	8	60.0	2	0	[]
1508	3	1	8	60.0	2	0	[]
1513	1	1	8	60.0	2	0	[]
1514	1	1	1	60.0	2	0	[]
1515	25	4	8	60.0	2	11	[(1940, 1), (7998, 0), (7328, 0), (4802, 2), (798, 0), (137, 2), (8889, 2), (3143, 0), (8873, 2), (3989, 2), (693, 2)]
1519	1	1	8	60.0	2	0	[]
1529	4	1	8	60.0	2	0	[]
1533	3	1	8	60.0	2	0	[]
1537	4	1	2	60.0	2	0	[]
1541	60	6	8	60.0	2	20	[(1124, 1), (5974, 1), (9075, 1), (3008, 0), (7007, 2), (6151, 0), (533, 2), (5646, 1), (415, 0), (798, 0), (9049, 0), (275, 1), (6074, 0), (8920, 0), (2738, 1), (1824, 0), (7879, 0), (3555, 2), (6763, 0), (435, 1)]
1545	2	2	8	60.0	2	0	[]
1547	4	1	8	60.0	2	0	[]
1549	8	2	8	60.0	2	0	[]
1552	1	4	8	60.0	2	0	[]
1560	2	1	28	80.0	2	0	[]
1568	1	4	16	80.0	2	0	[]
1571	1	1	1	60.0	2	0	[]
1575	2	1	8	60.0	2	0	[]
1576	2	1	8	60.0	2	0	[]
1587	21	8	32	60.0	0	4	[(5366, 0), (2962, 0), (6715, 0), (6659, 0)]
1590	2	1	6	60.0	2	0	[]
1600	1	1	8	60.0	2	0	[]
1603	1	2	8	100.0	2	0	[]
1608	1	1	8	60.0	2	0	[]
1612	2	1	8	60.0	2	0	[]
1615	2	1	8	100.0	2	0	[]
1617	1	4	8	60.0	2	0	[]
1625	2	1	8	60.0	2	0	[]
1626	1	1	8	60.0	2	0	[]
1632	1	4	8	60.0	2	0	[]
1634	5	6	8	60.0	2	0	[]
1635	52	2	8	60.0	2	1	[(798, 0)]
1636	1	1	8	60.0	2	0	[]
1645	5	1	8	60.0	2	0	[]
1649	1	2	8	60.0	2	0	[]
1658	2	6	8	60.0	2	0	[]
1662	23	3	8	60.0	2	1	[(3358, 1)]
1664	4	1	8	60.0	2	0	[]
1672	1	4	8	60.0	2	1	[(6659, 0)]
1674	2	1	8	60.0	2	0	[]
1675	2	2	16	60.0	2	0	[]
1680	1	1	8	60.0	2	0	[]
1699	2	1	8	60.0	2	0	[]
1701	1	1	8	60.0	2	0	[]
1708	5	3	8	60.0	2	1	[(8567, 2)]
1717	1	4	8	60.0	2	0	[]
1719	1	1	8	60.0	2	0	[]
1720	2	1	8	60.0	2	1	[(6381, 0)]
1723	100	2	2	60.0	2	2	[(5387, 0), (6283, 1)]
1725	3	1	8	60.0	2	0	[]
1729	7	1	8	60.0	2	0	[]
1738	4	1	8	60.0	2	0	[]
1739	2	1	3	60.0	2	0	[]
1747	1	1	8	60.0	2	0	[]
1749	3	1	2	60.0	2	0	[]
1751	5	1	8	60.0	2	0	[]
1756	2	1	1	60.0	2	1	[(5655, 1)]
1764	2	1	2	60.0	2	0	[]
1767	2	1	2	60.0	2	0	[]
1768	3	1	8	60.0	2	0	[]
1771	2	3	8	60.0	2	0	[]
1779	3	6	16	60.0	2	0	[]
1784	22	1	8	60.0	2	1	[(798, 0)]
1790	4	2	8	60.0	2	0	[]
1794	1	1	8	60.0	2	0	[]
1796	15	4	3	60.0	2	0	[]
1800	6	2	8	60.0	2	1	[(798, 0)]
1803	2	1	8	60.0	2	0	[]
1804	10	2	8	60.0	2	0	[]
1806	1	1	2	60.0	2	0	[]
1807	1	1	8	60.0	2	0	[]
1812	1	1	8	60.0	2	0	[]
1818	1	1	8	60.0	2	0	[]
1819	3	1	8	60.0	2	0	[]
1820	2	1	8	60.0	2	0	[]
1822	10	4	16	200.0	2	0	[]
1823	1	1	2	60.0	2	0	[]
1824	2	1	8	60.0	2	0	[]
1827	2	1	8	60.0	2	0	[]
1833	3	2	8	60.0	2	0	[]
1837	6	1	3	60.0	2	0	[]
1841	4	1	8	60.0	2	0	[]
1842	2	1	1	60.0	2	0	[]
1844	1	1	3	200.0	2	0	[]
1845	2	2	8	60.0	2	0	[]
1849	2	1	3	60.0	2	0	[]
1850	1	2	10	40.0	2	0	[]
1853	5	1	8	60.0	2	0	[]
1862	2	1	8	60.0	2	0	[]
1864	4	5	8	60.0	2	0	[]
1868	3	1	8	60.0	2	0	[]
1869	3	1	8	60.0	2	0	[]
1870	1	1	16	100.0	2	0	[]
1877	4	1	8	60.0	2	0	[]
1878	6	1	8	60.0	2	0	[]
1884	212	10	16	100.0	2	4	[(6710, 2), (5862, 0), (6659, 0), (798, 0)]
1887	11	1	8	40.0	2	1	[(6381, 2)]
1895	3	4	8	60.0	2	1	[(435, 2)]
1897	1	1	8	60.0	2	0	[]
1900	50	1	16	60.0	2	65	[(3384, 1), (1059, 0), (6021, 1), (3306, 1), (161, 1), (901, 0), (6568, 0), (1541, 0), (2890, 0), (1024, 0), (3286, 0), (4930, 1), (275, 1), (3534, 0), (6440, 2), (3952, 0), (4289, 0), (3021, 0), (5438, 0), (7237, 1), (1408, 0), (7184, 1), (5740, 0), (7998, 0), (7472, 0), (5000, 0), (8593, 2), (3265, 2), (3091, 0), (2129, 0), (6823, 1), (7338, 0), (6943, 0), (7364, 1), (2709, 1), (6991, 0), (8130, 0), (1152, 0), (3158, 1), (5876, 0), (8313, 0), (5917, 0), (536, 0), (893, 0), (2090, 0), (473, 0), (2484, 1), (3936, 0), (580, 0), (7199, 0), (1346, 0), (7401, 0), (6837, 0), (6659, 0), (4667, 0), (2900, 0), (7576, 1), (8774, 0), (3009, 1), (1391, 0), (2767, 0), (3327, 0), (4491, 0), (6726, 0), (3183, 0)]
1907	1	1	8	60.0	2	0	[]
1911	2	5	8	60.0	2	0	[]
1922	2	4	8	60.0	2	0	[]
1932	2	1	8	60.0	2	0	[]
1933	1	4	16	60.0	2	0	[]
1938	2	1	8	60.0	2	1	[(6659, 0)]
1940	3	1	8	60.0	2	0	[]
1941	3	1	12	80.0	2	0	[]
1942	2	1	8	60.0	2	0	[]
1946	3	3	4	200.0	2	0	[]
1950	1	4	8	60.0	2	0	[]
1955	18	3	3	300.0	2	0	[]
1956	3	1	8	60.0	2	0	[]
1957	3	1	8	60.0	2	0	[]
1958	2	1	8	60.0	2	0	[]
1961	2	1	8	60.0	2	0	[]
1974	1	2	16	60.0	2	0	[]
1976	3	1	8	60.0	2	0	[]
1978	5	1	8	60.0	2	0	[]
1984	4	1	4	60.0	2	0	[]
1987	8	2	8	60.0	2	1	[(798, 0)]
1988	2	1	8	60.0	2	0	[]
1990	7	2	8	60.0	2	0	[]
2001	1	1	4	60.0	2	0	[]
2003	1	1	1	60.0	2	0	[]
2005	3	1	8	60.0	2	0	[]
2012	1	1	1	600.0	2	0	[]
2014	1	1	8	60.0	2	0	[]
2017	2	1	8	60.0	2	0	[]
2018	3	2	8	80.0	2	0	[]
2033	94	5	8	60.0	2	7	[(7474, 2), (6659, 0), (1059, 0), (3318, 0), (1425, 0), (2917, 0), (3321, 0)]
2037	5	4	8	60.0	2	2	[(2129, 2), (4551, 2)]
2038	1	1	8	60.0	2	0	[]
2058	3	1	2	200.0	2	0	[]
2059	2	1	2	60.0	2	0	[]
2074	2	1	2	60.0	2	0	[]
2081	1	6	2	60.0	2	0	[]
2087	1	1	2	60.0	2	0	[]
2088	2	1	8	60.0	2	0	[]
2090	40	3	8	60.0	2	3	[(8053, 0), (8110, 2), (2917, 0)]
2094	4	1	8	100.0	2	0	[]
2101	1	1	48	300.0	2	0	[]
2102	1	2	6	60.0	2	0	[]
2106	1	1	3	60.0	2	0	[]
2108	4	4	8	80.0	2	0	[]
2109	1	1	48	300.0	2	0	[]
2110	2	1	8	60.0	2	0	[]
2112	11	2	8	60.0	2	1	[(798, 0)]
2114	5	1	8	60.0	2	1	[(798, 0)]
2120	16	1	8	60.0	2	1	[(798, 0)]
2128	2	1	8	60.0	2	0	[]
2129	38	6	16	60.0	0	2	[(7426, 0), (798, 0)]
2131	2	1	8	60.0	2	0	[]
2133	3	1	8	60.0	2	0	[]
2140	7	1	8	60.0	2	0	[]
2149	1	1	8	60.0	2	0	[]
2153	2	1	6	60.0	2	0	[]
2155	6	4	2	100.0	2	0	[]
2156	2	1	8	60.0	2	0	[]
2157	2	2	8	60.0	2	0	[]
2159	1	1	16	80.0	2	0	[]
2164	1	1	8	60.0	2	0	[]
2167	1	1	8	60.0	2	0	[]
2169	1	2	8	60.0	2	0	[]
2171	1	1	8	60.0	2	0	[]
2172	2	1	8	60.0	2	0	[]
2173	24	2	8	60.0	2	0	[]
2175	1	2	16	60.0	1	15	[(8587, 2), (9031, 2), (3942, 2), (4520, 2), (4014, 2), (6185, 2), (6104, 2), (273, 2), (4011, 2), (6429, 2), (6683, 2), (4630, 2), (8162, 1), (3321, 1), (6385, 2)]
2182	1	1	8	60.0	2	0	[]
2191	1	2	8	60.0	2	0	[]
2192	3	1	16	60.0	2	1	[(798, 0)]
2193	6	1	8	80.0	2	1	[(798, 0)]
2200	6	4	3	60.0	2	0	[]
2205	2	1	8	60.0	2	0	[]
2212	2	1	8	60.0	2	1	[(3477, 2)]
2216	2	1	16	200.0	2	0	[]
2217	4	3	8	60.0	2	0	[]
2218	2	1	8	167.0	2	0	[]
2221	2	1	8	60.0	2	0	[]
2227	2	1	8	60.0	2	0	[]
2230	1	1	7	60.0	2	0	[]
2233	2	1	8	60.0	2	1	[(798, 0)]
2239	2	4	8	60.0	2	0	[]
2244	2	6	8	60.0	2	0	[]
2247	1	1	8	60.0	2	0	[]
2250	2	1	8	60.0	2	0	[]
2258	5	3	2	60.0	2	0	[]
2266	2	1	8	60.0	2	0	[]
2270	2	3	8	60.0	2	0	[]
2271	6	1	8	60.0	2	0	[]
2273	24	2	8	60.0	2	1	[(7497, 2)]
2277	4	1	8	60.0	2	0	[]
2279	2	1	8	60.0	2	0	[]
2280	1	1	2	60.0	2	0	[]
2281	2	1	8	60.0	2	0	[]
2282	1	4	8	60.0	2	0	[]
2286	1	1	8	60.0	2	0	[]
2288	1	1	8	60.0	2	0	[]
2289	4	1	8	60.0	2	0	[]
2293	2	1	8	60.0	2	0	[]
2294	1	1	1	60.0	2	0	[]
2295	2	1	7	60.0	2	0	[]
2299	5	1	8	60.0	2	0	[]
2305	1	6	8	100.0	2	0	[]
2308	1	1	8	60.0	2	0	[]
2310	3	2	8	60.0	2	1	[(922, 1)]
2311	2	1	8	60.0	2	0	[]
2313	1	1	8	60.0	2	0	[]
2315	2	1	8	60.0	2	0	[]
2317	5	3	2	650.0	2	0	[]
2318	1	1	8	60.0	2	0	[]
2320	1	4	8	60.0	2	0	[]
2321	2	3	8	60.0	2	0	[]
2322	2	1	3	60.0	2	0	[]
2324	1	1	8	60.0	2	0	[]
2330	2	1	8	60.0	2	0	[]
2335	1	2	8	40.0	0	0	[]
2337	2	1	2	60.0	2	0	[]
2345	4	4	8	60.0	2	0	[]
2348	1	1	2	60.0	2	0	[]
2352	2	1	8	60.0	2	0	[]
2354	3	1	1	60.0	2	0	[]
2357	2	1	8	60.0	2	1	[(798, 0)]
2358	2	1	8	60.0	2	0	[]
2359	1	1	8	60.0	2	0	[]
2361	1	1	1	60.0	2	0	[]
2364	1	2	8	60.0	2	0	[]
2365	1	1	8	60.0	2	0	[]
2367	1	4	16	80.0	2	0	[]
2372	1	1	8	60.0	2	0	[]
2373	1	4	8	60.0	2	0	[]
2378	1	4	8	60.0	2	0	[]
2379	1	1	8	60.0	2	0	[]
2381	1	1	8	60.0	2	0	[]
2384	1	1	8	60.0	2	0	[]
2398	1	1	8	60.0	2	0	[]
2404	1	2	8	60.0	2	0	[]
2415	2	1	8	60.0	2	0	[]
2417	2	4	8	60.0	2	0	[]
2418	2	1	8	60.0	2	0	[]
2419	2	1	8	60.0	2	0	[]
2424	2	1	8	60.0	2	0	[]
2425	2	1	8	60.0	2	0	[]
2430	3	4	8	60.0	2	0	[]
2432	3	1	8	60.0	2	0	[]
2434	4	4	8	60.0	2	0	[]
2436	4	4	8	60.0	2	0	[]
2437	4	4	8	60.0	2	0	[]
2443	4	1	8	60.0	2	0	[]
2444	4	1	8	60.0	2	0	[]
2445	4	1	8	60.0	2	0	[]
2447	4	2	8	60.0	2	0	[]
2448	4	2	8	100.0	2	0	[]
2456	5	4	8	60.0	2	0	[]
2457	5	2	8	60.0	2	0	[]
2468	6	2	8	60.0	2	0	[]
2469	6	1	2	60.0	2	0	[]
2471	6	5	16	80.0	2	0	[]
2473	6	1	8	60.0	2	0	[]
2478	16	1	8	60.0	2	0	[]
2483	27	1	8	60.0	2	2	[(471, 0), (1796, 1)]
2484	28	1	2	60.0	2	1	[(5874, 2)]
2498	10	1	8	60.0	2	0	[]
2500	10	1	16	60.0	2	0	[]
2502	9	6	8	60.0	2	0	[]
2503	9	1	2	60.0	2	0	[]
2506	9	4	1	100.0	2	0	[]
2509	8	1	8	60.0	2	0	[]
2519	3	4	8	60.0	2	0	[]
2524	2	5	8	60.0	2	0	[]
2541	2	1	8	60.0	2	0	[]
2543	2	1	16	60.0	2	0	[]
2547	2	4	8	60.0	2	0	[]
2557	2	1	8	60.0	2	0	[]
2563	2	2	8	60.0	2	0	[]
2566	2	2	8	60.0	2	0	[]
2567	2	4	8	60.0	2	1	[(8114, 0)]
2575	2	1	8	60.0	2	0	[]
2577	2	1	1	60.0	2	0	[]
2579	2	1	8	60.0	2	0	[]
2580	2	1	2	60.0	2	0	[]
2585	1	1	8	60.0	2	0	[]
2587	6	3	8	60.0	2	0	[]
2591	1	1	8	60.0	2	0	[]
2593	29	6	8	60.0	2	38	[(8569, 0), (1051, 0), (1336, 0), (3637, 0), (7196, 0), (2917, 0), (3321, 0), (5900, 0), (3296, 0), (2751, 0), (7514, 0), (8191, 0), (6393, 0), (6710, 0), (7023, 0), (3845, 0), (312, 0), (5427, 0), (5411, 0), (8931, 0), (8199, 0), (9049, 0), (5541, 0), (281, 0), (2483, 0), (1796, 0), (7747, 0), (572, 0), (4471, 0), (2017, 0), (8273, 0), (7468, 0), (7289, 0), (2767, 0), (3873, 0), (2033, 0), (3327, 0), (34, 0)]
2600	12	7	24	150.0	2	0	[]
2616	35	3	8	60.0	2	2	[(6683, 0), (798, 0)]
2618	7	1	8	80.0	2	1	[(798, 0)]
2620	5	5	16	60.0	2	0	[]
2621	5	1	8	40.0	2	1	[(3657, 0)]
2622	5	1	8	60.0	2	0	[]
2626	1	1	8	60.0	2	0	[]
2630	5	2	8	60.0	2	0	[]
2631	1	1	8	60.0	2	0	[]
2632	2	1	7	60.0	2	0	[]
2633	2	1	8	60.0	2	0	[]
2639	2	2	8	60.0	2	0	[]
2645	1	1	8	60.0	2	0	[]
2646	3	3	8	100.0	2	0	[]
2653	2	1	8	60.0	2	0	[]
2654	1	4	8	80.0	2	0	[]
2660	2	1	8	60.0	2	0	[]
2661	2	4	8	60.0	2	0	[]
2665	1	1	2	60.0	2	0	[]
2675	2	2	8	60.0	2	0	[]
2691	1	1	8	60.0	2	0	[]
2692	119	12	16	200.0	2	0	[]
2701	27	4	7	60.0	2	0	[]
2702	1	1	8	60.0	2	0	[]
2709	4	3	8	60.0	2	0	[]
2710	78	6	10	60.0	0	7	[(7099, 0), (7270, 1), (1987, 0), (8824, 1), (798, 0), (7100, 1), (281, 1)]
2711	1	1	8	60.0	2	0	[]
2715	2	1	8	60.0	2	0	[]
2716	10	1	16	60.0	2	0	[]
2718	2	1	1	600.0	2	0	[]
2720	1	1	8	60.0	2	0	[]
2727	1	1	8	60.0	2	0	[]
2733	1	1	8	60.0	2	0	[]
2735	1	1	8	60.0	2	0	[]
2738	2	1	8	60.0	2	0	[]
2743	1	1	8	60.0	2	0	[]
2745	46	12	16	80.0	2	3	[(8695, 0), (3891, 0), (7338, 0)]
2749	19	3	8	60.0	2	2	[(580, 2), (6550, 2)]
2751	16	5	2	60.0	2	1	[(6659, 0)]
2752	1	3	16	60.0	0	0	[]
2753	1	1	8	60.0	2	0	[]
2755	3	1	8	60.0	2	0	[]
2760	2	1	16	80.0	2	0	[]
2767	275	6	8	60.0	2	3	[(798, 0), (6564, 0), (6659, 0)]
2768	1	1	1	60.0	2	0	[]
2771	2	1	8	60.0	2	0	[]
2772	10	12	2	60.0	2	0	[]
2775	2	1	2	60.0	2	0	[]
2778	2	1	2	60.0	2	0	[]
2779	1	1	4	60.0	2	1	[(798, 0)]
2780	1	1	8	60.0	2	0	[]
2784	4	1	2	60.0	2	0	[]
2786	2	4	8	60.0	2	0	[]
2787	2	1	8	60.0	2	0	[]
2790	2	1	8	60.0	2	0	[]
2792	2	1	8	60.0	2	0	[]
2793	1	1	8	40.0	2	0	[]
2794	2	1	8	60.0	2	0	[]
2795	1	4	8	60.0	2	0	[]
2801	1	1	2	60.0	2	0	[]
2802	2	1	8	60.0	2	0	[]
2806	2	1	8	60.0	2	1	[(6659, 0)]
2809	2	2	8	60.0	2	0	[]
2817	1	1	8	60.0	2	0	[]
2821	1	1	8	60.0	2	0	[]
2828	4	1	8	60.0	2	0	[]
2830	1	1	2	60.0	2	1	[(798, 0)]
2834	1	4	16	100.0	2	0	[]
2836	1	1	6	60.0	2	0	[]
2837	1	1	8	60.0	0	0	[]
2838	1	1	7	60.0	2	0	[]
2841	3	1	8	60.0	2	0	[]
2846	3	1	8	60.0	2	0	[]
2854	2	1	8	60.0	2	0	[]
2856	4	1	8	60.0	2	0	[]
2857	1	11	16	100.0	2	0	[]
2858	1	1	8	60.0	2	0	[]
2866	2	1	8	60.0	2	0	[]
2872	4	1	8	60.0	2	0	[]
2874	98	3	3	60.0	2	5	[(257, 0), (7426, 0), (7907, 0), (5954, 2), (9097, 1)]
2876	8	2	8	60.0	2	0	[]
2878	2	4	8	60.0	2	0	[]
2879	1	2	16	60.0	2	0	[]
2881	1	1	2	60.0	2	0	[]
2883	4	1	8	60.0	2	0	[]
2884	2	1	8	60.0	2	0	[]
2890	2	3	8	60.0	2	0	[]
2897	1	1	8	60.0	2	0	[]
2899	5	30	28	300.0	2	0	[]
2900	24	2	8	60.0	2	1	[(280, 2)]
2905	2	6	8	60.0	2	0	[]
2907	1	4	8	60.0	2	0	[]
2908	1	1	8	60.0	2	0	[]
2917	3	6	8	60.0	2	0	[]
2920	1	12	8	60.0	2	0	[]
2921	2	6	8	60.0	2	0	[]
2922	2	1	6	60.0	2	0	[]
2931	1	3	8	60.0	0	0	[]
2932	2	1	2	60.0	2	0	[]
2935	3	1	8	60.0	2	1	[(798, 0)]
2937	3	4	8	60.0	2	0	[]
2941	1	1	8	60.0	2	0	[]
2943	1	1	8	60.0	2	0	[]
2946	2	2	16	100.0	2	0	[]
2947	2	1	8	60.0	2	0	[]
2949	6	5	8	60.0	2	1	[(4289, 0)]
2952	5	1	8	60.0	2	0	[]
2953	2	2	8	60.0	2	0	[]
2954	5	5	8	60.0	2	0	[]
2958	1	1	8	60.0	2	0	[]
2960	1	4	8	60.0	2	0	[]
2962	6	6	2	60.0	2	0	[]
2963	2	6	16	80.0	2	0	[]
2965	2	4	8	60.0	2	0	[]
2977	7	4	8	60.0	2	18	[(6136, 0), (4012, 1), (3228, 1), (8696, 0), (2857, 0), (7691, 1), (4690, 0), (1662, 2), (3358, 0), (2771, 0), (7113, 1), (946, 0), (2778, 0), (6455, 0), (8061, 2), (2876, 1), (6266, 0), (9328, 1)]
2985	1	2	8	40.0	1	0	[]
2995	1	1	8	60.0	2	0	[]
3004	1	1	8	60.0	2	9	[(6814, 0), (5307, 0), (6689, 0), (1354, 0), (3558, 0), (7766, 0), (7893, 0), (2172, 0), (5661, 0)]
3008	5	1	8	60.0	2	0	[]
3009	24	3	8	60.0	2	7	[(4601, 0), (1541, 0), (645, 0), (435, 0), (6710, 2), (798, 0), (8064, 0)]
3015	4	4	8	60.0	2	0	[]
3020	1	1	8	60.0	2	0	[]
3021	37	4	8	60.0	2	1	[(798, 0)]
3022	3	2	8	60.0	2	0	[]
3029	2	1	8	60.0	2	0	[]
3033	11	4	8	80.0	2	0	[]
3034	2	1	8	60.0	2	0	[]
3035	1	1	3	60.0	2	0	[]
3040	1	4	8	60.0	2	0	[]
3044	2	1	8	60.0	2	0	[]
3045	2	2	8	60.0	2	0	[]
3053	4	1	8	60.0	2	0	[]
3059	2	1	8	60.0	2	0	[]
3062	2	1	5	60.0	2	0	[]
3071	2	1	8	60.0	2	0	[]
3074	2	1	6	60.0	2	0	[]
3075	2	1	8	60.0	2	0	[]
3076	5	1	2	60.0	2	2	[(9129, 2), (1911, 2)]
3079	2	1	8	60.0	2	0	[]
3083	5	2	8	60.0	2	0	[]
3091	40	5	8	60.0	2	1	[(1884, 0)]
3101	15	3	8	60.0	2	1	[(798, 0)]
3102	1	1	8	60.0	2	0	[]
3103	8	2	8	60.0	2	2	[(6104, 2), (6659, 0)]
3105	13	4	8	40.0	2	2	[(7597, 1), (6660, 2)]
3110	2	1	7	60.0	2	0	[]
3113	1	1	7	60.0	2	0	[]
3114	2	1	8	60.0	2	0	[]
3118	2	1	8	60.0	2	0	[]
3125	2	2	16	60.0	2	0	[]
3131	1	1	8	60.0	2	0	[]
3132	3	1	8	60.0	2	1	[(4649, 0)]
3135	4	1	8	60.0	2	0	[]
3136	8	1	2	60.0	2	0	[]
3137	1	2	7	60.0	2	1	[(798, 0)]
3138	1	4	8	60.0	2	0	[]
3142	1	1	2	60.0	2	0	[]
3143	2	1	8	60.0	2	0	[]
3144	6	5	8	60.0	2	0	[]
3147	2	1	2	60.0	2	0	[]
3149	1	1	8	60.0	2	0	[]
3150	1	1	8	60.0	2	0	[]
3158	28	1	8	60.0	2	0	[]
3161	2	1	8	60.0	2	0	[]
3166	2	1	8	60.0	2	0	[]
3174	1	1	2	100.0	2	0	[]
3175	1	2	16	60.0	2	0	[]
3183	200	12	16	100.0	2	4	[(7196, 0), (798, 0), (6659, 0), (7026, 0)]
3184	1	1	8	60.0	2	0	[]
3196	1	1	8	60.0	2	0	[]
3200	2	1	8	60.0	2	0	[]
3205	2	1	8	60.0	2	0	[]
3209	2	3	8	60.0	2	0	[]
3214	1	1	8	60.0	2	0	[]
3215	1	4	8	100.0	2	0	[]
3217	3	1	8	60.0	2	0	[]
3218	3	1	8	60.0	2	0	[]
3220	14	2	3	60.0	2	0	[]
3224	2	2	8	60.0	2	0	[]
3228	37	4	8	60.0	2	29	[(4937, 0), (7622, 0), (1576, 0), (6819, 2), (3354, 1), (6825, 0), (1179, 2), (7992, 0), (7762, 2), (7603, 1), (2749, 2), (3415, 0), (3989, 1), (4224, 2), (6281, 0), (7998, 0), (1335, 0), (7017, 1), (916, 0), (798, 0), (3644, 0), (5168, 0), (4456, 2), (5752, 2), (3588, 2), (8443, 2), (3262, 2), (8889, 2), (7456, 2)]
3231	2	1	8	60.0	2	0	[]
3232	1	1	8	60.0	2	0	[]
3237	1	1	6	180.0	2	0	[]
3238	1	4	8	60.0	2	1	[(798, 0)]
3249	3	1	8	60.0	2	0	[]
3252	47	1	8	60.0	2	3	[(4601, 1), (3022, 2), (5944, 2)]
3253	4	3	8	60.0	2	1	[(6659, 0)]
3256	1	1	8	60.0	2	0	[]
3258	2	1	8	60.0	2	0	[]
3259	2	6	8	60.0	2	0	[]
3262	2	1	1	60.0	2	0	[]
3265	2	2	8	60.0	2	0	[]
3268	1	1	8	60.0	2	0	[]
3272	16	3	8	60.0	2	1	[(6659, 0)]
3273	2	2	7	60.0	2	1	[(798, 0)]
3276	3	2	8	60.0	2	0	[]
3279	3	1	7	60.0	2	0	[]
3281	1	1	8	60.0	2	0	[]
3282	1	1	1	60.0	2	0	[]
3285	1	1	2	60.0	2	0	[]
3286	220	6	8	60.0	2	35	[(9049, 0), (7196, 0), (6764, 0), (7243, 0), (3548, 0), (4805, 0), (5102, 0), (8292, 0), (5161, 0), (798, 0), (4377, 0), (3582, 0), (8145, 0), (2502, 0), (2090, 0), (2701, 0), (2917, 0), (2172, 0), (7473, 0), (2321, 0), (6280, 0), (3322, 0), (4150, 0), (1824, 0), (1541, 0), (3009, 0), (7286, 0), (3555, 0), (8010, 0), (8749, 0), (3425, 0), (1361, 0), (4257, 0), (441, 0), (1414, 0)]
3288	4	4	8	60.0	2	1	[(6283, 0)]
3290	82	2	8	60.0	2	2	[(7066, 1), (798, 0)]
3291	2	1	8	60.0	2	0	[]
3296	2	1	8	60.0	2	0	[]
3300	1	4	8	60.0	2	0	[]
3301	3	1	8	60.0	2	1	[(6659, 0)]
3302	4	6	8	60.0	2	0	[]
3305	2	1	3	60.0	2	0	[]
3306	6	2	8	60.0	2	0	[]
3310	1	2	2	60.0	2	0	[]
3312	2	1	8	60.0	2	0	[]
3314	12	3	8	60.0	2	0	[]
3315	2	1	8	60.0	2	0	[]
3318	2	3	8	60.0	2	0	[]
3320	1	1	2	200.0	2	0	[]
3321	150	12	16	60.0	2	25	[(6659, 0), (4661, 2), (8587, 2), (4667, 0), (3886, 0), (3987, 0), (9031, 2), (3942, 2), (6381, 2), (4520, 2), (122, 0), (4014, 2), (6185, 2), (5490, 0), (273, 2), (3370, 0), (5420, 2), (2175, 2), (6385, 2), (4011, 2), (6429, 2), (6683, 2), (4630, 2), (8162, 1), (7555, 2)]
3322	2	2	8	60.0	2	0	[]
3325	2	2	8	60.0	2	0	[]
3326	1	1	8	60.0	2	0	[]
3327	407	4	8	60.0	0	14	[(1672, 2), (7196, 0), (6659, 0), (9046, 0), (5422, 0), (1864, 1), (5983, 1), (798, 0), (2484, 0), (5655, 0), (3430, 0), (7555, 1), (5868, 0), (3845, 0)]
3330	1	1	8	60.0	2	0	[]
3333	4	1	8	60.0	2	0	[]
3334	2	1	8	60.0	2	0	[]
3335	5	1	8	60.0	2	2	[(580, 0), (1059, 0)]
3353	1	1	8	60.0	2	0	[]
3354	4	2	8	60.0	2	0	[]
3358	5	1	8	60.0	2	0	[]
3370	50	6	8	60.0	2	13	[(2751, 0), (6074, 0), (3751, 0), (4876, 0), (6659, 0), (8069, 0), (3886, 0), (536, 0), (6381, 0), (2767, 0), (5965, 2), (3321, 0), (798, 0)]
3373	1	1	8	60.0	2	0	[]
3374	4	1	8	60.0	2	1	[(798, 0)]
3376	2	1	1	60.0	2	0	[]
3377	2	1	8	60.0	2	0	[]
3384	2	1	6	60.0	2	0	[]
3398	3	1	8	60.0	2	0	[]
3402	2	1	8	60.0	2	0	[]
3404	1	1	8	60.0	2	0	[]
3405	3	1	8	60.0	2	0	[]
3412	1	1	8	60.0	2	0	[]
3415	8	2	8	60.0	2	0	[]
3418	1	1	7	60.0	2	0	[]
3423	2	4	8	60.0	2	0	[]
3424	2	1	2	100.0	2	0	[]
3425	53	5	8	60.0	2	4	[(7402, 1), (798, 0), (6963, 1), (8500, 2)]
3427	7	6	8	60.0	2	0	[]
3430	1	1	8	60.0	2	0	[]
3434	2	2	8	60.0	2	0	[]
3438	1	1	8	60.0	2	0	[]
3440	1	1	8	60.0	2	0	[]
3450	1	1	1	60.0	2	0	[]
3454	2	1	8	60.0	2	0	[]
3457	2	4	8	60.0	2	0	[]
3460	2	1	8	40.0	2	0	[]
3463	2	4	8	60.0	2	0	[]
3477	1	1	2	60.0	2	0	[]
3486	28	8	16	100.0	2	2	[(6659, 0), (798, 0)]
3493	4	1	8	60.0	2	0	[]
3495	2	1	2	60.0	2	0	[]
3499	6	1	8	60.0	2	0	[]
3502	1	1	8	60.0	2	0	[]
3506	3	1	8	60.0	2	0	[]
3507	2	4	8	60.0	2	0	[]
3508	1	4	16	40.0	2	0	[]
3513	5	2	8	60.0	2	3	[(798, 0), (3879, 1), (1051, 1)]
3514	1	1	2	60.0	2	0	[]
3515	3	1	8	60.0	2	0	[]
3522	1	1	1	60.0	2	0	[]
3524	2	1	8	60.0	2	0	[]
3528	1	1	8	60.0	2	0	[]
3531	2	1	8	60.0	2	0	[]
3532	1	1	1	60.0	2	0	[]
3534	34	2	8	60.0	2	4	[(3286, 1), (1391, 0), (2129, 1), (798, 0)]
3537	3	3	8	60.0	2	0	[]
3543	4	1	8	60.0	2	0	[]
3544	4	1	2	100.0	2	0	[]
3548	2	1	8	60.0	2	0	[]
3555	60	3	8	60.0	2	5	[(4913, 2), (7196, 2), (1990, 2), (8960, 2), (4311, 1)]
3558	1	1	4	60.0	2	0	[]
3559	1	1	8	60.0	2	0	[]
3560	4	1	8	60.0	2	0	[]
3562	3	1	2	60.0	2	0	[]
3564	5	1	8	60.0	2	0	[]
3567	1	4	8	80.0	2	0	[]
3569	2	1	8	60.0	2	0	[]
3571	10	6	16	200.0	2	0	[]
3576	2	1	8	60.0	2	0	[]
3577	2	1	3	60.0	2	0	[]
3579	1	2	8	60.0	2	0	[]
3580	8	3	8	80.0	2	0	[]
3582	2	1	2	60.0	2	0	[]
3587	3	4	8	60.0	2	0	[]
3588	9	1	16	80.0	2	3	[(4973, 2), (3228, 2), (4548, 0)]
3590	150	3	8	60.0	2	14	[(1708, 0), (5705, 0), (3879, 0), (6659, 0), (2468, 2), (307, 0), (473, 0), (3136, 0), (6715, 0), (971, 0), (1771, 0), (798, 0), (5490, 0), (7426, 0)]
3600	2	1	1	60.0	2	0	[]
3604	19	5	8	60.0	2	0	[]
3605	1	1	2	60.0	2	0	[]
3618	2	1	8	60.0	2	0	[]
3626	1	1	2	60.0	2	0	[]
3630	2	1	8	60.0	2	0	[]
3631	14	3	8	60.0	2	3	[(8564, 1), (4927, 0), (4601, 2)]
3637	150	6	10	60.0	1	3	[(798, 0), (6659, 0), (4022, 1)]
3644	1	1	8	60.0	2	0	[]
3646	1	1	1	60.0	2	0	[]
3650	1	1	2	60.0	2	0	[]
3657	103	6	16	60.0	1	9	[(2081, 0), (122, 0), (6715, 1), (1425, 0), (3370, 0), (5490, 0), (6659, 0), (8069, 0), (2621, 0)]
3660	5	1	8	60.0	2	0	[]
3662	1	4	8	60.0	2	0	[]
3663	2	1	8	60.0	2	0	[]
3664	1	1	8	60.0	2	0	[]
3669	2	3	8	60.0	2	0	[]
3671	2	1	8	60.0	2	0	[]
3673	2	2	8	60.0	2	0	[]
3675	3	1	8	60.0	2	0	[]
3677	1	5	8	60.0	2	8	[(2310, 0), (6734, 0), (4161, 0), (6999, 0), (6096, 0), (507, 0), (922, 0), (6808, 0)]
3682	28	3	8	60.0	2	1	[(798, 0)]
3685	2	1	8	60.0	2	0	[]
3686	12	2	8	60.0	2	1	[(798, 0)]
3695	2	1	3	60.0	2	0	[]
3698	1	16	32	200.0	0	0	[]
3699	2	1	2	60.0	2	1	[(798, 0)]
3700	1	1	8	60.0	2	0	[]
3710	2	1	4	60.0	2	0	[]
3713	2	3	8	60.0	2	0	[]
3716	7	2	16	80.0	2	0	[]
3717	2	1	8	60.0	2	0	[]
3726	3	6	8	40.0	2	1	[(798, 0)]
3728	1	4	8	60.0	2	0	[]
3729	15	2	8	60.0	2	1	[(798, 0)]
3733	1	2	8	60.0	2	1	[(798, 0)]
3738	3	1	16	60.0	2	0	[]
3741	2	1	8	60.0	2	0	[]
3742	1	1	16	60.0	2	0	[]
3747	18	1	8	60.0	2	9	[(4534, 0), (8500, 1), (4649, 1), (6999, 1), (3952, 1), (5490, 1), (4973, 1), (5039, 1), (4781, 1)]
3750	11	6	8	60.0	2	0	[]
3751	6	1	8	60.0	2	2	[(8069, 2), (6381, 2)]
3769	1	1	8	60.0	2	0	[]
3770	8	1	8	60.0	2	1	[(4382, 0)]
3771	49	5	8	60.0	2	1	[(9163, 0)]
3776	2	1	8	60.0	2	0	[]
3779	3	2	8	60.0	2	0	[]
3781	1	1	8	60.0	2	0	[]
3790	2	1	8	60.0	2	0	[]
3791	3	4	8	60.0	2	0	[]
3792	2	1	8	80.0	2	0	[]
3797	2	1	2	60.0	2	0	[]
3799	2	1	2	60.0	2	0	[]
3806	27	6	8	60.0	2	1	[(798, 0)]
3809	5	1	8	60.0	2	0	[]
3818	1	1	1	60.0	2	0	[]
3824	1	4	8	60.0	2	0	[]
3828	1	1	1	60.0	2	0	[]
3834	3	1	1	60.0	2	0	[]
3836	6	2	8	60.0	2	0	[]
3837	1	1	8	40.0	2	0	[]
3844	1	1	8	60.0	2	0	[]
3845	20	2	16	60.0	2	1	[(473, 2)]
3850	2	1	8	60.0	2	0	[]
3854	2	1	8	60.0	2	1	[(8061, 2)]
3858	2	1	8	60.0	2	0	[]
3865	2	1	8	40.0	2	0	[]
3871	2	4	8	60.0	2	0	[]
3873	13	2	8	40.0	2	3	[(7634, 1), (3321, 2), (5490, 0)]
3874	5	1	8	60.0	2	0	[]
3875	10	2	8	60.0	2	0	[]
3876	4	4	4	60.0	2	0	[]
3879	25	2	8	60.0	2	1	[(6659, 0)]
3886	47	21	32	200.0	0	5	[(6659, 0), (3321, 0), (3370, 0), (5958, 2), (4667, 0)]
3891	5	2	16	80.0	2	0	[]
3893	3	1	5	60.0	2	0	[]
3895	6	4	8	60.0	2	0	[]
3896	2	4	8	60.0	2	0	[]
3898	2	1	8	60.0	2	0	[]
3902	20	6	8	60.0	2	1	[(798, 0)]
3909	2	1	8	60.0	2	0	[]
3910	1	2	16	60.0	2	0	[]
3916	3	4	8	60.0	2	0	[]
3926	9	1	8	60.0	2	0	[]
3930	2	1	8	60.0	2	0	[]
3936	6	3	8	60.0	2	0	[]
3940	2	1	3	60.0	2	0	[]
3942	6	5	32	100.0	2	15	[(4661, 2), (8587, 2), (9031, 2), (6381, 0), (4520, 2), (273, 1), (5420, 2), (2175, 2), (6385, 2), (3321, 1), (4011, 2), (6429, 2), (6683, 2), (8162, 1), (7555, 2)]
3943	1	4	8	60.0	2	0	[]
3944	2	1	8	60.0	2	0	[]
3947	2	1	1	60.0	2	0	[]
3949	2	1	2	60.0	2	0	[]
3952	35	3	8	60.0	2	5	[(5459, 1), (3824, 2), (8408, 2), (289, 1), (2917, 0)]
3954	3	1	8	60.0	2	0	[]
3957	2	1	8	60.0	2	0	[]
3964	2	1	8	60.0	2	0	[]
3975	1	1	1	60.0	2	0	[]
3983	1	4	8	80.0	2	0	[]
3987	26	2	8	40.0	0	2	[(122, 0), (6659, 0)]
3989	1	1	8	60.0	2	0	[]
3992	4	1	8	60.0	2	0	[]
3993	2	1	8	60.0	2	0	[]
3995	14	1	8	100.0	2	1	[(6659, 0)]
4003	2	1	5	60.0	2	0	[]
4004	1	10	16	60.0	2	0	[]
4005	2	4	8	60.0	2	2	[(1336, 0), (3286, 0)]
4011	19	4	32	60.0	2	15	[(4661, 2), (8587, 2), (3942, 2), (6381, 2), (4520, 2), (4014, 2), (6185, 2), (273, 1), (5420, 2), (2175, 2), (6385, 2), (3321, 1), (4630, 2), (8162, 1), (7555, 2)]
4012	5	4	8	60.0	2	0	[]
4014	1	2	32	100.0	2	15	[(4661, 2), (8587, 2), (9031, 2), (6381, 2), (4520, 2), (273, 1), (5420, 2), (2175, 2), (6385, 2), (3321, 1), (4011, 2), (6429, 2), (6683, 2), (8162, 1), (7555, 2)]
4015	2	1	8	60.0	2	0	[]
4019	1	1	3	60.0	2	0	[]
4022	4	1	8	60.0	2	0	[]
4023	9	1	2	60.0	2	0	[]
4026	11	3	8	60.0	2	63	[(7815, 1), (7463, 1), (4874, 1), (727, 1), (3290, 2), (8848, 1), (5781, 2), (8035, 2), (1987, 1), (437, 0), (590, 1), (5876, 2), (1635, 2), (693, 1), (7199, 2), (302, 1), (6352, 1), (6651, 2), (6660, 1), (2478, 2), (7997, 1), (5083, 1), (6448, 2), (422, 2), (1662, 1), (521, 1), (9225, 1), (1946, 2), (8494, 1), (3686, 1), (1207, 1), (5864, 2), (6761, 0), (2908, 1), (3909, 2), (3792, 0), (6808, 1), (3132, 1), (5917, 1), (921, 1), (6187, 1), (2279, 0), (5014, 1), (6285, 1), (5246, 1), (3021, 2), (7282, 1), (2337, 1), (2622, 1), (7682, 1), (7380, 0), (2221, 1), (8920, 1), (7887, 1), (5731, 2), (3110, 2), (6092, 0), (3926, 1), (8061, 2), (4973, 1), (7052, 1), (5806, 0), (1645, 1)]
4027	3	1	8	60.0	2	0	[]
4028	2	2	8	60.0	2	1	[(7959, 0)]
4029	8	2	8	60.0	2	0	[]
4033	1	1	8	60.0	2	0	[]
4040	1	1	7	60.0	2	0	[]
4044	1	5	16	60.0	2	0	[]
4050	5	2	8	60.0	2	0	[]
4051	1	1	8	40.0	2	0	[]
4054	2	1	8	60.0	2	0	[]
4055	7	1	8	60.0	2	0	[]
4056	1	4	8	60.0	2	0	[]
4060	3	1	8	60.0	2	0	[]
4061	2	1	7	60.0	2	0	[]
4064	1	2	2	60.0	2	0	[]
4065	3	1	8	60.0	2	0	[]
4066	2	1	1	60.0	2	0	[]
4067	5	2	8	60.0	2	0	[]
4073	1	1	4	60.0	2	0	[]
4082	1	1	8	60.0	2	0	[]
4093	1	1	8	60.0	2	0	[]
4099	1	1	1	60.0	2	0	[]
4100	1	1	7	60.0	2	0	[]
4101	1	1	8	60.0	2	0	[]
4105	1	4	8	60.0	2	0	[]
4106	2	1	8	60.0	2	0	[]
4110	1	1	8	60.0	2	0	[]
4111	2	4	8	60.0	2	0	[]
4115	2	4	8	60.0	2	0	[]
4117	2	1	8	60.0	2	0	[]
4133	6	2	8	60.0	2	1	[(798, 0)]
4148	1	1	8	60.0	2	0	[]
4149	1	8	16	100.0	1	0	[]
4150	3	5	8	500.0	2	0	[]
4151	1	4	8	60.0	2	0	[]
4153	2	5	8	60.0	2	0	[]
4154	18	6	2	100.0	2	5	[(4004, 0), (7338, 0), (3183, 0), (9297, 0), (5288, 0)]
4161	65	1	8	60.0	2	8	[(5143, 2), (1587, 2), (5960, 2), (7468, 2), (6381, 2), (8931, 2), (8243, 2), (798, 0)]
4162	4	1	8	60.0	2	1	[(798, 0)]
4163	1	1	8	60.0	2	0	[]
4164	4	2	32	80.0	2	0	[]
4168	1	1	8	60.0	2	0	[]
4171	3	1	8	60.0	2	1	[(4973, 2)]
4172	4	1	2	60.0	2	0	[]
4177	2	3	8	60.0	2	0	[]
4181	2	1	13	80.0	2	0	[]
4182	1	1	3	60.0	2	0	[]
4186	1	1	1	150.0	2	0	[]
4187	1	1	8	60.0	2	0	[]
4188	4	1	8	60.0	2	0	[]
4198	6	1	8	60.0	2	0	[]
4200	1	1	1	60.0	2	0	[]
4204	1	4	8	60.0	2	0	[]
4208	1	1	8	60.0	2	0	[]
4217	2	1	8	60.0	2	0	[]
4220	1	1	8	60.0	2	1	[(798, 0)]
4222	3	2	8	60.0	2	0	[]
4224	2	1	7	60.0	2	0	[]
4225	2	1	8	60.0	2	0	[]
4226	2	1	2	60.0	2	0	[]
4229	2	1	8	60.0	2	2	[(6304, 0), (456, 0)]
4234	13	6	8	60.0	2	0	[]
4236	2	1	4	60.0	2	0	[]
4239	8	2	8	60.0	2	0	[]
4243	15	1	8	60.0	2	0	[]
4248	2	1	2	60.0	2	0	[]
4249	4	1	8	60.0	2	1	[(6659, 0)]
4251	1	1	8	60.0	2	0	[]
4253	27	3	8	60.0	2	1	[(798, 0)]
4257	3	1	2	60.0	2	0	[]
4262	71	7	16	100.0	2	2	[(9049, 0), (6659, 0)]
4268	9	3	20	200.0	2	0	[]
4273	1	1	2	60.0	2	0	[]
4276	2	2	8	60.0	2	0	[]
4278	1	1	8	60.0	2	0	[]
4282	7	5	32	200.0	2	1	[(3370, 0)]
4283	2	1	8	60.0	2	0	[]
4285	1	1	8	60.0	2	0	[]
4288	2	4	8	60.0	2	0	[]
4289	41	3	8	60.0	2	10	[(6652, 0), (3358, 2), (3463, 2), (1725, 1), (5162, 0), (3022, 0), (909, 1), (5980, 2), (435, 0), (4583, 1)]
4297	5	1	8	60.0	2	0	[]
4298	2	1	8	60.0	2	0	[]
4301	8	4	16	80.0	2	1	[(798, 0)]
4303	1	1	16	60.0	2	0	[]
4304	2	4	8	60.0	2	0	[]
4305	1	4	8	60.0	2	0	[]
4307	2	1	8	60.0	2	0	[]
4310	1	1	8	60.0	2	0	[]
4311	3	1	8	60.0	2	0	[]
4312	2	1	8	60.0	2	0	[]
4313	1	1	8	60.0	2	0	[]
4318	2	1	4	60.0	2	1	[(1537, 1)]
4322	3	4	8	60.0	2	1	[(798, 0)]
4325	5	1	8	60.0	2	0	[]
4326	1	1	8	60.0	2	0	[]
4330	1	1	8	60.0	2	0	[]
4338	8	6	8	60.0	2	0	[]
4340	2	6	8	60.0	2	0	[]
4341	2	2	8	60.0	2	0	[]
4342	2	4	8	60.0	2	0	[]
4347	2	2	8	60.0	2	0	[]
4348	2	1	8	60.0	2	0	[]
4354	2	2	4	60.0	2	0	[]
4361	3	1	8	60.0	2	0	[]
4377	2	1	2	60.0	2	0	[]
4382	6	1	8	60.0	2	0	[]
4383	2	1	8	60.0	2	0	[]
4389	2	1	8	60.0	2	0	[]
4394	3	1	8	60.0	2	0	[]
4397	2	1	5	60.0	2	0	[]
4402	1	1	8	60.0	2	0	[]
4418	7	6	8	60.0	2	0	[]
4421	10	2	8	60.0	2	6	[(2593, 1), (2767, 2), (3321, 1), (473, 1), (7468, 1), (6381, 0)]
4424	3	2	8	40.0	2	0	[]
4432	1	1	8	60.0	2	0	[]
4434	5	3	8	60.0	2	0	[]
4435	4	1	8	60.0	2	0	[]
4437	1	1	1	80.0	2	0	[]
4439	1	1	8	60.0	2	0	[]
4443	4	4	8	60.0	2	1	[(798, 0)]
4444	2	1	8	60.0	2	0	[]
4453	9	1	8	60.0	2	1	[(302, 2)]
4455	3	1	8	60.0	2	0	[]
4456	7	1	8	60.0	2	1	[(4601, 1)]
4463	25	5	32	200.0	2	0	[]
4471	46	6	8	40.0	0	8	[(7309, 0), (9086, 0), (6659, 0), (281, 0), (4667, 0), (5313, 0), (6304, 0), (5740, 0)]
4472	1	1	8	60.0	2	0	[]
4473	1	1	8	60.0	2	0	[]
4491	1	1	2	60.0	2	0	[]
4493	9	1	8	60.0	2	0	[]
4494	2	1	8	60.0	2	0	[]
4496	1	1	8	60.0	2	0	[]
4497	1	1	2	60.0	2	0	[]
4506	1	4	8	60.0	2	0	[]
4508	25	1	8	100.0	2	5	[(7841, 2), (5443, 2), (238, 1), (1146, 2), (798, 0)]
4514	14	2	8	60.0	2	1	[(6659, 0)]
4515	1	1	8	60.0	2	0	[]
4520	1	1	16	60.0	2	14	[(5420, 3), (4661, 3), (3942, 2), (6683, 2), (9031, 2), (6381, 3), (4014, 2), (6185, 2), (273, 2), (2175, 3), (4011, 2), (6429, 2), (4630, 2), (7555, 3)]
4523	1	1	16	100.0	2	0	[]
4524	4	2	8	60.0	2	0	[]
4529	3	1	8	60.0	2	0	[]
4534	14	3	8	60.0	2	0	[]
4537	2	3	8	60.0	2	3	[(1537, 0), (8936, 0), (4318, 0)]
4547	1	1	8	60.0	2	0	[]
4548	2	6	8	60.0	2	0	[]
4551	29	2	8	40.0	2	0	[]
4561	1	1	2	60.0	2	0	[]
4564	2	1	8	60.0	2	0	[]
4566	2	1	8	60.0	2	0	[]
4575	5	1	8	60.0	2	0	[]
4579	4	1	8	60.0	2	0	[]
4580	4	12	24	60.0	2	0	[]
4583	3	1	8	60.0	2	0	[]
4591	8	2	16	100.0	2	0	[]
4598	2	4	8	60.0	2	0	[]
4601	2	1	8	60.0	2	0	[]
4602	1	1	8	60.0	2	0	[]
4606	4	8	16	200.0	2	0	[]
4609	2	1	4	60.0	2	0	[]
4620	1	1	8	60.0	2	0	[]
4627	4	1	7	60.0	2	1	[(798, 0)]
4628	2	1	8	60.0	2	0	[]
4630	1	3	32	100.0	2	15	[(4661, 2), (8587, 2), (9031, 2), (6381, 2), (4520, 2), (273, 1), (5420, 2), (2175, 2), (6385, 2), (3321, 1), (4011, 2), (6429, 2), (6683, 2), (8162, 1), (7555, 2)]
4639	3	1	8	60.0	2	1	[(3286, 2)]
4641	1	1	2	60.0	2	0	[]
4649	19	1	10	60.0	2	0	[]
4650	7	1	8	60.0	2	0	[]
4654	4	2	8	60.0	2	0	[]
4656	8	1	6	60.0	2	0	[]
4661	15	11	16	60.0	1	15	[(8587, 2), (9031, 2), (3942, 2), (4520, 2), (4014, 2), (6185, 2), (6104, 2), (273, 2), (4011, 2), (6429, 2), (6683, 2), (4630, 2), (8162, 1), (3321, 1), (6385, 2)]
4662	2	1	8	60.0	2	0	[]
4667	29	5	8	60.0	2	1	[(6659, 0)]
4669	1	1	8	60.0	2	0	[]
4670	1	4	8	60.0	2	0	[]
4675	1	1	16	60.0	2	0	[]
4684	2	1	8	60.0	2	0	[]
4685	2	4	8	60.0	2	1	[(3286, 0)]
4689	3	3	8	60.0	2	0	[]
4690	3	1	8	60.0	2	0	[]
4699	7	3	8	60.0	2	0	[]
4705	2	1	2	60.0	2	0	[]
4708	33	2	8	100.0	2	3	[(5655, 0), (2874, 0), (798, 0)]
4713	2	1	8	60.0	2	0	[]
4718	57	2	8	40.0	2	1	[(798, 0)]
4725	3	1	8	60.0	2	0	[]
4733	1	1	8	60.0	2	0	[]
4739	2	1	8	60.0	2	1	[(798, 0)]
4753	2	1	1	60.0	2	0	[]
4757	1	2	3	60.0	2	0	[]
4773	3	3	8	60.0	2	0	[]
4776	1	1	8	60.0	2	0	[]
4781	20	2	8	60.0	2	1	[(5368, 1)]
4782	3	1	8	60.0	2	0	[]
4788	1	2	8	60.0	2	0	[]
4800	3	4	8	60.0	2	0	[]
4801	14	3	2	60.0	2	1	[(3183, 2)]
4802	4	1	8	60.0	2	0	[]
4803	2	1	8	60.0	2	0	[]
4805	1	4	8	60.0	2	0	[]
4807	2	1	1	100.0	2	0	[]
4812	6	2	8	60.0	2	0	[]
4826	2	4	16	60.0	2	0	[]
4827	2	1	8	60.0	2	0	[]
4836	2	3	8	60.0	2	0	[]
4843	2	1	8	60.0	2	0	[]
4849	4	2	8	60.0	2	0	[]
4857	2	2	8	60.0	2	1	[(456, 0)]
4864	28	4	8	60.0	2	1	[(2322, 1)]
4874	13	3	8	60.0	2	3	[(5411, 0), (4341, 0), (8889, 2)]
4876	1	1	8	60.0	2	0	[]
4881	4	1	8	60.0	2	0	[]
4891	2	1	8	60.0	2	0	[]
4894	2	1	8	60.0	2	0	[]
4899	1	4	8	60.0	2	0	[]
4906	2	1	8	60.0	2	0	[]
4907	3	1	8	60.0	2	0	[]
4910	2	1	1	60.0	2	0	[]
4913	7	2	8	60.0	2	0	[]
4914	1	1	7	60.0	2	0	[]
4917	2	1	8	60.0	2	0	[]
4927	2	4	8	60.0	2	0	[]
4930	2	1	8	60.0	2	0	[]
4931	5	1	8	60.0	2	0	[]
4932	3	2	8	60.0	2	0	[]
4937	1	1	2	60.0	2	0	[]
4939	18	4	2	100.0	2	1	[(6659, 0)]
4942	2	1	8	60.0	2	0	[]
4945	1	4	8	60.0	2	0	[]
4948	3	4	8	60.0	2	0	[]
4949	2	1	8	60.0	2	0	[]
4950	4	1	8	60.0	2	0	[]
4958	2	1	9	80.0	2	0	[]
4962	2	1	8	60.0	2	0	[]
4968	2	1	8	60.0	2	0	[]
4973	51	6	8	60.0	2	2	[(844, 1), (3144, 2)]
4975	2	2	8	60.0	2	0	[]
4976	1	1	2	60.0	2	0	[]
4982	2	1	8	60.0	2	0	[]
4984	3	1	8	60.0	2	0	[]
4986	2	1	8	60.0	2	1	[(3806, 2)]
4987	2	4	8	60.0	2	0	[]
4991	1	4	8	60.0	2	0	[]
5000	2	1	8	60.0	2	0	[]
5002	2	1	8	60.0	2	0	[]
5006	1	2	4	60.0	2	0	[]
5012	2	2	8	60.0	2	0	[]
5014	2	1	8	60.0	2	0	[]
5018	1	1	1	60.0	2	0	[]
5027	2	1	3	60.0	2	0	[]
5037	2	1	8	60.0	2	0	[]
5039	2	1	8	60.0	2	0	[]
5043	2	1	7	60.0	2	0	[]
5050	1	1	1	60.0	2	0	[]
5058	1	1	8	60.0	2	0	[]
5060	33	6	8	60.0	2	2	[(798, 0), (2752, 0)]
5067	3	6	8	60.0	2	0	[]
5077	2	1	8	60.0	2	1	[(798, 0)]
5081	2	1	8	60.0	2	0	[]
5083	5	1	8	80.0	2	17	[(1330, 0), (1723, 0), (1152, 0), (4857, 0), (3751, 0), (5165, 0), (4262, 0), (3548, 0), (6726, 0), (844, 0), (3286, 0), (5388, 0), (2271, 0), (5864, 0), (5438, 0), (2954, 0), (6991, 0)]
5085	3	2	8	60.0	2	1	[(798, 0)]
5091	2	1	2	60.0	2	0	[]
5092	2	1	8	60.0	2	0	[]
5099	2	1	8	60.0	2	0	[]
5100	1	1	3	60.0	2	0	[]
5102	2	1	8	60.0	2	0	[]
5103	4	1	8	60.0	2	0	[]
5106	5	3	24	60.0	2	1	[(6659, 0)]
5108	1	1	2	60.0	2	0	[]
5110	1	1	1	60.0	2	0	[]
5115	1	1	8	60.0	2	0	[]
5116	2	1	8	60.0	2	0	[]
5117	1	1	8	80.0	2	0	[]
5120	1	1	8	60.0	2	0	[]
5123	1	1	2	60.0	2	0	[]
5124	2	1	8	60.0	2	0	[]
5133	2	1	16	150.0	2	0	[]
5134	1	1	1	60.0	2	0	[]
5136	2	4	8	60.0	2	0	[]
5140	1	1	8	60.0	2	0	[]
5143	1	1	8	60.0	2	0	[]
5148	4	1	8	60.0	2	0	[]
5154	2	1	8	60.0	2	0	[]
5155	3	1	8	100.0	2	0	[]
5161	3	2	8	60.0	2	0	[]
5162	2	1	8	60.0	2	0	[]
5165	125	12	16	100.0	2	5	[(839, 2), (9266, 1), (798, 0), (6659, 0), (693, 0)]
5168	4	1	8	167.0	2	0	[]
5172	8	1	8	60.0	2	0	[]
5173	1	1	8	60.0	2	0	[]
5174	1	1	2	60.0	2	0	[]
5183	3	4	8	60.0	2	0	[]
5186	5	4	8	60.0	2	1	[(798, 0)]
5191	1	4	8	60.0	2	0	[]
5194	2	1	8	60.0	2	0	[]
5199	1	1	8	180.0	2	0	[]
5201	2	1	8	60.0	2	0	[]
5202	2	4	8	60.0	2	0	[]
5203	1	1	2	60.0	2	0	[]
5227	5	1	8	60.0	2	0	[]
5228	7	2	8	60.0	2	0	[]
5233	2	1	8	60.0	2	0	[]
5234	2	2	8	60.0	2	0	[]
5240	5	3	8	60.0	2	1	[(798, 0)]
5241	2	1	8	60.0	2	0	[]
5246	4	1	8	60.0	2	0	[]
5249	2	2	8	60.0	2	0	[]
5250	2	2	8	60.0	2	0	[]
5251	11	6	8	60.0	2	0	[]
5252	2	2	8	60.0	2	0	[]
5257	2	1	8	60.0	2	0	[]
5258	2	1	8	60.0	2	0	[]
5265	2	1	8	60.0	2	0	[]
5270	1	2	8	60.0	2	0	[]
5273	1	1	2	60.0	2	0	[]
5275	16	6	8	60.0	2	0	[]
5277	3	2	8	60.0	2	0	[]
5284	7	5	8	60.0	2	1	[(6659, 0)]
5286	2	1	3	200.0	2	0	[]
5288	6	1	8	60.0	2	1	[(6619, 0)]
5290	1	1	2	60.0	2	0	[]
5292	2	1	8	60.0	2	0	[]
5293	2	1	2	60.0	2	0	[]
5296	3	1	8	60.0	2	1	[(798, 0)]
5298	2	2	8	60.0	2	0	[]
5304	1	4	8	60.0	2	0	[]
5307	4	1	8	60.0	2	9	[(6814, 0), (6689, 0), (1354, 0), (3558, 0), (7766, 0), (3004, 0), (7893, 0), (2172, 0), (5661, 0)]
5309	4	1	8	60.0	2	1	[(798, 0)]
5311	2	5	7	60.0	2	0	[]
5313	9	1	8	60.0	2	2	[(456, 0), (6304, 0)]
5317	3	1	2	60.0	2	0	[]
5318	25	2	8	60.0	2	0	[]
5331	2	1	8	60.0	2	0	[]
5337	2	1	1	60.0	2	0	[]
5341	4	1	8	60.0	2	0	[]
5345	1	1	8	60.0	2	0	[]
5349	3	1	8	60.0	2	0	[]
5356	1	16	32	80.0	0	0	[]
5359	1	1	8	60.0	2	0	[]
5366	142	12	16	60.0	1	9	[(1672, 1), (7075, 1), (6659, 0), (281, 0), (4022, 0), (473, 2), (4667, 0), (5646, 2), (6304, 2)]
5368	4	1	8	60.0	2	0	[]
5377	2	4	8	60.0	2	0	[]
5381	2	1	8	60.0	2	0	[]
5382	3	1	8	60.0	2	0	[]
5383	2	1	8	60.0	2	0	[]
5385	5	2	8	60.0	2	1	[(4382, 2)]
5387	3	1	8	60.0	2	1	[(798, 0)]
5388	16	1	16	60.0	2	2	[(7467, 2), (798, 0)]
5395	2	1	2	60.0	2	0	[]
5404	2	4	8	60.0	2	0	[]
5407	1	1	8	60.0	2	0	[]
5410	1	1	8	60.0	2	0	[]
5411	34	3	8	60.0	2	2	[(2767, 0), (6659, 0)]
5412	2	1	8	60.0	2	0	[]
5415	2	1	8	40.0	2	0	[]
5420	1	2	16	60.0	1	15	[(8587, 2), (9031, 2), (3942, 2), (4520, 2), (4014, 2), (6185, 2), (6104, 2), (273, 2), (4011, 2), (6429, 2), (6683, 2), (4630, 2), (8162, 1), (3321, 1), (6385, 2)]
5422	1	1	2	60.0	2	0	[]
5427	15	2	8	40.0	2	0	[]
5429	7	1	16	80.0	2	0	[]
5438	104	2	8	60.0	2	12	[(8761, 2), (8564, 0), (2621, 1), (3555, 0), (3875, 0), (3916, 0), (6692, 1), (9179, 2), (6230, 0), (435, 2), (798, 0), (3588, 2)]
5439	4	1	8	60.0	2	0	[]
5443	4	1	2	60.0	2	0	[]
5445	1	1	8	60.0	2	0	[]
5447	2	4	8	60.0	2	0	[]
5448	1	1	16	100.0	2	0	[]
5452	5	1	8	60.0	2	0	[]
5454	1	2	8	60.0	2	0	[]
5456	1	1	8	60.0	2	0	[]
5457	3	6	8	80.0	2	0	[]
5458	2	1	2	60.0	2	0	[]
5459	2	1	8	60.0	2	0	[]
5461	1	1	8	60.0	2	0	[]
5466	3	1	8	60.0	2	0	[]
5467	5	1	8	60.0	2	1	[(798, 0)]
5469	9	4	8	60.0	2	0	[]
5472	7	4	8	60.0	2	1	[(6151, 0)]
5484	1	1	1	60.0	2	0	[]
5490	43	2	8	40.0	2	12	[(6683, 1), (4471, 2), (2767, 2), (473, 1), (6295, 2), (6381, 1), (3370, 0), (2593, 1), (3321, 0), (3136, 2), (3144, 1), (7270, 1)]
5491	2	1	8	60.0	2	0	[]
5499	3	1	8	60.0	2	0	[]
5507	3	1	8	60.0	2	0	[]
5508	1	1	2	60.0	2	0	[]
5512	5	1	8	60.0	2	0	[]
5517	2	2	2	60.0	2	0	[]
5518	1	1	8	60.0	2	0	[]
5521	2	1	8	60.0	2	0	[]
5525	3	1	8	60.0	2	0	[]
5534	2	1	1	60.0	2	0	[]
5538	9	12	16	60.0	2	1	[(7998, 2)]
5539	2	1	3	60.0	2	0	[]
5541	27	3	10	40.0	2	2	[(8931, 0), (2621, 0)]
5542	1	6	8	60.0	2	0	[]
5545	2	1	8	60.0	2	0	[]
5548	29	4	8	60.0	2	2	[(4591, 1), (4015, 0)]
5550	2	1	8	60.0	2	0	[]
5551	8	2	8	60.0	2	0	[]
5552	3	1	8	60.0	2	0	[]
5553	2	1	8	60.0	2	0	[]
5563	3	2	8	60.0	2	0	[]
5570	9	1	2	100.0	2	0	[]
5571	1	1	8	60.0	2	0	[]
5574	1	8	16	60.0	2	0	[]
5575	1	1	2	60.0	2	0	[]
5576	6	1	8	60.0	2	0	[]
5577	2	1	8	60.0	2	0	[]
5580	2	4	8	60.0	2	0	[]
5594	1	1	8	60.0	2	0	[]
5595	1	1	8	60.0	2	0	[]
5597	1	1	8	60.0	2	0	[]
5600	5	2	8	60.0	2	1	[(798, 0)]
5603	2	1	8	60.0	2	0	[]
5604	2	3	8	60.0	2	0	[]
5605	2	1	8	60.0	2	0	[]
5619	9	4	2	60.0	2	1	[(6659, 0)]
5620	2	1	8	60.0	2	0	[]
5622	2	4	4	60.0	2	0	[]
5629	1	1	8	60.0	2	0	[]
5633	7	2	8	60.0	2	2	[(4491, 0), (6011, 0)]
5638	2	1	2	60.0	2	0	[]
5644	1	1	1	60.0	2	0	[]
5645	4	1	25	200.0	2	0	[]
5646	2	1	8	60.0	2	1	[(6659, 0)]
5651	4	1	8	60.0	2	1	[(275, 2)]
5653	2	1	8	60.0	2	0	[]
5655	2	2	8	60.0	2	0	[]
5660	4	4	8	60.0	2	0	[]
5661	9	6	8	60.0	2	1	[(1059, 2)]
5663	1	3	8	60.0	2	0	[]
5665	7	6	8	60.0	2	0	[]
5667	2	1	8	60.0	2	0	[]
5676	3	1	8	60.0	2	0	[]
5678	2	4	8	60.0	2	0	[]
5694	1	1	8	60.0	2	0	[]
5700	1	1	8	60.0	2	0	[]
5704	2	1	8	60.0	2	0	[]
5705	59	3	8	60.0	2	17	[(7634, 1), (1884, 0), (7532, 2), (6659, 0), (281, 2), (8069, 0), (6018, 1), (473, 0), (6295, 0), (6381, 2), (971, 0), (3873, 2), (3590, 0), (2593, 0), (1771, 0), (5619, 1), (798, 0)]
5708	2	1	8	60.0	2	0	[]
5709	1	1	8	60.0	2	0	[]
5711	1	4	8	60.0	2	0	[]
5715	1	1	8	60.0	2	0	[]
5716	1	1	8	100.0	2	0	[]
5717	2	1	8	60.0	2	0	[]
5719	5	1	8	60.0	2	0	[]
5721	2	1	6	60.0	2	0	[]
5722	5	1	8	60.0	2	0	[]
5729	1	4	8	60.0	2	0	[]
5731	57	6	16	80.0	2	2	[(2335, 0), (798, 0)]
5733	1	1	8	60.0	2	0	[]
5738	3	1	8	60.0	2	0	[]
5740	29	2	8	60.0	0	9	[(7309, 0), (4471, 0), (6381, 2), (5655, 0), (6564, 0), (3321, 0), (798, 0), (5490, 0), (5172, 1)]
5741	2	1	8	60.0	2	0	[]
5750	3	2	8	60.0	2	0	[]
5752	3	1	2	60.0	2	0	[]
5756	2	6	8	60.0	2	0	[]
5764	14	3	8	60.0	2	0	[]
5767	6	1	8	60.0	2	0	[]
5769	1	4	8	60.0	2	0	[]
5772	11	2	8	60.0	2	1	[(7959, 0)]
5777	2	6	8	60.0	2	1	[(3685, 1)]
5781	36	3	8	60.0	2	4	[(6683, 2), (798, 0), (6659, 0), (6381, 2)]
5782	1	1	8	60.0	2	0	[]
5785	2	1	16	80.0	2	0	[]
5790	1	1	2	60.0	2	0	[]
5794	4	1	16	200.0	2	0	[]
5801	1	1	8	60.0	2	0	[]
5802	1	1	8	60.0	2	0	[]
5806	1	1	2	60.0	2	0	[]
5817	2	1	8	60.0	2	0	[]
5821	2	4	8	60.0	2	0	[]
5823	2	1	8	60.0	2	0	[]
5825	2	2	8	60.0	2	0	[]
5826	6	1	8	60.0	2	0	[]
5846	2	1	8	60.0	2	0	[]
5848	2	1	6	60.0	2	0	[]
5853	2	16	32	200.0	2	0	[]
5857	2	1	6	60.0	2	0	[]
5861	3	1	8	60.0	2	0	[]
5862	6	1	8	60.0	2	0	[]
5864	69	4	8	60.0	2	5	[(2917, 0), (2484, 0), (1662, 0), (6659, 0), (3631, 1)]
5865	15	1	8	60.0	2	1	[(798, 0)]
5868	2	1	5	60.0	2	0	[]
5871	15	6	8	60.0	2	0	[]
5872	6	1	8	60.0	2	0	[]
5873	5	7	16	60.0	2	0	[]
5874	1	1	8	60.0	2	0	[]
5876	37	2	8	60.0	2	0	[]
5886	12	6	8	60.0	2	1	[(7473, 2)]
5894	2	1	8	60.0	2	1	[(5968, 1)]
5895	1	1	1	60.0	2	0	[]
5900	26	3	10	40.0	2	3	[(4325, 2), (7338, 0), (6564, 0)]
5907	1	1	8	60.0	2	0	[]
5916	2	4	8	100.0	2	0	[]
5917	2	1	8	60.0	2	0	[]
5918	1	2	8	60.0	2	0	[]
5919	3	4	8	60.0	2	0	[]
5920	1	1	4	60.0	2	1	[(798, 0)]
5921	14	5	8	60.0	2	1	[(798, 0)]
5924	2	1	7	60.0	2	0	[]
5926	2	1	8	60.0	2	0	[]
5927	2	1	2	60.0	2	0	[]
5928	1	1	16	100.0	2	0	[]
5933	3	1	8	60.0	2	0	[]
5937	1	1	2	60.0	2	0	[]
5938	2	2	8	60.0	2	0	[]
5944	7	6	8	60.0	2	0	[]
5954	10	1	8	60.0	2	3	[(7992, 0), (8990, 2), (5168, 0)]
5958	6	2	2	60.0	2	19	[(9122, 0), (6067, 0), (3771, 0), (7289, 0), (5427, 0), (5965, 0), (7023, 0), (473, 0), (5286, 0), (2014, 0), (2828, 0), (9152, 0), (6958, 0), (34, 0), (662, 0), (798, 0), (536, 0), (6381, 0), (3327, 0)]
5960	1	1	2	60.0	2	0	[]
5961	6	2	8	60.0	2	0	[]
5964	6	2	8	60.0	2	2	[(6659, 0), (798, 0)]
5965	2	3	8	60.0	2	0	[]
5966	2	1	8	60.0	2	0	[]
5967	2	1	8	60.0	2	0	[]
5968	3	1	8	60.0	2	0	[]
5974	2	1	8	60.0	2	0	[]
5978	13	2	8	60.0	2	0	[]
5980	3	1	8	60.0	2	0	[]
5982	2	1	2	60.0	2	0	[]
5983	5	1	8	40.0	2	1	[(7338, 0)]
5986	1	4	8	60.0	2	0	[]
5992	1	1	8	100.0	2	0	[]
5994	1	1	8	60.0	2	0	[]
5997	10	1	8	60.0	2	1	[(798, 0)]
5998	1	1	2	60.0	2	0	[]
6004	1	1	1	60.0	2	0	[]
6005	2	3	8	500.0	2	0	[]
6011	16	2	8	60.0	2	0	[]
6013	2	1	8	60.0	2	0	[]
6015	12	4	8	60.0	2	0	[]
6018	2	1	8	60.0	2	0	[]
6021	12	3	8	60.0	2	2	[(4843, 2), (693, 1)]
6023	4	1	2	60.0	2	0	[]
6032	2	1	8	60.0	2	0	[]
6042	2	2	8	60.0	2	0	[]
6045	2	1	8	60.0	2	0	[]
6051	19	6	8	60.0	2	1	[(275, 0)]
6053	1	1	8	60.0	2	0	[]
6058	1	1	8	60.0	2	0	[]
6062	9	2	3	80.0	2	0	[]
6064	2	1	8	60.0	2	0	[]
6065	2	1	2	1000.0	2	0	[]
6067	17	3	8	60.0	2	0	[]
6068	1	1	8	60.0	2	0	[]
6072	4	1	8	60.0	2	0	[]
6074	14	5	2	60.0	2	0	[]
6075	8	2	8	60.0	2	0	[]
6076	4	1	2	60.0	2	0	[]
6078	14	1	8	60.0	2	1	[(6659, 0)]
6083	1	4	8	60.0	2	0	[]
6092	1	1	8	60.0	2	0	[]
6096	2	1	2	60.0	2	0	[]
6102	2	1	16	60.0	2	0	[]
6104	2	1	16	60.0	1	16	[(4661, 2), (6683, 1), (9031, 1), (3942, 1), (6381, 2), (4014, 1), (6185, 1), (273, 2), (5420, 2), (2175, 2), (3321, 1), (4011, 1), (6429, 1), (4630, 1), (8162, 1), (7555, 2)]
6113	2	1	6	60.0	2	0	[]
6115	9	6	16	60.0	2	2	[(8199, 0), (3105, 0)]
6123	138	6	8	60.0	2	5	[(5868, 0), (6659, 0), (6919, 0), (3942, 1), (5060, 0)]
6125	2	1	8	60.0	2	1	[(5968, 2)]
6133	3	1	8	60.0	2	0	[]
6136	4	1	8	60.0	2	0	[]
6144	1	1	1	60.0	2	0	[]
6146	2	1	8	60.0	2	0	[]
6149	1	1	8	60.0	2	0	[]
6151	28	1	8	60.0	2	1	[(8519, 2)]
6158	2	1	8	60.0	2	0	[]
6160	5	2	8	60.0	2	0	[]
6169	1	4	8	60.0	2	0	[]
6172	10	1	8	60.0	2	2	[(5620, 0), (7998, 0)]
6174	2	4	8	60.0	2	0	[]
6175	1	4	8	60.0	2	0	[]
6179	4	1	8	60.0	2	1	[(1059, 2)]
6180	7	3	8	60.0	2	0	[]
6185	16	5	32	100.0	2	17	[(4661, 2), (8587, 2), (9031, 2), (6381, 2), (7155, 0), (4520, 2), (122, 0), (273, 1), (5420, 2), (2175, 2), (6385, 2), (4011, 2), (6429, 2), (6683, 2), (8162, 1), (3321, 1), (7555, 2)]
6187	3	1	8	60.0	2	0	[]
6189	2	1	8	60.0	2	0	[]
6190	3	1	2	60.0	2	0	[]
6191	12	6	8	60.0	2	0	[]
6192	2	6	8	60.0	2	0	[]
6196	5	2	8	60.0	2	1	[(798, 0)]
6204	1	1	8	60.0	2	0	[]
6205	1	1	8	60.0	2	0	[]
6206	1	3	8	60.0	2	0	[]
6216	1	1	6	60.0	2	0	[]
6225	2	1	8	60.0	2	0	[]
6230	57	5	8	60.0	0	14	[(4117, 0), (6659, 0), (7622, 0), (2483, 0), (6483, 0), (4044, 0), (8053, 0), (2767, 0), (2701, 0), (7907, 0), (3875, 0), (5512, 0), (3631, 0), (232, 0)]
6231	4	4	8	60.0	2	0	[]
6233	1	1	4	60.0	2	0	[]
6243	2	1	8	60.0	2	0	[]
6246	5	1	8	60.0	2	0	[]
6247	2	1	8	60.0	2	0	[]
6248	1	1	8	60.0	2	0	[]
6249	2	1	5	60.0	2	1	[(798, 0)]
6251	14	8	16	200.0	2	0	[]
6260	1	1	1	60.0	2	0	[]
6261	1	8	16	80.0	2	0	[]
6263	1	1	3	60.0	2	0	[]
6265	1	1	8	60.0	2	0	[]
6266	4	1	8	60.0	2	0	[]
6272	2	1	1	60.0	2	0	[]
6274	2	1	8	60.0	2	0	[]
6275	2	1	8	200.0	2	0	[]
6277	1	1	8	60.0	2	0	[]
6280	3	5	8	60.0	2	0	[]
6281	2	1	1	60.0	2	0	[]
6283	6	12	2	200.0	2	3	[(2838, 2), (322, 0), (7762, 0)]
6284	1	2	8	60.0	2	0	[]
6285	7	4	2	300.0	2	0	[]
6287	1	1	8	60.0	2	0	[]
6289	2	1	8	60.0	2	0	[]
6292	1	4	8	60.0	2	1	[(1590, 0)]
6295	14	4	8	40.0	2	3	[(8213, 2), (6018, 2), (456, 0)]
6296	4	1	8	60.0	2	1	[(3286, 2)]
6297	1	4	8	60.0	2	0	[]
6300	5	6	8	100.0	2	1	[(8848, 0)]
6303	19	6	8	60.0	2	1	[(1152, 0)]
6304	10	2	8	60.0	0	7	[(7039, 0), (5313, 0), (615, 0), (456, 0), (4471, 0), (6659, 0), (4229, 0)]
6307	2	1	8	60.0	2	0	[]
6312	5	1	8	60.0	2	0	[]
6316	2	4	8	60.0	2	0	[]
6326	5	6	8	60.0	2	0	[]
6329	2	1	8	60.0	2	0	[]
6332	6	1	8	60.0	2	2	[(5490, 2), (8500, 2)]
6337	2	2	8	60.0	2	0	[]
6352	16	4	16	80.0	2	0	[]
6353	2	1	8	60.0	2	0	[]
6358	2	1	2	60.0	2	0	[]
6360	2	1	8	60.0	2	0	[]
6367	2	1	8	60.0	2	0	[]
6373	2	1	8	60.0	2	0	[]
6375	10	3	8	100.0	2	1	[(798, 0)]
6379	1	1	1	60.0	2	0	[]
6381	282	12	16	60.0	1	20	[(9156, 0), (6683, 2), (3751, 0), (4520, 2), (6185, 2), (273, 2), (3370, 0), (3321, 1), (4421, 0), (4011, 2), (4630, 2), (8162, 1), (6385, 2), (3942, 0), (6104, 2), (6429, 2), (6659, 0), (8587, 2), (9031, 2), (4014, 2)]
6385	1	1	16	60.0	2	14	[(5420, 3), (4661, 3), (3942, 2), (6683, 2), (9031, 2), (6381, 3), (4014, 2), (6185, 2), (273, 2), (2175, 3), (4011, 2), (6429, 2), (4630, 2), (7555, 3)]
6387	1	1	8	60.0	2	0	[]
6390	1	8	16	60.0	2	0	[]
6391	2	1	8	60.0	2	1	[(798, 0)]
6393	223	6	8	60.0	2	4	[(2866, 2), (5422, 1), (1864, 1), (6659, 0)]
6399	1	1	8	60.0	2	0	[]
6401	1	1	1	60.0	2	0	[]
6403	1	1	8	60.0	2	0	[]
6404	2	1	8	60.0	2	1	[(798, 0)]
6407	2	1	8	60.0	2	0	[]
6409	10	1	16	60.0	2	1	[(2498, 2)]
6412	2	1	8	60.0	2	0	[]
6413	1	1	8	60.0	2	0	[]
6417	2	1	8	60.0	2	0	[]
6419	1	4	8	100.0	2	0	[]
6420	1	1	2	60.0	2	0	[]
6423	1	1	8	60.0	2	0	[]
6425	1	1	8	60.0	2	0	[]
6429	2	4	32	60.0	2	15	[(4661, 2), (8587, 2), (3942, 2), (6381, 2), (4520, 2), (4014, 2), (6185, 2), (273, 1), (5420, 2), (2175, 2), (6385, 2), (7555, 2), (3321, 1), (4630, 2), (8162, 1)]
6431	2	4	8	60.0	2	1	[(6659, 0)]
6434	5	1	8	60.0	2	0	[]
6440	2	1	8	60.0	2	1	[(6659, 0)]
6443	2	1	8	40.0	2	0	[]
6448	2	1	8	60.0	2	0	[]
6449	1	1	8	60.0	2	0	[]
6455	94	4	8	60.0	0	10	[(5411, 0), (6393, 0), (4667, 0), (568, 0), (844, 0), (5764, 1), (6151, 0), (3454, 0), (6230, 0), (3590, 0)]
6458	1	5	8	60.0	2	0	[]
6462	1	1	4	60.0	2	0	[]
6467	1	4	8	40.0	0	0	[]
6477	14	1	8	100.0	2	2	[(6659, 0), (798, 0)]
6478	7	2	8	60.0	2	1	[(798, 0)]
6483	29	1	8	60.0	0	4	[(798, 0), (7998, 0), (5600, 0), (693, 1)]
6484	1	5	8	60.0	2	0	[]
6485	3	3	8	60.0	2	0	[]
6499	2	2	8	60.0	2	0	[]
6505	2	1	8	60.0	2	0	[]
6509	1	3	2	60.0	2	1	[(3286, 0)]
6517	1	1	2	60.0	2	0	[]
6536	1	1	1	60.0	2	0	[]
6537	1	1	8	60.0	2	0	[]
6544	1	1	8	60.0	2	0	[]
6546	1	1	2	60.0	2	0	[]
6550	21	12	16	100.0	2	1	[(8005, 0)]
6551	1	1	2	60.0	2	0	[]
6552	1	1	8	60.0	2	0	[]
6560	1	1	8	60.0	2	0	[]
6564	43	4	8	40.0	0	3	[(5740, 0), (6715, 2), (7338, 0)]
6566	1	1	1	60.0	2	0	[]
6568	31	5	8	60.0	0	11	[(6771, 2), (8243, 1), (8273, 1), (8944, 2), (5284, 2), (275, 2), (3604, 1), (4773, 2), (7928, 2), (798, 0), (3370, 2)]
6575	1	2	8	40.0	2	0	[]
6578	3	4	16	60.0	2	0	[]
6581	1	2	8	60.0	2	0	[]
6593	22	3	8	60.0	2	0	[]
6594	1	1	8	60.0	2	0	[]
6598	1	1	8	40.0	2	0	[]
6599	2	2	8	60.0	2	0	[]
6600	12	1	8	60.0	2	2	[(7887, 1), (798, 0)]
6604	2	2	8	60.0	2	0	[]
6607	1	1	8	60.0	2	0	[]
6609	2	1	1	80.0	2	0	[]
6613	2	1	8	60.0	2	0	[]
6615	1	6	8	60.0	2	0	[]
6616	1	1	8	60.0	2	0	[]
6619	2	1	8	60.0	2	2	[(5288, 0), (8433, 0)]
6623	2	2	8	60.0	2	0	[]
6625	2	1	8	60.0	2	0	[]
6629	3	1	8	60.0	2	0	[]
6630	1	1	4	60.0	2	0	[]
6635	1	2	8	60.0	2	0	[]
6651	2	1	8	40.0	2	0	[]
6652	2	1	5	60.0	2	0	[]
6654	5	1	8	60.0	2	1	[(798, 0)]
6655	1	4	8	60.0	2	0	[]
6656	6	2	8	60.0	2	0	[]
6659	117	3	8	120.0	0	90	[(8476, 0), (1051, 0), (1285, 0), (3987, 0), (1425, 0), (3370, 0), (4514, 0), (122, 0), (6991, 0), (7236, 0), (6230, 0), (6304, 0), (3590, 0), (238, 0), (473, 0), (5619, 0), (5823, 2), (3995, 0), (6794, 0), (1294, 0), (8500, 0), (2751, 0), (6393, 0), (4262, 0), (6431, 0), (3301, 0), (1938, 0), (3657, 0), (3486, 0), (1122, 0), (2468, 0), (281, 0), (687, 0), (7338, 0), (3253, 0), (4249, 0), (198, 0), (5705, 0), (1059, 0), (7026, 0), (7467, 0), (7928, 0), (1672, 0), (9156, 0), (7309, 0), (3637, 0), (6078, 0), (1024, 0), (6440, 0), (3321, 0), (3879, 0), (8069, 0), (5964, 0), (6477, 0), (5284, 0), (6381, 0), (4939, 0), (6123, 0), (4471, 0), (9163, 0), (1884, 0), (6710, 0), (2767, 0), (3327, 0), (6916, 0), (7075, 0), (7622, 0), (5165, 0), (3183, 0), (5781, 0), (2806, 0), (5411, 0), (8135, 0), (5106, 0), (5366, 0), (5646, 0), (2033, 0), (5864, 0), (8484, 0), (798, 0), (27, 0), (1587, 0), (536, 0), (8824, 0), (3103, 0), (8587, 0), (4667, 0), (338, 0), (3886, 0), (3272, 0)]
6660	2	1	8	60.0	2	0	[]
6661	5	2	8	60.0	2	2	[(5366, 0), (3321, 0)]
6665	2	1	8	60.0	2	0	[]
6674	2	1	8	60.0	2	0	[]
6678	2	1	6	60.0	2	0	[]
6683	153	12	32	60.0	2	18	[(4661, 2), (8587, 2), (3942, 2), (1587, 0), (5366, 0), (6381, 2), (4520, 2), (4014, 2), (6185, 2), (273, 1), (5420, 2), (7636, 1), (2175, 2), (6385, 2), (7555, 2), (3321, 1), (4630, 2), (8162, 1)]
6689	6	2	8	60.0	2	1	[(798, 0)]
6692	28	12	16	100.0	2	4	[(3015, 2), (3021, 0), (2692, 0), (798, 0)]
6705	1	1	8	60.0	2	0	[]
6710	69	6	8	60.0	2	10	[(7634, 1), (6659, 0), (473, 2), (7270, 2), (7636, 1), (2593, 2), (7908, 1), (8616, 1), (798, 0), (2752, 0)]
6714	2	1	8	60.0	2	0	[]
6715	13	6	2	60.0	2	1	[(798, 0)]
6717	1	1	8	60.0	2	0	[]
6719	9	1	8	60.0	2	0	[]
6726	119	3	8	60.0	0	9	[(3463, 1), (6243, 2), (3224, 2), (5412, 2), (6839, 2), (8285, 2), (7765, 0), (3144, 1), (693, 1)]
6728	1	1	6	60.0	2	0	[]
6731	2	4	8	60.0	2	0	[]
6733	4	1	8	60.0	2	0	[]
6734	35	6	8	60.0	2	1	[(6172, 0)]
6739	4	3	8	60.0	2	0	[]
6740	1	2	16	60.0	2	0	[]
6742	2	1	8	60.0	2	0	[]
6756	4	1	8	60.0	2	0	[]
6758	1	1	2	60.0	2	0	[]
6761	1	1	8	60.0	2	0	[]
6763	4	1	6	60.0	2	0	[]
6764	2	3	8	60.0	2	0	[]
6770	2	2	3	60.0	2	0	[]
6771	11	6	8	60.0	2	0	[]
6772	1	8	16	60.0	2	0	[]
6774	3	1	8	60.0	2	0	[]
6778	1	4	8	60.0	2	0	[]
6779	2	1	8	60.0	2	0	[]
6782	1	1	8	60.0	2	0	[]
6783	1	1	16	60.0	2	0	[]
6784	1	1	10	300.0	2	0	[]
6790	10	3	8	60.0	2	0	[]
6794	5	2	8	60.0	2	1	[(6659, 0)]
6795	2	1	2	60.0	2	0	[]
6796	1	2	7	60.0	2	0	[]
6802	1	1	8	60.0	2	0	[]
6808	39	2	8	60.0	2	1	[(6102, 2)]
6810	5	6	8	60.0	2	0	[]
6814	4	1	5	60.0	2	9	[(5307, 0), (6689, 0), (1354, 0), (3558, 0), (7766, 0), (3004, 0), (7893, 0), (2172, 0), (5661, 0)]
6816	2	1	8	60.0	2	0	[]
6817	5	1	2	60.0	2	1	[(798, 0)]
6818	9	1	8	60.0	2	1	[(798, 0)]
6819	2	1	2	60.0	2	0	[]
6823	2	1	8	60.0	2	0	[]
6825	1	1	8	60.0	2	0	[]
6828	3	1	8	60.0	2	0	[]
6834	5	1	8	80.0	2	0	[]
6837	5	1	8	60.0	2	0	[]
6839	9	4	16	60.0	1	0	[]
6842	4	1	8	60.0	2	0	[]
6853	2	1	8	60.0	2	0	[]
6854	2	2	8	60.0	2	0	[]
6859	2	1	8	60.0	2	0	[]
6866	1	1	8	60.0	2	0	[]
6868	1	1	8	60.0	2	0	[]
6869	2	2	8	60.0	2	0	[]
6875	2	1	8	60.0	2	0	[]
6883	20	5	8	60.0	2	1	[(2018, 2)]
6894	2	2	8	60.0	2	0	[]
6896	10	2	8	60.0	2	1	[(8213, 2)]
6897	1	1	8	60.0	2	0	[]
6898	2	1	8	60.0	2	0	[]
6907	17	1	8	60.0	2	0	[]
6908	2	1	8	60.0	2	0	[]
6910	24	2	8	60.0	2	6	[(3083, 2), (109, 2), (798, 0), (7052, 0), (2767, 1), (693, 0)]
6916	23	2	8	80.0	2	2	[(798, 0), (6659, 0)]
6919	1	1	8	60.0	2	0	[]
6920	3	1	8	60.0	2	0	[]
6921	5	2	8	60.0	2	0	[]
6928	4	1	8	60.0	2	1	[(798, 0)]
6932	1	1	8	60.0	2	0	[]
6938	2	1	8	60.0	2	0	[]
6941	4	2	8	60.0	2	0	[]
6943	3	6	8	60.0	2	0	[]
6946	2	1	5	60.0	2	1	[(798, 0)]
6950	1	4	8	60.0	2	0	[]
6952	1	1	8	60.0	2	0	[]
6954	2	1	8	60.0	2	0	[]
6955	1	1	1	60.0	2	0	[]
6958	6	1	8	60.0	2	0	[]
6962	2	1	8	60.0	2	0	[]
6963	2	1	4	60.0	2	0	[]
6964	19	11	2	60.0	2	0	[]
6969	1	1	8	60.0	2	0	[]
6971	2	2	8	60.0	2	0	[]
6973	3	4	8	60.0	2	0	[]
6977	1	1	8	60.0	2	0	[]
6980	1	1	2	60.0	2	0	[]
6982	2	1	8	60.0	2	0	[]
6986	1	1	8	60.0	2	0	[]
6987	2	12	32	200.0	2	0	[]
6988	1	1	8	60.0	2	0	[]
6990	1	4	8	80.0	2	0	[]
6991	25	2	8	100.0	2	2	[(6659, 0), (280, 2)]
6994	1	1	8	60.0	2	0	[]
6996	2	4	8	60.0	2	0	[]
6997	2	1	2	60.0	2	0	[]
6998	1	1	8	60.0	2	0	[]
6999	50	6	8	60.0	2	1	[(1541, 0)]
7000	1	1	8	60.0	2	0	[]
7001	224	4	8	60.0	2	4	[(7660, 2), (6819, 1), (6980, 0), (798, 0)]
7002	2	1	8	60.0	2	0	[]
7006	1	1	8	60.0	2	0	[]
7007	16	3	8	60.0	2	0	[]
7015	2	1	1	60.0	2	0	[]
7017	2	1	8	60.0	2	0	[]
7021	2	1	1	60.0	2	0	[]
7023	2	2	8	60.0	2	0	[]
7024	2	1	8	60.0	2	0	[]
7026	4	4	8	60.0	2	1	[(6659, 0)]
7030	1	4	8	60.0	2	0	[]
7032	4	1	1	60.0	2	0	[]
7039	16	1	8	60.0	2	2	[(6304, 0), (456, 0)]
7044	2	1	8	60.0	2	0	[]
7049	1	1	8	60.0	2	0	[]
7050	2	1	8	60.0	2	0	[]
7052	8	4	8	60.0	2	0	[]
7056	1	1	8	60.0	2	0	[]
7060	1	1	8	60.0	2	0	[]
7066	2	1	8	60.0	2	0	[]
7068	2	1	8	60.0	2	0	[]
7072	4	1	8	80.0	2	1	[(3286, 1)]
7073	2	1	8	60.0	2	2	[(2593, 1), (6710, 1)]
7075	29	2	8	60.0	2	3	[(6659, 0), (798, 0), (3604, 2)]
7080	26	3	8	60.0	2	3	[(2767, 0), (7196, 0), (7270, 2)]
7090	3	1	8	60.0	2	0	[]
7091	10	2	8	60.0	2	1	[(798, 0)]
7099	1	1	8	60.0	2	0	[]
7100	4	1	8	60.0	2	0	[]
7109	4	1	8	60.0	2	0	[]
7111	2	4	8	60.0	2	0	[]
7112	3	4	2	60.0	2	0	[]
7113	8	2	8	60.0	2	1	[(9328, 2)]
7114	15	6	8	60.0	2	0	[]
7118	4	1	8	60.0	2	0	[]
7120	3	1	8	60.0	2	0	[]
7123	2	6	8	60.0	2	1	[(798, 0)]
7135	1	1	4	60.0	2	0	[]
7136	2	1	8	60.0	2	0	[]
7137	2	4	8	60.0	2	0	[]
7138	1	4	8	60.0	2	0	[]
7139	1	1	8	60.0	2	0	[]
7141	1	1	8	60.0	2	0	[]
7150	2	6	8	60.0	2	0	[]
7152	2	4	8	60.0	2	0	[]
7155	43	1	8	40.0	2	4	[(6185, 0), (8553, 0), (8500, 0), (281, 0)]
7156	3	1	1	60.0	2	0	[]
7157	3	1	8	60.0	2	0	[]
7159	1	1	8	60.0	2	0	[]
7166	2	1	8	60.0	2	0	[]
7167	1	1	8	60.0	2	1	[(798, 0)]
7168	2	1	8	60.0	2	0	[]
7169	1	1	8	60.0	2	0	[]
7177	2	1	1	60.0	2	0	[]
7180	1	1	8	60.0	2	0	[]
7182	3	1	10	80.0	2	0	[]
7184	20	2	16	150.0	2	1	[(3896, 2)]
7185	3	1	8	60.0	2	0	[]
7187	1	4	8	60.0	2	0	[]
7191	2	1	8	60.0	2	0	[]
7194	1	4	8	60.0	2	0	[]
7196	36	2	8	60.0	2	5	[(9046, 0), (2952, 0), (3327, 0), (7026, 0), (3183, 0)]
7199	17	6	8	60.0	2	3	[(3682, 0), (580, 0), (232, 0)]
7211	1	2	8	60.0	2	0	[]
7220	1	4	8	60.0	2	1	[(3321, 1)]
7222	12	1	8	60.0	2	0	[]
7224	1	4	8	60.0	2	0	[]
7233	2	1	7	60.0	2	0	[]
7235	1	4	8	60.0	2	0	[]
7236	7	1	8	60.0	2	1	[(6659, 0)]
7237	2	1	8	60.0	2	0	[]
7238	4	2	8	60.0	2	0	[]
7239	2	1	8	60.0	2	0	[]
7241	1	1	8	60.0	2	0	[]
7243	2	2	8	60.0	2	0	[]
7249	6	2	8	100.0	2	0	[]
7266	10	6	8	60.0	2	0	[]
7270	4	1	8	60.0	2	0	[]
7277	2	1	2	60.0	2	0	[]
7282	3	2	8	60.0	2	0	[]
7284	1	4	8	60.0	2	0	[]
7286	3	1	18	100.0	2	0	[]
7287	3	2	8	60.0	2	0	[]
7289	5	2	8	60.0	2	0	[]
7303	2	2	8	60.0	2	0	[]
7308	1	1	2	60.0	2	0	[]
7309	87	5	8	40.0	0	7	[(7426, 0), (4471, 0), (798, 0), (3370, 0), (7627, 0), (6659, 0), (281, 0)]
7314	1	1	8	60.0	2	0	[]
7326	5	1	8	60.0	2	0	[]
7327	1	10	16	100.0	2	0	[]
7328	1	1	8	60.0	2	0	[]
7338	120	6	8	60.0	0	15	[(9156, 0), (275, 0), (6659, 0), (8587, 2), (1978, 0), (473, 0), (6919, 2), (3987, 2), (7155, 0), (7080, 0), (3370, 0), (2593, 0), (7001, 0), (798, 0), (5651, 0)]
7349	1	1	1	60.0	2	0	[]
7350	3	1	8	60.0	2	1	[(798, 0)]
7355	14	6	8	60.0	2	0	[]
7356	9	2	7	60.0	2	0	[]
7359	1	8	8	60.0	2	0	[]
7360	7	2	8	60.0	2	0	[]
7364	3	1	8	80.0	2	0	[]
7373	2	1	8	60.0	2	0	[]
7376	4	1	8	60.0	2	0	[]
7377	5	1	8	60.0	2	1	[(798, 0)]
7380	2	1	8	60.0	2	0	[]
7384	1	1	8	60.0	2	0	[]
7389	1	1	2	60.0	2	0	[]
7395	2	1	8	60.0	2	0	[]
7396	3	2	8	60.0	2	0	[]
7401	23	3	8	60.0	2	3	[(5368, 0), (4781, 0), (798, 0)]
7402	5	2	8	60.0	2	0	[]
7404	2	1	2	60.0	2	0	[]
7411	2	1	4	60.0	2	0	[]
7425	3	1	8	60.0	2	0	[]
7426	74	12	16	100.0	1	10	[(7514, 0), (6550, 2), (5366, 2), (473, 2), (28, 0), (2129, 0), (6261, 0), (7026, 0), (9163, 0), (4257, 1)]
7431	1	5	8	60.0	2	0	[]
7436	4	6	8	60.0	2	0	[]
7442	1	4	8	60.0	2	2	[(8889, 1), (5168, 2)]
7446	5	3	8	60.0	2	19	[(2802, 0), (1163, 0), (393, 0), (3314, 0), (5165, 0), (3747, 0), (3569, 0), (4973, 0), (8061, 0), (7282, 0), (1152, 0), (3916, 0), (4534, 0), (2784, 0), (5438, 0), (5507, 0), (9180, 0), (3228, 0), (8664, 0)]
7450	1	1	1	60.0	2	0	[]
7451	1	4	8	60.0	2	0	[]
7456	2	1	8	60.0	2	0	[]
7461	3	2	8	60.0	2	0	[]
7462	1	1	8	60.0	2	0	[]
7463	3	1	8	60.0	2	0	[]
7467	6	1	8	60.0	2	2	[(6659, 0), (798, 0)]
7468	3	1	8	60.0	2	0	[]
7472	2	1	8	60.0	2	0	[]
7473	3	1	8	60.0	2	0	[]
7474	2	1	8	60.0	2	0	[]
7475	5	1	8	60.0	2	0	[]
7476	1	1	5	60.0	2	0	[]
7478	2	1	8	60.0	2	0	[]
7479	2	6	8	60.0	2	0	[]
7480	5	4	8	60.0	2	0	[]
7483	1	1	8	60.0	2	0	[]
7484	4	4	8	60.0	2	0	[]
7490	2	1	8	60.0	2	0	[]
7491	2	1	8	80.0	2	0	[]
7496	1	1	6	60.0	2	0	[]
7497	5	3	8	60.0	2	0	[]
7509	8	1	8	60.0	2	0	[]
7510	3	1	4	60.0	2	0	[]
7514	2	1	8	60.0	2	0	[]
7517	1	1	8	60.0	2	0	[]
7519	2	1	3	60.0	2	0	[]
7520	4	11	16	200.0	2	0	[]
7521	5	1	8	60.0	2	0	[]
7525	1	1	2	60.0	2	0	[]
7527	1	1	8	60.0	2	0	[]
7530	2	1	8	60.0	2	0	[]
7532	2	1	8	60.0	2	1	[(7634, 2)]
7539	2	1	8	60.0	2	0	[]
7542	2	1	8	60.0	2	0	[]
7550	1	1	8	60.0	2	0	[]
7555	1	6	16	60.0	1	15	[(8587, 2), (9031, 2), (3942, 2), (4520, 2), (4014, 2), (6185, 2), (6104, 2), (273, 2), (4011, 2), (6429, 2), (6683, 2), (4630, 2), (8162, 1), (3321, 1), (6385, 2)]
7557	2	1	8	60.0	2	0	[]
7559	8	1	8	60.0	2	0	[]
7560	1	6	8	60.0	2	0	[]
7565	1	1	8	60.0	2	0	[]
7566	2	3	8	60.0	2	0	[]
7573	1	1	8	60.0	2	0	[]
7576	28	6	8	60.0	2	0	[]
7591	4	1	8	60.0	2	0	[]
7592	2	1	8	60.0	2	0	[]
7597	2	1	2	60.0	2	0	[]
7600	1	5	48	500.0	2	0	[]
7603	1	1	2	60.0	2	0	[]
7605	2	1	8	60.0	2	0	[]
7606	2	1	16	40.0	2	0	[]
7618	1	1	2	200.0	2	0	[]
7622	39	3	8	60.0	2	3	[(6295, 2), (6659, 0), (2752, 0)]
7625	2	1	6	60.0	2	0	[]
7627	1	1	8	60.0	2	1	[(3370, 0)]
7630	2	1	8	60.0	2	0	[]
7631	1	1	8	60.0	2	0	[]
7632	2	1	2	60.0	2	0	[]
7634	2	3	5	60.0	2	0	[]
7636	2	1	8	60.0	2	0	[]
7644	2	2	7	150.0	2	0	[]
7645	2	1	8	60.0	2	0	[]
7647	1	1	8	60.0	2	0	[]
7649	6	2	16	60.0	2	1	[(798, 0)]
7660	1	1	8	60.0	2	0	[]
7661	1	1	2	60.0	2	0	[]
7664	1	1	8	60.0	2	0	[]
7668	1	1	8	60.0	2	0	[]
7670	2	1	8	60.0	2	0	[]
7679	4	3	8	60.0	2	0	[]
7682	1	1	8	60.0	2	0	[]
7684	2	1	8	60.0	2	0	[]
7688	2	1	8	60.0	2	0	[]
7691	2	1	6	60.0	2	0	[]
7698	2	1	8	60.0	2	0	[]
7699	2	1	8	60.0	2	0	[]
7700	67	21	48	300.0	2	1	[(798, 0)]
7705	1	1	8	60.0	2	0	[]
7712	2	1	8	60.0	2	0	[]
7713	2	1	8	60.0	2	0	[]
7714	2	1	8	60.0	2	0	[]
7717	1	4	8	60.0	2	0	[]
7718	2	1	2	60.0	2	0	[]
7725	2	1	8	60.0	2	0	[]
7727	4	6	8	60.0	2	0	[]
7732	6	2	8	60.0	2	0	[]
7737	3	1	8	60.0	2	0	[]
7738	5	3	8	60.0	2	1	[(798, 0)]
7742	2	1	8	60.0	2	0	[]
7747	10	2	8	60.0	2	0	[]
7752	2	1	8	60.0	2	0	[]
7759	3	1	8	60.0	2	1	[(289, 2)]
7762	3	1	8	60.0	2	0	[]
7764	8	2	8	60.0	2	0	[]
7765	2	1	8	60.0	2	0	[]
7766	1	1	8	60.0	2	0	[]
7769	1	1	8	60.0	2	0	[]
7780	2	5	8	60.0	2	1	[(798, 0)]
7785	2	1	8	60.0	2	0	[]
7786	2	4	8	60.0	2	0	[]
7802	20	6	8	150.0	2	0	[]
7803	2	2	8	60.0	2	1	[(798, 0)]
7805	25	2	8	60.0	2	3	[(8504, 1), (798, 0), (3183, 0)]
7806	2	1	6	60.0	2	0	[]
7808	6	1	8	60.0	2	0	[]
7815	2	1	8	60.0	2	0	[]
7817	1	1	8	60.0	2	0	[]
7818	2	1	8	60.0	2	0	[]
7820	1	4	8	60.0	2	0	[]
7823	3	1	8	60.0	2	0	[]
7832	3	2	8	60.0	2	0	[]
7833	4	1	8	60.0	2	0	[]
7837	1	1	2	60.0	2	0	[]
7838	1	1	8	60.0	2	0	[]
7840	2	1	8	60.0	2	0	[]
7841	2	1	8	60.0	2	0	[]
7846	1	1	2	60.0	2	0	[]
7848	1	1	8	60.0	2	0	[]
7851	2	1	8	60.0	2	0	[]
7852	1	2	8	60.0	2	0	[]
7854	1	2	8	60.0	2	0	[]
7860	1	1	8	40.0	0	0	[]
7863	6	1	8	60.0	2	0	[]
7872	2	4	8	60.0	2	1	[(3286, 0)]
7878	1	2	8	60.0	2	0	[]
7879	3	2	8	60.0	2	0	[]
7881	2	1	8	60.0	2	0	[]
7882	2	1	8	100.0	2	0	[]
7884	1	1	1	60.0	2	0	[]
7887	16	2	8	60.0	2	0	[]
7888	1	1	8	60.0	2	0	[]
7891	3	1	8	100.0	2	0	[]
7893	1	2	8	60.0	2	9	[(6814, 0), (5307, 0), (6689, 0), (1354, 0), (3558, 0), (7766, 0), (3004, 0), (2172, 0), (5661, 0)]
7897	1	1	1	80.0	2	0	[]
7901	1	1	6	60.0	2	0	[]
7902	1	1	1	60.0	2	0	[]
7907	2	2	8	60.0	2	0	[]
7908	2	4	8	60.0	2	0	[]
7915	2	1	8	60.0	2	0	[]
7920	2	1	8	60.0	2	0	[]
7923	2	4	8	60.0	2	0	[]
7926	2	2	8	60.0	2	0	[]
7927	6	1	8	60.0	2	0	[]
7928	90	2	8	60.0	2	4	[(5944, 1), (798, 0), (1051, 0), (6659, 0)]
7929	1	1	8	60.0	2	0	[]
7931	2	1	8	60.0	2	0	[]
7933	1	1	8	60.0	2	0	[]
7938	3	4	8	167.0	2	0	[]
7944	2	1	8	100.0	2	0	[]
7959	7	6	8	60.0	2	12	[(6180, 0), (6448, 2), (1961, 0), (8837, 0), (4028, 0), (3954, 0), (1956, 2), (1747, 0), (2949, 0), (8061, 0), (1841, 0), (1958, 0)]
7965	2	1	8	60.0	2	0	[]
7970	30	1	8	40.0	2	4	[(7426, 0), (8804, 2), (4667, 0), (6381, 2)]
7974	3	5	8	60.0	2	0	[]
7977	2	1	8	60.0	2	0	[]
7978	2	2	1	60.0	2	0	[]
7979	3	2	8	60.0	2	0	[]
7984	2	1	2	60.0	2	0	[]
7985	2	1	8	60.0	2	0	[]
7986	2	1	1	60.0	2	0	[]
7989	1	4	8	60.0	2	0	[]
7992	4	1	8	60.0	2	0	[]
7997	8	2	8	60.0	2	1	[(3220, 2)]
7998	81	1	8	60.0	0	13	[(5998, 2), (6125, 2), (4198, 0), (6790, 0), (135, 0), (6819, 2), (6764, 2), (3135, 2), (7196, 2), (5120, 0), (7007, 2), (9123, 2), (5438, 2)]
7999	1	1	8	60.0	2	0	[]
8000	1	1	8	60.0	2	0	[]
8001	1	1	6	60.0	2	0	[]
8004	2	1	8	60.0	2	0	[]
8005	8	4	8	60.0	2	1	[(798, 0)]
8006	4	6	8	60.0	2	1	[(1841, 2)]
8010	2	1	8	60.0	2	1	[(7286, 2)]
8011	3	1	8	60.0	2	1	[(798, 0)]
8013	2	1	1	60.0	2	0	[]
8019	2	1	2	60.0	2	1	[(798, 0)]
8024	1	1	5	60.0	2	0	[]
8026	2	1	8	60.0	2	0	[]
8030	2	1	2	60.0	2	0	[]
8031	2	1	8	60.0	2	0	[]
8032	1	1	2	60.0	2	0	[]
8035	2	1	8	60.0	2	0	[]
8037	2	1	8	60.0	2	0	[]
8038	3	3	8	60.0	2	0	[]
8039	1	1	1	60.0	2	0	[]
8047	2	1	2	100.0	2	0	[]
8049	3	1	1	60.0	2	0	[]
8053	21	6	8	60.0	2	0	[]
8059	2	4	8	60.0	2	0	[]
8061	44	3	16	100.0	2	3	[(8761, 1), (8593, 1), (5874, 2)]
8063	2	1	8	60.0	2	0	[]
8064	2	1	8	60.0	2	0	[]
8065	2	4	8	60.0	2	0	[]
8069	43	6	8	40.0	2	6	[(7634, 1), (3751, 0), (456, 0), (798, 0), (5490, 0), (6659, 0)]
8076	4	2	16	100.0	2	0	[]
8083	1	1	8	80.0	2	0	[]
8085	6	1	8	60.0	2	0	[]
8088	2	1	8	60.0	2	0	[]
8090	2	1	1	60.0	2	0	[]
8091	1	4	8	60.0	2	0	[]
8096	1	4	8	60.0	2	1	[(798, 0)]
8100	5	2	8	60.0	2	0	[]
8105	2	4	8	60.0	2	0	[]
8108	1	1	8	60.0	2	0	[]
8110	2	1	8	100.0	2	0	[]
8114	3	1	8	60.0	2	0	[]
8117	2	2	8	60.0	2	0	[]
8118	2	1	8	60.0	2	0	[]
8125	2	1	8	60.0	2	0	[]
8130	1	1	8	60.0	2	0	[]
8132	10	5	8	60.0	2	0	[]
8134	2	1	8	60.0	2	0	[]
8135	2	1	8	60.0	2	1	[(6659, 0)]
8143	2	1	2	60.0	2	0	[]
8145	2	6	8	60.0	2	0	[]
8157	1	1	8	60.0	2	0	[]
8158	2	4	8	60.0	2	0	[]
8160	1	4	8	60.0	2	0	[]
8162	1	2	16	60.0	2	18	[(6385, 2), (4661, 2), (8587, 2), (9031, 3), (3942, 3), (6381, 2), (4520, 2), (4014, 3), (6185, 3), (273, 2), (5420, 2), (2175, 2), (4011, 3), (6429, 3), (6683, 3), (4630, 3), (3321, 1), (7555, 2)]
8164	1	1	8	60.0	2	0	[]
8166	13	1	8	100.0	2	1	[(5551, 2)]
8174	1	4	8	60.0	2	0	[]
8177	2	4	8	60.0	2	0	[]
8179	1	4	8	60.0	2	0	[]
8183	1	1	8	60.0	2	0	[]
8187	2	1	8	60.0	2	0	[]
8191	110	6	8	40.0	2	2	[(7338, 0), (4667, 2)]
8192	1	3	3	60.0	2	0	[]
8193	1	1	2	60.0	2	0	[]
8199	16	2	2	40.0	2	0	[]
8201	2	4	8	60.0	2	0	[]
8204	1	4	8	60.0	2	0	[]
8207	3	1	8	60.0	2	0	[]
8212	1	6	8	60.0	2	0	[]
8213	2	1	8	100.0	2	0	[]
8214	1	4	8	60.0	2	0	[]
8217	4	6	8	100.0	2	0	[]
8218	4	1	8	60.0	2	0	[]
8219	4	1	8	60.0	2	0	[]
8220	2	1	8	60.0	2	0	[]
8222	2	1	2	60.0	2	0	[]
8224	1	1	8	60.0	2	0	[]
8227	2	1	8	60.0	2	0	[]
8231	3	1	8	60.0	2	0	[]
8242	8	5	8	60.0	2	0	[]
8243	9	3	8	60.0	2	1	[(798, 0)]
8244	1	8	8	60.0	2	0	[]
8250	2	1	8	60.0	2	0	[]
8257	2	1	8	60.0	2	0	[]
8259	1	1	1	60.0	2	0	[]
8268	2	4	8	60.0	2	0	[]
8270	6	1	7	60.0	2	1	[(338, 0)]
8272	2	1	8	60.0	2	0	[]
8273	11	1	2	60.0	2	0	[]
8278	3	3	7	60.0	2	0	[]
8281	6	1	8	60.0	2	0	[]
8284	2	1	8	60.0	2	0	[]
8285	2	4	8	60.0	2	0	[]
8286	1	1	1	80.0	2	0	[]
8292	2	2	8	60.0	2	0	[]
8295	1	1	2	60.0	2	0	[]
8297	5	1	8	60.0	2	0	[]
8301	3	12	16	200.0	2	0	[]
8302	1	1	2	60.0	2	0	[]
8304	2	1	3	200.0	2	0	[]
8310	2	3	8	60.0	2	0	[]
8313	10	1	8	60.0	2	2	[(798, 0), (6023, 0)]
8315	8	1	8	60.0	2	0	[]
8319	2	1	8	60.0	2	0	[]
8321	2	5	8	60.0	2	0	[]
8325	2	4	8	60.0	2	0	[]
8328	15	3	8	60.0	2	1	[(798, 0)]
8330	1	1	8	60.0	2	0	[]
8332	2	1	3	60.0	2	0	[]
8344	2	1	8	60.0	2	0	[]
8345	2	1	8	60.0	2	0	[]
8350	1	4	8	60.0	2	0	[]
8363	7	1	8	60.0	2	0	[]
8375	5	1	8	60.0	2	0	[]
8376	2	1	8	60.0	2	0	[]
8391	3	1	8	60.0	2	0	[]
8403	2	4	8	60.0	2	0	[]
8407	7	2	8	60.0	2	0	[]
8408	4	1	8	60.0	2	0	[]
8413	4	2	8	60.0	2	0	[]
8415	2	1	8	60.0	2	0	[]
8419	3	1	8	60.0	2	0	[]
8421	1	4	8	60.0	2	0	[]
8424	2	1	8	60.0	2	0	[]
8425	1	1	6	60.0	2	0	[]
8426	4	1	6	60.0	2	0	[]
8427	2	1	6	60.0	2	0	[]
8428	2	2	16	150.0	2	0	[]
8431	1	1	8	60.0	2	0	[]
8432	2	1	8	60.0	2	0	[]
8433	2	1	4	60.0	2	0	[]
8443	6	6	7	60.0	2	0	[]
8445	2	1	8	60.0	2	0	[]
8446	4	2	8	60.0	2	0	[]
8447	1	1	8	60.0	2	0	[]
8452	2	1	8	60.0	2	0	[]
8455	2	1	8	60.0	2	0	[]
8456	1	1	8	60.0	2	0	[]
8461	1	8	16	100.0	2	0	[]
8463	4	1	8	60.0	2	0	[]
8465	10	3	8	60.0	2	0	[]
8469	2	1	2	60.0	2	0	[]
8472	2	4	8	60.0	2	0	[]
8473	3	1	2	60.0	2	0	[]
8476	50	6	8	60.0	2	1	[(6659, 0)]
8484	8	2	8	60.0	2	1	[(6659, 0)]
8488	1	1	8	60.0	2	0	[]
8494	3	1	8	60.0	2	0	[]
8496	3	1	8	60.0	2	0	[]
8500	28	4	8	40.0	0	3	[(4471, 2), (6659, 0), (1059, 2)]
8502	6	2	8	60.0	2	1	[(798, 0)]
8504	2	1	8	60.0	2	0	[]
8506	1	1	8	40.0	2	0	[]
8510	2	1	8	60.0	2	0	[]
8512	2	2	8	60.0	2	0	[]
8514	2	1	7	60.0	2	0	[]
8518	1	1	8	60.0	2	0	[]
8519	2	2	8	60.0	2	0	[]
8533	1	1	8	60.0	2	0	[]
8544	2	2	8	60.0	2	0	[]
8546	2	1	8	60.0	2	0	[]
8553	7	1	8	40.0	2	7	[(5740, 0), (9086, 0), (798, 0), (7155, 0), (1051, 0), (8500, 0), (281, 0)]
8555	3	6	8	60.0	2	0	[]
8559	2	32	128	600.0	2	0	[]
8564	4	4	8	60.0	2	0	[]
8567	2	1	7	60.0	2	0	[]
8569	24	1	8	60.0	2	0	[]
8572	1	1	8	60.0	2	0	[]
8573	1	1	8	60.0	2	0	[]
8575	2	1	8	60.0	2	0	[]
8579	3	1	8	60.0	2	0	[]
8585	2	1	4	60.0	2	0	[]
8587	2	8	16	60.0	2	15	[(5420, 3), (6659, 0), (4661, 3), (3942, 2), (6683, 2), (9031, 2), (6381, 3), (4014, 2), (6185, 2), (273, 2), (2175, 3), (4011, 2), (6429, 2), (4630, 2), (7555, 3)]
8589	1	16	32	60.0	0	0	[]
8591	1	4	10	40.0	2	0	[]
8593	2	2	8	60.0	2	1	[(8061, 2)]
8594	2	1	8	60.0	2	0	[]
8598	2	1	1	60.0	2	1	[(6337, 2)]
8599	1	1	8	60.0	2	0	[]
8601	1	4	8	80.0	2	0	[]
8603	1	1	8	60.0	2	0	[]
8616	5	1	2	80.0	2	0	[]
8630	2	1	8	60.0	2	0	[]
8633	2	1	2	60.0	2	0	[]
8654	1	1	8	60.0	2	0	[]
8656	3	2	8	60.0	2	0	[]
8663	4	2	8	60.0	2	0	[]
8664	3	1	8	60.0	2	0	[]
8675	2	4	8	60.0	2	0	[]
8678	2	1	8	40.0	2	0	[]
8681	2	1	8	60.0	2	1	[(135, 1)]
8682	2	1	8	60.0	2	0	[]
8685	2	1	8	60.0	2	0	[]
8693	1	1	2	60.0	2	0	[]
8695	11	1	8	100.0	2	0	[]
8696	2	1	8	60.0	2	0	[]
8701	2	2	8	60.0	2	0	[]
8702	2	1	7	60.0	2	0	[]
8704	2	4	8	60.0	2	0	[]
8705	3	2	8	60.0	2	0	[]
8713	8	1	4	60.0	2	0	[]
8714	1	4	8	60.0	2	0	[]
8724	2	1	8	60.0	2	0	[]
8725	13	1	8	60.0	2	0	[]
8726	4	1	8	200.0	2	0	[]
8728	2	4	8	80.0	2	0	[]
8732	3	1	8	60.0	2	0	[]
8741	3	4	8	60.0	2	0	[]
8742	3	1	8	60.0	2	2	[(7024, 1), (798, 0)]
8746	2	1	1	60.0	2	0	[]
8747	2	1	8	60.0	2	0	[]
8749	4	1	8	60.0	2	2	[(798, 0), (5871, 1)]
8750	2	1	8	60.0	2	0	[]
8755	2	1	8	60.0	2	0	[]
8761	3	4	8	60.0	2	0	[]
8762	2	1	2	60.0	2	0	[]
8764	1	1	1	60.0	2	0	[]
8769	1	1	16	60.0	0	0	[]
8774	25	6	8	60.0	2	1	[(798, 0)]
8775	2	1	8	60.0	2	0	[]
8780	2	1	2	60.0	2	0	[]
8783	8	1	8	60.0	2	1	[(1059, 2)]
8788	2	1	8	60.0	2	0	[]
8792	2	3	8	60.0	2	0	[]
8793	1	1	2	60.0	2	0	[]
8802	2	4	8	60.0	2	0	[]
8804	1	1	2	60.0	2	0	[]
8809	2	1	8	60.0	2	0	[]
8811	2	1	8	60.0	2	0	[]
8814	2	1	8	60.0	2	0	[]
8821	5	1	8	60.0	2	0	[]
8824	3	4	10	60.0	2	1	[(6659, 0)]
8829	2	1	8	60.0	2	0	[]
8831	1	1	8	60.0	2	0	[]
8837	8	2	8	60.0	2	0	[]
8848	14	3	16	80.0	2	0	[]
8850	2	1	8	60.0	2	0	[]
8853	2	1	2	60.0	2	0	[]
8856	3	1	8	60.0	2	0	[]
8857	1	2	8	60.0	2	0	[]
8858	1	1	8	60.0	2	0	[]
8859	5	1	8	60.0	2	0	[]
8867	2	1	7	60.0	2	0	[]
8869	1	6	8	60.0	2	0	[]
8873	2	4	8	60.0	2	0	[]
8875	1	1	8	60.0	2	0	[]
8880	2	1	8	60.0	2	0	[]
8889	2	1	8	60.0	2	0	[]
8893	2	1	8	60.0	2	0	[]
8895	1	4	8	60.0	2	0	[]
8902	1	1	8	60.0	0	1	[(2767, 2)]
8904	24	4	8	60.0	2	1	[(2701, 0)]
8907	4	2	8	60.0	2	0	[]
8908	2	1	8	60.0	2	0	[]
8918	2	1	8	60.0	2	0	[]
8920	5	1	8	60.0	2	0	[]
8925	2	2	8	60.0	2	0	[]
8931	56	3	8	40.0	2	2	[(5541, 0), (5490, 0)]
8932	1	6	8	60.0	2	0	[]
8936	2	1	8	60.0	2	2	[(4318, 1), (1537, 0)]
8942	4	1	8	60.0	2	0	[]
8944	4	3	8	60.0	2	0	[]
8946	6	2	8	60.0	2	0	[]
8960	1	1	8	60.0	2	0	[]
8963	1	1	1	60.0	2	0	[]
8971	8	1	2	60.0	2	0	[]
8972	5	6	8	60.0	2	0	[]
8973	2	1	8	60.0	2	0	[]
8981	1	1	8	60.0	2	0	[]
8988	1	1	8	60.0	2	0	[]
8990	3	1	2	60.0	2	0	[]
8999	1	1	1	60.0	2	0	[]
9000	1	1	2	60.0	2	0	[]
9001	1	1	8	60.0	2	0	[]
9004	1	4	8	60.0	2	0	[]
9023	2	1	8	60.0	2	0	[]
9031	1	3	32	60.0	2	15	[(4661, 2), (8587, 2), (3942, 2), (6381, 2), (4520, 2), (4014, 2), (6185, 2), (273, 1), (5420, 2), (2175, 2), (6385, 2), (7555, 2), (3321, 1), (4630, 2), (8162, 1)]
9036	2	1	7	60.0	2	0	[]
9037	5	1	8	60.0	2	0	[]
9045	1	1	8	60.0	2	0	[]
9046	4	2	2	60.0	2	3	[(7196, 0), (3327, 0), (798, 0)]
9049	99	2	8	60.0	2	2	[(4341, 0), (3637, 0)]
9055	1	4	8	60.0	2	0	[]
9056	1	1	3	60.0	2	0	[]
9057	3	2	8	60.0	2	0	[]
9059	4	7	3	60.0	2	0	[]
9073	2	4	8	60.0	2	0	[]
9075	9	2	8	60.0	2	0	[]
9085	2	2	8	60.0	2	0	[]
9086	23	3	8	60.0	2	2	[(8931, 0), (798, 0)]
9088	1	1	8	60.0	2	0	[]
9091	7	5	8	60.0	2	0	[]
9097	2	1	8	60.0	2	0	[]
9109	3	1	8	60.0	2	0	[]
9110	7	1	8	60.0	2	1	[(798, 0)]
9115	1	1	3	60.0	2	0	[]
9122	45	3	16	60.0	0	0	[]
9123	4	1	8	60.0	2	0	[]
9124	1	1	1	60.0	2	0	[]
9129	1	1	8	60.0	2	0	[]
9133	8	1	1	60.0	2	0	[]
9134	2	1	8	60.0	2	0	[]
9135	1	2	3	60.0	2	0	[]
9137	1	1	8	60.0	2	0	[]
9141	2	1	8	60.0	2	0	[]
9152	4	1	15	100.0	2	0	[]
9153	2	1	8	60.0	2	0	[]
9156	25	4	8	60.0	2	6	[(6659, 0), (7338, 0), (2767, 2), (6104, 0), (3321, 1), (798, 0)]
9163	86	12	16	200.0	2	5	[(6962, 1), (1165, 0), (536, 0), (7426, 0), (6659, 0)]
9175	1	1	2	60.0	2	0	[]
9179	2	1	8	60.0	2	0	[]
9180	5	2	8	60.0	2	0	[]
9183	1	1	8	60.0	2	0	[]
9187	4	1	2	60.0	2	0	[]
9198	1	2	16	60.0	0	0	[]
9204	6	1	8	60.0	2	0	[]
9214	2	1	8	60.0	2	1	[(6710, 2)]
9216	5	2	8	60.0	2	1	[(3845, 0)]
9219	5	3	8	60.0	2	0	[]
9225	1	1	7	60.0	2	0	[]
9235	2	2	2	60.0	2	0	[]
9244	3	1	8	60.0	2	0	[]
9245	1	1	8	60.0	2	0	[]
9257	4	2	8	60.0	2	0	[]
9261	1	1	8	60.0	2	0	[]
9262	2	1	8	60.0	2	0	[]
9266	2	1	8	60.0	2	0	[]
9272	3	1	8	60.0	2	0	[]
9284	2	1	2	60.0	2	0	[]
9286	10	1	16	60.0	2	1	[(6758, 1)]
9287	1	4	16	80.0	2	0	[]
9291	1	4	8	60.0	2	0	[]
9297	25	2	8	60.0	2	1	[(798, 0)]
9307	2	6	8	60.0	2	0	[]
9309	1	4	8	60.0	2	0	[]
9311	2	1	2	60.0	2	0	[]
9316	2	1	2	60.0	2	0	[]
9319	4	2	8	60.0	2	0	[]
9328	13	6	8	100.0	2	2	[(7833, 2), (693, 2)]
9335	1	5	8	60.0	2	0	[]
