app_id	nb_instances	core	memory	disk	intra_value	inter_degree	inter_aff
2	1	1	8	60.0	2	0	[]
3	4	1	8	60.0	2	0	[]
7	1	1	8	60.0	2	0	[]
12	2	1	8	60.0	2	0	[]
17	2	1	8	60.0	2	0	[]
18	6	1	8	60.0	2	0	[]
22	78	10	16	60.0	2	8	[(6659, 0), (6161, 0), (2082, 0), (8653, 0), (4998, 0), (8221, 0), (615, 0), (5172, 0)]
23	2	1	8	60.0	2	0	[]
24	2	2	8	60.0	2	0	[]
29	2	1	8	60.0	2	0	[]
30	4	2	4	1024.0	2	0	[]
33	1	1	8	60.0	2	0	[]
34	12	1	8	60.0	2	0	[]
35	2	1	8	60.0	2	0	[]
36	1	4	8	60.0	2	0	[]
37	2	1	8	60.0	2	0	[]
38	5	1	8	60.0	2	0	[]
39	2	1	8	80.0	2	0	[]
40	3	6	8	60.0	2	0	[]
44	2	1	8	60.0	2	0	[]
46	2	1	4	60.0	2	0	[]
54	3	1	8	60.0	2	0	[]
56	5	1	8	60.0	2	0	[]
63	4	1	8	60.0	2	0	[]
65	7	1	8	60.0	2	0	[]
66	3	4	8	60.0	2	0	[]
78	2	1	8	60.0	2	0	[]
83	2	2	2	60.0	2	0	[]
85	3	6	8	60.0	2	0	[]
86	2	1	8	60.0	2	1	[(7401, 1)]
87	4	1	8	60.0	2	0	[]
88	5	1	8	60.0	2	0	[]
94	1	1	1	60.0	2	0	[]
95	2	2	2	60.0	2	0	[]
99	1	1	8	60.0	2	0	[]
102	1	1	8	60.0	2	0	[]
106	1	10	8	60.0	2	0	[]
111	2	1	8	60.0	2	0	[]
113	1	1	8	60.0	2	0	[]
114	1	1	8	60.0	2	0	[]
117	1	4	4	60.0	2	0	[]
119	1	2	2	60.0	2	0	[]
120	7	1	8	60.0	2	0	[]
121	5	1	8	60.0	2	0	[]
129	2	3	8	60.0	2	0	[]
139	2	1	6	60.0	2	0	[]
149	2	1	8	60.0	2	0	[]
153	2	1	8	60.0	2	0	[]
157	2	1	2	60.0	2	0	[]
158	2	1	8	60.0	2	0	[]
162	1	1	7	60.0	2	0	[]
166	2	1	5	60.0	2	0	[]
169	6	1	8	60.0	2	0	[]
170	2	1	2	60.0	2	0	[]
172	2	1	3	60.0	2	0	[]
181	1	1	1	60.0	2	1	[(5457, 0)]
183	9	3	8	80.0	2	0	[]
184	1	4	8	60.0	2	0	[]
187	5	2	8	60.0	2	0	[]
188	20	23	48	60.0	2	3	[(8412, 0), (7333, 0), (3370, 0)]
195	3	1	2	60.0	2	0	[]
197	2	2	8	60.0	2	0	[]
200	1	4	8	60.0	2	0	[]
202	4	1	16	80.0	2	0	[]
203	1	1	8	60.0	2	0	[]
210	4	1	8	60.0	2	0	[]
216	3	1	8	60.0	2	0	[]
221	1	1	1	60.0	2	0	[]
225	2	2	8	60.0	2	0	[]
226	10	4	8	60.0	2	28	[(8530, 0), (7879, 0), (1328, 0), (1773, 0), (3464, 0), (615, 0), (1425, 0), (5740, 0), (6750, 0), (8287, 0), (4576, 0), (3657, 0), (365, 0), (1998, 0), (7928, 0), (4393, 0), (8653, 0), (6161, 0), (8412, 0), (1637, 0), (7270, 0), (9047, 0), (9086, 0), (8258, 0), (3994, 0), (7058, 0), (5684, 0), (1443, 0)]
229	2	1	3	60.0	2	0	[]
230	2	1	8	60.0	2	0	[]
231	1	8	16	40.0	2	0	[]
239	1	1	8	60.0	2	0	[]
240	1	4	8	60.0	2	0	[]
241	1	1	6	60.0	2	0	[]
244	4	3	8	60.0	2	0	[]
249	1	1	8	60.0	2	0	[]
251	1	1	8	60.0	2	0	[]
254	3	1	8	60.0	2	0	[]
255	38	5	16	60.0	1	16	[(7716, 1), (6082, 1), (6831, 1), (5135, 2), (1328, 2), (2851, 2), (6683, 1), (7392, 1), (1637, 2), (4014, 1), (273, 2), (4037, 1), (3928, 1), (3270, 1), (1998, 2), (6060, 2)]
256	2	2	8	60.0	2	1	[(5020, 1)]
257	1	3	8	60.0	2	0	[]
266	1	8	16	100.0	2	0	[]
268	3	4	8	60.0	2	0	[]
273	1	16	60	60.0	2	16	[(7716, 2), (6082, 1), (7045, 2), (6831, 2), (5135, 2), (255, 2), (1328, 2), (7392, 2), (4014, 2), (4037, 2), (3928, 2), (6385, 2), (3270, 2), (6683, 2), (6060, 2), (4710, 2)]
276	1	5	8	60.0	3	0	[]
295	2	1	8	60.0	2	0	[]
301	21	12	16	200.0	2	0	[]
302	8	12	16	100.0	2	0	[]
306	4	1	8	60.0	2	0	[]
307	11	1	8	60.0	2	0	[]
311	3	1	8	60.0	2	0	[]
317	6	2	8	60.0	2	0	[]
330	2	1	10	40.0	2	0	[]
335	2	1	1	60.0	2	0	[]
337	1	1	7	60.0	2	0	[]
343	2	6	8	60.0	2	0	[]
344	17	2	8	60.0	2	0	[]
348	2	1	8	60.0	2	0	[]
352	1	1	1	60.0	2	0	[]
354	6	1	8	60.0	2	1	[(6659, 0)]
355	106	11	16	100.0	2	5	[(5339, 2), (1099, 1), (916, 1), (426, 0), (4937, 2)]
356	2	1	2	60.0	2	0	[]
359	3	3	48	300.0	2	0	[]
361	4	1	8	60.0	2	0	[]
364	2	5	8	60.0	2	0	[]
365	25	2	2	200.0	2	1	[(6659, 0)]
367	4	1	8	60.0	2	0	[]
369	4	2	8	60.0	2	0	[]
371	5	1	8	60.0	2	0	[]
378	2	1	8	60.0	2	0	[]
380	2	1	8	60.0	2	0	[]
388	3	1	1	60.0	2	0	[]
390	2	2	8	60.0	2	0	[]
391	4	1	8	60.0	2	0	[]
398	2	1	1	60.0	2	0	[]
399	2	1	8	60.0	2	0	[]
401	15	4	8	60.0	2	0	[]
406	2	4	8	60.0	2	0	[]
409	2	3	8	60.0	2	0	[]
411	5	1	8	100.0	2	0	[]
416	8	2	8	60.0	2	0	[]
419	5	1	8	60.0	2	0	[]
420	2	2	5	60.0	2	0	[]
426	1	1	8	60.0	2	0	[]
435	25	1	8	80.0	2	0	[]
439	1	1	2	60.0	2	0	[]
449	15	3	16	60.0	1	0	[]
459	13	1	8	60.0	2	2	[(121, 0), (725, 0)]
461	1	1	2	80.0	2	10	[(4965, 0), (1715, 0), (5456, 0), (6217, 0), (1871, 0), (634, 0), (6939, 0), (6075, 0), (9324, 0), (3722, 0)]
468	6	1	8	60.0	2	0	[]
469	2	1	2	200.0	2	0	[]
478	2	1	8	60.0	2	0	[]
480	3	3	8	60.0	2	0	[]
486	2	1	6	60.0	2	0	[]
492	2	1	8	60.0	2	0	[]
493	6	1	8	60.0	2	0	[]
500	3	2	16	200.0	2	0	[]
507	3	2	8	60.0	2	0	[]
524	1	1	8	60.0	2	0	[]
526	3	1	8	60.0	2	0	[]
529	2	1	8	60.0	2	1	[(4085, 2)]
533	15	1	8	60.0	2	2	[(3757, 2), (1046, 1)]
534	2	1	8	60.0	2	0	[]
535	4	2	8	60.0	2	0	[]
536	51	2	8	167.0	2	72	[(6334, 0), (6683, 0), (7768, 0), (1031, 0), (1447, 0), (1705, 0), (365, 0), (6708, 0), (7058, 0), (3464, 0), (2917, 0), (4393, 0), (1425, 0), (6047, 0), (6325, 0), (4819, 0), (1927, 0), (459, 0), (5411, 0), (9188, 0), (2850, 0), (7414, 0), (4373, 0), (9228, 0), (5740, 0), (1788, 0), (793, 0), (1998, 0), (7778, 0), (3253, 0), (854, 0), (6710, 0), (4576, 1), (3178, 0), (3721, 0), (3654, 0), (369, 0), (8698, 0), (3559, 0), (8139, 0), (22, 0), (6161, 2), (2082, 0), (1328, 0), (7889, 0), (8722, 0), (5684, 0), (5313, 0), (5995, 0), (1746, 0), (1405, 0), (3349, 0), (3994, 0), (685, 0), (188, 0), (95, 0), (6659, 0), (6188, 0), (5071, 0), (585, 0), (1093, 0), (3571, 0), (3802, 0), (2767, 0), (2033, 0), (3077, 0), (5470, 0), (7067, 0), (7928, 0), (7578, 0), (1464, 0), (1443, 0)]
538	2	1	8	60.0	2	0	[]
542	1	1	8	60.0	2	0	[]
548	2	2	8	60.0	2	0	[]
557	2	1	8	60.0	2	0	[]
558	4	2	8	60.0	2	0	[]
559	1	1	8	60.0	2	0	[]
562	33	2	8	60.0	2	3	[(5522, 0), (7889, 0), (1624, 0)]
563	2	1	8	60.0	2	0	[]
564	2	1	8	60.0	2	0	[]
568	3	1	8	60.0	2	0	[]
585	75	3	8	40.0	2	4	[(5740, 0), (8221, 0), (1062, 0), (6659, 0)]
586	6	3	8	60.0	2	0	[]
589	5	2	8	60.0	2	2	[(8221, 0), (2850, 0)]
591	1	1	2	60.0	2	0	[]
592	1	16	32	200.0	2	0	[]
594	2	1	8	60.0	2	0	[]
595	3	5	8	60.0	2	0	[]
596	3	1	8	60.0	2	1	[(1509, 2)]
598	3	1	8	60.0	2	0	[]
601	4	1	8	60.0	2	0	[]
608	5	1	8	60.0	2	0	[]
609	1	1	8	60.0	2	0	[]
613	13	6	8	60.0	2	0	[]
615	14	2	8	60.0	2	0	[]
618	53	2	8	60.0	2	9	[(4998, 2), (4797, 0), (9228, 0), (1287, 2), (3654, 2), (2033, 0), (7426, 0), (4996, 2), (1788, 0)]
620	2	2	4	60.0	2	0	[]
626	100	2	8	60.0	2	16	[(6334, 0), (3982, 0), (8653, 0), (6474, 2), (401, 0), (1328, 0), (4866, 0), (3077, 0), (7880, 0), (738, 0), (5411, 0), (6003, 0), (1405, 0), (7067, 0), (3994, 0), (3590, 0)]
628	4	1	8	60.0	2	0	[]
629	2	1	8	60.0	2	0	[]
633	4	1	8	60.0	2	0	[]
634	2	2	8	60.0	2	5	[(1509, 0), (2940, 0), (5490, 0), (8287, 0), (4698, 0)]
641	2	1	8	60.0	2	0	[]
644	1	2	8	60.0	2	0	[]
645	1	1	8	60.0	2	0	[]
649	1	1	2	60.0	2	0	[]
650	5	1	2	60.0	2	0	[]
651	2	1	8	60.0	2	0	[]
653	2	1	8	60.0	2	0	[]
655	26	1	8	40.0	2	1	[(5490, 0)]
660	1	2	8	40.0	0	0	[]
664	6	1	8	60.0	2	0	[]
668	4	5	8	60.0	2	1	[(426, 2)]
675	1	4	8	60.0	2	0	[]
676	1	1	8	60.0	2	0	[]
677	1	11	16	80.0	2	0	[]
678	1	1	8	60.0	2	0	[]
684	2	1	8	60.0	2	0	[]
685	6	1	3	40.0	2	0	[]
686	1	4	8	60.0	2	0	[]
689	5	6	8	60.0	2	0	[]
690	2	1	8	60.0	2	0	[]
691	1	1	6	60.0	2	0	[]
694	1	1	5	60.0	2	0	[]
697	2	1	8	60.0	2	0	[]
703	8	1	8	60.0	2	0	[]
705	1	1	8	60.0	2	0	[]
710	3	1	8	60.0	2	0	[]
713	2	1	8	60.0	2	0	[]
715	4	1	8	60.0	2	0	[]
717	1	2	8	60.0	2	0	[]
720	8	1	8	60.0	2	0	[]
721	1	1	8	60.0	2	0	[]
723	1	1	2	60.0	2	0	[]
725	25	1	8	60.0	2	6	[(5747, 0), (6619, 0), (2917, 0), (8433, 0), (8435, 0), (6671, 0)]
733	2	1	8	60.0	2	0	[]
738	8	1	8	60.0	2	0	[]
743	1	4	8	60.0	2	0	[]
744	2	4	8	60.0	2	0	[]
747	4	2	8	60.0	2	0	[]
748	2	1	1	60.0	2	0	[]
749	2	4	8	60.0	2	0	[]
755	6	12	16	60.0	2	0	[]
761	1	4	8	80.0	2	0	[]
765	2	2	16	40.0	2	0	[]
766	4	3	8	60.0	2	0	[]
769	12	4	2	100.0	2	0	[]
773	5	1	8	60.0	2	0	[]
781	2	3	8	60.0	2	0	[]
782	319	6	8	60.0	2	6	[(6659, 0), (1983, 0), (276, 0), (8653, 0), (5856, 0), (536, 0)]
784	1	1	8	40.0	2	0	[]
785	2	1	1	60.0	2	0	[]
788	5	4	8	60.0	2	0	[]
793	15	2	2	60.0	2	0	[]
795	6	4	16	100.0	2	0	[]
801	1	4	8	60.0	2	0	[]
802	1	4	8	60.0	2	0	[]
804	5	4	8	60.0	2	3	[(4085, 2), (8138, 1), (1361, 2)]
809	1	1	8	60.0	2	0	[]
813	1	1	8	60.0	2	0	[]
818	1	1	2	60.0	2	0	[]
819	3	1	8	80.0	2	0	[]
822	1	4	8	100.0	2	0	[]
826	2	1	2	60.0	2	0	[]
829	7	1	8	60.0	2	1	[(4769, 0)]
833	3	1	8	60.0	2	0	[]
834	1	1	1	60.0	2	0	[]
835	7	2	8	60.0	2	0	[]
838	5	1	8	60.0	2	0	[]
848	2	1	8	60.0	2	0	[]
850	3	1	8	60.0	2	0	[]
852	3	2	8	60.0	2	0	[]
854	26	9	2	60.0	2	1	[(6659, 0)]
857	7	6	8	60.0	2	0	[]
860	2	1	8	60.0	2	0	[]
861	3	6	8	60.0	2	0	[]
864	4	2	8	60.0	2	0	[]
865	4	3	8	60.0	2	0	[]
867	1	1	8	60.0	2	0	[]
868	2	1	8	60.0	2	0	[]
870	2	4	8	60.0	2	0	[]
873	3	2	8	60.0	2	0	[]
891	2	1	8	60.0	2	0	[]
893	1	1	8	60.0	2	0	[]
894	9	3	8	60.0	2	1	[(3654, 0)]
898	2	1	2	60.0	2	0	[]
899	2	1	8	60.0	2	0	[]
914	2	1	2	60.0	2	0	[]
916	2	1	8	60.0	2	0	[]
917	2	2	8	60.0	2	0	[]
918	3	1	8	60.0	2	0	[]
919	1	1	8	60.0	2	0	[]
920	4	2	8	200.0	2	2	[(8138, 2), (7889, 1)]
925	1	1	8	60.0	2	0	[]
927	1	1	8	60.0	2	0	[]
932	1	1	8	100.0	2	0	[]
936	65	4	8	60.0	2	2	[(6659, 0), (7270, 2)]
939	1	2	8	40.0	1	0	[]
940	20	3	8	60.0	2	0	[]
942	23	2	8	80.0	2	0	[]
944	1	1	8	60.0	2	0	[]
952	41	3	8	40.0	2	3	[(6250, 1), (95, 0), (8653, 0)]
958	66	3	8	60.0	2	4	[(8720, 2), (4911, 2), (7066, 2), (2143, 2)]
972	7	2	8	60.0	2	0	[]
975	20	36	48	300.0	2	0	[]
977	2	1	3	60.0	2	0	[]
978	5	1	16	80.0	2	0	[]
984	2	2	8	60.0	2	0	[]
986	2	1	8	60.0	2	0	[]
988	2	1	8	80.0	2	0	[]
992	1	4	8	60.0	2	0	[]
994	5	1	7	60.0	2	0	[]
998	10	4	8	60.0	2	0	[]
1000	2	1	8	80.0	2	0	[]
1001	3	1	8	60.0	2	0	[]
1002	6	3	8	80.0	2	1	[(6659, 0)]
1004	3	1	8	60.0	2	0	[]
1022	2	1	8	60.0	2	0	[]
1026	12	4	8	60.0	2	1	[(9324, 1)]
1028	1	1	1	60.0	2	0	[]
1030	1	2	8	60.0	2	0	[]
1031	6	2	2	60.0	2	0	[]
1033	4	1	8	60.0	2	0	[]
1036	4	4	8	300.0	2	0	[]
1037	2	1	8	60.0	2	0	[]
1046	44	4	32	100.0	2	0	[]
1054	1	3	8	60.0	2	0	[]
1057	4	1	8	60.0	2	0	[]
1062	1	2	8	60.0	2	1	[(585, 2)]
1068	2	1	8	60.0	2	0	[]
1070	4	1	2	60.0	2	0	[]
1077	3	1	8	60.0	2	4	[(6237, 2), (1026, 1), (6256, 2), (4002, 2)]
1081	1	1	1	60.0	2	0	[]
1087	2	1	2	60.0	2	0	[]
1092	1	1	8	60.0	2	0	[]
1093	3	1	8	60.0	2	0	[]
1096	15	2	8	60.0	2	0	[]
1099	15	1	2	60.0	2	0	[]
1102	2	1	8	60.0	2	0	[]
1108	2	1	8	60.0	2	0	[]
1114	1	4	8	60.0	0	0	[]
1119	3	5	8	100.0	2	0	[]
1125	1	36	30	300.0	2	0	[]
1126	2	1	8	100.0	2	0	[]
1128	2	1	8	60.0	2	0	[]
1129	2	1	8	60.0	2	0	[]
1131	2	1	8	60.0	2	0	[]
1133	1	1	8	60.0	2	0	[]
1137	1	1	8	60.0	2	0	[]
1139	2	1	7	60.0	2	0	[]
1141	1	1	8	60.0	2	0	[]
1142	1	4	8	60.0	2	0	[]
1143	3	1	7	60.0	2	0	[]
1162	2	1	8	60.0	2	1	[(5256, 0)]
1163	11	3	8	60.0	2	4	[(3022, 0), (5082, 2), (149, 0), (6858, 0)]
1166	2	1	8	60.0	2	0	[]
1168	2	4	8	60.0	2	0	[]
1174	3	1	8	60.0	2	0	[]
1175	4	1	8	60.0	2	0	[]
1179	1	1	8	60.0	2	0	[]
1181	1	1	8	60.0	2	0	[]
1183	1	4	8	60.0	2	0	[]
1189	3	1	8	60.0	2	0	[]
1190	4	2	8	60.0	2	0	[]
1194	3	1	8	60.0	2	0	[]
1196	3	1	8	100.0	2	0	[]
1197	6	2	8	60.0	2	0	[]
1199	1	1	8	60.0	2	0	[]
1201	12	6	8	60.0	2	1	[(6597, 0)]
1202	1	1	8	60.0	2	0	[]
1224	12	3	8	60.0	2	0	[]
1226	2	2	2	60.0	2	0	[]
1230	1	4	8	60.0	2	0	[]
1237	5	1	8	60.0	2	0	[]
1241	3	1	8	60.0	2	0	[]
1244	2	1	8	60.0	2	0	[]
1247	4	1	8	60.0	2	0	[]
1251	3	1	8	60.0	2	1	[(8979, 1)]
1260	2	1	15	200.0	2	0	[]
1261	1	1	8	60.0	2	0	[]
1265	1	1	8	60.0	2	0	[]
1269	1	1	8	60.0	2	0	[]
1270	3	1	3	60.0	2	0	[]
1271	2	4	8	60.0	2	0	[]
1280	2	1	8	60.0	2	0	[]
1282	1	1	1	60.0	2	0	[]
1284	2	1	8	60.0	2	0	[]
1287	13	1	8	60.0	2	1	[(6659, 0)]
1288	16	2	8	60.0	2	0	[]
1291	4	1	8	60.0	2	0	[]
1293	2	4	8	60.0	2	0	[]
1295	2	1	8	60.0	2	0	[]
1297	1	1	8	60.0	2	0	[]
1303	2	1	8	60.0	2	0	[]
1306	1	4	8	60.0	2	0	[]
1307	2	1	8	60.0	2	0	[]
1321	3	1	8	60.0	2	0	[]
1322	4	4	8	60.0	2	0	[]
1327	2	1	8	60.0	2	0	[]
1328	130	12	16	60.0	2	18	[(7716, 2), (4037, 2), (6659, 0), (5135, 3), (2851, 2), (6831, 2), (8221, 0), (7392, 2), (7261, 0), (9047, 0), (1637, 2), (4014, 2), (273, 2), (3370, 0), (3928, 2), (3270, 2), (6683, 2), (6060, 3)]
1330	6	1	8	60.0	2	0	[]
1333	10	1	8	60.0	2	0	[]
1334	2	1	8	60.0	2	0	[]
1339	2	1	8	60.0	2	0	[]
1352	4	3	8	60.0	2	0	[]
1355	1	1	8	60.0	2	0	[]
1359	2	4	8	80.0	2	0	[]
1361	7	1	8	60.0	2	1	[(2917, 0)]
1368	1	1	8	60.0	2	0	[]
1370	1	4	16	80.0	2	0	[]
1373	7	3	7	60.0	2	1	[(4769, 0)]
1374	10	1	8	60.0	2	1	[(4911, 0)]
1375	3	4	8	60.0	2	0	[]
1376	2	4	8	60.0	2	0	[]
1384	1	1	8	60.0	2	0	[]
1385	2	3	8	60.0	2	0	[]
1390	1	1	8	60.0	2	0	[]
1392	3	1	16	80.0	2	0	[]
1401	3	1	8	60.0	2	0	[]
1403	4	1	8	60.0	2	0	[]
1405	174	6	8	40.0	0	8	[(6683, 0), (6659, 0), (2850, 0), (7333, 0), (2627, 1), (2917, 0), (5740, 0), (2752, 1)]
1407	8	6	8	60.0	2	0	[]
1408	4	1	7	60.0	2	0	[]
1414	13	3	8	60.0	2	0	[]
1420	2	1	32	100.0	2	0	[]
1421	4	1	8	60.0	2	0	[]
1422	1	2	16	100.0	2	0	[]
1424	6	5	8	80.0	2	2	[(3872, 1), (2767, 2)]
1425	39	7	16	200.0	2	1	[(6659, 0)]
1426	10	6	8	100.0	2	1	[(2710, 0)]
1431	5	6	8	60.0	2	0	[]
1433	2	1	8	60.0	2	1	[(1287, 1)]
1443	103	6	8	60.0	0	14	[(6683, 0), (3654, 0), (5265, 2), (8221, 0), (6659, 0), (1447, 0), (7511, 0), (1727, 0), (2033, 0), (4576, 0), (3270, 0), (2220, 2), (1287, 0), (1405, 0)]
1447	33	1	8	60.0	2	1	[(6416, 2)]
1449	10	1	8	60.0	2	1	[(7457, 0)]
1451	1	1	1	60.0	2	0	[]
1452	3	5	8	60.0	2	0	[]
1459	4	2	8	60.0	2	0	[]
1464	8	1	8	40.0	2	3	[(8221, 0), (6659, 0), (8653, 0)]
1467	1	4	8	60.0	2	0	[]
1474	1	1	6	60.0	2	0	[]
1481	2	4	16	60.0	0	0	[]
1482	2	1	8	60.0	2	0	[]
1486	2	1	8	60.0	2	0	[]
1487	2	1	1	60.0	2	0	[]
1490	1	1	8	60.0	2	0	[]
1493	1	4	8	60.0	2	0	[]
1498	2	1	8	60.0	2	0	[]
1500	2	1	8	60.0	2	0	[]
1506	4	2	8	60.0	2	4	[(2533, 0), (5307, 0), (3004, 0), (8607, 0)]
1508	3	1	8	60.0	2	0	[]
1509	151	5	8	60.0	2	13	[(3654, 0), (6659, 0), (7768, 0), (8971, 0), (7333, 0), (1447, 0), (3806, 0), (3802, 0), (8221, 0), (1637, 0), (854, 0), (8938, 0), (8381, 0)]
1513	1	1	8	60.0	2	0	[]
1520	1	1	5	60.0	2	0	[]
1523	12	6	8	60.0	2	1	[(6659, 0)]
1528	1	4	8	60.0	2	0	[]
1530	10	3	8	60.0	2	1	[(3802, 2)]
1533	3	1	8	60.0	2	0	[]
1539	2	1	8	60.0	2	0	[]
1545	2	2	8	60.0	2	0	[]
1547	4	1	8	60.0	2	0	[]
1550	2	1	8	60.0	2	0	[]
1555	2	1	8	60.0	2	0	[]
1561	5	1	8	60.0	2	0	[]
1572	2	1	8	60.0	2	0	[]
1573	1	1	1	60.0	2	0	[]
1574	2	1	7	60.0	2	0	[]
1576	2	1	8	60.0	2	0	[]
1577	1	4	8	60.0	2	0	[]
1580	1	1	8	60.0	2	0	[]
1588	2	4	8	60.0	2	0	[]
1591	1	1	8	60.0	2	0	[]
1594	4	1	2	60.0	2	0	[]
1595	1	1	8	60.0	2	0	[]
1600	1	1	8	60.0	2	0	[]
1601	1	2	16	60.0	2	0	[]
1607	1	1	8	60.0	2	0	[]
1610	1	4	8	60.0	2	0	[]
1614	1	2	8	60.0	2	0	[]
1617	1	4	8	60.0	2	0	[]
1621	2	1	8	60.0	2	0	[]
1624	18	6	8	60.0	2	4	[(3806, 0), (2838, 0), (4543, 0), (6118, 1)]
1628	2	1	2	60.0	2	0	[]
1634	5	6	8	60.0	2	0	[]
1637	137	24	60	60.0	2	19	[(7716, 2), (6082, 1), (6659, 0), (7045, 2), (6831, 2), (5135, 2), (255, 2), (1328, 2), (7392, 2), (4014, 2), (3370, 0), (4037, 2), (3928, 2), (6385, 2), (3270, 2), (5437, 0), (6683, 2), (6060, 2), (4710, 2)]
1639	100	2	8	60.0	2	34	[(8688, 1), (8282, 1), (8002, 1), (8826, 2), (2551, 0), (8290, 2), (4911, 2), (1260, 1), (2480, 0), (1665, 0), (1880, 2), (5605, 2), (8852, 0), (2856, 2), (3000, 1), (2143, 2), (6670, 1), (8412, 2), (5926, 2), (4656, 0), (5271, 0), (6237, 0), (4198, 2), (7091, 0), (7879, 2), (8095, 2), (3388, 2), (4085, 2), (4244, 2), (4652, 2), (2139, 1), (6646, 0), (4996, 2), (3144, 0)]
1643	4	2	8	60.0	2	0	[]
1647	5	2	8	60.0	2	0	[]
1649	1	2	8	60.0	2	0	[]
1650	2	1	8	60.0	2	0	[]
1659	2	1	8	60.0	2	0	[]
1661	2	2	8	60.0	2	0	[]
1665	2	1	8	500.0	2	0	[]
1670	2	1	8	60.0	2	0	[]
1675	2	2	16	60.0	2	0	[]
1682	2	1	1	60.0	2	0	[]
1685	1	1	1	60.0	2	0	[]
1692	1	1	8	60.0	2	0	[]
1698	2	1	1	80.0	2	0	[]
1702	1	1	8	60.0	2	0	[]
1704	1	1	6	60.0	2	0	[]
1705	49	2	8	60.0	2	5	[(5536, 2), (7465, 1), (2473, 2), (6659, 0), (22, 2)]
1713	2	1	8	60.0	2	0	[]
1715	3	1	8	60.0	2	0	[]
1717	1	4	8	60.0	2	1	[(4412, 1)]
1721	2	4	8	60.0	2	0	[]
1726	3	1	8	60.0	2	0	[]
1727	2	6	8	60.0	2	0	[]
1733	8	1	1	60.0	2	0	[]
1740	4	1	8	60.0	2	3	[(7414, 0), (4576, 1), (7511, 2)]
1745	1	4	16	80.0	2	0	[]
1746	13	2	8	60.0	2	4	[(8971, 0), (5436, 0), (782, 0), (4579, 0)]
1754	2	1	8	60.0	2	0	[]
1763	1	2	8	60.0	2	0	[]
1765	1	1	8	60.0	2	0	[]
1767	2	1	2	60.0	2	0	[]
1770	6	3	8	60.0	2	0	[]
1773	11	5	2	60.0	2	0	[]
1774	2	1	8	60.0	2	0	[]
1777	26	12	2	60.0	2	1	[(6659, 0)]
1779	3	6	16	60.0	2	0	[]
1782	14	2	16	60.0	2	0	[]
1784	22	1	8	60.0	2	0	[]
1788	7	6	16	80.0	2	4	[(1983, 1), (562, 2), (2225, 1), (2952, 1)]
1794	1	1	8	60.0	2	0	[]
1797	3	12	16	80.0	2	0	[]
1800	6	2	8	60.0	2	1	[(4863, 1)]
1802	2	1	8	60.0	2	0	[]
1811	1	1	8	60.0	2	0	[]
1812	1	1	8	60.0	2	0	[]
1819	3	1	8	60.0	2	0	[]
1836	4	1	8	60.0	2	0	[]
1838	2	1	8	60.0	2	0	[]
1844	1	1	3	200.0	2	0	[]
1847	1	8	8	60.0	2	0	[]
1854	1	1	8	60.0	2	0	[]
1865	2	1	8	60.0	2	0	[]
1869	3	1	8	60.0	2	0	[]
1871	4	2	8	60.0	2	0	[]
1872	4	2	8	60.0	2	0	[]
1874	3	1	8	60.0	2	0	[]
1875	3	1	8	60.0	2	0	[]
1879	1	36	37	300.0	2	0	[]
1880	2	1	4	60.0	2	0	[]
1884	212	10	16	100.0	2	8	[(4499, 1), (1287, 0), (2850, 0), (6710, 2), (5054, 2), (7348, 0), (6659, 0), (4943, 0)]
1888	2	2	8	60.0	2	0	[]
1890	2	1	2	60.0	2	0	[]
1893	3	1	8	60.0	2	0	[]
1896	1	4	8	60.0	2	0	[]
1897	1	1	8	60.0	2	0	[]
1901	4	1	8	60.0	2	0	[]
1902	1	1	1	60.0	2	0	[]
1915	25	12	16	100.0	2	0	[]
1920	1	1	2	60.0	2	0	[]
1924	1	1	3	60.0	2	0	[]
1927	12	3	2	100.0	2	0	[]
1928	1	1	8	60.0	2	0	[]
1931	2	4	8	60.0	2	0	[]
1933	1	4	16	60.0	2	0	[]
1934	1	1	8	60.0	2	0	[]
1935	1	1	2	60.0	2	0	[]
1938	2	1	8	60.0	2	1	[(6659, 0)]
1939	3	1	8	60.0	2	0	[]
1940	3	1	8	60.0	2	0	[]
1946	3	3	4	200.0	2	0	[]
1952	152	6	8	60.0	2	4	[(6972, 0), (6416, 0), (5522, 0), (4109, 1)]
1953	2	1	8	60.0	2	0	[]
1956	3	1	8	60.0	2	0	[]
1967	2	4	16	80.0	2	0	[]
1968	2	1	8	60.0	2	0	[]
1975	2	1	8	60.0	2	0	[]
1978	5	1	8	60.0	2	0	[]
1979	4	2	8	60.0	2	0	[]
1983	5	2	2	60.0	2	0	[]
1987	8	2	8	60.0	2	1	[(2042, 2)]
1994	2	2	8	60.0	2	0	[]
1998	79	12	16	60.0	2	8	[(8653, 0), (2082, 0), (8287, 0), (8221, 0), (7426, 0), (6261, 0), (5490, 0), (188, 0)]
2002	2	1	8	60.0	2	0	[]
2003	1	1	1	60.0	2	0	[]
2009	1	1	8	60.0	2	0	[]
2010	2	1	2	60.0	2	0	[]
2011	1	8	16	200.0	2	0	[]
2012	1	1	1	600.0	2	0	[]
2015	2	1	2	60.0	2	0	[]
2020	3	2	8	60.0	2	0	[]
2025	1	4	8	60.0	2	0	[]
2027	2	1	8	60.0	2	0	[]
2030	4	1	8	60.0	2	0	[]
2033	94	5	8	60.0	2	16	[(7474, 2), (3574, 0), (4996, 0), (6659, 0), (8412, 0), (585, 0), (9010, 0), (7333, 0), (1777, 0), (1425, 0), (1443, 0), (2551, 2), (2917, 0), (1746, 0), (7067, 0), (4911, 0)]
2036	1	1	8	60.0	2	0	[]
2038	1	1	8	60.0	2	0	[]
2042	1	1	8	60.0	2	0	[]
2043	1	1	8	60.0	2	0	[]
2045	2	1	8	60.0	2	1	[(1328, 2)]
2052	1	1	2	60.0	2	0	[]
2062	1	1	16	100.0	2	0	[]
2067	3	1	8	60.0	2	0	[]
2069	1	1	1	60.0	2	0	[]
2071	2	1	8	60.0	2	0	[]
2072	2	1	8	60.0	2	0	[]
2077	4	1	8	60.0	2	0	[]
2078	9	7	16	100.0	2	1	[(6659, 0)]
2079	3	1	8	60.0	2	0	[]
2082	14	2	8	60.0	2	0	[]
2095	4	3	8	60.0	2	0	[]
2096	2	1	8	60.0	2	0	[]
2101	1	1	48	300.0	2	0	[]
2105	1	1	8	60.0	2	0	[]
2106	1	1	3	60.0	2	0	[]
2110	2	1	8	60.0	2	0	[]
2112	11	2	8	60.0	2	0	[]
2121	1	1	2	60.0	2	0	[]
2122	1	4	8	60.0	2	0	[]
2134	5	1	8	60.0	2	0	[]
2135	2	1	8	60.0	2	0	[]
2136	2	2	8	60.0	2	0	[]
2139	5	1	8	60.0	2	0	[]
2143	24	1	8	60.0	2	1	[(6659, 0)]
2147	6	1	8	250.0	2	0	[]
2148	15	2	8	60.0	2	0	[]
2151	1	1	8	60.0	2	0	[]
2156	2	1	8	60.0	2	0	[]
2163	2	1	8	60.0	2	0	[]
2169	1	2	8	60.0	2	0	[]
2170	2	1	8	60.0	2	0	[]
2176	2	1	2	60.0	2	0	[]
2187	3	1	8	60.0	2	0	[]
2188	8	8	16	80.0	2	0	[]
2190	1	1	1	60.0	2	0	[]
2196	2	1	4	60.0	2	2	[(7013, 0), (2709, 0)]
2217	4	3	8	60.0	2	1	[(8826, 2)]
2220	4	1	8	60.0	2	0	[]
2221	2	1	8	60.0	2	0	[]
2225	2	1	2	60.0	2	0	[]
2228	1	8	16	60.0	2	0	[]
2229	3	1	1	60.0	2	0	[]
2231	17	2	8	60.0	2	3	[(1026, 0), (6980, 1), (3088, 0)]
2233	2	1	8	60.0	2	0	[]
2236	2	4	8	60.0	2	0	[]
2240	2	1	8	60.0	2	0	[]
2250	2	1	8	60.0	2	0	[]
2251	5	2	8	60.0	2	0	[]
2253	1	1	8	60.0	2	0	[]
2255	2	1	8	60.0	2	0	[]
2257	7	2	8	80.0	2	0	[]
2268	2	1	8	60.0	2	0	[]
2269	2	1	7	60.0	2	0	[]
2271	6	1	8	60.0	2	0	[]
2274	4	2	8	40.0	2	1	[(585, 0)]
2275	2	1	8	60.0	2	0	[]
2287	1	1	16	80.0	2	0	[]
2289	4	1	8	60.0	2	0	[]
2294	1	1	1	60.0	2	0	[]
2306	1	1	7	60.0	2	0	[]
2307	1	1	8	60.0	2	5	[(1770, 0), (6374, 0), (5498, 0), (439, 0), (1975, 0)]
2308	1	1	8	60.0	2	0	[]
2309	6	1	8	40.0	2	1	[(8287, 1)]
2311	2	1	8	60.0	2	0	[]
2313	1	1	8	60.0	2	0	[]
2320	1	4	8	60.0	2	0	[]
2326	1	1	2	60.0	2	0	[]
2331	1	1	4	60.0	2	0	[]
2335	1	2	8	40.0	0	0	[]
2336	2	1	1	60.0	2	1	[(8107, 2)]
2339	1	1	8	60.0	2	0	[]
2340	2	4	8	60.0	2	0	[]
2342	5	1	8	60.0	2	1	[(1975, 0)]
2345	4	4	8	60.0	2	0	[]
2346	1	1	8	60.0	2	0	[]
2347	3	1	8	60.0	2	0	[]
2354	3	1	1	60.0	2	0	[]
2356	6	2	8	60.0	2	0	[]
2363	2	1	8	60.0	2	0	[]
2364	1	2	8	60.0	2	0	[]
2366	1	4	8	60.0	2	0	[]
2367	1	4	16	80.0	2	0	[]
2377	1	4	8	60.0	2	0	[]
2383	1	1	8	60.0	2	0	[]
2384	1	1	8	60.0	2	0	[]
2386	1	1	8	60.0	2	0	[]
2387	1	1	8	60.0	2	0	[]
2390	1	1	8	60.0	2	0	[]
2392	1	4	8	60.0	2	0	[]
2395	1	1	7	80.0	2	0	[]
2396	1	1	1	60.0	2	0	[]
2412	1	1	8	60.0	2	0	[]
2421	2	1	6	60.0	2	0	[]
2422	2	4	8	60.0	2	0	[]
2425	2	1	8	60.0	2	0	[]
2426	2	1	8	60.0	2	0	[]
2430	3	4	8	60.0	2	0	[]
2434	4	4	8	60.0	2	0	[]
2437	4	4	8	60.0	2	0	[]
2447	4	2	8	60.0	2	0	[]
2448	4	2	8	100.0	2	0	[]
2449	4	1	8	60.0	2	0	[]
2460	5	1	8	60.0	2	1	[(1702, 2)]
2471	6	5	16	80.0	2	0	[]
2473	6	1	8	60.0	2	0	[]
2474	6	12	16	100.0	2	0	[]
2478	16	1	8	60.0	2	0	[]
2479	17	4	1	100.0	2	0	[]
2480	21	12	16	150.0	2	0	[]
2482	24	2	8	60.0	2	3	[(7287, 2), (5757, 2), (5091, 2)]
2497	10	2	8	60.0	2	1	[(6687, 0)]
2503	9	1	2	60.0	2	0	[]
2509	8	1	8	60.0	2	0	[]
2519	3	4	8	60.0	2	0	[]
2528	2	4	8	60.0	2	0	[]
2531	2	1	10	80.0	2	0	[]
2533	2	1	8	60.0	2	4	[(5307, 0), (1506, 0), (3004, 0), (8607, 0)]
2534	2	1	8	60.0	2	0	[]
2536	2	2	8	60.0	2	1	[(4698, 0)]
2540	2	1	1	80.0	2	0	[]
2548	2	4	8	60.0	2	0	[]
2551	2	1	8	60.0	2	0	[]
2559	2	1	8	60.0	2	0	[]
2569	2	1	8	60.0	2	0	[]
2582	2	1	2	60.0	2	0	[]
2585	1	1	8	60.0	2	0	[]
2586	11	2	8	60.0	2	0	[]
2598	1	1	8	60.0	2	0	[]
2601	2	1	8	60.0	2	0	[]
2604	1	1	8	60.0	2	0	[]
2605	1	1	8	60.0	2	0	[]
2607	4	2	8	60.0	2	0	[]
2608	2	4	8	100.0	2	0	[]
2622	5	1	8	60.0	2	0	[]
2624	1	1	2	60.0	2	0	[]
2626	1	1	8	60.0	2	0	[]
2627	4	1	2	60.0	2	0	[]
2628	5	2	8	60.0	2	0	[]
2632	2	1	7	60.0	2	0	[]
2646	3	3	8	100.0	2	0	[]
2656	2	1	8	60.0	2	0	[]
2658	12	5	8	60.0	2	1	[(3806, 1)]
2661	2	4	8	60.0	2	0	[]
2665	1	1	2	60.0	2	0	[]
2669	2	1	8	60.0	2	0	[]
2676	1	1	1	60.0	2	0	[]
2680	11	2	8	60.0	2	0	[]
2682	4	1	8	100.0	2	0	[]
2685	5	5	8	60.0	2	0	[]
2686	2	1	2	60.0	2	0	[]
2689	1	1	2	60.0	2	0	[]
2692	119	12	16	200.0	2	0	[]
2696	21	6	8	60.0	2	6	[(5747, 0), (6195, 0), (2015, 0), (4734, 0), (8260, 0), (1643, 0)]
2701	27	4	7	60.0	2	0	[]
2704	2	1	8	60.0	2	0	[]
2706	2	1	8	60.0	2	0	[]
2709	4	3	8	60.0	2	0	[]
2710	78	6	10	60.0	0	5	[(7099, 0), (7270, 1), (1987, 0), (8824, 1), (7100, 1)]
2716	10	1	16	60.0	2	0	[]
2719	1	1	8	60.0	2	0	[]
2720	1	1	8	60.0	2	0	[]
2733	1	1	8	60.0	2	0	[]
2735	1	1	8	60.0	2	0	[]
2736	2	1	2	60.0	2	0	[]
2737	2	2	32	80.0	2	0	[]
2743	1	1	8	60.0	2	0	[]
2744	2	1	8	60.0	2	0	[]
2752	1	3	16	60.0	0	0	[]
2753	1	1	8	60.0	2	0	[]
2764	2	6	8	60.0	2	0	[]
2765	7	1	8	60.0	2	0	[]
2767	275	6	8	60.0	2	3	[(7789, 0), (6659, 0), (6161, 2)]
2770	8	2	8	60.0	2	0	[]
2771	2	1	8	60.0	2	0	[]
2781	1	1	8	60.0	2	0	[]
2784	4	1	2	60.0	2	0	[]
2789	1	2	8	80.0	2	0	[]
2799	2	1	8	60.0	2	0	[]
2801	1	1	2	60.0	2	0	[]
2804	2	1	8	60.0	2	0	[]
2828	4	1	8	60.0	2	0	[]
2837	1	1	8	60.0	0	0	[]
2838	1	1	7	60.0	2	0	[]
2839	10	6	8	60.0	2	0	[]
2840	2	1	4	60.0	2	0	[]
2843	3	1	8	60.0	2	0	[]
2845	4	1	8	60.0	2	0	[]
2847	5	1	8	60.0	2	0	[]
2850	67	3	8	40.0	2	11	[(1884, 0), (5265, 1), (6659, 0), (2627, 1), (7414, 2), (2082, 0), (1405, 0), (459, 2), (589, 0), (8077, 2), (5490, 0)]
2851	1	16	60	60.0	2	16	[(7716, 2), (6082, 1), (7045, 2), (6831, 2), (5135, 2), (255, 2), (1328, 2), (7392, 2), (4014, 2), (4037, 2), (3928, 2), (6385, 2), (3270, 2), (6683, 2), (6060, 2), (4710, 2)]
2855	1	1	8	60.0	2	0	[]
2856	4	1	8	60.0	2	0	[]
2858	1	1	8	60.0	2	0	[]
2859	2	2	16	60.0	2	0	[]
2860	1	1	8	60.0	2	0	[]
2864	2	1	8	60.0	2	0	[]
2867	2	1	8	60.0	2	0	[]
2874	98	3	3	60.0	2	9	[(9047, 0), (4538, 0), (257, 0), (7426, 0), (4570, 0), (5954, 2), (655, 0), (8002, 1), (4698, 0)]
2880	6	4	8	60.0	2	0	[]
2893	2	1	8	60.0	2	0	[]
2896	5	2	16	80.0	2	0	[]
2904	108	5	8	100.0	0	10	[(6597, 0), (6644, 1), (6764, 2), (6577, 2), (8329, 2), (2917, 0), (6643, 2), (8435, 0), (3520, 0), (9324, 1)]
2914	3	4	8	60.0	2	0	[]
2917	3	6	8	60.0	2	0	[]
2920	1	12	8	60.0	2	0	[]
2922	2	1	6	60.0	2	0	[]
2925	2	1	2	60.0	2	0	[]
2932	2	1	2	60.0	2	0	[]
2933	1	3	8	60.0	2	0	[]
2934	1	1	8	60.0	2	0	[]
2935	3	1	8	60.0	2	0	[]
2936	2	1	8	60.0	2	0	[]
2938	3	1	8	60.0	2	0	[]
2940	59	1	8	60.0	2	0	[]
2944	2	2	8	60.0	0	0	[]
2945	2	1	8	60.0	2	0	[]
2949	6	5	8	60.0	2	1	[(4289, 0)]
2952	5	1	8	60.0	2	0	[]
2953	2	2	8	60.0	2	0	[]
2956	1	1	8	60.0	2	0	[]
2965	2	4	8	60.0	2	0	[]
2967	2	5	8	60.0	2	0	[]
2971	1	1	8	100.0	2	0	[]
2976	1	7	16	100.0	2	0	[]
2981	2	1	8	60.0	2	0	[]
2982	2	2	8	60.0	2	0	[]
2984	20	5	8	60.0	2	0	[]
2986	2	4	8	60.0	2	0	[]
2988	1	1	8	60.0	2	0	[]
2990	1	1	8	60.0	2	0	[]
2991	2	1	8	60.0	2	0	[]
2995	1	1	8	60.0	2	0	[]
3000	4	2	8	60.0	2	0	[]
3004	1	1	8	60.0	2	4	[(2533, 0), (5307, 0), (1506, 0), (8607, 0)]
3008	5	1	8	60.0	2	0	[]
3014	2	1	8	60.0	2	0	[]
3022	3	2	8	60.0	2	0	[]
3023	6	4	8	60.0	2	0	[]
3025	1	1	8	60.0	2	0	[]
3027	6	1	2	60.0	2	1	[(6659, 0)]
3033	11	4	8	80.0	2	1	[(6858, 0)]
3041	9	3	8	60.0	2	2	[(6659, 0), (8824, 2)]
3042	2	1	8	80.0	2	0	[]
3045	2	2	8	60.0	2	0	[]
3053	4	1	8	60.0	2	0	[]
3056	1	4	8	60.0	2	0	[]
3057	1	1	1	60.0	2	1	[(3431, 0)]
3067	2	1	8	60.0	2	0	[]
3071	2	1	8	60.0	2	0	[]
3074	2	1	6	60.0	2	0	[]
3077	130	6	8	60.0	2	3	[(3574, 1), (6659, 0), (3027, 2)]
3080	3	2	8	60.0	2	0	[]
3084	2	1	8	60.0	2	0	[]
3085	10	1	8	60.0	2	0	[]
3088	24	3	8	60.0	2	0	[]
3090	1	4	10	60.0	2	0	[]
3092	2	1	8	60.0	2	0	[]
3093	1	1	8	40.0	2	0	[]
3097	9	3	8	60.0	2	0	[]
3107	12	2	8	60.0	2	2	[(4570, 0), (782, 2)]
3110	2	1	7	60.0	2	0	[]
3111	2	1	8	60.0	2	0	[]
3115	1	4	8	60.0	2	0	[]
3116	2	4	16	80.0	2	0	[]
3124	3	4	7	60.0	2	0	[]
3126	1	2	8	60.0	2	0	[]
3136	8	1	2	60.0	2	0	[]
3142	1	1	2	60.0	2	0	[]
3144	6	5	8	60.0	2	0	[]
3145	5	2	8	60.0	2	0	[]
3151	2	1	2	60.0	2	0	[]
3153	6	3	8	60.0	2	0	[]
3155	2	1	8	60.0	2	0	[]
3156	2	1	8	60.0	2	0	[]
3159	1	1	8	60.0	2	0	[]
3160	1	2	8	60.0	2	0	[]
3173	1	1	2	60.0	2	0	[]
3178	2	1	12	60.0	2	0	[]
3187	5	1	8	60.0	2	0	[]
3189	5	1	8	60.0	2	0	[]
3190	2	2	8	60.0	2	0	[]
3196	1	1	8	60.0	2	0	[]
3199	147	4	8	60.0	2	6	[(6165, 2), (8938, 1), (7414, 2), (1879, 1), (6659, 0), (5203, 1)]
3202	1	4	8	60.0	2	0	[]
3206	1	1	8	60.0	2	0	[]
3207	1	1	8	60.0	2	0	[]
3209	2	3	8	60.0	2	0	[]
3214	1	1	8	60.0	2	0	[]
3217	3	1	8	60.0	2	0	[]
3226	2	1	8	60.0	2	0	[]
3227	2	2	8	60.0	2	0	[]
3229	1	4	8	100.0	2	0	[]
3239	4	1	8	60.0	2	0	[]
3244	2	1	2	60.0	2	0	[]
3246	3	1	8	60.0	2	1	[(5397, 2)]
3251	3	1	8	300.0	2	0	[]
3253	4	3	8	60.0	2	2	[(6659, 0), (2582, 1)]
3256	1	1	8	60.0	2	0	[]
3259	2	6	8	60.0	2	0	[]
3260	15	4	8	60.0	2	2	[(4996, 2), (435, 0)]
3268	1	1	8	60.0	2	0	[]
3270	5	1	32	60.0	2	12	[(7045, 2), (5135, 2), (2851, 1), (1328, 2), (7392, 2), (1637, 1), (4014, 2), (273, 1), (6385, 2), (6082, 1), (6060, 2), (4710, 2)]
3277	2	1	8	60.0	2	0	[]
3285	1	1	2	60.0	2	0	[]
3287	2	1	2	60.0	2	0	[]
3289	2	2	8	60.0	2	0	[]
3297	2	1	8	60.0	2	0	[]
3299	1	1	2	60.0	2	0	[]
3302	4	6	8	60.0	2	0	[]
3304	2	1	8	60.0	2	0	[]
3306	6	2	8	60.0	2	0	[]
3313	1	12	8	60.0	2	6	[(9072, 0), (1509, 0), (2710, 0), (6514, 0), (1639, 0), (7928, 0)]
3315	2	1	8	60.0	2	0	[]
3319	3	1	8	60.0	2	0	[]
3330	1	1	8	60.0	2	0	[]
3331	1	5	16	60.0	2	0	[]
3340	4	1	8	60.0	2	0	[]
3346	4	1	8	60.0	2	0	[]
3349	116	12	16	60.0	0	9	[(8653, 0), (6161, 0), (8979, 0), (1705, 0), (4894, 0), (6831, 0), (4576, 0), (793, 0), (2917, 0)]
3353	1	1	8	60.0	2	0	[]
3354	4	2	8	60.0	2	0	[]
3356	6	6	8	60.0	2	49	[(781, 1), (6806, 1), (6935, 2), (1770, 1), (7260, 2), (1004, 2), (4572, 2), (6151, 2), (4083, 1), (8529, 2), (9324, 2), (5880, 2), (6640, 2), (40, 1), (5646, 2), (6634, 2), (4690, 1), (5580, 2), (2736, 2), (8852, 2), (2170, 2), (8894, 2), (7558, 2), (5538, 2), (4821, 2), (5747, 2), (3766, 1), (6944, 1), (5472, 0), (56, 2), (4350, 1), (5367, 2), (1099, 2), (1533, 1), (3621, 2), (5638, 1), (8077, 2), (435, 2), (7600, 1), (187, 2), (7659, 2), (23, 2), (8774, 2), (3251, 2), (7234, 1), (7712, 1), (6774, 2), (8669, 2), (2665, 1)]
3358	5	1	8	60.0	2	0	[]
3364	1	1	1	60.0	2	0	[]
3370	50	6	8	60.0	2	5	[(3751, 0), (6659, 0), (536, 0), (8822, 0), (2767, 0)]
3371	6	1	8	200.0	2	0	[]
3381	3	1	8	60.0	2	0	[]
3383	4	4	6	60.0	2	0	[]
3385	6	3	8	60.0	2	0	[]
3386	2	1	1	60.0	2	0	[]
3388	5	2	8	60.0	2	0	[]
3389	5	3	16	80.0	2	0	[]
3399	1	4	8	60.0	2	0	[]
3400	4	1	8	60.0	2	0	[]
3406	1	1	8	60.0	2	0	[]
3408	4	2	8	60.0	2	0	[]
3410	2	1	1	60.0	2	0	[]
3412	1	1	8	60.0	2	0	[]
3428	5	1	8	60.0	2	0	[]
3431	5	5	8	300.0	2	0	[]
3433	1	1	2	60.0	2	0	[]
3434	2	2	8	60.0	2	0	[]
3435	1	1	8	60.0	2	0	[]
3436	1	1	8	60.0	2	0	[]
3438	1	1	8	60.0	2	0	[]
3442	2	3	8	60.0	2	0	[]
3445	3	1	8	60.0	2	0	[]
3448	2	1	8	40.0	2	0	[]
3451	2	1	8	60.0	2	1	[(8731, 0)]
3461	2	1	8	60.0	2	0	[]
3464	9	2	8	40.0	2	0	[]
3477	1	1	2	60.0	2	0	[]
3489	2	1	8	60.0	2	0	[]
3491	3	1	8	60.0	2	0	[]
3493	4	1	8	60.0	2	0	[]
3503	3	1	8	60.0	2	0	[]
3509	2	1	8	60.0	2	0	[]
3513	5	2	8	60.0	2	4	[(6267, 0), (2904, 0), (3879, 1), (7889, 2)]
3514	1	1	2	60.0	2	0	[]
3519	1	3	8	60.0	2	0	[]
3520	11	2	8	60.0	2	1	[(2917, 0)]
3524	2	1	8	60.0	2	0	[]
3528	1	1	8	60.0	2	0	[]
3529	1	1	8	60.0	2	0	[]
3534	34	2	8	60.0	2	2	[(4085, 0), (1788, 1)]
3541	2	1	8	60.0	2	0	[]
3544	4	1	2	100.0	2	0	[]
3545	2	2	8	60.0	2	0	[]
3547	17	1	8	60.0	2	1	[(188, 1)]
3549	1	4	8	60.0	2	0	[]
3556	4	1	8	60.0	2	0	[]
3559	1	1	8	60.0	2	0	[]
3567	1	4	8	80.0	2	0	[]
3569	2	1	8	60.0	2	0	[]
3571	10	6	16	200.0	2	0	[]
3572	4	2	8	60.0	2	0	[]
3574	32	9	16	60.0	0	1	[(6754, 2)]
3575	1	1	2	60.0	2	0	[]
3583	1	4	8	60.0	2	0	[]
3584	2	1	8	60.0	2	0	[]
3585	7	2	8	60.0	2	0	[]
3588	9	1	16	80.0	2	5	[(4973, 2), (4085, 1), (390, 2), (1449, 2), (4063, 2)]
3590	150	3	8	60.0	2	14	[(4998, 0), (3879, 0), (6659, 0), (307, 0), (7067, 0), (7414, 0), (3136, 0), (7333, 0), (7648, 0), (8137, 0), (1287, 0), (8938, 0), (5490, 0), (7426, 0)]
3602	3	1	8	60.0	2	0	[]
3605	1	1	2	60.0	2	0	[]
3606	2	2	8	60.0	2	0	[]
3608	8	5	8	60.0	2	0	[]
3610	1	4	8	60.0	2	0	[]
3611	16	1	8	60.0	2	4	[(8643, 0), (6416, 0), (6972, 0), (720, 0)]
3618	2	1	8	60.0	2	0	[]
3620	2	1	16	200.0	2	0	[]
3621	12	2	8	60.0	2	0	[]
3623	2	3	8	60.0	2	0	[]
3628	55	2	8	60.0	2	4	[(6683, 2), (2944, 2), (6659, 0), (3383, 0)]
3638	1	4	8	60.0	2	0	[]
3639	6	2	8	60.0	2	1	[(4859, 2)]
3646	1	1	1	60.0	2	0	[]
3649	4	4	8	60.0	2	0	[]
3650	1	1	2	60.0	2	0	[]
3654	122	3	8	40.0	1	7	[(6880, 0), (9156, 0), (6659, 0), (615, 0), (7367, 0), (9264, 0), (5490, 0)]
3656	1	1	8	60.0	2	0	[]
3657	103	6	16	60.0	1	7	[(5903, 0), (8106, 0), (689, 1), (1425, 0), (3370, 0), (5490, 0), (6659, 0)]
3660	5	1	8	60.0	2	0	[]
3661	2	2	8	60.0	2	0	[]
3669	2	3	8	60.0	2	0	[]
3670	2	2	8	60.0	2	1	[(4412, 2)]
3671	2	1	8	60.0	2	0	[]
3682	28	3	8	60.0	2	1	[(6671, 1)]
3691	2	5	8	60.0	2	1	[(6659, 0)]
3693	18	6	8	60.0	2	2	[(6659, 0), (5585, 0)]
3697	1	1	8	60.0	2	0	[]
3699	2	1	2	60.0	2	0	[]
3713	2	3	8	60.0	2	0	[]
3721	20	12	16	200.0	2	0	[]
3722	9	5	16	60.0	2	0	[]
3723	1	4	8	60.0	2	0	[]
3727	2	1	8	60.0	2	0	[]
3731	191	5	8	60.0	2	20	[(6468, 2), (1194, 2), (1561, 1), (9000, 1), (4205, 2), (7878, 1), (4109, 1), (4129, 0), (8641, 0), (3545, 1), (5443, 0), (367, 2), (435, 0), (9174, 2), (1486, 2), (4198, 2), (2559, 1), (9087, 1), (2771, 0), (8669, 2)]
3732	1	1	2	60.0	2	0	[]
3736	2	1	8	60.0	2	0	[]
3738	3	1	16	60.0	2	0	[]
3740	2	1	8	60.0	2	0	[]
3749	1	1	8	60.0	2	0	[]
3751	6	1	8	60.0	2	1	[(1328, 1)]
3753	2	1	8	60.0	2	0	[]
3757	1	1	2	60.0	2	0	[]
3760	1	1	8	60.0	2	0	[]
3764	2	4	8	60.0	2	0	[]
3766	2	1	2	60.0	2	0	[]
3774	8	2	8	60.0	2	0	[]
3776	2	1	8	60.0	2	0	[]
3777	1	1	1	60.0	2	0	[]
3779	3	2	8	60.0	2	0	[]
3782	1	1	1	60.0	2	0	[]
3790	2	1	8	60.0	2	0	[]
3796	1	4	8	60.0	2	0	[]
3799	2	1	2	60.0	2	0	[]
3802	178	6	16	100.0	2	5	[(9077, 0), (9228, 0), (7426, 0), (1788, 0), (6659, 0)]
3806	27	6	8	60.0	2	0	[]
3808	2	1	8	60.0	2	0	[]
3810	1	1	8	60.0	2	0	[]
3811	1	1	2	60.0	2	0	[]
3813	10	6	8	250.0	2	1	[(1884, 0)]
3818	1	1	1	60.0	2	0	[]
3820	1	1	2	60.0	2	0	[]
3821	30	1	8	60.0	2	1	[(435, 2)]
3822	1	1	8	60.0	2	0	[]
3827	1	1	6	60.0	2	0	[]
3831	2	1	8	60.0	2	0	[]
3832	1	1	8	60.0	2	0	[]
3833	1	1	8	60.0	2	0	[]
3837	1	1	8	40.0	2	0	[]
3850	2	1	8	60.0	2	0	[]
3856	2	2	8	60.0	2	0	[]
3859	1	7	24	80.0	2	0	[]
3862	1	2	8	60.0	2	0	[]
3866	9	2	2	60.0	2	1	[(1927, 2)]
3869	2	1	8	60.0	2	0	[]
3872	1	24	48	300.0	2	0	[]
3878	6	1	8	60.0	2	0	[]
3879	25	2	8	60.0	2	1	[(6659, 0)]
3885	14	4	8	60.0	2	1	[(5145, 1)]
3888	4	1	16	100.0	2	0	[]
3895	6	4	8	60.0	2	0	[]
3902	20	6	8	60.0	2	0	[]
3903	2	1	8	60.0	2	0	[]
3905	21	1	8	60.0	2	2	[(2627, 0), (2944, 2)]
3906	27	2	8	60.0	2	2	[(5740, 0), (2082, 0)]
3909	2	1	8	60.0	2	0	[]
3910	1	2	16	60.0	2	0	[]
3916	3	4	8	60.0	2	0	[]
3926	9	1	8	60.0	2	0	[]
3928	3	6	32	60.0	2	12	[(7045, 2), (5135, 2), (2851, 1), (1328, 2), (7392, 2), (1637, 1), (4014, 2), (273, 1), (6385, 2), (6082, 1), (6060, 2), (4710, 2)]
3929	2	1	8	60.0	2	0	[]
3930	2	1	8	60.0	2	0	[]
3936	6	3	8	60.0	2	0	[]
3937	2	2	8	60.0	2	0	[]
3941	1	1	2	60.0	2	0	[]
3946	1	2	8	60.0	2	0	[]
3949	2	1	2	60.0	2	0	[]
3952	35	3	8	60.0	2	6	[(2255, 2), (355, 0), (5459, 1), (6474, 2), (2917, 0), (4996, 1)]
3954	3	1	8	60.0	2	0	[]
3957	2	1	8	60.0	2	0	[]
3958	2	1	1	60.0	2	0	[]
3960	11	6	8	60.0	2	0	[]
3962	1	1	1	60.0	2	0	[]
3974	2	4	8	60.0	2	0	[]
3978	1	2	8	60.0	2	0	[]
3982	60	4	8	60.0	2	0	[]
3984	6	1	8	60.0	2	3	[(3349, 1), (5271, 0), (4996, 1)]
3990	1	1	3	60.0	2	0	[]
3991	2	1	3	60.0	2	0	[]
3994	211	6	8	60.0	2	1	[(6659, 0)]
4002	4	2	8	80.0	2	1	[(4044, 1)]
4005	2	4	8	60.0	2	0	[]
4010	1	1	8	60.0	2	0	[]
4012	5	4	8	60.0	2	0	[]
4014	1	2	32	100.0	2	16	[(7716, 2), (6082, 1), (4037, 2), (7045, 2), (6831, 2), (5135, 2), (2851, 1), (1328, 2), (1637, 1), (273, 1), (3928, 2), (6385, 2), (3270, 2), (6683, 2), (6060, 2), (4710, 2)]
4016	2	1	8	60.0	2	0	[]
4017	2	1	4	60.0	2	0	[]
4019	1	1	3	60.0	2	0	[]
4021	1	4	8	60.0	2	0	[]
4022	4	1	8	60.0	2	0	[]
4027	3	1	8	60.0	2	0	[]
4035	1	2	4	60.0	2	0	[]
4037	1	2	32	60.0	2	12	[(7045, 2), (5135, 2), (2851, 1), (1328, 2), (7392, 2), (1637, 1), (4014, 2), (273, 1), (6385, 2), (6082, 1), (6060, 2), (4710, 2)]
4038	13	1	8	60.0	2	0	[]
4040	1	1	7	60.0	2	0	[]
4044	1	5	16	60.0	2	0	[]
4049	2	2	8	60.0	2	0	[]
4050	5	2	8	60.0	2	0	[]
4054	2	1	8	60.0	2	0	[]
4060	3	1	8	60.0	2	0	[]
4062	2	4	8	60.0	2	0	[]
4063	2	1	8	60.0	2	0	[]
4064	1	2	2	60.0	2	0	[]
4068	26	2	8	60.0	2	0	[]
4075	7	2	8	60.0	2	1	[(9150, 2)]
4078	2	2	2	60.0	2	0	[]
4083	18	12	16	100.0	2	0	[]
4085	84	2	2	60.0	2	28	[(4974, 2), (7388, 1), (3534, 0), (4109, 1), (529, 0), (8329, 0), (7917, 2), (548, 2), (4063, 2), (4038, 2), (3602, 0), (344, 0), (2497, 2), (5168, 0), (5442, 0), (4656, 2), (2917, 0), (390, 0), (3749, 1), (9168, 1), (4505, 0), (2940, 1), (9087, 2), (3340, 1), (9196, 0), (4652, 1), (4973, 2), (2069, 0)]
4087	2	1	8	60.0	2	0	[]
4088	1	1	8	60.0	2	0	[]
4094	16	6	8	60.0	2	1	[(8669, 2)]
4095	2	1	8	60.0	2	0	[]
4096	2	1	8	60.0	2	0	[]
4097	3	1	8	60.0	2	0	[]
4105	1	4	8	60.0	2	0	[]
4109	6	1	8	100.0	2	0	[]
4110	1	1	8	60.0	2	0	[]
4121	3	1	8	60.0	2	0	[]
4124	1	1	8	60.0	2	0	[]
4129	9	1	16	100.0	2	3	[(6880, 0), (6256, 0), (9157, 0)]
4131	1	1	8	60.0	2	0	[]
4143	4	12	16	60.0	2	0	[]
4147	10	6	8	60.0	2	1	[(6659, 0)]
4150	3	5	8	500.0	2	0	[]
4151	1	4	8	60.0	2	0	[]
4160	2	1	8	60.0	2	0	[]
4165	2	6	8	60.0	2	0	[]
4166	1	1	8	60.0	2	0	[]
4168	1	1	8	60.0	2	0	[]
4176	2	1	6	60.0	2	0	[]
4186	1	1	1	150.0	2	0	[]
4192	2	1	8	60.0	2	0	[]
4194	4	1	8	60.0	2	0	[]
4195	1	4	8	60.0	2	0	[]
4197	2	4	8	60.0	2	0	[]
4198	6	1	8	60.0	2	0	[]
4199	2	1	8	60.0	2	0	[]
4203	1	7	60	60.0	0	0	[]
4205	6	1	8	60.0	2	0	[]
4218	10	6	8	60.0	2	1	[(3544, 1)]
4226	2	1	2	60.0	2	0	[]
4227	2	2	2	60.0	2	0	[]
4228	2	1	8	60.0	2	0	[]
4233	1	1	2	60.0	2	0	[]
4234	13	6	8	60.0	2	2	[(3356, 2), (4109, 2)]
4244	2	1	8	60.0	2	0	[]
4247	1	1	8	60.0	2	0	[]
4249	4	1	8	60.0	2	1	[(6659, 0)]
4253	27	3	8	60.0	2	0	[]
4267	1	1	7	60.0	2	0	[]
4281	1	4	8	60.0	2	0	[]
4283	2	1	8	60.0	2	0	[]
4289	41	3	8	60.0	2	15	[(3358, 2), (3408, 0), (2685, 0), (5531, 0), (5035, 0), (3022, 0), (529, 0), (4652, 2), (3000, 1), (2220, 0), (5256, 0), (7951, 0), (435, 0), (8956, 2), (6942, 0)]
4295	2	1	8	60.0	2	0	[]
4298	2	1	8	60.0	2	0	[]
4299	2	1	8	60.0	2	0	[]
4301	8	4	16	80.0	2	0	[]
4314	1	1	2	60.0	2	0	[]
4317	1	1	2	60.0	2	0	[]
4318	2	1	4	60.0	2	2	[(7200, 2), (5163, 2)]
4324	1	1	2	60.0	2	0	[]
4326	1	1	8	60.0	2	0	[]
4329	1	1	8	60.0	2	0	[]
4331	2	1	2	60.0	2	0	[]
4333	2	1	5	80.0	2	0	[]
4338	8	6	8	60.0	2	0	[]
4339	2	1	8	60.0	2	0	[]
4340	2	6	8	60.0	2	0	[]
4346	3	1	8	60.0	2	0	[]
4347	2	2	8	60.0	2	0	[]
4348	2	1	8	60.0	2	0	[]
4350	3	1	8	60.0	2	0	[]
4351	2	1	8	60.0	2	0	[]
4354	2	2	4	60.0	2	0	[]
4356	1	1	8	60.0	2	0	[]
4367	2	2	5	60.0	2	0	[]
4373	6	12	16	60.0	2	0	[]
4377	2	1	2	60.0	2	0	[]
4380	1	1	8	60.0	2	0	[]
4381	2	1	8	60.0	2	0	[]
4385	4	1	8	60.0	2	0	[]
4390	1	1	8	60.0	2	0	[]
4393	67	4	8	80.0	2	5	[(3682, 0), (9010, 0), (3136, 0), (5436, 0), (5812, 0)]
4394	3	1	8	60.0	2	0	[]
4399	1	1	8	60.0	2	1	[(5522, 2)]
4402	1	1	8	60.0	2	0	[]
4404	1	4	8	60.0	2	0	[]
4405	10	12	16	60.0	2	0	[]
4406	12	1	8	60.0	2	0	[]
4409	2	1	10	180.0	2	0	[]
4412	2	1	8	60.0	2	0	[]
4413	1	1	8	60.0	2	0	[]
4414	1	1	3	60.0	2	0	[]
4415	2	1	8	60.0	2	0	[]
4418	7	6	8	60.0	2	0	[]
4423	36	3	16	60.0	2	1	[(6659, 0)]
4432	1	1	8	60.0	2	0	[]
4435	4	1	8	60.0	2	0	[]
4443	4	4	8	60.0	2	0	[]
4444	2	1	8	60.0	2	0	[]
4450	3	1	2	60.0	2	0	[]
4455	3	1	8	60.0	2	0	[]
4458	2	4	8	60.0	2	0	[]
4461	1	4	8	60.0	2	0	[]
4463	25	5	32	200.0	2	0	[]
4480	4	1	8	60.0	2	0	[]
4491	1	1	2	60.0	2	0	[]
4493	9	1	8	60.0	2	0	[]
4499	37	1	8	60.0	2	1	[(7414, 2)]
4500	2	1	1	60.0	2	0	[]
4502	2	8	16	60.0	1	0	[]
4505	4	1	8	60.0	2	0	[]
4513	3	2	8	60.0	2	0	[]
4515	1	1	8	60.0	2	0	[]
4521	1	1	8	60.0	2	0	[]
4525	2	1	3	60.0	2	0	[]
4529	3	1	8	60.0	2	0	[]
4533	3	4	8	60.0	2	0	[]
4534	14	3	8	60.0	2	0	[]
4538	2	1	8	60.0	2	0	[]
4543	44	10	16	60.0	2	3	[(6980, 1), (5954, 1), (9196, 1)]
4546	2	4	8	60.0	2	0	[]
4557	2	1	8	60.0	2	0	[]
4560	1	1	8	60.0	2	0	[]
4562	2	1	3	60.0	2	0	[]
4564	2	1	8	60.0	2	0	[]
4570	15	4	8	60.0	2	1	[(5781, 0)]
4572	3	1	8	60.0	2	0	[]
4576	61	4	8	40.0	0	5	[(6659, 0), (8221, 0), (7261, 0), (1062, 0), (9264, 0)]
4579	4	1	8	60.0	2	0	[]
4584	2	1	3	60.0	2	0	[]
4587	1	4	8	60.0	2	0	[]
4591	8	2	16	100.0	2	0	[]
4593	2	1	8	60.0	2	1	[(6659, 0)]
4603	1	1	8	60.0	2	0	[]
4604	2	1	8	60.0	2	0	[]
4607	2	1	2	60.0	2	0	[]
4609	2	1	4	60.0	2	0	[]
4614	2	1	5	60.0	2	0	[]
4615	1	1	2	60.0	2	0	[]
4621	2	1	8	60.0	2	0	[]
4624	2	1	8	60.0	2	0	[]
4625	1	1	8	60.0	2	0	[]
4627	4	1	7	60.0	2	0	[]
4628	2	1	8	60.0	2	0	[]
4632	4	7	16	60.0	2	0	[]
4638	2	1	8	60.0	2	0	[]
4639	3	1	8	60.0	2	0	[]
4640	5	4	8	60.0	2	0	[]
4649	19	1	10	60.0	2	1	[(4769, 0)]
4652	4	1	8	60.0	2	0	[]
4656	8	1	6	60.0	2	0	[]
4660	1	4	8	60.0	2	0	[]
4666	1	1	8	60.0	2	0	[]
4670	1	4	8	60.0	2	0	[]
4680	2	1	8	60.0	2	0	[]
4683	2	1	8	60.0	2	0	[]
4690	3	1	8	60.0	2	0	[]
4698	565	1	2	60.0	2	3	[(2917, 0), (1241, 1), (4591, 1)]
4703	2	1	8	60.0	2	0	[]
4710	1	3	16	60.0	2	13	[(7716, 2), (4037, 2), (5135, 3), (2851, 2), (6683, 2), (6831, 2), (7392, 2), (1637, 2), (4014, 2), (273, 2), (3928, 2), (3270, 2), (6060, 3)]
4713	2	1	8	60.0	2	0	[]
4714	1	1	8	60.0	2	0	[]
4715	5	4	8	60.0	2	0	[]
4723	2	1	8	60.0	2	0	[]
4724	1	4	8	60.0	2	0	[]
4729	14	2	8	60.0	2	1	[(5168, 2)]
4734	6	3	8	40.0	2	1	[(2706, 2)]
4739	2	1	8	60.0	2	0	[]
4743	4	2	8	60.0	2	0	[]
4744	1	1	8	60.0	2	0	[]
4748	4	4	8	60.0	2	0	[]
4761	1	1	2	60.0	2	0	[]
4766	2	1	8	60.0	2	0	[]
4769	1	4	8	60.0	2	0	[]
4771	4	2	8	60.0	2	0	[]
4782	3	1	8	60.0	2	0	[]
4784	2	1	2	60.0	2	0	[]
4785	2	2	8	60.0	2	0	[]
4795	1	1	2	60.0	2	0	[]
4797	11	2	8	40.0	2	2	[(1637, 0), (6659, 0)]
4799	7	1	8	60.0	2	0	[]
4801	14	3	2	60.0	2	0	[]
4806	2	1	8	60.0	2	0	[]
4809	2	1	8	60.0	2	0	[]
4814	3	2	8	60.0	2	0	[]
4815	44	1	8	60.0	2	2	[(7153, 2), (689, 1)]
4816	2	1	8	60.0	2	0	[]
4819	24	1	8	60.0	2	4	[(4988, 0), (1287, 0), (5470, 0), (585, 2)]
4821	6	1	8	60.0	2	0	[]
4824	2	4	8	60.0	2	0	[]
4852	1	4	8	60.0	2	0	[]
4859	2	1	8	60.0	2	0	[]
4860	2	1	8	60.0	2	0	[]
4863	3	1	8	60.0	2	0	[]
4866	14	2	8	60.0	2	0	[]
4872	2	1	8	60.0	2	0	[]
4875	2	1	8	60.0	2	0	[]
4879	2	1	8	60.0	2	0	[]
4888	1	4	8	60.0	2	0	[]
4889	2	1	8	60.0	2	0	[]
4894	2	1	8	60.0	2	0	[]
4896	5	1	8	60.0	2	0	[]
4898	2	1	8	60.0	2	0	[]
4899	1	4	8	60.0	2	0	[]
4902	1	1	8	60.0	2	0	[]
4911	50	12	16	60.0	0	9	[(3654, 0), (6659, 0), (3802, 0), (2767, 0), (1374, 0), (1777, 0), (2033, 0), (8412, 0), (6003, 0)]
4912	3	1	8	60.0	2	0	[]
4914	1	1	7	60.0	2	0	[]
4917	2	1	8	60.0	2	0	[]
4920	2	1	8	60.0	2	0	[]
4927	2	4	8	60.0	2	0	[]
4937	1	1	2	60.0	2	0	[]
4942	2	1	8	60.0	2	0	[]
4943	6	36	30	300.0	2	0	[]
4949	2	1	8	60.0	2	0	[]
4950	4	1	8	60.0	2	0	[]
4955	4	4	8	60.0	2	0	[]
4957	2	1	8	60.0	2	0	[]
4958	2	1	9	80.0	2	0	[]
4965	3	1	8	60.0	2	0	[]
4969	1	6	32	60.0	0	0	[]
4971	3	4	8	60.0	2	0	[]
4972	1	1	8	100.0	2	0	[]
4973	51	6	8	60.0	2	4	[(6474, 2), (2143, 1), (3144, 2), (1241, 1)]
4974	4	1	2	60.0	2	0	[]
4976	1	1	2	60.0	2	0	[]
4988	2	1	8	60.0	2	0	[]
4990	1	2	8	60.0	2	0	[]
4993	3	1	8	60.0	2	0	[]
4996	100	6	16	100.0	2	5	[(8641, 0), (4638, 0), (2706, 0), (3260, 0), (6659, 0)]
4997	3	1	3	60.0	2	0	[]
4998	104	4	8	40.0	2	2	[(5810, 0), (6659, 0)]
5000	2	1	8	60.0	2	0	[]
5020	2	1	8	60.0	2	0	[]
5023	2	1	8	60.0	2	0	[]
5032	2	1	8	60.0	2	0	[]
5035	2	5	8	60.0	2	0	[]
5036	1	1	1	60.0	2	0	[]
5041	3	1	8	60.0	2	0	[]
5045	2	1	8	60.0	2	0	[]
5048	2	1	8	60.0	2	0	[]
5054	10	6	8	60.0	2	1	[(1884, 0)]
5055	1	1	1	60.0	2	0	[]
5071	9	1	8	60.0	2	0	[]
5076	1	1	8	60.0	2	0	[]
5082	2	1	8	60.0	2	0	[]
5084	1	1	8	60.0	2	0	[]
5087	1	1	8	60.0	2	0	[]
5088	1	1	2	60.0	2	0	[]
5090	1	2	8	60.0	2	0	[]
5091	2	1	2	60.0	2	0	[]
5096	3	1	8	60.0	2	0	[]
5100	1	1	3	60.0	2	0	[]
5104	1	4	8	60.0	2	0	[]
5108	1	1	2	60.0	2	0	[]
5116	2	1	8	60.0	2	0	[]
5117	1	1	8	80.0	2	0	[]
5118	4	3	8	60.0	2	0	[]
5126	1	4	8	60.0	2	0	[]
5135	1	7	16	60.0	1	17	[(7716, 2), (6082, 1), (7045, 2), (6831, 2), (255, 2), (2851, 2), (1328, 2), (7392, 2), (1637, 2), (4014, 2), (273, 2), (4037, 2), (3928, 2), (3270, 2), (6683, 2), (6385, 2), (4710, 2)]
5144	1	6	16	180.0	2	0	[]
5145	2	1	8	500.0	2	0	[]
5150	1	1	8	60.0	2	0	[]
5157	1	1	8	60.0	2	0	[]
5161	3	2	8	60.0	2	0	[]
5163	1	1	8	60.0	2	2	[(7200, 2), (4318, 2)]
5168	4	1	8	167.0	2	0	[]
5171	1	1	8	60.0	2	0	[]
5172	8	1	8	60.0	2	0	[]
5175	4	1	8	60.0	2	0	[]
5184	2	1	8	60.0	2	0	[]
5191	1	4	8	60.0	2	0	[]
5194	2	1	8	60.0	2	0	[]
5196	1	1	8	60.0	2	0	[]
5197	2	1	5	60.0	2	0	[]
5199	1	1	8	180.0	2	0	[]
5203	1	1	2	60.0	2	0	[]
5212	2	1	8	60.0	2	0	[]
5214	1	1	8	60.0	2	0	[]
5221	1	1	8	60.0	2	0	[]
5225	2	1	8	60.0	2	2	[(6334, 0), (5320, 0)]
5227	5	1	8	60.0	2	0	[]
5229	3	1	8	80.0	2	0	[]
5230	1	1	8	60.0	2	0	[]
5239	3	2	8	40.0	2	1	[(3370, 0)]
5242	2	1	8	60.0	2	0	[]
5249	2	2	8	60.0	2	0	[]
5250	2	2	8	60.0	2	0	[]
5253	9	1	8	60.0	2	1	[(4769, 0)]
5256	18	5	8	60.0	2	0	[]
5258	2	1	8	60.0	2	0	[]
5265	2	1	8	60.0	2	0	[]
5266	3	1	1	60.0	2	0	[]
5271	21	1	8	60.0	2	0	[]
5274	1	1	2	60.0	2	0	[]
5278	2	1	8	60.0	2	0	[]
5280	1	1	8	60.0	2	0	[]
5283	21	1	16	60.0	2	4	[(1509, 2), (2940, 0), (4415, 0), (4769, 0)]
5287	1	1	8	60.0	2	0	[]
5291	1	1	2	60.0	2	0	[]
5292	2	1	8	60.0	2	0	[]
5297	2	1	3	60.0	2	0	[]
5304	1	4	8	60.0	2	0	[]
5306	5	1	8	60.0	2	0	[]
5307	4	1	8	60.0	2	4	[(2533, 0), (1506, 0), (3004, 0), (8607, 0)]
5308	1	3	8	60.0	2	0	[]
5313	9	1	8	60.0	2	2	[(7261, 0), (3654, 0)]
5318	25	2	8	60.0	2	0	[]
5319	1	4	8	60.0	2	0	[]
5320	1	1	8	60.0	2	0	[]
5321	1	1	3	60.0	2	0	[]
5322	12	1	2	60.0	2	5	[(936, 1), (56, 1), (7568, 0), (3077, 0), (4863, 0)]
5323	2	1	8	60.0	2	0	[]
5325	1	1	8	60.0	2	0	[]
5328	1	1	8	60.0	2	0	[]
5330	2	1	8	60.0	2	0	[]
5337	2	1	1	60.0	2	0	[]
5339	2	1	8	60.0	2	0	[]
5343	1	4	8	60.0	2	0	[]
5348	2	3	8	60.0	2	0	[]
5356	1	16	32	80.0	0	0	[]
5358	2	1	8	60.0	2	0	[]
5362	55	2	8	60.0	2	3	[(435, 2), (1425, 2), (6659, 0)]
5367	14	2	16	60.0	2	1	[(4085, 0)]
5387	3	1	8	60.0	2	0	[]
5393	1	1	8	60.0	2	0	[]
5397	6	1	8	60.0	2	0	[]
5400	2	1	8	60.0	2	0	[]
5405	1	4	8	60.0	2	0	[]
5406	13	4	8	80.0	2	0	[]
5411	34	3	8	60.0	2	4	[(2767, 0), (7210, 0), (6659, 0), (1328, 0)]
5412	2	1	8	60.0	2	0	[]
5423	12	2	8	60.0	2	0	[]
5429	7	1	16	80.0	2	0	[]
5430	2	1	8	60.0	2	0	[]
5431	1	1	8	60.0	2	0	[]
5435	5	1	8	60.0	2	1	[(6659, 0)]
5436	40	6	8	60.0	2	2	[(6972, 1), (3159, 2)]
5437	3	3	16	60.0	2	1	[(1637, 0)]
5438	104	2	8	60.0	2	12	[(1431, 0), (8564, 0), (2143, 2), (8643, 0), (5815, 2), (3731, 0), (8412, 2), (4996, 2), (4734, 0), (3916, 0), (435, 2), (3588, 2)]
5442	2	1	8	60.0	2	0	[]
5443	4	1	2	60.0	2	0	[]
5444	1	1	8	60.0	2	0	[]
5454	1	2	8	60.0	2	0	[]
5456	1	1	8	60.0	2	0	[]
5457	3	6	8	80.0	2	0	[]
5459	2	1	8	60.0	2	0	[]
5469	9	4	8	60.0	2	0	[]
5470	11	1	8	60.0	2	2	[(6584, 0), (8653, 0)]
5472	7	4	8	60.0	2	1	[(6151, 0)]
5477	17	1	8	60.0	2	1	[(1046, 1)]
5481	6	1	8	60.0	2	1	[(536, 2)]
5485	2	1	7	60.0	2	0	[]
5487	2	1	2	60.0	2	0	[]
5489	1	4	8	60.0	2	0	[]
5490	43	2	8	40.0	2	12	[(6683, 1), (2767, 2), (7414, 0), (7511, 2), (4998, 2), (4576, 2), (3370, 0), (8287, 2), (1405, 2), (3136, 2), (3144, 1), (7270, 1)]
5494	1	4	8	60.0	2	0	[]
5495	1	1	3	60.0	2	0	[]
5498	3	1	2	60.0	2	0	[]
5506	2	1	8	60.0	2	0	[]
5508	1	1	2	60.0	2	0	[]
5510	1	1	8	60.0	2	1	[(6659, 0)]
5514	1	4	8	60.0	2	0	[]
5518	1	1	8	60.0	2	0	[]
5520	1	1	8	60.0	2	0	[]
5522	25	6	8	60.0	0	9	[(4377, 0), (6659, 0), (3277, 2), (3994, 0), (6880, 0), (8778, 0), (1624, 0), (7889, 0), (562, 0)]
5523	8	2	8	60.0	2	0	[]
5527	2	1	1	60.0	2	0	[]
5531	15	6	8	60.0	2	2	[(8565, 0), (420, 0)]
5532	2	1	2	60.0	2	0	[]
5534	2	1	1	60.0	2	0	[]
5536	6	1	16	60.0	2	0	[]
5538	9	12	16	60.0	2	0	[]
5542	1	6	8	60.0	2	0	[]
5549	1	1	8	60.0	2	0	[]
5551	8	2	8	60.0	2	1	[(529, 1)]
5556	16	3	8	60.0	2	0	[]
5569	1	4	8	60.0	2	0	[]
5572	1	1	7	60.0	2	0	[]
5576	6	1	8	60.0	2	0	[]
5580	2	4	8	60.0	2	0	[]
5585	20	1	8	60.0	2	0	[]
5591	3	1	8	60.0	2	0	[]
5595	1	1	8	60.0	2	0	[]
5597	1	1	8	60.0	2	0	[]
5603	2	1	8	60.0	2	0	[]
5604	2	3	8	60.0	2	0	[]
5605	2	1	8	60.0	2	0	[]
5617	2	1	8	60.0	2	0	[]
5630	3	4	8	60.0	2	0	[]
5636	2	2	8	60.0	2	0	[]
5638	2	1	2	60.0	2	0	[]
5641	2	1	8	60.0	2	0	[]
5644	1	1	1	60.0	2	0	[]
5646	2	1	8	60.0	2	1	[(6659, 0)]
5647	2	1	8	60.0	2	0	[]
5651	4	1	8	60.0	2	0	[]
5653	2	1	8	60.0	2	0	[]
5656	2	1	2	60.0	2	0	[]
5658	2	1	8	60.0	2	0	[]
5659	1	1	8	60.0	2	0	[]
5665	7	6	8	60.0	2	0	[]
5671	2	1	8	60.0	2	0	[]
5672	2	1	2	60.0	2	0	[]
5675	3	1	8	60.0	2	0	[]
5678	2	4	8	60.0	2	0	[]
5681	2	1	8	60.0	2	0	[]
5683	2	1	8	60.0	2	0	[]
5684	46	3	16	60.0	2	3	[(8221, 0), (7426, 0), (5490, 0)]
5687	5	1	8	100.0	2	0	[]
5695	3	2	8	60.0	2	0	[]
5696	3	6	8	60.0	2	5	[(3813, 1), (7904, 1), (6142, 1), (6421, 2), (8046, 1)]
5702	7	2	8	60.0	2	0	[]
5704	2	1	8	60.0	2	0	[]
5713	1	4	16	80.0	2	0	[]
5740	29	2	8	60.0	0	7	[(585, 0), (2082, 0), (8221, 0), (4576, 0), (3906, 0), (5490, 0), (5172, 1)]
5743	2	2	8	60.0	2	0	[]
5744	1	12	8	60.0	2	0	[]
5746	1	1	8	60.0	2	0	[]
5747	18	3	8	60.0	2	0	[]
5756	2	6	8	60.0	2	0	[]
5757	1	2	2	60.0	2	0	[]
5758	1	4	8	60.0	2	0	[]
5759	1	1	2	60.0	2	0	[]
5760	1	1	8	60.0	2	0	[]
5763	2	1	2	60.0	2	0	[]
5764	14	3	8	60.0	2	0	[]
5769	1	4	8	60.0	2	0	[]
5770	1	1	3	60.0	2	0	[]
5773	2	1	8	60.0	2	0	[]
5779	3	1	8	60.0	2	1	[(3349, 2)]
5781	36	3	8	60.0	2	2	[(6683, 2), (6659, 0)]
5784	6	2	8	60.0	2	0	[]
5785	2	1	16	80.0	2	0	[]
5788	2	1	8	60.0	2	0	[]
5792	5	1	8	60.0	2	0	[]
5795	2	1	8	60.0	2	0	[]
5798	2	1	8	60.0	2	0	[]
5799	1	8	16	150.0	2	0	[]
5801	1	1	8	60.0	2	0	[]
5805	2	1	8	60.0	2	0	[]
5810	40	4	8	60.0	2	16	[(3802, 1), (3022, 1), (8336, 1), (2078, 1), (355, 0), (149, 0), (1099, 2), (8738, 1), (5549, 0), (5356, 2), (1952, 0), (585, 1), (4998, 0), (8107, 1), (5740, 1), (5091, 0)]
5812	36	6	8	60.0	2	2	[(8776, 2), (3196, 1)]
5815	2	1	4	60.0	2	0	[]
5816	1	1	8	60.0	2	0	[]
5818	2	1	8	60.0	2	1	[(1426, 2)]
5819	1	1	3	60.0	2	0	[]
5830	2	1	8	80.0	2	0	[]
5835	10	1	16	60.0	2	0	[]
5837	2	1	8	60.0	2	0	[]
5839	2	1	8	60.0	2	0	[]
5842	2	2	1	60.0	2	0	[]
5844	2	1	8	60.0	2	0	[]
5845	1	1	1	60.0	2	0	[]
5846	2	1	8	60.0	2	0	[]
5849	2	1	8	60.0	2	0	[]
5851	2	1	8	60.0	2	0	[]
5853	2	16	32	200.0	2	0	[]
5856	46	4	8	60.0	2	6	[(8636, 0), (3088, 0), (9010, 0), (6421, 0), (5815, 2), (4815, 0)]
5865	15	1	8	60.0	2	0	[]
5867	2	1	1	60.0	2	0	[]
5868	2	1	5	60.0	2	0	[]
5874	1	1	8	60.0	2	0	[]
5878	4	1	8	80.0	2	0	[]
5880	2	1	8	60.0	2	0	[]
5882	5	14	96	300.0	2	0	[]
5889	18	6	8	60.0	2	51	[(6334, 0), (1927, 0), (5214, 0), (2082, 0), (5250, 0), (7058, 0), (3464, 0), (8137, 0), (7467, 0), (3270, 1), (1983, 2), (2850, 0), (7414, 0), (618, 0), (6651, 0), (7067, 0), (4576, 0), (3077, 0), (9228, 0), (7496, 0), (7778, 1), (5411, 0), (2880, 0), (129, 0), (8139, 0), (22, 0), (1740, 0), (3349, 0), (1328, 0), (7889, 0), (8412, 0), (9188, 0), (365, 0), (1405, 0), (1425, 2), (8258, 0), (3994, 0), (7511, 0), (188, 0), (6232, 0), (3574, 0), (6710, 0), (6188, 0), (8824, 0), (5071, 2), (3802, 0), (2767, 0), (2033, 0), (4819, 0), (585, 0), (1443, 0)]
5891	1	4	8	60.0	2	0	[]
5892	1	1	96	300.0	2	0	[]
5895	1	1	1	60.0	2	0	[]
5903	17	6	8	60.0	2	2	[(4038, 1), (3657, 0)]
5906	2	1	8	60.0	2	0	[]
5908	3	1	8	60.0	2	0	[]
5911	1	4	8	60.0	2	0	[]
5915	3	1	8	60.0	2	0	[]
5921	14	5	8	60.0	2	1	[(8669, 2)]
5926	2	1	8	60.0	2	0	[]
5928	1	1	16	100.0	2	0	[]
5934	1	3	12	100.0	2	0	[]
5951	2	1	8	60.0	2	0	[]
5954	10	1	8	60.0	2	3	[(344, 0), (3749, 0), (5168, 0)]
5959	2	1	8	60.0	2	0	[]
5964	6	2	8	60.0	2	1	[(6659, 0)]
5971	34	6	8	60.0	2	7	[(5527, 2), (7503, 2), (5082, 2), (1327, 1), (3978, 1), (833, 1), (7401, 2)]
5972	3	1	8	60.0	2	0	[]
5974	2	1	8	60.0	2	0	[]
5982	2	1	2	60.0	2	0	[]
5985	1	4	8	60.0	2	0	[]
5986	1	4	8	60.0	2	0	[]
5989	2	1	8	60.0	2	0	[]
5993	1	1	8	60.0	2	0	[]
5994	1	1	8	60.0	2	0	[]
5995	15	10	16	80.0	2	0	[]
5998	1	1	2	60.0	2	0	[]
5999	1	1	8	60.0	2	0	[]
6003	5	1	8	40.0	2	0	[]
6010	1	3	8	60.0	2	0	[]
6012	2	4	8	60.0	2	0	[]
6017	2	1	8	60.0	2	0	[]
6022	2	2	8	60.0	2	0	[]
6036	6	1	1	60.0	2	0	[]
6038	6	6	8	60.0	2	0	[]
6042	2	2	8	60.0	2	0	[]
6047	22	1	8	40.0	2	3	[(35, 2), (5265, 1), (5490, 0)]
6052	4	1	2	60.0	2	0	[]
6060	1	2	16	60.0	1	17	[(7716, 2), (6082, 1), (7045, 2), (6831, 2), (255, 2), (2851, 2), (1328, 2), (7392, 2), (1637, 2), (4014, 2), (273, 2), (4037, 2), (3928, 2), (6385, 2), (3270, 2), (6683, 2), (4710, 2)]
6063	2	1	7	60.0	2	0	[]
6066	3	1	8	60.0	2	0	[]
6071	1	1	5	100.0	2	0	[]
6072	4	1	8	60.0	2	0	[]
6075	8	2	8	60.0	2	0	[]
6076	4	1	2	60.0	2	0	[]
6078	14	1	8	60.0	2	1	[(6659, 0)]
6079	2	4	8	60.0	2	0	[]
6080	2	4	8	100.0	2	0	[]
6082	1	5	16	60.0	2	17	[(7716, 3), (6385, 2), (7045, 2), (6831, 3), (5135, 2), (2851, 2), (1328, 2), (7392, 3), (1637, 2), (4014, 3), (273, 2), (4037, 3), (3928, 3), (3270, 3), (6683, 3), (6060, 2), (4710, 2)]
6088	3	1	8	60.0	2	0	[]
6089	6	5	8	60.0	2	0	[]
6090	2	1	1	60.0	2	0	[]
6094	2	1	8	60.0	2	0	[]
6100	1	1	2	60.0	2	0	[]
6102	2	1	16	60.0	2	0	[]
6106	6	5	8	60.0	2	0	[]
6108	8	3	8	60.0	2	0	[]
6110	6	1	8	60.0	2	1	[(6659, 0)]
6114	1	1	2	60.0	2	0	[]
6115	9	6	16	60.0	2	0	[]
6116	1	1	6	60.0	2	0	[]
6118	2	2	8	60.0	2	0	[]
6121	2	1	8	60.0	2	0	[]
6122	40	6	8	60.0	2	2	[(6659, 0), (7568, 2)]
6126	1	1	8	60.0	2	0	[]
6127	4	1	8	60.0	2	0	[]
6142	1	1	1	60.0	2	0	[]
6144	1	1	1	60.0	2	0	[]
6145	10	5	8	60.0	2	0	[]
6150	5	1	8	60.0	2	1	[(2917, 0)]
6151	28	1	8	60.0	2	0	[]
6161	9	1	8	40.0	2	1	[(9264, 0)]
6163	5	2	8	60.0	2	0	[]
6164	1	4	8	60.0	2	0	[]
6165	2	1	4	60.0	2	1	[(1328, 0)]
6166	2	1	8	60.0	2	0	[]
6170	1	1	8	60.0	2	0	[]
6174	2	4	8	60.0	2	0	[]
6175	1	4	8	60.0	2	0	[]
6178	2	1	8	60.0	2	0	[]
6188	27	2	8	40.0	2	2	[(7578, 0), (3654, 0)]
6191	12	6	8	60.0	2	0	[]
6192	2	6	8	60.0	2	0	[]
6195	2	1	2	60.0	2	0	[]
6197	3	1	8	60.0	2	0	[]
6198	1	1	8	60.0	2	0	[]
6200	2	1	1	60.0	2	0	[]
6207	1	1	8	60.0	2	0	[]
6212	5	1	8	60.0	2	0	[]
6213	2	1	8	60.0	2	0	[]
6214	1	1	1	60.0	2	0	[]
6215	2	1	8	60.0	2	0	[]
6216	1	1	6	60.0	2	0	[]
6217	2	1	8	60.0	2	0	[]
6219	1	4	8	60.0	2	0	[]
6221	2	1	8	60.0	2	0	[]
6227	4	6	8	60.0	2	0	[]
6232	45	6	8	40.0	2	6	[(4593, 1), (6659, 0), (2627, 1), (585, 2), (8412, 0), (6972, 1)]
6237	5	1	8	60.0	2	0	[]
6238	2	1	8	60.0	2	0	[]
6241	2	3	8	60.0	2	0	[]
6242	1	1	2	60.0	2	0	[]
6250	36	3	16	40.0	2	2	[(8221, 0), (3370, 0)]
6251	14	8	16	200.0	2	0	[]
6256	15	3	8	60.0	2	5	[(6880, 0), (1201, 0), (4129, 0), (725, 0), (3657, 0)]
6261	1	8	16	80.0	2	0	[]
6265	1	1	8	60.0	2	0	[]
6267	3	2	1	100.0	2	0	[]
6286	1	1	8	60.0	2	0	[]
6287	1	1	8	60.0	2	0	[]
6289	2	1	8	60.0	2	0	[]
6290	1	1	16	60.0	2	0	[]
6296	4	1	8	60.0	2	0	[]
6305	4	1	8	60.0	2	0	[]
6313	2	1	1	60.0	2	0	[]
6315	1	4	8	60.0	2	0	[]
6316	2	4	8	60.0	2	0	[]
6317	13	1	8	60.0	2	1	[(435, 1)]
6319	2	1	8	60.0	2	0	[]
6322	3	1	8	60.0	2	0	[]
6323	2	1	3	60.0	2	0	[]
6325	8	2	8	60.0	2	0	[]
6334	50	12	16	100.0	2	1	[(5411, 0)]
6340	3	1	8	60.0	2	0	[]
6358	2	1	2	60.0	2	0	[]
6359	2	3	8	60.0	2	0	[]
6369	3	1	8	60.0	2	0	[]
6374	7	1	8	60.0	2	0	[]
6375	10	3	8	100.0	2	0	[]
6378	2	1	8	60.0	2	0	[]
6385	1	1	16	60.0	2	13	[(7716, 2), (4037, 2), (5135, 3), (2851, 2), (6683, 2), (6831, 2), (7392, 2), (6060, 3), (1637, 2), (4014, 2), (273, 2), (3928, 2), (3270, 2)]
6386	1	1	8	60.0	2	0	[]
6390	1	8	16	60.0	2	0	[]
6395	1	1	8	60.0	2	0	[]
6398	6	4	8	60.0	2	1	[(2710, 0)]
6402	29	3	8	60.0	2	5	[(1884, 2), (6683, 0), (9305, 0), (2767, 2), (2033, 2)]
6415	3	1	8	60.0	2	0	[]
6416	9	2	8	60.0	2	5	[(8822, 1), (1447, 2), (7716, 1), (3654, 2), (4996, 2)]
6421	188	12	16	100.0	2	2	[(7426, 0), (6659, 0)]
6423	1	1	8	60.0	2	0	[]
6425	1	1	8	60.0	2	0	[]
6428	2	1	8	60.0	2	0	[]
6432	4	1	8	60.0	2	0	[]
6438	1	1	8	60.0	2	0	[]
6440	2	1	8	60.0	2	1	[(6659, 0)]
6454	2	1	5	60.0	2	0	[]
6462	1	1	4	60.0	2	0	[]
6466	4	6	8	60.0	2	0	[]
6468	2	1	8	60.0	2	0	[]
6472	4	1	8	60.0	2	1	[(4996, 2)]
6474	15	6	8	60.0	2	2	[(6811, 1), (4859, 0)]
6475	4	2	8	200.0	2	0	[]
6476	1	1	8	60.0	2	0	[]
6484	1	5	8	60.0	2	0	[]
6488	2	4	8	60.0	2	0	[]
6489	1	1	8	60.0	2	0	[]
6493	2	1	2	60.0	2	0	[]
6496	3	1	8	60.0	2	0	[]
6505	2	1	8	60.0	2	0	[]
6509	1	3	2	60.0	2	2	[(3428, 1), (3994, 0)]
6514	24	3	8	60.0	2	0	[]
6518	1	1	2	60.0	2	0	[]
6522	1	4	10	60.0	2	0	[]
6526	2	4	8	60.0	2	0	[]
6530	12	3	8	60.0	2	5	[(1740, 1), (8713, 0), (1705, 2), (2079, 0), (6597, 0)]
6539	1	8	16	60.0	2	0	[]
6548	1	4	8	60.0	2	0	[]
6549	2	1	8	60.0	2	0	[]
6558	4	1	8	60.0	2	0	[]
6561	5	6	8	60.0	2	2	[(6659, 0), (585, 2)]
6562	3	1	8	60.0	2	1	[(8669, 1)]
6563	3	1	1	60.0	2	1	[(2917, 0)]
6569	1	1	8	60.0	2	0	[]
6572	1	1	8	60.0	2	0	[]
6574	1	1	2	60.0	2	0	[]
6577	1	1	8	60.0	2	0	[]
6584	2	1	8	60.0	2	0	[]
6589	2	1	8	60.0	2	0	[]
6590	7	8	16	80.0	2	0	[]
6591	2	1	16	80.0	2	0	[]
6592	2	4	8	60.0	2	0	[]
6597	108	12	8	100.0	2	3	[(5757, 2), (5438, 1), (435, 0)]
6600	12	1	8	60.0	2	0	[]
6602	2	1	2	60.0	2	1	[(3930, 2)]
6606	1	3	8	60.0	2	0	[]
6607	1	1	8	60.0	2	0	[]
6612	1	1	8	60.0	2	0	[]
6615	1	6	8	60.0	2	0	[]
6619	2	1	8	60.0	2	2	[(725, 2), (8433, 0)]
6623	2	2	8	60.0	2	0	[]
6630	1	1	4	60.0	2	0	[]
6633	2	1	8	60.0	2	0	[]
6634	2	1	2	60.0	2	0	[]
6635	1	2	8	60.0	2	0	[]
6640	4	1	6	60.0	2	0	[]
6643	7	1	8	60.0	2	0	[]
6644	2	1	2	60.0	2	0	[]
6646	2	2	8	60.0	2	0	[]
6648	2	1	2	60.0	2	0	[]
6650	1	1	8	60.0	2	0	[]
6651	2	1	8	40.0	2	0	[]
6655	1	4	8	60.0	2	0	[]
6656	6	2	8	60.0	2	0	[]
6657	2	1	8	100.0	2	0	[]
6659	117	3	8	120.0	0	95	[(8476, 0), (7067, 0), (1328, 0), (1425, 0), (3370, 0), (8979, 0), (1523, 0), (4576, 0), (6991, 0), (7236, 0), (3590, 0), (7333, 0), (9077, 0), (8190, 0), (7648, 0), (7889, 0), (3693, 0), (4593, 0), (7500, 0), (4147, 0), (8138, 0), (6122, 0), (3077, 0), (7151, 0), (854, 0), (4911, 0), (1938, 0), (3657, 0), (4797, 0), (365, 0), (3654, 0), (1777, 0), (3253, 0), (6110, 0), (4249, 0), (2143, 0), (7467, 0), (5510, 0), (4423, 0), (3802, 0), (6561, 0), (7928, 0), (1443, 0), (782, 0), (1464, 0), (4996, 0), (9156, 0), (6880, 0), (5522, 0), (7261, 0), (6078, 0), (6440, 0), (3027, 0), (8144, 0), (8258, 0), (3879, 0), (5964, 0), (3041, 0), (3628, 0), (8165, 0), (354, 0), (1705, 0), (1637, 0), (5362, 0), (7065, 0), (3994, 0), (1884, 0), (6710, 0), (6421, 0), (8221, 0), (2767, 0), (585, 0), (7092, 0), (1002, 0), (7075, 0), (1509, 0), (5781, 0), (1287, 0), (5411, 0), (3199, 0), (2850, 0), (5646, 0), (2033, 0), (22, 0), (536, 0), (2078, 0), (7880, 0), (8824, 0), (3691, 0), (1405, 0), (7511, 0), (5435, 0), (6232, 0), (936, 0), (4998, 0)]
6660	2	1	8	60.0	2	0	[]
6668	1	1	1	60.0	2	0	[]
6670	3	1	8	60.0	2	1	[(8669, 1)]
6671	1	1	2	60.0	2	0	[]
6678	2	1	6	60.0	2	0	[]
6683	153	12	32	60.0	2	17	[(7045, 2), (5135, 2), (2851, 1), (1328, 2), (1405, 0), (8287, 0), (8221, 0), (7392, 2), (1637, 0), (4014, 2), (3654, 0), (4576, 0), (273, 1), (6385, 2), (6082, 1), (6060, 2), (4710, 2)]
6687	11	2	8	60.0	2	0	[]
6691	1	1	2	60.0	2	0	[]
6699	2	4	8	60.0	2	0	[]
6703	6	1	8	80.0	2	1	[(1328, 2)]
6704	2	1	8	60.0	2	0	[]
6708	2	36	48	300.0	2	0	[]
6710	69	6	8	60.0	2	9	[(6659, 0), (2627, 1), (7210, 2), (7648, 2), (95, 1), (7270, 2), (8258, 2), (6972, 1), (2752, 0)]
6712	1	1	8	60.0	2	0	[]
6724	2	1	7	60.0	2	0	[]
6725	28	6	8	100.0	2	2	[(3954, 2), (4562, 1)]
6731	2	4	8	60.0	2	0	[]
6738	1	1	8	40.0	2	0	[]
6749	2	4	8	60.0	2	0	[]
6750	21	4	8	40.0	2	3	[(8221, 0), (589, 0), (3370, 0)]
6754	2	1	8	60.0	2	0	[]
6757	3	1	8	60.0	2	1	[(788, 1)]
6758	1	1	2	60.0	2	0	[]
6761	1	1	8	60.0	2	0	[]
6762	6	1	8	60.0	2	0	[]
6763	4	1	6	60.0	2	0	[]
6764	2	3	8	60.0	2	0	[]
6765	4	1	8	60.0	2	0	[]
6768	4	1	8	60.0	2	0	[]
6770	2	2	3	60.0	2	0	[]
6773	1	1	7	60.0	2	0	[]
6774	3	1	8	60.0	2	0	[]
6775	4	1	2	100.0	2	1	[(5959, 0)]
6778	1	4	8	60.0	2	0	[]
6784	1	1	10	300.0	2	0	[]
6791	21	3	8	60.0	2	2	[(8561, 1), (3588, 2)]
6796	1	2	7	60.0	2	0	[]
6798	1	1	8	60.0	2	0	[]
6801	3	2	8	60.0	2	0	[]
6805	2	1	8	60.0	2	4	[(1447, 0), (3590, 0), (6421, 0), (782, 0)]
6806	5	1	16	60.0	2	0	[]
6811	1	1	2	60.0	2	0	[]
6813	1	1	1	60.0	2	0	[]
6818	9	1	8	60.0	2	0	[]
6821	2	1	2	60.0	2	0	[]
6829	2	1	8	60.0	2	0	[]
6831	1	8	32	60.0	2	12	[(7045, 2), (5135, 2), (2851, 1), (1328, 2), (7392, 2), (1637, 1), (4014, 2), (273, 1), (6385, 2), (6082, 1), (6060, 2), (4710, 2)]
6840	1	1	8	60.0	2	0	[]
6843	7	1	8	60.0	2	0	[]
6851	2	1	8	60.0	2	0	[]
6858	1	1	1	60.0	2	0	[]
6859	2	1	8	60.0	2	0	[]
6865	1	3	16	60.0	2	0	[]
6866	1	1	8	60.0	2	0	[]
6871	5	2	8	60.0	2	0	[]
6878	1	1	8	60.0	2	0	[]
6880	75	2	8	40.0	2	8	[(4338, 2), (6710, 2), (22, 0), (7426, 0), (2586, 0), (3136, 2), (6659, 0), (4996, 2)]
6886	2	1	8	60.0	2	0	[]
6888	1	1	8	60.0	2	0	[]
6893	2	1	7	60.0	2	0	[]
6897	1	1	8	60.0	2	0	[]
6899	1	3	8	60.0	2	0	[]
6914	5	6	8	60.0	2	0	[]
6915	1	1	16	60.0	2	0	[]
6918	1	1	8	60.0	2	0	[]
6920	3	1	8	60.0	2	0	[]
6929	2	1	8	60.0	2	0	[]
6935	12	1	8	100.0	2	0	[]
6939	9	2	8	60.0	2	0	[]
6942	7	1	8	60.0	2	0	[]
6944	2	1	8	60.0	2	0	[]
6945	2	1	8	60.0	2	0	[]
6956	2	3	8	60.0	2	0	[]
6966	2	1	8	60.0	2	0	[]
6972	4	6	8	60.0	2	0	[]
6980	1	1	2	60.0	2	0	[]
6985	5	6	8	60.0	2	0	[]
6987	2	12	32	200.0	2	0	[]
6989	2	1	8	60.0	2	0	[]
6990	1	4	8	80.0	2	0	[]
6991	25	2	8	100.0	2	1	[(6659, 0)]
6994	1	1	8	60.0	2	0	[]
6998	1	1	8	60.0	2	0	[]
7000	1	1	8	60.0	2	0	[]
7002	2	1	8	60.0	2	0	[]
7013	6	6	8	60.0	2	0	[]
7016	3	1	8	60.0	2	0	[]
7020	2	1	8	60.0	2	0	[]
7029	2	1	8	60.0	2	0	[]
7030	1	4	8	60.0	2	0	[]
7034	1	4	8	60.0	2	0	[]
7036	2	2	5	60.0	2	0	[]
7042	2	1	8	60.0	2	0	[]
7044	2	1	8	60.0	2	0	[]
7045	2	2	16	60.0	2	13	[(7716, 2), (4037, 2), (5135, 3), (2851, 2), (6683, 2), (6831, 2), (7392, 2), (1637, 2), (4014, 2), (273, 2), (3928, 2), (3270, 2), (6060, 3)]
7051	1	1	1	60.0	2	0	[]
7052	8	4	8	60.0	2	1	[(3226, 0)]
7056	1	1	8	60.0	2	0	[]
7057	1	4	8	60.0	2	0	[]
7058	19	9	16	200.0	2	2	[(7904, 2), (7426, 0)]
7060	1	1	8	60.0	2	0	[]
7065	9	5	8	60.0	2	1	[(6659, 0)]
7066	2	1	8	60.0	2	0	[]
7067	396	12	12	60.0	2	30	[(1872, 0), (9010, 0), (3136, 0), (1328, 0), (1287, 0), (5411, 0), (5306, 0), (2850, 0), (6250, 0), (4729, 0), (3590, 0), (6334, 0), (568, 0), (3982, 0), (3654, 0), (401, 0), (4866, 0), (7880, 0), (8822, 0), (7426, 0), (7270, 2), (9047, 0), (1405, 0), (3994, 0), (5490, 0), (6659, 0), (9228, 0), (626, 0), (782, 0), (1425, 0)]
7069	1	1	2	60.0	2	0	[]
7070	16	3	8	60.0	2	0	[]
7073	2	1	8	60.0	2	5	[(6232, 2), (6710, 1), (3077, 2), (782, 2), (8653, 2)]
7075	29	2	8	60.0	2	1	[(6659, 0)]
7077	2	1	8	60.0	2	0	[]
7079	2	5	8	60.0	2	0	[]
7089	1	1	2	60.0	2	0	[]
7091	10	2	8	60.0	2	0	[]
7092	6	2	8	60.0	2	1	[(6659, 0)]
7094	1	1	8	60.0	2	0	[]
7097	1	1	8	60.0	2	0	[]
7098	13	2	16	80.0	2	0	[]
7099	1	1	8	60.0	2	0	[]
7100	4	1	8	60.0	2	0	[]
7101	2	1	24	60.0	2	0	[]
7105	1	1	8	60.0	2	0	[]
7106	6	2	8	60.0	2	0	[]
7110	1	1	8	60.0	2	0	[]
7111	2	4	8	60.0	2	0	[]
7113	8	2	8	60.0	2	1	[(9328, 2)]
7117	20	2	8	60.0	2	2	[(5747, 0), (1721, 0)]
7118	4	1	8	60.0	2	0	[]
7120	3	1	8	60.0	2	0	[]
7121	5	2	8	60.0	2	0	[]
7125	9	2	8	60.0	2	1	[(121, 2)]
7136	2	1	8	60.0	2	0	[]
7140	2	2	8	60.0	2	0	[]
7147	2	1	16	80.0	2	0	[]
7148	1	1	8	60.0	2	0	[]
7151	2	1	8	60.0	2	1	[(6659, 0)]
7153	1	4	8	60.0	2	0	[]
7158	7	2	8	60.0	2	2	[(8412, 2), (8036, 2)]
7162	1	1	16	80.0	2	0	[]
7166	2	1	8	60.0	2	0	[]
7169	1	1	8	60.0	2	0	[]
7171	2	1	8	60.0	2	0	[]
7172	5	2	8	60.0	2	0	[]
7175	1	1	1	60.0	2	0	[]
7177	2	1	1	60.0	2	0	[]
7185	3	1	8	60.0	2	1	[(3693, 1)]
7190	1	8	8	60.0	2	0	[]
7197	2	1	8	60.0	2	0	[]
7200	1	1	2	60.0	2	0	[]
7204	4	1	1	100.0	2	0	[]
7209	1	1	8	60.0	2	0	[]
7210	6	2	8	60.0	2	0	[]
7213	1	2	8	60.0	2	0	[]
7216	2	1	8	60.0	2	0	[]
7223	2	4	16	200.0	2	0	[]
7229	7	1	8	40.0	2	1	[(9228, 0)]
7234	2	1	8	60.0	2	0	[]
7236	7	1	8	60.0	2	1	[(6659, 0)]
7237	2	1	8	60.0	2	0	[]
7238	4	2	8	60.0	2	0	[]
7239	2	1	8	60.0	2	0	[]
7240	1	1	2	60.0	2	0	[]
7242	2	1	8	60.0	2	0	[]
7244	1	1	1	60.0	2	0	[]
7245	1	1	8	60.0	2	0	[]
7246	5	1	1	60.0	2	0	[]
7249	6	2	8	100.0	2	0	[]
7260	2	1	2	60.0	2	0	[]
7261	18	6	8	60.0	2	1	[(6659, 0)]
7264	2	1	8	60.0	2	0	[]
7270	4	1	8	60.0	2	0	[]
7273	2	1	16	60.0	2	0	[]
7277	2	1	2	60.0	2	0	[]
7281	1	8	16	80.0	2	0	[]
7283	2	1	8	60.0	2	0	[]
7287	3	2	8	60.0	2	0	[]
7288	2	1	2	60.0	2	0	[]
7289	5	2	8	60.0	2	0	[]
7291	8	6	8	60.0	2	0	[]
7297	2	3	8	60.0	2	0	[]
7299	3	4	8	60.0	2	0	[]
7311	2	1	2	60.0	2	0	[]
7314	1	1	8	60.0	2	1	[(4998, 1)]
7315	6	2	8	60.0	2	0	[]
7319	7	1	8	60.0	2	2	[(8564, 1), (7889, 1)]
7320	1	4	1	60.0	2	0	[]
7322	6	6	8	60.0	2	0	[]
7333	12	2	8	60.0	2	26	[(6232, 1), (3574, 0), (3654, 1), (1046, 0), (6659, 0), (4965, 1), (255, 2), (4998, 2), (1447, 1), (7648, 0), (2143, 2), (3571, 1), (3802, 1), (8221, 1), (2767, 1), (585, 0), (1777, 2), (6250, 2), (9228, 1), (5740, 2), (4911, 2), (7511, 1), (1328, 0), (4996, 2), (8419, 0), (3879, 1)]
7334	1	1	8	60.0	2	0	[]
7336	2	4	8	60.0	2	0	[]
7337	3	2	8	60.0	2	0	[]
7347	1	1	8	60.0	2	0	[]
7348	2	1	8	250.0	2	0	[]
7352	2	5	8	60.0	2	0	[]
7358	1	4	8	60.0	2	0	[]
7367	6	1	8	60.0	2	3	[(5868, 0), (3654, 0), (9264, 0)]
7368	5	2	8	60.0	2	0	[]
7373	2	1	8	60.0	2	0	[]
7380	2	1	8	60.0	2	0	[]
7381	2	1	8	60.0	2	0	[]
7382	2	1	8	60.0	2	0	[]
7383	2	1	8	60.0	2	0	[]
7384	1	1	8	60.0	2	0	[]
7386	5	1	8	60.0	2	0	[]
7388	2	1	7	60.0	2	0	[]
7389	1	1	2	60.0	2	0	[]
7392	1	2	32	100.0	2	16	[(7716, 2), (6082, 1), (4037, 2), (7045, 2), (6831, 2), (5135, 2), (2851, 1), (1328, 2), (1637, 1), (273, 1), (3928, 2), (6385, 2), (3270, 2), (6683, 2), (6060, 2), (4710, 2)]
7401	23	3	8	60.0	2	3	[(6474, 0), (9158, 0), (5696, 2)]
7403	7	1	8	60.0	2	0	[]
7407	2	1	8	60.0	2	0	[]
7414	31	3	8	60.0	2	0	[]
7419	2	1	8	60.0	2	0	[]
7425	3	1	8	60.0	2	0	[]
7426	74	12	16	100.0	1	11	[(6232, 2), (4423, 0), (6880, 0), (9228, 0), (6421, 0), (7058, 0), (3802, 0), (618, 0), (1788, 0), (7457, 2), (6261, 0)]
7434	2	1	8	60.0	2	0	[]
7442	1	4	8	60.0	2	2	[(5743, 2), (5168, 2)]
7446	5	3	8	60.0	2	27	[(1373, 0), (1449, 0), (2682, 0), (7311, 0), (1163, 0), (166, 1), (2601, 0), (3346, 0), (5798, 0), (8529, 0), (5856, 0), (2559, 0), (7800, 0), (4085, 0), (5810, 0), (1874, 0), (8738, 0), (3569, 0), (4973, 0), (8365, 0), (3916, 0), (6402, 0), (4534, 0), (2784, 0), (5438, 0), (9180, 0), (3153, 0)]
7449	2	1	8	60.0	2	0	[]
7456	2	1	8	60.0	2	1	[(22, 1)]
7457	5	1	8	60.0	2	0	[]
7459	3	1	8	60.0	2	0	[]
7462	1	1	8	60.0	2	0	[]
7465	2	1	8	60.0	2	0	[]
7466	44	5	8	60.0	2	2	[(2632, 2), (3144, 2)]
7467	6	1	8	60.0	2	1	[(6659, 0)]
7471	3	1	8	60.0	2	0	[]
7474	2	1	8	60.0	2	0	[]
7475	5	1	8	60.0	2	0	[]
7476	1	1	5	60.0	2	0	[]
7477	2	1	8	60.0	2	0	[]
7480	5	4	8	60.0	2	0	[]
7481	7	6	8	60.0	2	1	[(459, 2)]
7484	4	4	8	60.0	2	0	[]
7496	1	1	6	60.0	2	0	[]
7499	1	4	8	60.0	2	0	[]
7500	22	1	8	60.0	2	3	[(3831, 1), (2627, 1), (6659, 0)]
7502	4	4	8	60.0	2	0	[]
7503	6	1	8	60.0	2	0	[]
7507	6	1	8	60.0	2	0	[]
7511	19	1	8	60.0	2	3	[(7291, 2), (3654, 0), (6659, 0)]
7513	63	5	16	200.0	1	6	[(6893, 0), (1077, 2), (7709, 1), (6768, 2), (8109, 0), (3588, 1)]
7520	4	11	16	200.0	2	0	[]
7524	10	3	8	60.0	2	0	[]
7525	1	1	2	60.0	2	0	[]
7528	2	4	8	60.0	2	0	[]
7533	1	2	16	60.0	0	0	[]
7539	2	1	8	60.0	2	0	[]
7540	1	4	8	60.0	2	0	[]
7544	1	1	1	60.0	2	0	[]
7552	2	1	8	60.0	2	0	[]
7554	4	1	8	60.0	2	0	[]
7558	2	1	8	60.0	2	0	[]
7565	1	1	8	60.0	2	0	[]
7567	1	1	8	60.0	2	0	[]
7568	13	1	8	60.0	2	0	[]
7572	1	1	8	60.0	2	0	[]
7573	1	1	8	60.0	2	0	[]
7578	6	3	8	60.0	2	0	[]
7582	1	1	8	60.0	2	0	[]
7584	2	2	8	60.0	2	0	[]
7597	2	1	2	60.0	2	0	[]
7600	1	5	48	500.0	2	0	[]
7604	2	1	8	60.0	2	0	[]
7607	2	1	8	60.0	2	0	[]
7609	1	2	4	60.0	2	0	[]
7611	1	11	128	600.0	2	0	[]
7617	2	1	8	60.0	2	0	[]
7620	3	1	8	60.0	2	0	[]
7625	2	1	6	60.0	2	0	[]
7627	1	1	8	60.0	2	1	[(3370, 0)]
7630	2	1	8	60.0	2	0	[]
7637	1	1	12	80.0	2	0	[]
7638	2	1	8	60.0	2	0	[]
7642	2	1	8	60.0	2	0	[]
7645	2	1	8	60.0	2	0	[]
7648	8	2	2	60.0	2	1	[(6659, 0)]
7649	6	2	16	60.0	2	0	[]
7652	9	2	8	60.0	2	2	[(7073, 1), (2148, 0)]
7654	1	1	1	60.0	2	0	[]
7655	3	1	8	60.0	2	0	[]
7656	2	1	2	60.0	2	0	[]
7659	3	1	8	60.0	2	0	[]
7661	1	1	2	60.0	2	0	[]
7662	2	4	8	60.0	2	0	[]
7668	1	1	8	60.0	2	0	[]
7672	2	1	8	60.0	2	0	[]
7681	1	1	8	60.0	2	0	[]
7692	3	1	8	80.0	2	0	[]
7698	2	1	8	60.0	2	0	[]
7704	2	1	8	60.0	2	0	[]
7709	4	2	8	60.0	2	0	[]
7712	2	1	8	60.0	2	0	[]
7714	2	1	8	60.0	2	0	[]
7716	4	3	32	60.0	2	12	[(7045, 2), (5135, 2), (2851, 1), (1328, 2), (7392, 2), (1637, 1), (4014, 2), (273, 1), (6385, 2), (6082, 1), (6060, 2), (4710, 2)]
7721	1	1	8	60.0	2	0	[]
7724	6	2	8	60.0	2	0	[]
7725	2	1	8	60.0	2	0	[]
7726	2	1	8	60.0	2	0	[]
7736	10	4	8	60.0	2	0	[]
7739	1	1	1	60.0	2	0	[]
7740	12	6	8	60.0	2	2	[(2033, 1), (2143, 2)]
7745	2	1	8	60.0	2	0	[]
7748	2	4	8	60.0	2	0	[]
7752	2	1	8	60.0	2	0	[]
7755	1	1	8	60.0	2	0	[]
7764	8	2	8	60.0	2	0	[]
7768	7	4	8	60.0	2	0	[]
7771	2	1	8	60.0	2	0	[]
7773	5	1	8	60.0	2	0	[]
7774	2	1	8	60.0	2	0	[]
7778	21	2	16	60.0	2	0	[]
7779	1	4	8	60.0	2	1	[(1998, 2)]
7780	2	5	8	60.0	2	0	[]
7782	1	1	8	60.0	2	0	[]
7783	6	2	8	60.0	2	0	[]
7789	2	1	8	60.0	2	0	[]
7790	1	1	8	60.0	2	0	[]
7795	3	5	8	60.0	2	0	[]
7799	2	2	8	60.0	2	2	[(7200, 1), (4318, 2)]
7800	3	1	1	60.0	2	0	[]
7804	2	1	8	60.0	2	0	[]
7810	2	4	8	60.0	2	0	[]
7812	2	1	8	60.0	2	0	[]
7816	1	2	8	60.0	2	0	[]
7819	1	1	2	60.0	2	0	[]
7823	3	1	8	60.0	2	0	[]
7824	5	1	8	60.0	2	0	[]
7827	2	4	8	60.0	2	0	[]
7828	4	3	8	60.0	2	0	[]
7829	2	1	8	60.0	2	0	[]
7832	3	2	8	60.0	2	0	[]
7834	4	4	8	60.0	2	0	[]
7845	6	1	8	60.0	2	0	[]
7847	2	1	8	60.0	2	0	[]
7853	22	1	8	60.0	2	3	[(1241, 0), (8938, 0), (1702, 1)]
7857	3	1	8	60.0	2	0	[]
7867	2	1	7	60.0	2	0	[]
7868	3	1	8	60.0	2	0	[]
7869	5	1	8	60.0	2	0	[]
7870	4	2	8	80.0	2	0	[]
7871	6	2	8	60.0	2	0	[]
7876	1	12	8	60.0	2	0	[]
7878	1	2	8	60.0	2	0	[]
7879	3	2	8	60.0	2	0	[]
7880	49	6	8	60.0	2	1	[(6659, 0)]
7881	2	1	8	60.0	2	0	[]
7882	2	1	8	100.0	2	0	[]
7889	429	12	16	60.0	1	8	[(5522, 0), (6659, 0), (1062, 1), (1624, 0), (6250, 0), (562, 0), (2220, 2), (5172, 2)]
7891	3	1	8	100.0	2	0	[]
7897	1	1	1	80.0	2	0	[]
7901	1	1	6	60.0	2	0	[]
7902	1	1	1	60.0	2	0	[]
7904	2	1	8	60.0	2	0	[]
7909	1	2	8	60.0	2	0	[]
7912	1	1	8	60.0	2	0	[]
7917	2	1	8	60.0	2	0	[]
7918	2	1	8	60.0	2	0	[]
7926	2	2	8	60.0	2	0	[]
7928	90	2	8	60.0	2	5	[(365, 0), (1287, 0), (3270, 0), (3077, 0), (6659, 0)]
7932	10	1	8	60.0	2	57	[(2533, 0), (5687, 0), (8641, 0), (725, 0), (1509, 0), (7401, 0), (1624, 0), (2874, 0), (302, 0), (4814, 0), (6151, 0), (4083, 0), (2217, 0), (5522, 0), (2784, 0), (6858, 0), (4129, 0), (3885, 0), (3821, 0), (548, 0), (5306, 0), (317, 0), (6375, 0), (7121, 0), (7524, 0), (8643, 0), (4038, 0), (6657, 0), (5665, 0), (4973, 0), (1449, 0), (7077, 0), (8483, 0), (2953, 0), (2313, 0), (6606, 0), (1001, 0), (1077, 0), (8356, 0), (558, 0), (4949, 0), (7288, 0), (9040, 0), (3936, 0), (1901, 0), (5337, 0), (8243, 0), (8996, 0), (7939, 0), (6829, 0), (7652, 0), (6164, 0), (8073, 0), (8669, 0), (8180, 0), (6075, 0), (8381, 0)]
7937	1	4	8	80.0	2	0	[]
7939	6	2	3	100.0	2	1	[(6935, 0)]
7945	12	1	8	60.0	2	1	[(2033, 1)]
7947	4	1	8	60.0	2	0	[]
7948	2	1	8	60.0	2	0	[]
7950	2	4	8	60.0	2	0	[]
7951	2	1	8	60.0	2	0	[]
7962	3	1	8	60.0	2	0	[]
7966	2	1	2	60.0	2	0	[]
7967	2	1	1	60.0	2	0	[]
7971	2	1	16	80.0	2	0	[]
7981	3	8	16	200.0	2	0	[]
7982	2	1	8	60.0	2	0	[]
7983	1	1	1	60.0	2	0	[]
7990	4	1	8	60.0	2	0	[]
7997	8	2	8	60.0	2	3	[(3349, 2), (3654, 1), (4996, 2)]
8000	1	1	8	60.0	2	0	[]
8002	10	2	8	60.0	2	0	[]
8036	2	1	8	60.0	2	0	[]
8038	3	3	8	60.0	2	0	[]
8042	1	1	1	60.0	2	0	[]
8043	2	1	6	60.0	2	0	[]
8046	27	4	8	80.0	2	0	[]
8049	3	1	1	60.0	2	0	[]
8050	1	1	1	60.0	2	0	[]
8066	1	2	8	60.0	2	0	[]
8067	1	1	8	60.0	2	0	[]
8071	1	1	2	60.0	2	0	[]
8072	4	1	8	60.0	2	0	[]
8073	6	2	8	60.0	2	1	[(2143, 2)]
8077	2	1	2	60.0	2	0	[]
8083	1	1	8	80.0	2	0	[]
8086	2	1	8	60.0	2	0	[]
8089	2	1	2	60.0	2	0	[]
8093	1	1	2	60.0	2	0	[]
8094	2	1	8	60.0	2	0	[]
8095	5	1	8	60.0	2	0	[]
8097	2	2	8	60.0	2	0	[]
8099	4	1	8	60.0	2	0	[]
8106	36	2	8	60.0	2	11	[(3654, 0), (9077, 0), (1046, 0), (7414, 0), (3571, 1), (2767, 1), (3370, 0), (2143, 1), (1405, 0), (4911, 2), (782, 2)]
8107	2	1	8	60.0	2	0	[]
8109	3	1	8	60.0	2	0	[]
8115	16	2	8	40.0	2	4	[(8412, 0), (1637, 0), (655, 0), (8287, 0)]
8116	2	1	8	60.0	2	0	[]
8117	2	2	8	60.0	2	0	[]
8126	26	2	8	60.0	2	0	[]
8130	1	1	8	60.0	2	0	[]
8133	2	2	5	60.0	2	0	[]
8134	2	1	8	60.0	2	0	[]
8137	4	3	8	60.0	2	0	[]
8138	100	6	8	60.0	2	7	[(6659, 0), (1983, 0), (3831, 2), (7289, 0), (8822, 0), (3569, 0), (3144, 2)]
8139	28	6	8	60.0	2	1	[(2767, 2)]
8144	103	6	8	60.0	2	2	[(5118, 0), (6659, 0)]
8150	2	4	8	60.0	2	0	[]
8158	2	4	8	60.0	2	0	[]
8164	1	1	8	60.0	2	0	[]
8165	4	1	4	60.0	2	1	[(6659, 0)]
8167	1	1	8	40.0	2	0	[]
8169	2	1	1	60.0	2	0	[]
8174	1	4	8	60.0	2	0	[]
8178	1	2	8	40.0	0	0	[]
8179	1	4	8	60.0	2	0	[]
8180	3	1	8	60.0	2	0	[]
8181	1	1	8	60.0	2	0	[]
8190	2	2	8	60.0	2	1	[(6659, 0)]
8198	4	2	8	60.0	2	0	[]
8203	9	2	8	60.0	2	1	[(4993, 0)]
8210	2	1	8	60.0	2	0	[]
8212	1	6	8	60.0	2	0	[]
8218	4	1	8	60.0	2	0	[]
8219	4	1	8	60.0	2	0	[]
8220	2	1	8	60.0	2	0	[]
8221	34	3	16	100.0	2	4	[(8412, 2), (7333, 2), (6659, 0), (3370, 0)]
8225	2	1	8	60.0	2	1	[(788, 2)]
8227	2	1	8	60.0	2	0	[]
8228	4	1	8	60.0	2	0	[]
8231	3	1	8	60.0	2	1	[(4769, 0)]
8243	9	3	8	60.0	2	0	[]
8249	1	1	36	60.0	2	0	[]
8253	12	2	8	60.0	2	0	[]
8257	2	1	8	60.0	2	0	[]
8258	5	1	2	60.0	2	1	[(6659, 0)]
8259	1	1	1	60.0	2	0	[]
8260	6	6	8	100.0	2	0	[]
8261	7	1	8	40.0	2	0	[]
8267	2	1	8	60.0	2	0	[]
8268	2	4	8	60.0	2	0	[]
8270	6	1	7	60.0	2	2	[(854, 0), (7368, 0)]
8271	2	1	2	60.0	2	0	[]
8274	3	1	2	60.0	2	0	[]
8278	3	3	7	60.0	2	0	[]
8282	2	1	8	60.0	2	0	[]
8283	2	1	8	60.0	2	0	[]
8287	18	3	8	40.0	2	2	[(9086, 0), (6261, 1)]
8290	2	1	8	60.0	2	0	[]
8301	3	12	16	200.0	2	0	[]
8307	1	1	16	60.0	2	0	[]
8309	1	4	8	60.0	2	0	[]
8310	2	3	8	60.0	2	0	[]
8311	1	4	8	60.0	2	0	[]
8313	10	1	8	60.0	2	1	[(1952, 0)]
8316	2	1	18	100.0	2	0	[]
8328	15	3	8	60.0	2	0	[]
8329	2	1	7	60.0	2	0	[]
8331	34	2	8	60.0	2	1	[(5118, 0)]
8334	1	4	8	60.0	2	0	[]
8336	2	2	8	60.0	2	0	[]
8338	6	1	2	100.0	2	0	[]
8340	1	1	8	60.0	2	0	[]
8341	3	1	8	60.0	2	0	[]
8342	1	1	8	60.0	2	0	[]
8353	4	1	3	60.0	2	0	[]
8356	2	1	8	60.0	2	0	[]
8361	2	2	16	200.0	2	0	[]
8362	2	2	8	60.0	2	0	[]
8363	7	1	8	60.0	2	0	[]
8365	7	1	8	60.0	2	1	[(2701, 2)]
8370	5	1	8	60.0	2	0	[]
8374	1	1	1	60.0	2	0	[]
8376	2	1	8	60.0	2	0	[]
8381	2	1	2	60.0	2	0	[]
8382	1	1	2	60.0	2	0	[]
8390	1	1	8	60.0	2	0	[]
8397	2	1	8	60.0	2	0	[]
8401	1	1	8	60.0	2	0	[]
8407	7	2	8	60.0	2	0	[]
8411	2	1	8	60.0	2	0	[]
8412	31	3	8	60.0	2	5	[(589, 0), (7789, 1), (1328, 2), (8221, 0), (7229, 0)]
8414	5	3	8	60.0	2	0	[]
8415	2	1	8	60.0	2	0	[]
8419	3	1	8	60.0	2	0	[]
8423	4	1	6	60.0	2	0	[]
8424	2	1	8	60.0	2	0	[]
8425	1	1	6	60.0	2	0	[]
8426	4	1	6	60.0	2	0	[]
8433	2	1	4	60.0	2	0	[]
8435	6	1	8	60.0	2	0	[]
8443	6	6	7	60.0	2	0	[]
8447	1	1	8	60.0	2	0	[]
8450	1	1	2	60.0	2	0	[]
8455	2	1	8	60.0	2	0	[]
8456	1	1	8	60.0	2	0	[]
8462	2	1	6	60.0	2	0	[]
8465	10	3	8	60.0	2	0	[]
8468	1	1	8	60.0	2	0	[]
8472	2	4	8	60.0	2	0	[]
8475	14	2	8	60.0	2	0	[]
8476	50	6	8	60.0	2	1	[(6659, 0)]
8483	5	1	16	60.0	2	0	[]
8492	2	1	8	60.0	2	0	[]
8496	3	1	8	60.0	2	0	[]
8497	1	1	8	60.0	2	0	[]
8506	1	1	8	40.0	2	0	[]
8508	1	1	8	60.0	2	0	[]
8509	2	1	8	60.0	2	0	[]
8512	2	2	8	60.0	2	0	[]
8513	2	1	8	60.0	2	0	[]
8527	6	1	8	60.0	2	0	[]
8529	31	4	8	60.0	2	1	[(2134, 0)]
8530	2	1	8	60.0	2	0	[]
8531	4	1	7	60.0	2	0	[]
8533	1	1	8	60.0	2	0	[]
8542	3	2	8	60.0	2	0	[]
8547	3	1	8	60.0	2	1	[(3831, 2)]
8549	3	1	2	60.0	2	0	[]
8550	1	1	8	60.0	2	0	[]
8558	11	2	8	60.0	2	0	[]
8560	1	1	8	40.0	2	0	[]
8561	1	1	2	60.0	2	0	[]
8564	4	4	8	60.0	2	0	[]
8565	1	1	8	60.0	2	0	[]
8571	4	1	8	60.0	2	0	[]
8572	1	1	8	60.0	2	0	[]
8573	1	1	8	60.0	2	0	[]
8577	1	4	8	60.0	2	0	[]
8578	1	4	8	60.0	2	0	[]
8579	3	1	8	60.0	2	0	[]
8584	2	1	8	60.0	2	0	[]
8592	1	2	9	80.0	2	0	[]
8593	2	2	8	60.0	2	1	[(3356, 1)]
8596	2	1	8	60.0	2	0	[]
8601	1	4	8	80.0	2	0	[]
8607	2	1	2	60.0	2	0	[]
8610	2	2	8	60.0	2	0	[]
8614	1	8	16	200.0	2	0	[]
8615	1	4	8	60.0	2	0	[]
8621	1	1	8	60.0	2	7	[(9222, 0), (919, 0), (4993, 0), (5242, 0), (9029, 0), (9013, 0), (8370, 0)]
8630	2	1	8	60.0	2	0	[]
8636	3	3	8	60.0	2	0	[]
8638	3	3	8	60.0	2	0	[]
8639	2	1	8	60.0	2	0	[]
8641	14	6	8	60.0	2	2	[(1284, 2), (7721, 2)]
8642	2	1	8	60.0	2	0	[]
8643	52	5	8	60.0	2	9	[(5851, 0), (1046, 2), (4965, 2), (2860, 2), (1576, 0), (6670, 2), (2856, 2), (7947, 0), (4806, 2)]
8647	4	1	1	60.0	2	0	[]
8653	101	5	8	60.0	2	11	[(4338, 2), (7597, 2), (6831, 2), (7333, 0), (2917, 0), (4859, 0), (1533, 1), (4435, 0), (5470, 0), (6584, 0), (9264, 0)]
8654	1	1	8	60.0	2	0	[]
8655	2	3	2	60.0	2	0	[]
8656	3	2	8	60.0	2	0	[]
8667	2	1	8	60.0	2	0	[]
8669	41	4	16	60.0	2	5	[(1426, 0), (7513, 0), (2701, 0), (1260, 0), (6725, 0)]
8674	1	2	16	40.0	2	0	[]
8677	2	3	8	60.0	2	0	[]
8678	2	1	8	40.0	2	0	[]
8680	12	1	8	60.0	2	0	[]
8685	2	1	8	60.0	2	0	[]
8688	1	1	8	60.0	2	0	[]
8689	1	1	8	60.0	2	0	[]
8691	2	4	8	60.0	2	0	[]
8693	1	1	2	60.0	2	0	[]
8695	11	1	8	100.0	2	1	[(7768, 0)]
8697	2	1	16	60.0	2	0	[]
8698	18	3	8	40.0	2	0	[]
8703	2	3	8	60.0	2	0	[]
8708	2	2	8	60.0	2	0	[]
8709	5	1	8	60.0	2	0	[]
8713	8	1	4	60.0	2	0	[]
8714	1	4	8	60.0	2	0	[]
8720	2	1	8	60.0	2	0	[]
8722	51	6	16	60.0	0	5	[(3654, 0), (8221, 0), (4576, 0), (3370, 0), (5490, 0)]
8724	2	1	8	60.0	2	0	[]
8728	2	4	8	80.0	2	0	[]
8731	4	2	8	60.0	2	0	[]
8738	4	1	8	60.0	2	0	[]
8740	8	1	8	40.0	2	0	[]
8742	3	1	8	60.0	2	0	[]
8746	2	1	1	60.0	2	0	[]
8750	2	1	8	60.0	2	0	[]
8753	2	1	6	60.0	2	0	[]
8754	18	1	6	200.0	2	0	[]
8757	1	1	8	60.0	2	0	[]
8759	2	1	8	60.0	2	2	[(6106, 0), (6725, 0)]
8763	1	1	8	40.0	2	0	[]
8765	8	1	8	60.0	2	0	[]
8766	6	6	8	60.0	2	0	[]
8774	25	6	8	60.0	2	0	[]
8776	6	2	8	60.0	2	0	[]
8778	2	1	8	60.0	2	0	[]
8779	1	1	8	60.0	2	0	[]
8802	2	4	8	60.0	2	0	[]
8811	2	1	8	60.0	2	0	[]
8813	1	4	2	60.0	2	0	[]
8814	2	1	8	60.0	2	0	[]
8820	2	4	8	60.0	2	0	[]
8822	57	3	16	60.0	2	5	[(7067, 0), (4570, 0), (2163, 0), (3370, 0), (9228, 0)]
8824	3	4	10	60.0	2	1	[(6659, 0)]
8825	1	1	8	60.0	2	0	[]
8826	3	5	8	60.0	2	0	[]
8827	2	1	8	60.0	2	0	[]
8847	1	1	8	60.0	2	0	[]
8848	14	3	16	80.0	2	0	[]
8852	24	6	8	60.0	2	0	[]
8856	3	1	8	60.0	2	0	[]
8866	20	3	8	80.0	2	0	[]
8868	1	3	16	40.0	2	0	[]
8871	8	1	8	60.0	2	1	[(6972, 2)]
8872	6	1	8	60.0	2	0	[]
8875	1	1	8	60.0	2	0	[]
8876	1	1	8	60.0	2	0	[]
8877	1	1	2	60.0	2	0	[]
8880	2	1	8	60.0	2	0	[]
8890	2	1	8	60.0	2	0	[]
8894	4	3	8	60.0	2	0	[]
8903	2	1	7	60.0	2	0	[]
8905	6	1	7	60.0	2	0	[]
8913	1	1	1	60.0	2	0	[]
8914	2	1	8	60.0	2	0	[]
8916	1	4	8	60.0	2	0	[]
8917	7	6	8	100.0	2	0	[]
8918	2	1	8	60.0	2	0	[]
8922	6	2	8	60.0	2	0	[]
8925	2	2	8	60.0	2	0	[]
8933	2	1	1	60.0	2	0	[]
8935	16	2	8	60.0	2	7	[(7052, 0), (4974, 0), (3952, 0), (4085, 0), (1812, 0), (2585, 0), (6725, 0)]
8936	2	1	8	60.0	2	3	[(7200, 1), (5163, 1), (4318, 1)]
8938	2	1	2	60.0	2	0	[]
8939	3	1	8	60.0	2	0	[]
8946	6	2	8	60.0	2	0	[]
8948	2	2	8	60.0	2	0	[]
8953	8	1	8	60.0	2	0	[]
8956	2	1	8	60.0	2	0	[]
8962	1	1	4	100.0	2	0	[]
8963	1	1	1	60.0	2	0	[]
8964	2	1	8	60.0	2	0	[]
8966	2	1	8	60.0	3	0	[]
8969	1	1	8	60.0	2	0	[]
8971	8	1	2	60.0	2	0	[]
8979	40	3	8	60.0	2	4	[(2847, 1), (2856, 2), (6659, 0), (6831, 0)]
8984	1	1	8	60.0	2	0	[]
8991	1	1	16	100.0	2	0	[]
8996	2	1	8	60.0	2	0	[]
8998	5	1	8	60.0	2	0	[]
9000	1	1	2	60.0	2	0	[]
9008	1	1	1	40.0	2	0	[]
9010	30	4	8	60.0	2	6	[(5810, 0), (1328, 2), (2701, 0), (7426, 0), (5812, 0), (1523, 0)]
9013	4	2	8	60.0	2	0	[]
9019	1	1	8	60.0	2	0	[]
9023	2	1	8	60.0	2	0	[]
9026	2	1	8	60.0	2	0	[]
9027	2	2	32	200.0	0	0	[]
9029	3	1	8	60.0	2	0	[]
9032	4	2	8	60.0	2	0	[]
9034	1	1	8	60.0	2	0	[]
9037	5	1	8	60.0	2	0	[]
9040	2	1	8	60.0	2	0	[]
9043	2	1	8	60.0	2	0	[]
9047	55	3	8	40.0	0	3	[(2082, 0), (1637, 0), (1287, 0)]
9048	2	4	8	60.0	2	0	[]
9067	2	1	8	60.0	2	0	[]
9068	1	4	8	60.0	2	0	[]
9072	74	2	8	60.0	2	4	[(2767, 2), (3349, 0), (4911, 2), (4996, 1)]
9077	33	4	8	60.0	2	2	[(2767, 2), (6659, 0)]
9080	2	1	2	60.0	2	0	[]
9086	23	3	8	60.0	2	3	[(6161, 0), (8115, 0), (8287, 0)]
9087	3	3	8	60.0	2	0	[]
9088	1	1	8	60.0	2	0	[]
9090	2	1	1	60.0	2	0	[]
9092	1	1	8	60.0	2	1	[(4412, 1)]
9098	2	1	8	60.0	2	0	[]
9102	1	1	8	60.0	2	0	[]
9108	10	1	8	60.0	2	0	[]
9116	1	1	2	60.0	2	0	[]
9123	4	1	8	60.0	2	0	[]
9125	2	1	8	60.0	2	0	[]
9131	1	1	3	60.0	2	0	[]
9137	1	1	8	60.0	2	0	[]
9140	4	1	8	60.0	2	0	[]
9143	6	1	8	40.0	2	0	[]
9150	1	4	8	60.0	2	0	[]
9156	25	4	8	60.0	2	7	[(3574, 0), (3654, 0), (6659, 0), (3802, 2), (2767, 2), (585, 1), (4576, 0)]
9157	5	2	8	60.0	2	0	[]
9158	15	2	8	60.0	2	4	[(4649, 0), (6474, 0), (7117, 0), (7401, 0)]
9160	2	1	8	60.0	2	0	[]
9165	62	6	8	60.0	2	11	[(1026, 0), (4129, 0), (3088, 0), (2482, 2), (8653, 0), (3994, 0), (2856, 0), (1952, 0), (1624, 0), (8271, 2), (6163, 0)]
9166	9	1	2	60.0	2	0	[]
9167	2	1	8	60.0	2	0	[]
9168	13	6	8	60.0	2	0	[]
9172	1	1	8	60.0	2	0	[]
9174	9	2	8	60.0	2	0	[]
9175	1	1	2	60.0	2	0	[]
9178	1	4	8	60.0	2	0	[]
9180	5	2	8	60.0	2	0	[]
9181	1	1	8	60.0	2	0	[]
9182	2	1	8	60.0	2	0	[]
9185	2	4	8	60.0	2	0	[]
9188	33	2	8	60.0	2	2	[(5604, 2), (2767, 1)]
9192	7	1	8	60.0	2	0	[]
9196	2	1	8	60.0	2	0	[]
9201	5	1	8	60.0	2	0	[]
9202	2	1	8	60.0	2	0	[]
9203	2	1	8	60.0	2	0	[]
9205	1	1	1	60.0	2	0	[]
9206	1	1	3	60.0	2	0	[]
9217	1	1	1	300.0	2	0	[]
9220	7	2	8	60.0	2	1	[(6227, 2)]
9222	2	1	7	60.0	2	0	[]
9225	1	1	7	60.0	2	0	[]
9228	42	4	8	40.0	2	10	[(4570, 0), (3654, 0), (7229, 0), (3802, 0), (618, 0), (8822, 0), (7426, 0), (1788, 0), (6161, 0), (1464, 0)]
9230	2	1	1	60.0	2	0	[]
9232	1	1	8	60.0	2	0	[]
9236	2	1	8	60.0	2	0	[]
9239	1	2	8	60.0	2	0	[]
9244	3	1	8	60.0	2	0	[]
9247	2	1	1	60.0	2	0	[]
9251	2	1	8	60.0	2	0	[]
9264	6	5	8	60.0	2	0	[]
9267	1	1	1	60.0	2	0	[]
9277	3	1	8	60.0	2	1	[(6710, 2)]
9281	2	1	8	60.0	2	0	[]
9282	17	5	8	60.0	2	0	[]
9286	10	1	16	60.0	2	1	[(6758, 1)]
9287	1	4	16	80.0	2	0	[]
9292	2	3	16	60.0	2	0	[]
9296	2	1	6	60.0	2	0	[]
9299	1	4	8	60.0	2	0	[]
9302	2	2	2	60.0	2	0	[]
9305	2	1	8	60.0	2	0	[]
9307	2	6	8	60.0	2	0	[]
9319	4	2	8	60.0	2	0	[]
9324	12	1	8	100.0	2	0	[]
9325	2	1	8	60.0	2	0	[]
9328	13	6	8	100.0	2	0	[]
9330	11	6	8	60.0	2	0	[]
9332	1	3	2	60.0	2	0	[]
9334	7	4	8	60.0	2	3	[(3574, 2), (4911, 2), (1328, 1)]
9335	1	5	8	60.0	2	0	[]
