app_id	nb_instances	core	memory	disk	intra_value	inter_degree	inter_aff
2	1	1	8	60.0	2	0	[]
8	4	1	8	60.0	2	0	[]
9	1	1	2	60.0	2	0	[]
10	1	4	8	60.0	2	0	[]
18	6	1	8	60.0	2	0	[]
20	4	6	8	60.0	2	0	[]
24	2	2	8	60.0	2	0	[]
25	2	2	2	60.0	2	0	[]
27	21	3	8	60.0	2	2	[(6659, 0), (8173, 2)]
29	2	1	8	60.0	2	0	[]
37	2	1	8	60.0	2	1	[(3263, 1)]
40	3	6	8	60.0	2	0	[]
41	2	1	1	60.0	2	0	[]
42	1	1	16	200.0	2	0	[]
43	2	1	8	60.0	2	0	[]
45	1	1	8	60.0	2	0	[]
46	2	1	4	60.0	2	0	[]
50	8	3	8	60.0	2	0	[]
52	22	2	8	60.0	2	1	[(4522, 1)]
58	1	1	8	60.0	2	0	[]
63	4	1	8	60.0	2	0	[]
68	1	1	7	60.0	2	0	[]
69	4	6	8	60.0	2	0	[]
80	145	12	16	60.0	2	19	[(7626, 2), (7716, 2), (4608, 2), (4947, 0), (3241, 2), (4037, 2), (6659, 0), (8069, 0), (2851, 2), (3292, 0), (1606, 2), (7214, 0), (1851, 0), (2739, 2), (737, 2), (6531, 0), (8977, 0), (4275, 2), (312, 0)]
84	2	1	7	60.0	2	0	[]
90	2	2	8	60.0	2	0	[]
92	105	6	8	60.0	2	10	[(2291, 1), (5851, 0), (6659, 0), (1019, 2), (4375, 2), (3023, 2), (7120, 1), (3445, 1), (586, 0), (8444, 2)]
94	1	1	1	60.0	2	0	[]
100	10	3	8	60.0	2	2	[(3715, 2), (1589, 2)]
113	1	1	8	60.0	2	0	[]
114	1	1	8	60.0	2	0	[]
119	1	2	2	60.0	2	0	[]
120	7	1	8	60.0	2	0	[]
122	36	2	8	40.0	2	1	[(6659, 0)]
125	3	1	8	60.0	2	0	[]
130	1	2	8	40.0	2	0	[]
131	2	4	8	60.0	2	0	[]
132	2	6	8	60.0	2	0	[]
136	1	1	8	60.0	2	0	[]
144	2	1	8	60.0	2	0	[]
147	315	6	8	60.0	2	20	[(1416, 0), (8778, 0), (817, 2), (6659, 0), (7214, 0), (473, 0), (4717, 0), (276, 4), (2263, 3), (4429, 0), (7723, 0), (3511, 0), (971, 0), (8767, 0), (8137, 0), (793, 0), (4042, 0), (585, 0), (1310, 0), (20, 0)]
150	3	6	8	60.0	2	0	[]
153	2	1	8	60.0	2	0	[]
156	1	1	8	60.0	2	0	[]
165	2	1	8	60.0	2	0	[]
166	2	1	5	60.0	2	0	[]
173	4	1	2	60.0	2	0	[]
180	3	1	8	60.0	2	0	[]
183	9	3	8	80.0	2	0	[]
184	1	4	8	60.0	2	0	[]
186	2	1	8	60.0	2	0	[]
192	3	1	2	60.0	2	0	[]
201	2	1	8	60.0	2	0	[]
203	1	1	8	60.0	2	0	[]
205	1	1	8	60.0	2	0	[]
206	2	4	8	60.0	2	0	[]
220	8	4	16	60.0	2	1	[(1919, 0)]
229	2	1	3	60.0	2	0	[]
230	2	1	8	60.0	2	0	[]
235	4	12	8	60.0	2	0	[]
244	4	3	8	60.0	2	0	[]
245	2	1	8	60.0	2	0	[]
251	1	1	8	60.0	2	0	[]
255	38	5	16	60.0	1	14	[(7626, 1), (7716, 1), (4608, 1), (2739, 2), (2851, 2), (1606, 1), (5080, 1), (4190, 2), (7551, 0), (3241, 2), (5022, 0), (4275, 1), (4037, 1), (737, 1)]
256	2	2	8	60.0	2	0	[]
260	19	2	8	60.0	2	6	[(5064, 0), (703, 1), (3909, 1), (4393, 0), (1919, 1), (1391, 2)]
261	5	1	8	60.0	2	2	[(5498, 0), (3387, 0)]
262	29	4	8	60.0	0	32	[(7768, 0), (9269, 0), (3077, 0), (4778, 0), (1024, 0), (3283, 0), (4608, 0), (6393, 0), (7802, 0), (5028, 0), (7763, 0), (7805, 0), (685, 0), (365, 0), (737, 0), (3654, 0), (255, 0), (7928, 0), (2153, 2), (2564, 0), (2853, 0), (4471, 0), (6659, 0), (6188, 0), (8069, 0), (4801, 0), (7467, 0), (1781, 0), (3481, 0), (8618, 0), (8412, 0), (1229, 0)]
267	2	1	8	60.0	2	0	[]
271	3	2	8	60.0	2	0	[]
272	1	4	16	80.0	2	0	[]
276	1	5	8	60.0	3	2	[(2263, 3), (147, 3)]
281	8	3	8	40.0	2	3	[(7309, 0), (1405, 0), (6659, 0)]
286	18	2	16	60.0	2	1	[(6538, 1)]
287	2	1	8	60.0	2	0	[]
296	2	1	8	60.0	2	0	[]
298	2	1	8	60.0	2	0	[]
307	11	1	8	60.0	2	0	[]
310	71	2	8	60.0	2	11	[(3806, 0), (3015, 1), (1919, 0), (726, 0), (1509, 0), (4702, 0), (8223, 0), (5220, 0), (8209, 1), (3747, 0), (7290, 2)]
311	3	1	8	60.0	2	0	[]
312	5	1	8	40.0	2	1	[(80, 1)]
313	3	1	6	60.0	2	0	[]
317	6	2	8	60.0	2	1	[(5022, 1)]
319	1	1	8	60.0	2	0	[]
324	1	1	8	60.0	2	0	[]
327	5	2	8	60.0	2	0	[]
330	2	1	10	40.0	2	0	[]
339	2	4	8	60.0	2	0	[]
342	2	6	8	60.0	2	0	[]
343	2	6	8	60.0	2	0	[]
345	1	1	2	60.0	2	0	[]
349	3	2	8	60.0	2	0	[]
360	11	1	8	60.0	2	6	[(4522, 1), (5233, 0), (2263, 2), (2332, 1), (1740, 1), (1310, 2)]
364	2	5	8	60.0	2	0	[]
365	25	2	2	200.0	2	1	[(6659, 0)]
367	4	1	8	60.0	2	0	[]
369	4	2	8	60.0	2	2	[(4531, 2), (3183, 2)]
370	3	1	8	60.0	2	0	[]
371	5	1	8	60.0	2	0	[]
378	2	1	8	60.0	2	0	[]
379	1	1	2	60.0	2	0	[]
380	2	1	8	60.0	2	0	[]
386	5	1	8	80.0	2	0	[]
388	3	1	1	60.0	2	0	[]
390	2	2	8	60.0	2	0	[]
392	7	1	4	60.0	2	0	[]
396	4	1	8	60.0	2	0	[]
397	5	1	8	60.0	2	0	[]
398	2	1	1	60.0	2	0	[]
399	2	1	8	60.0	2	0	[]
409	2	3	8	60.0	2	0	[]
412	1	4	8	60.0	2	0	[]
417	2	1	8	60.0	2	0	[]
421	14	3	8	60.0	2	1	[(262, 0)]
424	18	2	8	60.0	2	0	[]
427	1	6	8	60.0	2	0	[]
429	1	1	1	60.0	2	0	[]
431	2	1	8	60.0	2	0	[]
439	1	1	2	60.0	2	0	[]
442	25	2	8	60.0	2	0	[]
444	3	1	8	60.0	2	0	[]
445	4	1	8	60.0	2	0	[]
455	1	4	8	60.0	2	0	[]
457	3	1	8	60.0	2	0	[]
458	2	1	8	60.0	2	0	[]
463	2	1	2	60.0	2	0	[]
464	73	6	8	60.0	2	7	[(3654, 0), (4608, 0), (281, 0), (8223, 2), (971, 2), (7778, 2), (3890, 2)]
470	1	1	1	60.0	2	0	[]
472	2	1	8	60.0	2	0	[]
473	77	3	8	40.0	0	7	[(6659, 0), (1326, 1), (1661, 2), (4608, 0), (1062, 1), (6261, 1), (3292, 0)]
479	2	1	8	60.0	2	0	[]
481	2	1	3	60.0	2	0	[]
482	6	1	8	60.0	2	0	[]
492	2	1	8	60.0	2	0	[]
500	3	2	16	200.0	2	0	[]
508	1	1	8	60.0	2	0	[]
509	1	4	8	60.0	2	0	[]
515	5	1	8	60.0	2	0	[]
516	17	2	8	60.0	2	0	[]
518	1	1	8	60.0	2	0	[]
525	1	3	8	60.0	2	0	[]
526	3	1	8	60.0	2	0	[]
528	2	1	8	60.0	2	0	[]
532	1	1	8	60.0	2	0	[]
533	15	1	8	60.0	2	1	[(1046, 1)]
535	4	2	8	60.0	2	1	[(5011, 1)]
536	51	2	8	167.0	2	71	[(7309, 0), (5063, 0), (7768, 0), (1031, 0), (4530, 0), (9269, 0), (365, 0), (7058, 0), (4471, 0), (7154, 0), (4393, 0), (8069, 0), (3709, 0), (1024, 0), (6827, 0), (1640, 0), (7942, 0), (7267, 0), (4551, 0), (8191, 0), (5106, 0), (6393, 0), (7080, 0), (5028, 0), (8194, 0), (3845, 0), (9228, 0), (122, 0), (793, 0), (7778, 0), (4449, 0), (3048, 0), (3178, 0), (3654, 0), (369, 0), (5496, 0), (6139, 0), (281, 0), (4778, 0), (9084, 0), (5807, 0), (3127, 0), (8970, 0), (7738, 0), (4042, 0), (2500, 0), (1405, 0), (3890, 1), (685, 0), (1227, 0), (7843, 0), (5111, 0), (2657, 0), (2488, 0), (6659, 0), (6694, 0), (3292, 2), (6188, 0), (585, 0), (8223, 1), (8324, 0), (1887, 0), (3692, 0), (3077, 0), (3849, 0), (5690, 0), (8618, 0), (7928, 0), (5086, 0), (1464, 0), (1781, 0)]
543	1	1	8	60.0	2	0	[]
548	2	2	8	60.0	2	0	[]
551	16	3	8	100.0	2	0	[]
559	1	1	8	60.0	2	0	[]
560	2	1	8	60.0	2	0	[]
561	2	1	8	60.0	2	0	[]
564	2	1	8	60.0	2	0	[]
565	43	24	32	200.0	2	1	[(7431, 1)]
566	2	1	8	60.0	2	0	[]
569	4	1	8	60.0	2	0	[]
572	18	2	8	100.0	2	0	[]
578	2	1	8	60.0	2	0	[]
579	1	1	5	60.0	2	0	[]
582	2	1	2	60.0	2	0	[]
583	2	4	16	80.0	2	0	[]
585	75	3	8	40.0	2	6	[(80, 0), (4474, 0), (2734, 1), (5022, 0), (1062, 0), (6659, 0)]
586	6	3	8	60.0	2	0	[]
588	2	5	2	60.0	2	0	[]
592	1	16	32	200.0	2	0	[]
593	1	1	8	60.0	2	0	[]
595	3	5	8	60.0	2	1	[(7548, 1)]
596	3	1	8	60.0	2	1	[(1509, 2)]
597	3	1	8	60.0	2	0	[]
602	3	1	8	60.0	2	0	[]
604	2	1	6	80.0	2	0	[]
609	1	1	8	60.0	2	0	[]
615	14	2	8	60.0	2	1	[(8767, 2)]
617	6	2	8	60.0	2	0	[]
624	1	4	8	60.0	2	0	[]
626	100	2	8	60.0	2	15	[(3283, 0), (7338, 0), (1153, 0), (3077, 0), (2186, 0), (738, 0), (5063, 0), (6861, 0), (516, 0), (6838, 0), (4874, 0), (80, 0), (1405, 0), (6694, 0), (147, 0)]
627	1	2	8	60.0	2	0	[]
630	2	1	3	60.0	2	0	[]
637	1	1	32	200.0	0	0	[]
638	13	3	8	60.0	2	0	[]
642	25	6	8	60.0	2	0	[]
646	27	6	8	60.0	2	8	[(8862, 1), (1046, 1), (6142, 1), (380, 1), (8541, 1), (5011, 1), (1153, 1), (5815, 2)]
655	26	1	8	40.0	2	2	[(737, 2), (312, 0)]
656	2	12	8	60.0	2	0	[]
659	6	1	4	60.0	2	0	[]
661	3	1	8	60.0	2	0	[]
666	23	11	16	100.0	2	1	[(4205, 1)]
671	2	4	8	60.0	2	0	[]
673	1	1	8	60.0	2	0	[]
679	1	1	8	60.0	2	0	[]
681	3	1	8	60.0	2	0	[]
685	6	1	3	40.0	2	0	[]
690	2	1	8	60.0	2	0	[]
695	27	4	8	60.0	2	2	[(8796, 2), (6659, 0)]
696	2	6	8	60.0	2	0	[]
703	8	1	8	60.0	2	0	[]
708	2	6	8	60.0	2	0	[]
709	3	4	8	60.0	2	2	[(3283, 1), (5022, 0)]
711	2	1	7	60.0	2	0	[]
715	4	1	8	60.0	2	0	[]
716	3	3	8	100.0	2	1	[(4941, 0)]
720	8	1	8	60.0	2	0	[]
723	1	1	2	60.0	2	0	[]
726	135	6	8	60.0	2	26	[(4320, 2), (1919, 0), (1195, 0), (2229, 0), (7433, 0), (399, 0), (5792, 1), (5256, 0), (5374, 2), (1201, 1), (5699, 1), (2029, 0), (1078, 0), (392, 0), (8192, 2), (3297, 1), (3191, 0), (3621, 0), (9249, 1), (5530, 1), (974, 2), (7559, 0), (4603, 1), (5282, 1), (627, 0), (8338, 0)]
730	3	1	2	60.0	2	0	[]
734	1	12	16	60.0	2	0	[]
737	10	5	32	60.0	2	10	[(7626, 2), (5080, 1), (2739, 1), (3241, 1), (2851, 1), (4471, 0), (4275, 2), (80, 2), (1850, 0), (4710, 2)]
738	8	1	8	60.0	2	1	[(5028, 0)]
742	1	1	1	60.0	2	0	[]
744	2	4	8	60.0	2	0	[]
746	12	3	8	60.0	2	0	[]
747	4	2	8	60.0	2	2	[(122, 2), (1019, 2)]
750	2	1	8	60.0	2	0	[]
762	2	1	8	60.0	2	0	[]
764	2	1	8	60.0	2	0	[]
768	6	2	8	60.0	2	0	[]
776	3	1	8	60.0	2	1	[(5022, 1)]
782	319	6	8	60.0	2	9	[(2972, 0), (1919, 1), (6659, 0), (5028, 0), (276, 0), (4551, 0), (3993, 0), (6694, 0), (536, 0)]
788	5	4	8	60.0	2	0	[]
793	15	2	2	60.0	2	0	[]
795	6	4	16	100.0	2	0	[]
796	7	1	8	60.0	2	0	[]
812	2	1	8	60.0	2	0	[]
814	2	4	8	60.0	2	0	[]
817	3	1	8	60.0	2	0	[]
821	2	1	3	60.0	2	1	[(1919, 0)]
828	1	1	8	60.0	2	0	[]
829	7	1	8	60.0	2	0	[]
840	6	2	8	60.0	2	0	[]
843	1	4	8	60.0	2	0	[]
846	6	2	8	40.0	2	0	[]
855	1	1	1	60.0	2	0	[]
858	2	1	8	60.0	2	0	[]
861	3	6	8	60.0	2	0	[]
862	2	1	8	60.0	2	0	[]
865	4	3	8	60.0	2	0	[]
866	2	1	8	60.0	2	0	[]
868	2	1	8	60.0	2	0	[]
871	2	1	4	60.0	2	0	[]
872	1	1	8	60.0	2	0	[]
874	1	1	8	60.0	2	0	[]
880	7	1	8	60.0	2	0	[]
882	1	4	8	60.0	2	0	[]
883	13	6	8	60.0	2	0	[]
890	2	1	8	60.0	2	0	[]
893	1	1	8	60.0	2	0	[]
896	1	1	3	200.0	2	0	[]
902	3	1	8	60.0	2	0	[]
903	2	1	8	60.0	2	0	[]
904	1	1	8	60.0	2	0	[]
906	2	1	8	60.0	2	0	[]
909	8	12	16	100.0	2	0	[]
910	1	1	8	60.0	2	0	[]
915	2	4	8	60.0	2	0	[]
917	2	2	8	60.0	2	0	[]
918	3	1	8	60.0	2	0	[]
920	4	2	8	200.0	2	1	[(3495, 0)]
923	2	3	8	60.0	2	1	[(3674, 2)]
926	4	3	8	60.0	2	0	[]
927	1	1	8	60.0	2	0	[]
928	3	1	8	60.0	2	0	[]
938	50	1	8	80.0	2	0	[]
943	1	1	8	60.0	2	0	[]
945	21	1	8	60.0	2	2	[(7853, 0), (5148, 0)]
947	3	2	8	60.0	2	0	[]
953	5	1	8	60.0	2	0	[]
955	2	1	8	60.0	2	0	[]
957	1	1	1	60.0	2	0	[]
958	66	3	8	60.0	2	3	[(6647, 2), (1019, 0), (5011, 2)]
959	2	1	8	60.0	2	0	[]
968	3	1	16	60.0	2	0	[]
971	7	2	8	60.0	2	0	[]
973	3	1	8	60.0	2	0	[]
974	1	1	8	60.0	2	0	[]
977	2	1	3	60.0	2	0	[]
979	2	4	8	60.0	2	0	[]
981	2	1	8	80.0	2	0	[]
987	1	1	8	60.0	2	0	[]
991	4	1	8	60.0	2	0	[]
992	1	4	8	60.0	2	0	[]
994	5	1	7	60.0	2	0	[]
998	10	4	8	60.0	2	0	[]
1002	6	3	8	80.0	2	1	[(6659, 0)]
1004	3	1	8	60.0	2	0	[]
1007	1	1	1	60.0	2	0	[]
1013	7	1	8	60.0	2	0	[]
1014	3	1	8	60.0	2	10	[(6814, 0), (2533, 0), (4646, 0), (2138, 0), (7452, 0), (7262, 0), (2644, 0), (3558, 0), (3004, 0), (6020, 0)]
1015	2	1	8	60.0	2	0	[]
1019	6	2	8	60.0	2	0	[]
1020	3	1	8	60.0	2	0	[]
1024	123	5	10	60.0	1	11	[(5063, 0), (68, 1), (6659, 0), (3495, 1), (4071, 0), (9084, 0), (8223, 1), (1919, 0), (4360, 2), (3183, 0), (536, 0)]
1028	1	1	1	60.0	2	0	[]
1031	6	2	2	60.0	2	0	[]
1032	2	1	8	60.0	2	0	[]
1039	1	4	8	60.0	2	0	[]
1042	1	1	8	60.0	2	0	[]
1043	2	1	8	60.0	2	0	[]
1045	19	3	8	60.0	2	5	[(4684, 2), (8266, 2), (6417, 1), (1687, 2), (9196, 0)]
1046	44	4	32	100.0	2	0	[]
1047	1	1	1	60.0	2	0	[]
1048	4	1	8	60.0	2	0	[]
1053	1	1	2	60.0	2	0	[]
1054	1	3	8	60.0	2	0	[]
1057	4	1	8	60.0	2	0	[]
1058	1	1	8	60.0	2	0	[]
1062	1	2	8	60.0	2	2	[(473, 2), (585, 2)]
1063	2	1	8	60.0	2	0	[]
1068	2	1	8	60.0	2	0	[]
1069	2	1	8	60.0	2	0	[]
1070	4	1	2	60.0	2	0	[]
1071	23	2	10	60.0	1	1	[(7338, 0)]
1073	2	1	4	60.0	2	0	[]
1075	2	1	5	60.0	2	0	[]
1077	3	1	8	60.0	2	4	[(6726, 2), (132, 0), (4002, 2), (1153, 1)]
1078	2	1	8	60.0	2	0	[]
1094	1	4	8	60.0	2	0	[]
1096	15	2	8	60.0	2	2	[(4360, 1), (68, 1)]
1097	34	5	8	60.0	2	0	[]
1099	15	1	2	60.0	2	0	[]
1102	2	1	8	60.0	2	0	[]
1103	2	1	8	60.0	2	0	[]
1112	2	1	8	60.0	2	0	[]
1113	1	32	80	600.0	2	0	[]
1127	5	1	8	60.0	2	0	[]
1130	1	1	8	60.0	2	0	[]
1131	2	1	8	60.0	2	0	[]
1133	1	1	8	60.0	2	0	[]
1143	3	1	7	60.0	2	0	[]
1147	4	1	8	60.0	2	0	[]
1152	409	5	8	60.0	2	39	[(92, 0), (3220, 1), (5677, 0), (7075, 2), (1919, 0), (2469, 0), (2263, 0), (5011, 0), (7318, 0), (1887, 0), (5022, 0), (586, 0), (1046, 0), (1013, 0), (2291, 0), (793, 0), (7120, 1), (80, 0), (147, 0), (1416, 0), (4154, 2), (27, 0), (7338, 0), (2504, 0), (7976, 0), (20, 0), (2815, 0), (4531, 0), (6694, 0), (5967, 0), (1176, 0), (9228, 0), (3431, 0), (3023, 1), (3454, 0), (782, 0), (3183, 0), (9297, 1), (3905, 0)]
1153	135	6	8	60.0	2	7	[(8862, 1), (5272, 2), (313, 1), (4588, 1), (5471, 2), (6466, 2), (380, 1)]
1158	2	1	8	60.0	2	1	[(6659, 0)]
1168	2	4	8	60.0	2	0	[]
1169	4	2	8	60.0	2	0	[]
1176	4	1	2	60.0	2	0	[]
1180	2	1	8	60.0	2	0	[]
1186	1	1	5	60.0	2	0	[]
1187	2	1	8	60.0	2	0	[]
1188	2	2	8	60.0	2	0	[]
1192	2	1	8	60.0	2	0	[]
1195	98	5	8	60.0	2	9	[(6659, 0), (3894, 0), (3428, 0), (1509, 2), (9174, 0), (3959, 0), (7438, 0), (7007, 0), (8702, 0)]
1200	2	1	8	60.0	2	0	[]
1201	12	6	8	60.0	2	1	[(7998, 0)]
1202	1	1	8	60.0	2	0	[]
1203	7	1	8	60.0	2	0	[]
1217	2	1	6	60.0	2	0	[]
1218	2	1	8	60.0	2	0	[]
1227	76	3	8	60.0	2	3	[(80, 2), (6659, 0), (8223, 2)]
1229	12	2	8	60.0	2	4	[(1416, 0), (3077, 0), (4471, 2), (5022, 0)]
1236	2	1	2	60.0	2	0	[]
1240	2	6	8	60.0	2	0	[]
1247	4	1	8	60.0	2	0	[]
1254	1	4	8	60.0	2	0	[]
1256	2	12	16	200.0	2	0	[]
1267	5	1	2	60.0	2	0	[]
1271	2	4	8	60.0	2	0	[]
1274	4	1	8	60.0	2	1	[(6659, 0)]
1278	6	1	8	60.0	2	1	[(1906, 2)]
1302	2	1	8	60.0	2	0	[]
1303	2	1	8	60.0	2	0	[]
1307	2	1	8	60.0	2	0	[]
1310	151	5	8	60.0	2	13	[(1781, 0), (6659, 0), (6393, 2), (473, 1), (2263, 0), (2285, 0), (3654, 2), (7338, 0), (4522, 2), (3890, 0), (3183, 2), (2153, 0), (147, 2)]
1311	2	1	8	60.0	2	0	[]
1314	24	2	8	60.0	2	2	[(3963, 2), (1919, 0)]
1316	1	5	8	60.0	2	0	[]
1323	6	4	8	60.0	2	0	[]
1326	4	1	8	60.0	2	3	[(473, 0), (5705, 0), (6659, 0)]
1332	1	1	1	60.0	2	2	[(3806, 1), (4986, 2)]
1351	1	2	2	60.0	2	0	[]
1365	8	1	8	60.0	2	0	[]
1379	1	1	8	60.0	2	0	[]
1385	2	3	8	60.0	2	0	[]
1386	2	1	8	60.0	2	0	[]
1388	8	2	8	60.0	2	0	[]
1391	189	6	8	60.0	2	12	[(1042, 0), (7333, 1), (1919, 0), (8518, 0), (6142, 0), (3894, 0), (2061, 1), (9035, 0), (8375, 0), (4792, 0), (4522, 1), (4509, 0)]
1393	1	1	8	60.0	2	0	[]
1397	1	1	8	60.0	2	0	[]
1405	174	6	8	40.0	0	11	[(7338, 0), (6659, 0), (7333, 0), (9084, 0), (8223, 1), (312, 0), (3495, 1), (122, 0), (1024, 0), (5548, 0), (3890, 0)]
1416	64	10	16	60.0	0	11	[(4608, 2), (3654, 0), (4471, 2), (6659, 0), (8069, 0), (7309, 2), (8223, 2), (464, 2), (4947, 0), (1851, 0), (80, 2)]
1423	2	1	1	60.0	2	0	[]
1432	2	1	8	60.0	2	0	[]
1435	3	1	8	60.0	2	0	[]
1438	8	2	8	60.0	2	0	[]
1446	1	1	8	60.0	2	0	[]
1455	18	6	8	60.0	2	1	[(6659, 0)]
1456	4	1	8	60.0	2	0	[]
1457	1	1	7	80.0	2	0	[]
1458	3	4	8	60.0	2	0	[]
1464	8	1	8	40.0	2	3	[(5022, 0), (6659, 0), (312, 0)]
1466	1	1	2	60.0	2	0	[]
1467	1	4	8	60.0	2	0	[]
1477	1	1	8	60.0	2	0	[]
1478	2	1	8	60.0	2	0	[]
1498	2	1	8	60.0	2	0	[]
1509	151	5	8	60.0	2	15	[(1416, 0), (3892, 0), (3654, 0), (310, 0), (708, 1), (6659, 0), (7768, 0), (8971, 0), (7333, 0), (3806, 0), (8223, 0), (8618, 0), (5220, 0), (3890, 0), (3747, 0)]
1510	4	14	32	80.0	2	0	[]
1516	2	1	8	60.0	2	0	[]
1519	1	1	8	60.0	2	0	[]
1521	1	1	8	167.0	2	0	[]
1528	1	4	8	60.0	2	0	[]
1533	3	1	8	60.0	2	0	[]
1542	1	1	8	60.0	2	0	[]
1546	3	2	8	60.0	2	1	[(1919, 0)]
1549	8	2	8	60.0	2	1	[(7176, 0)]
1553	1	1	1	60.0	2	0	[]
1557	3	2	8	60.0	2	1	[(6659, 0)]
1563	2	2	8	60.0	2	0	[]
1577	1	4	8	60.0	2	0	[]
1578	1	4	8	60.0	2	0	[]
1584	2	1	8	80.0	2	0	[]
1589	5	1	8	60.0	2	0	[]
1593	9	2	8	60.0	2	4	[(7338, 0), (4153, 2), (8994, 0), (147, 0)]
1595	1	1	8	60.0	2	0	[]
1596	3	12	16	80.0	2	0	[]
1603	1	2	8	100.0	2	0	[]
1604	2	1	8	60.0	2	0	[]
1606	2	2	32	60.0	2	8	[(7626, 2), (5080, 1), (2739, 1), (3241, 1), (2851, 1), (4275, 2), (80, 2), (4710, 2)]
1616	5	1	8	60.0	2	0	[]
1623	2	1	2	60.0	2	1	[(1919, 1)]
1625	2	1	8	60.0	2	0	[]
1629	1	1	8	60.0	2	0	[]
1632	1	4	8	60.0	2	0	[]
1635	52	2	8	60.0	2	0	[]
1636	1	1	8	60.0	2	0	[]
1638	4	1	8	60.0	2	0	[]
1639	100	2	8	60.0	2	25	[(1919, 0), (1019, 2), (3653, 0), (2551, 0), (8290, 2), (6140, 2), (6013, 2), (8852, 0), (3000, 1), (7508, 2), (3582, 2), (9078, 0), (1169, 2), (6534, 0), (6670, 1), (8412, 2), (4042, 2), (4736, 1), (7723, 1), (5271, 0), (7091, 0), (445, 2), (1671, 2), (5220, 0), (2558, 2)]
1640	13	2	8	60.0	2	0	[]
1644	15	2	8	60.0	2	1	[(7267, 0)]
1651	2	1	8	60.0	2	0	[]
1655	1	4	8	60.0	2	0	[]
1656	2	1	8	60.0	2	0	[]
1661	2	2	8	60.0	2	0	[]
1662	23	3	8	60.0	2	0	[]
1667	1	1	8	60.0	2	0	[]
1670	2	1	8	60.0	2	0	[]
1671	1	1	1	60.0	2	0	[]
1678	1	1	8	100.0	2	0	[]
1685	1	1	1	60.0	2	0	[]
1687	2	1	8	60.0	2	0	[]
1688	2	3	8	60.0	2	0	[]
1689	2	1	8	60.0	2	0	[]
1690	2	4	8	60.0	2	0	[]
1699	2	1	8	60.0	2	0	[]
1708	5	3	8	60.0	2	0	[]
1712	1	1	1	60.0	2	0	[]
1724	4	1	8	60.0	2	0	[]
1727	2	6	8	60.0	2	0	[]
1729	7	1	8	60.0	2	0	[]
1733	8	1	1	60.0	2	0	[]
1739	2	1	3	60.0	2	0	[]
1740	4	1	8	60.0	2	0	[]
1749	3	1	2	60.0	2	0	[]
1753	1	1	7	60.0	2	0	[]
1755	1	1	1	60.0	2	0	[]
1761	2	6	8	60.0	2	0	[]
1774	2	1	8	60.0	2	0	[]
1781	17	5	8	60.0	0	7	[(9077, 0), (6659, 0), (585, 0), (8429, 1), (846, 0), (312, 0), (3395, 0)]
1787	2	4	8	60.0	2	0	[]
1791	1	1	8	60.0	2	0	[]
1796	15	4	3	60.0	2	1	[(2725, 0)]
1797	3	12	16	80.0	2	0	[]
1800	6	2	8	60.0	2	0	[]
1806	1	1	2	60.0	2	0	[]
1814	1	1	2	60.0	2	0	[]
1820	2	1	8	60.0	2	0	[]
1821	12	1	8	60.0	2	0	[]
1822	10	4	16	200.0	2	0	[]
1833	3	2	8	60.0	2	0	[]
1835	1	1	8	60.0	2	0	[]
1836	4	1	8	60.0	2	0	[]
1837	6	1	3	60.0	2	0	[]
1840	3	1	8	60.0	2	0	[]
1842	2	1	1	60.0	2	0	[]
1843	4	1	8	60.0	2	0	[]
1847	1	8	8	60.0	2	0	[]
1850	1	2	10	40.0	2	0	[]
1851	2	1	8	60.0	2	0	[]
1857	3	1	8	60.0	2	0	[]
1859	1	1	8	60.0	2	0	[]
1860	1	1	2	60.0	2	0	[]
1871	4	2	8	60.0	2	1	[(1919, 0)]
1872	4	2	8	60.0	2	0	[]
1873	2	1	8	60.0	2	0	[]
1878	6	1	8	60.0	2	0	[]
1886	2	1	5	60.0	2	0	[]
1887	11	1	8	40.0	2	0	[]
1889	12	1	8	60.0	2	0	[]
1892	2	1	8	60.0	2	0	[]
1894	2	3	8	60.0	2	0	[]
1901	4	1	8	60.0	2	0	[]
1906	3	1	8	80.0	2	0	[]
1912	2	1	2	60.0	2	0	[]
1914	2	1	8	60.0	2	0	[]
1915	25	12	16	100.0	2	0	[]
1918	3	1	1	60.0	2	0	[]
1919	20	6	8	60.0	0	16	[(8474, 1), (8455, 1), (9035, 0), (5919, 0), (260, 2), (5705, 2), (3894, 0), (5148, 0), (3076, 0), (8767, 2), (5220, 0), (3731, 0), (5732, 1), (8209, 0), (1391, 0), (5271, 1)]
1920	1	1	2	60.0	2	0	[]
1922	2	4	8	60.0	2	0	[]
1924	1	1	3	60.0	2	0	[]
1926	1	1	8	60.0	2	0	[]
1933	1	4	16	60.0	2	0	[]
1935	1	1	2	60.0	2	0	[]
1939	3	1	8	60.0	2	0	[]
1941	3	1	12	80.0	2	0	[]
1944	4	2	8	60.0	2	0	[]
1946	3	3	4	200.0	2	0	[]
1950	1	4	8	60.0	2	0	[]
1952	152	6	8	60.0	2	6	[(3021, 0), (6972, 0), (7221, 2), (3748, 1), (2647, 1), (8980, 1)]
1955	18	3	3	300.0	2	0	[]
1958	2	1	8	60.0	2	0	[]
1962	10	1	8	60.0	2	1	[(6369, 2)]
1964	1	4	8	80.0	2	0	[]
1966	1	4	8	60.0	2	0	[]
1967	2	4	16	80.0	2	0	[]
1968	2	1	8	60.0	2	0	[]
1969	3	3	16	60.0	2	0	[]
1972	14	12	16	60.0	2	1	[(5930, 2)]
1984	4	1	4	60.0	2	0	[]
1987	8	2	8	60.0	2	0	[]
1993	6	3	8	60.0	2	0	[]
1996	1	1	8	60.0	2	0	[]
2002	2	1	8	60.0	2	0	[]
2003	1	1	1	60.0	2	0	[]
2008	1	1	8	60.0	2	0	[]
2009	1	1	8	60.0	2	0	[]
2010	2	1	2	60.0	2	0	[]
2013	2	1	8	60.0	2	0	[]
2016	2	2	8	60.0	2	0	[]
2017	2	1	8	60.0	2	0	[]
2018	3	2	8	80.0	2	0	[]
2021	1	1	2	60.0	2	0	[]
2026	2	1	8	60.0	2	0	[]
2027	2	1	8	60.0	2	3	[(5677, 1), (442, 0), (8445, 1)]
2029	55	2	8	60.0	2	3	[(313, 2), (2709, 0), (3184, 2)]
2031	2	1	8	60.0	2	0	[]
2034	10	2	8	60.0	2	1	[(4522, 2)]
2039	1	1	2	60.0	2	0	[]
2044	2	1	8	60.0	2	0	[]
2045	2	1	8	60.0	2	0	[]
2047	1	1	1	60.0	2	0	[]
2051	2	1	1	60.0	2	0	[]
2053	4	1	8	60.0	2	0	[]
2058	3	1	2	200.0	2	0	[]
2061	24	2	8	60.0	2	2	[(4608, 0), (6659, 0)]
2064	2	4	8	60.0	2	0	[]
2065	2	1	8	60.0	2	0	[]
2067	3	1	8	60.0	2	0	[]
2071	2	1	8	60.0	2	0	[]
2083	3	2	16	80.0	2	0	[]
2084	4	1	8	60.0	2	0	[]
2085	1	1	8	60.0	2	0	[]
2087	1	1	2	60.0	2	0	[]
2091	2	1	8	60.0	2	0	[]
2095	4	3	8	60.0	2	0	[]
2096	2	1	8	60.0	2	0	[]
2100	2	1	1	60.0	2	0	[]
2101	1	1	48	300.0	2	0	[]
2110	2	1	8	60.0	2	0	[]
2111	9	2	8	60.0	2	1	[(7007, 0)]
2114	5	1	8	60.0	2	0	[]
2121	1	1	2	60.0	2	0	[]
2126	11	6	8	60.0	2	0	[]
2134	5	1	8	60.0	2	0	[]
2138	4	1	8	60.0	2	10	[(6814, 0), (2533, 0), (4646, 0), (7452, 0), (7262, 0), (2644, 0), (3558, 0), (3004, 0), (6020, 0), (1014, 0)]
2144	1	1	8	60.0	2	0	[]
2145	11	1	2	60.0	2	0	[]
2146	2	1	8	60.0	2	0	[]
2150	2	1	8	60.0	2	0	[]
2153	2	1	6	60.0	2	0	[]
2155	6	4	2	100.0	2	0	[]
2156	2	1	8	60.0	2	0	[]
2158	2	1	8	60.0	2	0	[]
2163	2	1	8	60.0	2	0	[]
2171	1	1	8	60.0	2	0	[]
2173	24	2	8	60.0	2	0	[]
2177	1	1	2	60.0	2	0	[]
2183	1	1	8	60.0	2	0	[]
2186	124	6	8	60.0	2	27	[(4338, 2), (8266, 0), (4071, 2), (4551, 1), (6827, 1), (5997, 1), (6659, 0), (1636, 1), (5967, 1), (3894, 1), (7221, 1), (1843, 1), (9196, 1), (7052, 2), (7543, 1), (122, 1), (2263, 1), (6499, 1), (7566, 1), (5382, 2), (6153, 2), (6020, 1), (3856, 0), (1640, 2), (659, 2), (4531, 0), (3097, 2)]
2187	3	1	8	60.0	2	0	[]
2188	8	8	16	80.0	2	0	[]
2198	1	1	2	60.0	2	0	[]
2202	1	1	8	60.0	2	0	[]
2203	1	1	8	60.0	2	0	[]
2207	3	1	7	60.0	2	0	[]
2208	1	1	8	60.0	2	0	[]
2212	2	1	8	60.0	2	0	[]
2215	3	1	8	60.0	2	0	[]
2218	2	1	8	167.0	2	0	[]
2225	2	1	2	60.0	2	0	[]
2229	3	1	1	60.0	2	0	[]
2230	1	1	7	60.0	2	0	[]
2232	2	2	8	60.0	2	0	[]
2239	2	4	8	60.0	2	0	[]
2240	2	1	8	60.0	2	0	[]
2244	2	6	8	60.0	2	0	[]
2247	1	1	8	60.0	2	0	[]
2251	5	2	8	60.0	2	0	[]
2252	2	3	8	60.0	2	0	[]
2256	3	1	8	60.0	2	0	[]
2260	2	1	8	60.0	2	0	[]
2261	2	3	8	60.0	2	0	[]
2263	318	5	8	60.0	2	4	[(6659, 0), (276, 4), (3569, 0), (147, 3)]
2268	2	1	8	60.0	2	0	[]
2270	2	3	8	60.0	2	0	[]
2272	24	2	8	40.0	1	1	[(6659, 0)]
2274	4	2	8	40.0	2	2	[(6057, 0), (585, 0)]
2281	2	1	8	60.0	2	0	[]
2284	4	1	8	60.0	2	0	[]
2285	3	1	8	60.0	2	0	[]
2291	8	1	1	80.0	2	0	[]
2293	2	1	8	60.0	2	0	[]
2294	1	1	1	60.0	2	0	[]
2295	2	1	7	60.0	2	0	[]
2308	1	1	8	60.0	2	0	[]
2314	1	4	8	60.0	2	0	[]
2315	2	1	8	60.0	2	0	[]
2316	2	1	8	60.0	2	0	[]
2323	1	1	1	60.0	2	0	[]
2327	1	1	2	60.0	2	0	[]
2328	1	2	24	200.0	0	0	[]
2331	1	1	4	60.0	2	0	[]
2332	26	2	8	80.0	2	39	[(7309, 0), (9269, 0), (3511, 0), (4778, 0), (5614, 0), (3127, 0), (1955, 0), (7267, 0), (8191, 0), (1227, 0), (5028, 0), (8194, 0), (5903, 0), (122, 0), (793, 0), (3657, 0), (80, 0), (3395, 0), (737, 0), (1416, 0), (4393, 0), (1351, 0), (3618, 0), (473, 0), (2770, 0), (4042, 0), (1405, 0), (6153, 0), (1323, 0), (8324, 0), (1153, 0), (3048, 0), (585, 0), (6393, 0), (5480, 0), (9228, 0), (6694, 0), (1781, 0), (1071, 0)]
2333	2	12	16	80.0	2	0	[]
2340	2	4	8	60.0	2	0	[]
2343	2	1	8	60.0	2	0	[]
2344	2	1	8	60.0	2	0	[]
2348	1	1	2	60.0	2	0	[]
2354	3	1	1	60.0	2	0	[]
2358	2	1	8	60.0	2	0	[]
2369	1	4	8	60.0	2	0	[]
2371	1	4	8	60.0	2	0	[]
2373	1	4	8	60.0	2	0	[]
2375	1	4	16	80.0	2	0	[]
2384	1	1	8	60.0	2	0	[]
2387	1	1	8	60.0	2	0	[]
2395	1	1	7	80.0	2	0	[]
2397	1	1	1	60.0	2	0	[]
2404	1	2	8	60.0	2	0	[]
2405	1	1	8	60.0	2	0	[]
2406	1	8	16	80.0	2	0	[]
2409	1	1	8	60.0	2	0	[]
2411	1	1	8	60.0	2	0	[]
2413	2	4	8	60.0	2	0	[]
2416	2	1	8	60.0	2	0	[]
2422	2	4	8	60.0	2	0	[]
2423	2	1	8	60.0	2	0	[]
2424	2	1	8	60.0	2	0	[]
2429	3	1	8	60.0	2	0	[]
2438	4	1	8	60.0	2	0	[]
2450	4	1	8	60.0	2	0	[]
2454	5	4	8	100.0	2	0	[]
2456	5	4	8	60.0	2	0	[]
2459	5	2	8	60.0	2	0	[]
2461	5	1	8	60.0	2	0	[]
2463	5	1	8	60.0	2	0	[]
2464	6	4	8	60.0	2	0	[]
2465	6	2	8	60.0	2	0	[]
2469	6	1	2	60.0	2	0	[]
2471	6	5	16	80.0	2	0	[]
2479	17	4	1	100.0	2	2	[(4009, 2), (8191, 0)]
2482	24	2	8	60.0	2	3	[(1919, 2), (5022, 1), (5091, 2)]
2488	42	6	7	60.0	2	47	[(3220, 1), (9035, 1), (2482, 2), (2996, 1), (1195, 1), (4471, 1), (4028, 2), (5022, 1), (7007, 2), (5631, 1), (69, 2), (617, 1), (7507, 2), (1388, 1), (2029, 2), (6483, 1), (1062, 0), (8852, 2), (2270, 2), (7805, 2), (417, 0), (8955, 1), (3894, 1), (80, 1), (991, 2), (9077, 0), (7619, 2), (1662, 2), (5397, 2), (473, 0), (7338, 2), (4648, 2), (4429, 0), (2940, 2), (5691, 1), (2111, 2), (2858, 0), (1644, 2), (585, 1), (3481, 1), (8767, 1), (6763, 2), (5601, 2), (6726, 2), (6020, 2), (7113, 0), (3717, 2)]
2495	10	4	8	60.0	2	0	[]
2499	10	1	8	60.0	2	0	[]
2500	10	1	16	60.0	2	2	[(3283, 0), (6827, 0)]
2501	9	2	8	60.0	2	0	[]
2504	9	1	2	60.0	2	0	[]
2505	9	1	8	60.0	2	0	[]
2509	8	1	8	60.0	2	0	[]
2511	7	1	8	60.0	2	0	[]
2514	3	1	16	80.0	2	0	[]
2515	3	1	6	60.0	2	0	[]
2516	3	3	8	60.0	2	0	[]
2517	3	1	8	60.0	2	0	[]
2519	3	4	8	60.0	2	0	[]
2520	3	4	8	60.0	2	0	[]
2521	3	4	8	60.0	2	0	[]
2528	2	4	8	60.0	2	0	[]
2530	2	12	16	60.0	2	0	[]
2533	2	1	8	60.0	2	10	[(6814, 0), (4646, 0), (2138, 0), (7452, 0), (7262, 0), (2644, 0), (3558, 0), (3004, 0), (6020, 0), (1014, 0)]
2536	2	2	8	60.0	2	1	[(4698, 0)]
2544	2	1	8	60.0	2	0	[]
2546	2	1	1	60.0	2	0	[]
2551	2	1	8	60.0	2	0	[]
2552	2	1	8	60.0	2	0	[]
2553	2	4	8	60.0	2	0	[]
2558	2	1	8	60.0	2	0	[]
2562	2	4	8	60.0	2	0	[]
2564	2	2	2	60.0	2	0	[]
2569	2	1	8	60.0	2	0	[]
2573	2	4	8	60.0	2	0	[]
2574	2	1	8	60.0	2	0	[]
2594	2	1	7	60.0	2	0	[]
2596	1	8	16	100.0	2	0	[]
2604	1	1	8	60.0	2	0	[]
2605	1	1	8	60.0	2	0	[]
2608	2	4	8	100.0	2	0	[]
2612	6	5	8	60.0	2	0	[]
2613	8	1	8	60.0	2	0	[]
2616	35	3	8	60.0	2	4	[(7734, 0), (5028, 0), (8223, 0), (1019, 2)]
2621	5	1	8	40.0	2	1	[(3657, 0)]
2626	1	1	8	60.0	2	0	[]
2634	3	1	8	60.0	2	0	[]
2635	1	1	8	60.0	2	0	[]
2642	1	1	8	60.0	2	0	[]
2644	3	2	8	60.0	2	10	[(6814, 0), (2533, 0), (4646, 0), (2138, 0), (7452, 0), (7262, 0), (3558, 0), (3004, 0), (6020, 0), (1014, 0)]
2647	2	3	8	60.0	2	0	[]
2649	19	5	8	60.0	2	6	[(80, 0), (7309, 0), (7333, 0), (5022, 0), (7928, 0), (8223, 2)]
2654	1	4	8	80.0	2	0	[]
2655	2	1	8	60.0	2	0	[]
2657	26	2	8	60.0	2	0	[]
2662	1	1	8	40.0	0	0	[]
2664	6	1	8	60.0	2	0	[]
2669	2	1	8	60.0	2	0	[]
2676	1	1	1	60.0	2	0	[]
2677	2	1	2	60.0	2	1	[(6659, 0)]
2678	1	1	8	60.0	2	0	[]
2679	2	1	3	60.0	2	0	[]
2682	4	1	8	100.0	2	0	[]
2683	2	1	8	60.0	2	0	[]
2692	119	12	16	200.0	2	0	[]
2698	2	1	16	60.0	2	1	[(3249, 0)]
2701	27	4	7	60.0	2	2	[(5568, 0), (7290, 0)]
2703	4	1	8	60.0	2	0	[]
2709	4	3	8	60.0	2	0	[]
2710	78	6	10	60.0	0	5	[(5064, 2), (1987, 0), (2734, 1), (281, 1), (5669, 2)]
2722	1	1	2	60.0	2	0	[]
2725	1	1	8	60.0	2	0	[]
2726	2	2	8	60.0	2	0	[]
2729	2	1	8	60.0	2	0	[]
2730	1	1	8	60.0	2	0	[]
2731	7	36	48	300.0	2	3	[(737, 0), (6659, 0), (4801, 0)]
2734	2	1	8	60.0	2	0	[]
2739	1	1	60	60.0	2	12	[(7626, 2), (5080, 1), (7716, 2), (4608, 2), (255, 2), (8535, 2), (1606, 2), (4275, 2), (4037, 2), (80, 2), (737, 2), (4710, 2)]
2744	2	1	8	60.0	2	0	[]
2748	1	1	8	60.0	2	0	[]
2750	1	1	16	80.0	2	0	[]
2754	4	3	8	60.0	2	0	[]
2756	1	4	8	60.0	2	0	[]
2757	7	2	8	60.0	2	0	[]
2759	2	1	8	60.0	2	0	[]
2763	3	3	8	60.0	2	0	[]
2765	7	1	8	60.0	2	0	[]
2766	2	1	8	60.0	2	0	[]
2770	8	2	8	60.0	2	1	[(8223, 2)]
2772	10	12	2	60.0	2	0	[]
2775	2	1	2	60.0	2	0	[]
2776	1	1	8	60.0	2	0	[]
2778	2	1	2	60.0	2	0	[]
2782	1	1	2	60.0	2	0	[]
2794	2	1	8	60.0	2	0	[]
2806	2	1	8	60.0	2	1	[(6659, 0)]
2809	2	2	8	60.0	2	0	[]
2811	1	1	8	60.0	2	0	[]
2813	4	5	8	60.0	2	0	[]
2814	25	1	8	60.0	2	0	[]
2815	60	1	8	60.0	2	1	[(6659, 0)]
2830	1	1	2	60.0	2	0	[]
2834	1	4	16	100.0	2	0	[]
2836	1	1	6	60.0	2	0	[]
2837	1	1	8	60.0	0	0	[]
2838	1	1	7	60.0	2	0	[]
2844	7	2	16	100.0	2	0	[]
2846	3	1	8	60.0	2	1	[(1919, 0)]
2848	1	1	8	60.0	2	0	[]
2849	4	1	8	60.0	2	0	[]
2851	1	16	60	60.0	2	12	[(7626, 2), (5080, 1), (7716, 2), (4608, 2), (255, 2), (8535, 2), (1606, 2), (4275, 2), (4037, 2), (80, 2), (737, 2), (4710, 2)]
2853	6	2	8	40.0	2	0	[]
2857	1	11	16	100.0	2	0	[]
2858	1	1	8	60.0	2	0	[]
2860	1	1	8	60.0	2	0	[]
2868	1	1	8	60.0	2	0	[]
2871	1	1	2	60.0	2	0	[]
2876	8	2	8	60.0	2	0	[]
2880	6	4	8	60.0	2	0	[]
2889	4	1	8	60.0	2	0	[]
2890	2	3	8	60.0	2	0	[]
2891	1	1	8	60.0	2	0	[]
2896	5	2	16	80.0	2	0	[]
2905	2	6	8	60.0	2	0	[]
2908	1	1	8	60.0	2	0	[]
2909	2	1	8	60.0	2	0	[]
2914	3	4	8	60.0	2	0	[]
2915	2	1	8	60.0	2	0	[]
2916	2	4	8	60.0	2	0	[]
2926	2	4	8	60.0	2	0	[]
2929	2	1	8	60.0	2	0	[]
2930	2	1	1	60.0	2	0	[]
2933	1	3	8	60.0	2	0	[]
2938	3	1	8	60.0	2	0	[]
2939	2	1	8	60.0	2	0	[]
2940	59	1	8	60.0	2	2	[(6120, 0), (1796, 2)]
2947	2	1	8	60.0	2	0	[]
2958	1	1	8	60.0	2	0	[]
2969	3	1	8	60.0	2	0	[]
2972	1	1	8	60.0	2	0	[]
2974	2	1	1	60.0	2	0	[]
2975	1	1	8	60.0	2	0	[]
2978	12	2	8	60.0	2	0	[]
2980	10	1	8	60.0	2	0	[]
2984	20	5	8	60.0	2	0	[]
2987	1	1	1	60.0	2	0	[]
2988	1	1	8	60.0	2	0	[]
2992	1	1	2	60.0	2	0	[]
2996	3	2	8	60.0	2	0	[]
2999	1	1	16	40.0	2	0	[]
3000	4	2	8	60.0	2	0	[]
3002	18	2	8	60.0	2	0	[]
3003	2	1	8	60.0	2	0	[]
3004	1	1	8	60.0	2	10	[(6814, 0), (2533, 0), (4646, 0), (2138, 0), (7452, 0), (7262, 0), (2644, 0), (3558, 0), (6020, 0), (1014, 0)]
3006	1	4	8	60.0	2	0	[]
3008	5	1	8	60.0	2	0	[]
3010	10	1	8	60.0	2	0	[]
3015	4	4	8	60.0	2	0	[]
3016	1	1	8	60.0	2	0	[]
3021	37	4	8	60.0	2	0	[]
3023	6	4	8	60.0	2	0	[]
3024	1	1	4	60.0	2	0	[]
3035	1	1	3	60.0	2	0	[]
3044	2	1	8	60.0	2	0	[]
3046	1	4	8	60.0	2	0	[]
3047	5	1	8	60.0	2	0	[]
3048	62	12	16	80.0	2	1	[(6694, 0)]
3054	9	6	8	60.0	2	4	[(5691, 0), (4530, 0), (1195, 0), (1958, 0)]
3060	2	1	8	60.0	2	0	[]
3061	1	1	8	60.0	2	0	[]
3062	2	1	5	60.0	2	0	[]
3066	13	2	8	100.0	2	1	[(1391, 0)]
3068	2	1	8	60.0	2	0	[]
3071	2	1	8	60.0	2	0	[]
3076	5	1	2	60.0	2	1	[(9129, 2)]
3077	130	6	8	60.0	2	17	[(1274, 2), (4551, 0), (6139, 0), (6659, 0), (2091, 0), (5817, 1), (8223, 2), (3845, 1), (1153, 0), (7734, 0), (1644, 2), (7908, 2), (3890, 2), (1781, 0), (3748, 0), (1435, 0), (2153, 2)]
3078	4	1	8	60.0	2	0	[]
3081	2	1	8	60.0	2	0	[]
3085	10	1	8	60.0	2	0	[]
3089	2	2	16	80.0	2	0	[]
3092	2	1	8	60.0	2	0	[]
3097	9	3	8	60.0	2	0	[]
3098	2	1	7	60.0	2	0	[]
3110	2	1	7	60.0	2	0	[]
3113	1	1	7	60.0	2	0	[]
3114	2	1	8	60.0	2	0	[]
3119	2	1	8	60.0	2	0	[]
3121	6	3	2	60.0	2	0	[]
3126	1	2	8	60.0	2	0	[]
3127	29	1	8	60.0	2	3	[(1781, 0), (8822, 0), (2163, 0)]
3130	1	1	2	60.0	2	0	[]
3131	1	1	8	60.0	2	0	[]
3134	1	1	1	60.0	2	0	[]
3137	1	2	7	60.0	2	0	[]
3138	1	4	8	60.0	2	0	[]
3142	1	1	2	60.0	2	0	[]
3146	3	1	8	60.0	2	0	[]
3151	2	1	2	60.0	2	0	[]
3152	3	1	8	60.0	2	0	[]
3159	1	1	8	60.0	2	0	[]
3165	8	5	8	60.0	2	0	[]
3178	2	1	12	60.0	2	0	[]
3181	1	1	2	100.0	2	0	[]
3183	200	12	16	100.0	2	4	[(5567, 0), (5111, 0), (6659, 0), (5028, 0)]
3184	1	1	8	60.0	2	0	[]
3191	12	1	6	60.0	2	0	[]
3194	2	1	8	60.0	2	0	[]
3209	2	3	8	60.0	2	0	[]
3220	14	2	3	60.0	2	1	[(726, 2)]
3227	2	2	8	60.0	2	0	[]
3231	2	1	8	60.0	2	0	[]
3235	11	2	8	60.0	2	1	[(6659, 0)]
3239	4	1	8	60.0	2	0	[]
3241	1	16	60	60.0	2	12	[(7626, 2), (5080, 1), (7716, 2), (4608, 2), (255, 2), (8535, 2), (1606, 2), (4275, 2), (4037, 2), (80, 2), (737, 2), (4710, 2)]
3244	2	1	2	60.0	2	0	[]
3249	3	1	8	60.0	2	0	[]
3254	2	6	8	60.0	2	0	[]
3258	2	1	8	60.0	2	0	[]
3263	3	3	21	80.0	2	0	[]
3283	240	6	8	60.0	2	14	[(27, 0), (3718, 0), (1919, 1), (6659, 0), (1153, 0), (5028, 0), (2087, 2), (9228, 0), (1781, 0), (8970, 2), (6827, 0), (2500, 0), (262, 0), (2203, 2)]
3287	2	1	2	60.0	2	0	[]
3292	8	3	8	40.0	2	1	[(80, 0)]
3295	4	2	8	60.0	2	1	[(442, 0)]
3296	2	1	8	60.0	2	0	[]
3297	2	1	8	60.0	2	0	[]
3298	1	4	8	60.0	2	0	[]
3302	4	6	8	60.0	2	0	[]
3310	1	2	2	60.0	2	0	[]
3312	2	1	8	60.0	2	0	[]
3313	1	12	8	60.0	2	7	[(1509, 0), (1152, 2), (2710, 0), (3283, 1), (1639, 0), (7061, 0), (7928, 0)]
3324	1	6	16	200.0	2	0	[]
3338	2	1	8	60.0	2	0	[]
3339	3	1	8	60.0	2	0	[]
3351	4	2	8	60.0	2	0	[]
3352	2	2	8	60.0	2	0	[]
3356	6	6	8	60.0	2	42	[(6806, 1), (6134, 2), (7260, 2), (5956, 1), (2613, 1), (1004, 2), (7222, 1), (903, 2), (9324, 2), (5046, 1), (5880, 2), (6013, 1), (40, 1), (5646, 2), (6634, 2), (8782, 2), (8852, 2), (7798, 1), (7558, 2), (2908, 2), (551, 2), (6944, 1), (6029, 1), (7569, 2), (1972, 2), (2463, 2), (4350, 1), (1099, 2), (9329, 2), (1533, 1), (3621, 2), (8077, 2), (4464, 1), (4364, 1), (5466, 1), (3840, 1), (8774, 2), (2461, 0), (7712, 1), (2562, 1), (8246, 1), (4319, 1)]
3363	5	1	8	60.0	2	0	[]
3369	1	1	8	60.0	2	0	[]
3371	6	1	8	200.0	2	0	[]
3374	4	1	8	60.0	2	1	[(1919, 0)]
3375	3	1	8	60.0	2	0	[]
3384	2	1	6	60.0	2	0	[]
3387	5	1	2	60.0	2	1	[(122, 2)]
3390	2	2	8	60.0	2	0	[]
3394	2	1	8	60.0	2	0	[]
3395	4	1	8	60.0	2	1	[(6393, 2)]
3398	3	1	8	60.0	2	0	[]
3400	4	1	8	60.0	2	0	[]
3409	2	1	8	40.0	2	1	[(4608, 2)]
3410	2	1	1	60.0	2	0	[]
3416	3	1	8	60.0	2	0	[]
3420	2	1	8	60.0	2	0	[]
3422	4	1	8	60.0	2	0	[]
3425	53	5	8	60.0	2	5	[(3283, 2), (1042, 0), (1919, 0), (3965, 2), (8767, 1)]
3427	7	6	8	60.0	2	0	[]
3428	5	1	8	60.0	2	0	[]
3430	1	1	8	60.0	2	0	[]
3431	5	5	8	300.0	2	0	[]
3434	2	2	8	60.0	2	0	[]
3439	1	1	8	60.0	2	0	[]
3445	3	1	8	60.0	2	0	[]
3448	2	1	8	40.0	2	1	[(4522, 1)]
3450	1	1	1	60.0	2	0	[]
3451	2	1	8	60.0	2	1	[(8731, 0)]
3452	2	1	8	60.0	2	0	[]
3453	2	4	8	60.0	2	0	[]
3454	2	1	8	60.0	2	0	[]
3458	1	2	2	60.0	2	0	[]
3459	5	1	8	60.0	2	0	[]
3462	2	1	8	60.0	2	0	[]
3465	1	1	1	60.0	2	0	[]
3466	2	1	8	60.0	2	1	[(6659, 0)]
3467	1	1	8	60.0	2	0	[]
3471	1	1	2	60.0	2	0	[]
3476	4	1	8	60.0	2	0	[]
3478	3	1	8	60.0	2	0	[]
3481	12	4	8	60.0	2	1	[(6659, 0)]
3495	2	1	2	60.0	2	0	[]
3502	1	1	8	60.0	2	0	[]
3506	3	1	8	60.0	2	0	[]
3508	1	4	16	40.0	2	0	[]
3509	2	1	8	60.0	2	0	[]
3511	8	6	8	40.0	2	0	[]
3513	5	2	8	60.0	2	3	[(6267, 0), (8767, 2), (147, 2)]
3515	3	1	8	60.0	2	0	[]
3516	2	1	4	60.0	2	0	[]
3519	1	3	8	60.0	2	0	[]
3521	2	12	16	200.0	2	0	[]
3522	1	1	1	60.0	2	0	[]
3523	6	2	8	60.0	2	1	[(2517, 2)]
3529	1	1	8	60.0	2	0	[]
3530	3	1	8	60.0	2	0	[]
3533	1	1	2	60.0	2	0	[]
3537	3	3	8	60.0	2	0	[]
3546	2	4	8	60.0	2	0	[]
3550	1	1	8	60.0	2	0	[]
3551	5	6	8	100.0	2	0	[]
3552	1	4	8	60.0	2	0	[]
3555	60	3	8	60.0	2	21	[(271, 2), (2860, 2), (4127, 2), (5793, 2), (6508, 1), (380, 2), (9269, 2), (817, 1), (8588, 1), (7174, 1), (4698, 0), (4214, 1), (8767, 2), (3445, 0), (3431, 0), (9249, 0), (3651, 2), (7934, 2), (2844, 1), (147, 2), (7367, 2)]
3558	1	1	4	60.0	2	0	[]
3564	5	1	8	60.0	2	0	[]
3569	2	1	8	60.0	2	0	[]
3570	12	5	8	60.0	2	1	[(4042, 2)]
3582	2	1	2	60.0	2	0	[]
3587	3	4	8	60.0	2	0	[]
3594	2	1	1	60.0	2	0	[]
3596	2	1	8	60.0	2	0	[]
3605	1	1	2	60.0	2	0	[]
3608	8	5	8	60.0	2	1	[(1919, 1)]
3613	1	4	8	60.0	2	0	[]
3614	1	1	7	60.0	2	0	[]
3617	5	2	8	80.0	2	1	[(6659, 0)]
3618	2	1	8	60.0	2	0	[]
3621	12	2	8	60.0	2	0	[]
3622	3	1	8	60.0	2	0	[]
3624	16	2	8	100.0	2	3	[(6822, 0), (120, 0), (788, 1)]
3626	1	1	2	60.0	2	0	[]
3627	4	1	8	60.0	2	0	[]
3633	15	1	2	100.0	2	0	[]
3643	3	6	8	60.0	2	0	[]
3651	1	1	2	60.0	2	0	[]
3653	3	2	8	60.0	2	0	[]
3654	122	3	8	40.0	1	6	[(6659, 0), (8429, 2), (464, 0), (615, 0), (7367, 0), (4229, 0)]
3656	1	1	8	60.0	2	0	[]
3657	103	6	16	60.0	1	7	[(5903, 0), (122, 0), (2061, 0), (6659, 0), (8223, 1), (8069, 0), (2621, 0)]
3660	5	1	8	60.0	2	0	[]
3661	2	2	8	60.0	2	0	[]
3665	1	1	8	60.0	2	0	[]
3667	1	1	1	60.0	2	0	[]
3670	2	2	8	60.0	2	0	[]
3671	2	1	8	60.0	2	0	[]
3673	2	2	8	60.0	2	1	[(5022, 0)]
3674	2	1	8	60.0	2	0	[]
3675	3	1	8	60.0	2	0	[]
3678	2	2	8	1024.0	2	0	[]
3685	2	1	8	60.0	2	0	[]
3691	2	5	8	60.0	2	1	[(6659, 0)]
3692	7	24	32	200.0	2	2	[(536, 0), (1024, 0)]
3695	2	1	3	60.0	2	0	[]
3696	2	1	7	60.0	2	0	[]
3700	1	1	8	60.0	2	0	[]
3708	1	1	8	100.0	2	0	[]
3709	21	2	8	40.0	2	1	[(1919, 0)]
3713	2	3	8	60.0	2	0	[]
3715	4	3	8	60.0	2	0	[]
3716	7	2	16	80.0	2	0	[]
3717	2	1	8	60.0	2	0	[]
3718	15	1	8	60.0	2	0	[]
3724	1	4	8	60.0	2	0	[]
3728	1	4	8	60.0	2	0	[]
3730	2	1	8	60.0	2	0	[]
3731	191	5	8	60.0	2	16	[(4205, 2), (1840, 2), (5011, 0), (1919, 0), (1195, 0), (7290, 1), (1314, 1), (367, 2), (9174, 2), (3752, 0), (2500, 0), (9249, 2), (4941, 2), (8980, 0), (938, 0), (5601, 2)]
3733	1	2	8	60.0	2	0	[]
3745	4	3	8	60.0	2	1	[(4522, 2)]
3747	18	1	8	60.0	2	7	[(4649, 1), (6940, 1), (3952, 1), (1906, 1), (6729, 2), (8149, 1), (4781, 1)]
3748	3	1	8	60.0	2	0	[]
3752	1	4	8	60.0	2	0	[]
3753	2	1	8	60.0	2	0	[]
3754	2	1	8	60.0	2	0	[]
3755	2	1	8	60.0	2	0	[]
3758	2	4	8	60.0	2	0	[]
3763	1	1	8	60.0	2	0	[]
3769	1	1	8	60.0	2	0	[]
3787	3	1	12	60.0	2	0	[]
3791	3	4	8	60.0	2	0	[]
3804	3	1	8	60.0	2	0	[]
3806	27	6	8	60.0	2	0	[]
3810	1	1	8	60.0	2	0	[]
3814	2	1	2	60.0	2	0	[]
3816	5	2	8	60.0	2	0	[]
3824	1	4	8	60.0	2	0	[]
3825	6	1	8	60.0	2	3	[(473, 1), (1405, 2), (147, 1)]
3826	2	1	8	60.0	2	0	[]
3837	1	1	8	40.0	2	0	[]
3840	2	1	8	60.0	2	0	[]
3843	3	1	8	80.0	2	0	[]
3845	20	2	16	60.0	2	2	[(464, 0), (473, 2)]
3846	4	1	8	60.0	2	0	[]
3848	1	24	48	300.0	2	0	[]
3849	15	6	8	60.0	2	3	[(3183, 0), (2354, 0), (7221, 0)]
3851	29	6	8	60.0	2	2	[(7799, 1), (2505, 2)]
3853	2	1	8	60.0	2	0	[]
3856	2	2	8	60.0	2	0	[]
3871	2	4	8	60.0	2	0	[]
3874	5	1	8	60.0	2	0	[]
3877	1	1	2	60.0	2	0	[]
3880	34	6	8	60.0	2	2	[(782, 0), (147, 0)]
3881	1	4	8	60.0	2	0	[]
3885	14	4	8	60.0	2	0	[]
3887	1	4	8	60.0	2	0	[]
3889	2	1	8	60.0	2	0	[]
3890	54	24	32	60.0	0	3	[(4608, 0), (1606, 0), (6659, 0)]
3892	4	10	16	200.0	2	2	[(1509, 0), (3890, 1)]
3894	66	6	10	60.0	2	11	[(1919, 0), (8805, 2), (296, 1), (7438, 0), (2488, 0), (5883, 0), (1195, 0), (5271, 1), (1391, 0), (20, 0), (8702, 0)]
3901	2	4	8	60.0	2	0	[]
3902	20	6	8	60.0	2	0	[]
3905	21	1	8	60.0	2	1	[(737, 2)]
3909	2	1	8	60.0	2	0	[]
3910	1	2	16	60.0	2	0	[]
3913	2	1	8	60.0	2	0	[]
3915	2	4	8	60.0	2	0	[]
3918	4	3	8	60.0	2	0	[]
3934	1	4	8	167.0	2	0	[]
3941	1	1	2	60.0	2	0	[]
3943	1	4	8	60.0	2	0	[]
3949	2	1	2	60.0	2	0	[]
3951	2	1	8	60.0	2	0	[]
3952	35	3	8	60.0	2	5	[(3235, 0), (5669, 2), (3824, 2), (5001, 2), (7794, 2)]
3955	28	6	8	60.0	2	0	[]
3956	2	1	8	60.0	2	0	[]
3957	2	1	8	60.0	2	1	[(5564, 1)]
3959	3	36	48	500.0	2	0	[]
3962	1	1	1	60.0	2	0	[]
3963	16	3	7	60.0	2	1	[(310, 1)]
3965	2	1	8	80.0	2	0	[]
3979	19	1	8	60.0	2	1	[(244, 0)]
3984	6	1	8	60.0	2	2	[(1153, 0), (5271, 0)]
3993	2	1	8	60.0	2	0	[]
3996	1	1	8	60.0	2	0	[]
3999	16	2	8	60.0	2	0	[]
4002	4	2	8	80.0	2	2	[(7907, 0), (8041, 1)]
4004	1	10	16	60.0	2	0	[]
4005	2	4	8	60.0	2	0	[]
4009	16	6	8	60.0	2	4	[(8266, 1), (1919, 0), (1639, 2), (5511, 1)]
4010	1	1	8	60.0	2	0	[]
4016	2	1	8	60.0	2	0	[]
4024	2	4	8	60.0	2	0	[]
4026	11	3	8	60.0	2	71	[(7815, 1), (8172, 1), (6806, 0), (4874, 1), (7724, 2), (9035, 2), (5956, 1), (4157, 1), (2613, 1), (1987, 1), (3752, 1), (1635, 2), (5256, 1), (9324, 1), (6258, 1), (6156, 1), (5880, 1), (3846, 1), (2183, 1), (6634, 1), (2344, 1), (5323, 1), (6448, 2), (3023, 2), (7144, 1), (6162, 2), (1662, 1), (1946, 2), (3371, 2), (5565, 1), (8494, 1), (2908, 1), (3909, 2), (6808, 1), (4860, 1), (5917, 1), (6147, 2), (40, 1), (6843, 0), (3894, 1), (9131, 1), (3851, 2), (4633, 1), (3021, 2), (3235, 1), (1099, 1), (5011, 2), (9213, 1), (7380, 0), (3523, 0), (9285, 1), (515, 1), (3653, 2), (310, 2), (2940, 2), (9011, 0), (8625, 1), (409, 0), (6720, 1), (8246, 1), (3110, 2), (8791, 2), (6092, 0), (6787, 1), (747, 1), (9329, 1), (1240, 0), (7052, 1), (1045, 1), (5373, 1), (5806, 0)]
4028	2	2	8	60.0	2	0	[]
4032	3	1	16	60.0	2	0	[]
4037	1	2	32	60.0	2	8	[(7626, 2), (5080, 1), (2739, 1), (3241, 1), (2851, 1), (4275, 2), (80, 2), (4710, 2)]
4040	1	1	7	60.0	2	0	[]
4042	34	3	16	60.0	0	4	[(80, 1), (585, 2), (5112, 0), (6393, 2)]
4054	2	1	8	60.0	2	0	[]
4055	7	1	8	60.0	2	0	[]
4056	1	4	8	60.0	2	0	[]
4064	1	2	2	60.0	2	0	[]
4067	5	2	8	60.0	2	0	[]
4068	26	2	8	60.0	2	0	[]
4069	1	2	8	60.0	2	0	[]
4071	26	2	8	60.0	2	1	[(310, 0)]
4074	1	1	8	60.0	2	0	[]
4090	2	1	24	500.0	2	0	[]
4093	1	1	8	60.0	2	0	[]
4094	16	6	8	60.0	2	0	[]
4099	1	1	1	60.0	2	0	[]
4100	1	1	7	60.0	2	0	[]
4105	1	4	8	60.0	2	0	[]
4108	6	2	8	60.0	2	1	[(3263, 0)]
4111	2	4	8	60.0	2	0	[]
4115	2	4	8	60.0	2	0	[]
4116	2	1	8	60.0	2	0	[]
4120	2	1	8	60.0	2	0	[]
4127	1	1	2	60.0	2	0	[]
4134	2	1	8	60.0	2	0	[]
4135	1	1	8	60.0	2	0	[]
4140	1	1	8	60.0	2	0	[]
4142	1	1	8	60.0	2	0	[]
4144	2	1	8	60.0	2	0	[]
4151	1	4	8	60.0	2	0	[]
4152	11	1	8	60.0	2	0	[]
4153	2	5	8	60.0	2	0	[]
4154	18	6	2	100.0	2	10	[(4004, 0), (7338, 0), (500, 0), (7318, 0), (2263, 0), (3077, 0), (3183, 0), (6663, 0), (9297, 0), (7763, 0)]
4157	2	1	6	60.0	2	0	[]
4166	1	1	8	60.0	2	0	[]
4172	4	1	2	60.0	2	0	[]
4188	4	1	8	60.0	2	0	[]
4190	23	12	16	60.0	1	2	[(4608, 0), (5022, 0)]
4195	1	4	8	60.0	2	0	[]
4205	6	1	8	60.0	2	0	[]
4212	4	1	8	60.0	2	0	[]
4214	2	1	2	60.0	2	0	[]
4216	1	3	8	60.0	2	0	[]
4222	3	2	8	60.0	2	0	[]
4227	2	2	2	60.0	2	0	[]
4229	2	1	8	60.0	2	1	[(3654, 0)]
4232	1	1	3	60.0	2	0	[]
4233	1	1	2	60.0	2	0	[]
4236	2	1	4	60.0	2	0	[]
4237	1	1	2	60.0	2	0	[]
4240	5	1	8	60.0	2	0	[]
4242	2	1	2	60.0	2	0	[]
4246	1	4	8	60.0	2	0	[]
4252	19	12	16	100.0	2	0	[]
4255	1	1	8	60.0	2	0	[]
4259	32	5	8	100.0	2	2	[(6534, 0), (659, 1)]
4275	1	2	32	100.0	2	11	[(5080, 1), (7716, 2), (4608, 2), (2739, 1), (4037, 2), (2851, 1), (1606, 2), (3241, 1), (80, 2), (737, 2), (4710, 2)]
4278	1	1	8	60.0	2	0	[]
4284	4	6	8	200.0	2	0	[]
4288	2	4	8	60.0	2	0	[]
4289	41	3	8	60.0	2	12	[(7811, 0), (4829, 1), (5162, 0), (909, 1), (3000, 1), (3816, 0), (5847, 0), (5256, 0), (7951, 0), (6981, 0), (4583, 1), (4941, 1)]
4293	1	1	8	60.0	2	0	[]
4296	2	2	16	80.0	2	0	[]
4298	2	1	8	60.0	2	0	[]
4305	1	4	8	60.0	2	0	[]
4307	2	1	8	60.0	2	0	[]
4319	6	2	8	60.0	2	0	[]
4320	2	1	8	60.0	2	0	[]
4326	1	1	8	60.0	2	0	[]
4331	2	1	2	60.0	2	0	[]
4333	2	1	5	80.0	2	0	[]
4334	1	4	8	60.0	2	0	[]
4338	8	6	8	60.0	2	0	[]
4342	2	4	8	60.0	2	0	[]
4345	2	1	2	60.0	2	0	[]
4350	3	1	8	60.0	2	0	[]
4360	1	1	8	60.0	2	0	[]
4364	2	1	8	60.0	2	0	[]
4369	1	1	8	60.0	2	0	[]
4370	3	1	8	60.0	2	0	[]
4372	2	1	8	60.0	2	0	[]
4375	3	1	8	60.0	2	0	[]
4379	32	2	8	60.0	2	0	[]
4383	2	1	8	60.0	2	0	[]
4392	6	1	16	80.0	2	0	[]
4393	67	4	8	80.0	2	2	[(6838, 0), (147, 0)]
4403	1	1	8	60.0	2	0	[]
4404	1	4	8	60.0	2	0	[]
4406	12	1	8	60.0	2	0	[]
4407	1	4	8	40.0	2	0	[]
4410	2	1	8	60.0	2	0	[]
4414	1	1	3	60.0	2	0	[]
4423	36	3	16	60.0	2	1	[(6659, 0)]
4426	5	4	8	60.0	2	1	[(1919, 0)]
4429	4	4	8	60.0	2	3	[(5677, 0), (1099, 0), (442, 0)]
4435	4	1	8	60.0	2	0	[]
4441	5	1	8	60.0	2	0	[]
4449	11	1	8	200.0	2	0	[]
4451	2	6	8	60.0	2	3	[(4715, 0), (8959, 0), (8229, 0)]
4456	7	1	8	60.0	2	0	[]
4457	3	1	8	60.0	2	0	[]
4459	12	6	8	60.0	2	0	[]
4463	25	5	32	200.0	2	0	[]
4464	2	1	8	60.0	2	0	[]
4469	1	8	16	200.0	2	0	[]
4471	46	6	8	40.0	0	5	[(7309, 0), (4608, 0), (6659, 0), (281, 0), (5022, 0)]
4474	10	2	16	40.0	0	1	[(585, 0)]
4481	2	1	8	60.0	2	0	[]
4485	1	1	8	60.0	2	0	[]
4497	1	1	2	60.0	2	0	[]
4501	2	1	8	60.0	2	0	[]
4504	2	1	8	60.0	2	0	[]
4506	1	4	8	60.0	2	0	[]
4509	8	1	8	60.0	2	0	[]
4510	1	4	8	60.0	2	0	[]
4514	14	2	8	60.0	2	1	[(6659, 0)]
4518	4	1	8	60.0	2	0	[]
4521	1	1	8	60.0	2	0	[]
4522	42	12	16	100.0	2	1	[(6659, 0)]
4523	1	1	16	100.0	2	0	[]
4524	4	2	8	60.0	2	0	[]
4526	2	1	8	60.0	2	0	[]
4530	27	5	8	100.0	2	0	[]
4531	99	4	8	60.0	2	1	[(1919, 0)]
4532	2	1	8	60.0	2	0	[]
4533	3	4	8	60.0	2	0	[]
4549	2	1	8	60.0	2	0	[]
4551	29	2	8	40.0	2	0	[]
4557	2	1	8	60.0	2	0	[]
4563	2	8	16	60.0	0	0	[]
4570	15	4	8	60.0	2	3	[(7753, 0), (1919, 0), (8004, 0)]
4583	3	1	8	60.0	2	0	[]
4588	2	2	8	60.0	2	0	[]
4589	1	1	8	60.0	2	0	[]
4592	2	1	8	60.0	2	0	[]
4594	2	1	8	60.0	2	0	[]
4597	1	1	7	60.0	2	0	[]
4603	1	1	8	60.0	2	0	[]
4608	143	12	32	60.0	2	17	[(7626, 2), (5080, 1), (2739, 1), (3241, 1), (1153, 0), (255, 0), (8535, 0), (2851, 1), (2061, 0), (1416, 0), (4471, 0), (4190, 0), (4275, 2), (80, 2), (3890, 0), (1850, 0), (4710, 2)]
4610	2	1	8	60.0	2	0	[]
4619	10	1	8	60.0	2	0	[]
4620	1	1	8	60.0	2	0	[]
4622	1	1	1	60.0	2	0	[]
4623	3	1	8	60.0	2	0	[]
4624	2	1	8	60.0	2	0	[]
4631	2	1	8	60.0	2	0	[]
4632	4	7	16	60.0	2	2	[(5657, 0), (5883, 0)]
4633	4	1	8	80.0	2	0	[]
4638	2	1	8	60.0	2	0	[]
4639	3	1	8	60.0	2	0	[]
4643	1	1	8	60.0	2	0	[]
4645	1	4	8	60.0	2	0	[]
4646	3	3	8	60.0	2	10	[(6814, 0), (2533, 0), (2138, 0), (7452, 0), (7262, 0), (2644, 0), (3558, 0), (3004, 0), (6020, 0), (1014, 0)]
4647	25	6	8	60.0	2	1	[(147, 0)]
4648	80	3	8	60.0	2	2	[(6659, 0), (1195, 0)]
4649	19	1	10	60.0	2	1	[(7012, 0)]
4651	1	1	8	60.0	2	0	[]
4672	1	3	8	60.0	2	0	[]
4673	1	4	8	60.0	2	0	[]
4674	26	6	8	60.0	2	0	[]
4684	2	1	8	60.0	2	0	[]
4685	2	4	8	60.0	2	0	[]
4686	3	2	8	60.0	2	0	[]
4687	1	1	8	60.0	2	0	[]
4691	1	12	16	100.0	2	0	[]
4692	14	1	8	60.0	2	1	[(7998, 0)]
4693	4	1	8	60.0	2	0	[]
4698	565	1	2	60.0	2	3	[(5424, 2), (1919, 0), (3194, 2)]
4700	1	1	8	60.0	2	0	[]
4702	3	1	8	60.0	2	0	[]
4705	2	1	2	60.0	2	0	[]
4708	33	2	8	100.0	2	2	[(6694, 0), (8819, 2)]
4710	1	3	16	60.0	2	10	[(7626, 2), (7716, 2), (4608, 2), (3241, 2), (4037, 2), (2851, 2), (1606, 2), (2739, 2), (737, 2), (4275, 2)]
4711	3	2	8	60.0	2	0	[]
4715	5	4	8	60.0	2	0	[]
4717	3	1	8	60.0	2	0	[]
4724	1	4	8	60.0	2	0	[]
4727	2	1	1	60.0	2	0	[]
4729	14	2	8	60.0	2	1	[(5168, 2)]
4736	2	1	8	60.0	2	0	[]
4739	2	1	8	60.0	2	0	[]
4748	4	4	8	60.0	2	0	[]
4752	2	1	8	60.0	2	0	[]
4755	1	1	3	60.0	2	0	[]
4768	1	1	2	60.0	2	0	[]
4770	35	2	16	100.0	2	0	[]
4776	1	1	8	60.0	2	0	[]
4777	1	1	3	60.0	2	0	[]
4778	27	2	8	40.0	2	4	[(80, 1), (585, 2), (5022, 0), (6659, 0)]
4779	4	1	1	60.0	2	0	[]
4781	20	2	8	60.0	2	2	[(2880, 2), (1919, 0)]
4792	5	1	2	60.0	2	0	[]
4796	2	1	8	60.0	2	0	[]
4800	3	4	8	60.0	2	0	[]
4801	14	3	2	60.0	2	3	[(6694, 2), (6838, 0), (3183, 2)]
4803	2	1	8	60.0	2	0	[]
4804	2	1	8	60.0	2	0	[]
4807	2	1	1	100.0	2	0	[]
4809	2	1	8	60.0	2	0	[]
4816	2	1	8	60.0	2	0	[]
4823	2	1	8	60.0	2	0	[]
4826	2	4	16	60.0	2	0	[]
4828	2	1	8	60.0	2	0	[]
4829	1	1	2	60.0	2	0	[]
4833	2	3	8	60.0	2	0	[]
4835	2	1	8	60.0	2	0	[]
4838	1	4	8	60.0	2	0	[]
4844	2	1	8	60.0	2	0	[]
4847	4	6	8	60.0	2	0	[]
4860	2	1	8	60.0	2	0	[]
4870	2	1	8	60.0	2	0	[]
4874	13	3	8	60.0	2	2	[(626, 0), (6694, 0)]
4875	2	1	8	60.0	2	0	[]
4883	11	6	8	60.0	2	1	[(1046, 0)]
4884	1	1	8	60.0	2	1	[(2725, 0)]
4886	2	1	1	60.0	2	0	[]
4888	1	4	8	60.0	2	0	[]
4892	2	1	2	60.0	2	0	[]
4893	1	1	8	60.0	2	0	[]
4904	2	1	8	60.0	2	0	[]
4907	3	1	8	60.0	2	0	[]
4910	2	1	1	60.0	2	0	[]
4914	1	1	7	60.0	2	0	[]
4922	1	1	1	60.0	2	0	[]
4925	6	2	8	60.0	2	0	[]
4930	2	1	8	60.0	2	0	[]
4931	5	1	8	60.0	2	0	[]
4941	11	6	8	100.0	2	0	[]
4943	6	36	30	300.0	2	0	[]
4944	2	2	8	60.0	2	0	[]
4947	2	1	8	60.0	2	0	[]
4948	3	4	8	60.0	2	0	[]
4959	1	4	8	60.0	2	0	[]
4961	1	1	8	60.0	2	0	[]
4962	2	1	8	60.0	2	0	[]
4963	6	4	8	60.0	2	1	[(7998, 0)]
4964	1	1	8	60.0	2	0	[]
4965	3	1	8	60.0	2	0	[]
4970	1	1	3	60.0	2	0	[]
4974	4	1	2	60.0	2	0	[]
4981	1	1	8	60.0	2	0	[]
4984	3	1	8	60.0	2	0	[]
4985	1	1	3	60.0	2	0	[]
4986	2	1	8	60.0	2	1	[(3806, 2)]
4997	3	1	3	60.0	2	0	[]
5000	2	1	8	60.0	2	0	[]
5001	5	1	8	80.0	2	1	[(1919, 0)]
5006	1	2	4	60.0	2	0	[]
5011	16	3	8	60.0	2	2	[(5785, 0), (2569, 0)]
5018	1	1	1	60.0	2	0	[]
5022	282	12	16	60.0	0	13	[(1761, 1), (5631, 2), (5854, 2), (6659, 0), (5272, 1), (6694, 0), (2270, 2), (5484, 0), (500, 1), (6763, 1), (1195, 0), (1892, 1), (1606, 0)]
5024	2	1	2	100.0	2	0	[]
5027	2	1	3	60.0	2	0	[]
5028	71	6	16	60.0	2	7	[(7309, 0), (3654, 0), (6659, 0), (4947, 0), (122, 0), (655, 0), (312, 0)]
5029	1	1	1	60.0	2	0	[]
5042	3	1	8	60.0	2	0	[]
5046	3	1	8	60.0	2	0	[]
5050	1	1	1	60.0	2	0	[]
5054	10	6	8	60.0	2	0	[]
5058	1	1	8	60.0	2	0	[]
5060	33	6	8	60.0	2	6	[(1153, 0), (2332, 0), (945, 2), (4469, 0), (1546, 0), (6694, 0)]
5063	58	4	5	200.0	2	4	[(5028, 0), (9228, 0), (6659, 0), (312, 0)]
5064	7	1	8	60.0	2	0	[]
5065	19	3	8	60.0	2	1	[(6659, 0)]
5070	2	3	8	60.0	2	0	[]
5080	1	8	16	60.0	2	12	[(7626, 3), (7716, 3), (4608, 3), (2739, 2), (3241, 2), (2851, 2), (1606, 3), (4037, 3), (80, 2), (737, 3), (4275, 3), (4710, 2)]
5084	1	1	8	60.0	2	0	[]
5085	3	2	8	60.0	2	0	[]
5086	22	2	8	60.0	2	1	[(5085, 1)]
5091	2	1	2	60.0	2	0	[]
5092	2	1	8	60.0	2	0	[]
5100	1	1	3	60.0	2	0	[]
5106	5	3	24	60.0	2	1	[(6659, 0)]
5108	1	1	2	60.0	2	0	[]
5109	25	6	8	60.0	2	0	[]
5110	1	1	1	60.0	2	0	[]
5111	4	3	8	40.0	2	1	[(3654, 0)]
5112	30	6	8	40.0	2	0	[]
5116	2	1	8	60.0	2	0	[]
5124	2	1	8	60.0	2	0	[]
5133	2	1	16	150.0	2	0	[]
5139	31	2	8	60.0	2	0	[]
5140	1	1	8	60.0	2	0	[]
5143	1	1	8	60.0	2	0	[]
5148	4	1	8	60.0	2	0	[]
5154	2	1	8	60.0	2	0	[]
5161	3	2	8	60.0	2	0	[]
5162	2	1	8	60.0	2	0	[]
5168	4	1	8	167.0	2	0	[]
5178	1	1	8	60.0	2	0	[]
5181	4	1	8	60.0	2	0	[]
5184	2	1	8	60.0	2	0	[]
5186	5	4	8	60.0	2	0	[]
5188	4	1	8	60.0	2	0	[]
5190	2	1	8	60.0	2	0	[]
5199	1	1	8	180.0	2	1	[(1919, 0)]
5203	1	1	2	60.0	2	0	[]
5204	4	1	8	60.0	2	0	[]
5205	1	3	8	60.0	2	0	[]
5209	1	1	8	60.0	2	0	[]
5211	2	1	8	60.0	2	0	[]
5212	2	1	8	60.0	2	0	[]
5213	4	1	8	100.0	2	0	[]
5218	12	6	8	60.0	2	0	[]
5219	2	1	8	60.0	2	0	[]
5220	72	3	8	60.0	2	6	[(8322, 1), (5397, 2), (7130, 2), (1919, 1), (3959, 1), (4941, 1)]
5222	30	6	8	60.0	2	1	[(1941, 0)]
5224	3	2	8	60.0	2	0	[]
5227	5	1	8	60.0	2	0	[]
5230	1	1	8	60.0	2	0	[]
5232	24	3	8	60.0	2	0	[]
5233	2	1	8	60.0	2	0	[]
5238	3	5	8	60.0	2	0	[]
5245	3	1	1	60.0	2	0	[]
5247	2	2	8	60.0	2	0	[]
5248	2	1	5	60.0	2	0	[]
5253	9	1	8	60.0	2	0	[]
5255	3	2	28	500.0	2	0	[]
5256	18	5	8	60.0	2	0	[]
5268	1	6	8	60.0	2	0	[]
5270	1	2	8	60.0	2	0	[]
5271	21	1	8	60.0	2	3	[(4941, 1), (310, 1), (1919, 0)]
5272	3	1	8	100.0	2	0	[]
5282	1	1	4	60.0	2	0	[]
5285	2	1	7	60.0	2	0	[]
5291	1	1	2	60.0	2	0	[]
5293	2	1	2	60.0	2	0	[]
5294	2	1	8	60.0	2	0	[]
5303	1	1	8	60.0	2	0	[]
5311	2	5	7	60.0	2	0	[]
5320	1	1	8	60.0	2	0	[]
5321	1	1	3	60.0	2	0	[]
5323	2	1	8	60.0	2	0	[]
5324	1	4	8	60.0	2	0	[]
5328	1	1	8	60.0	2	0	[]
5329	2	1	8	60.0	2	3	[(1099, 0), (8638, 0), (5347, 0)]
5335	2	10	16	200.0	2	0	[]
5338	16	6	8	60.0	2	0	[]
5343	1	4	8	60.0	2	0	[]
5344	4	2	8	60.0	2	0	[]
5345	1	1	8	60.0	2	0	[]
5347	3	2	16	60.0	2	0	[]
5351	5	3	8	60.0	2	0	[]
5352	1	1	6	60.0	2	0	[]
5355	1	1	8	60.0	2	0	[]
5358	2	1	8	60.0	2	0	[]
5365	1	1	2	60.0	2	0	[]
5373	1	1	8	60.0	2	0	[]
5374	5	6	8	60.0	2	0	[]
5379	14	1	8	60.0	2	0	[]
5382	3	1	8	60.0	2	0	[]
5385	5	2	8	60.0	2	0	[]
5387	3	1	8	60.0	2	0	[]
5390	1	1	2	60.0	2	0	[]
5393	1	1	8	60.0	2	0	[]
5395	2	1	2	60.0	2	0	[]
5397	6	1	8	60.0	2	0	[]
5406	13	4	8	80.0	2	0	[]
5409	1	1	8	60.0	2	0	[]
5412	2	1	8	60.0	2	0	[]
5415	2	1	8	40.0	2	0	[]
5416	2	1	1	60.0	2	0	[]
5417	2	2	8	60.0	2	0	[]
5419	1	4	8	60.0	2	0	[]
5421	4	1	8	60.0	2	0	[]
5424	2	1	8	60.0	2	0	[]
5426	5	1	8	60.0	2	0	[]
5450	1	1	6	60.0	2	0	[]
5455	1	1	6	60.0	2	0	[]
5460	1	1	1	60.0	2	0	[]
5464	2	3	8	60.0	2	0	[]
5465	1	1	8	60.0	2	0	[]
5466	3	1	8	60.0	2	0	[]
5467	5	1	8	60.0	2	0	[]
5468	6	6	2	60.0	2	0	[]
5469	9	4	8	60.0	2	0	[]
5471	2	1	8	60.0	2	0	[]
5477	17	1	8	60.0	2	1	[(1046, 1)]
5479	6	1	8	60.0	2	0	[]
5480	14	8	2	100.0	2	0	[]
5484	1	1	1	60.0	2	0	[]
5485	2	1	7	60.0	2	0	[]
5488	1	1	2	60.0	2	0	[]
5491	2	1	8	60.0	2	0	[]
5496	5	2	8	60.0	2	0	[]
5497	5	1	8	60.0	2	0	[]
5498	3	1	2	60.0	2	0	[]
5506	2	1	8	60.0	2	0	[]
5507	3	1	8	60.0	2	0	[]
5508	1	1	2	60.0	2	0	[]
5511	72	6	8	60.0	2	5	[(1042, 0), (3890, 1), (5798, 2), (7934, 0), (8223, 0)]
5515	4	6	8	60.0	2	2	[(615, 2), (8867, 2)]
5519	4	3	8	60.0	2	0	[]
5521	2	1	8	60.0	2	0	[]
5526	39	3	8	60.0	2	5	[(80, 1), (8293, 0), (3183, 0), (20, 0), (6659, 0)]
5527	2	1	1	60.0	2	0	[]
5530	2	1	8	60.0	2	2	[(3952, 1), (3894, 2)]
5533	2	1	2	60.0	2	0	[]
5535	2	1	8	60.0	2	0	[]
5539	2	1	3	60.0	2	0	[]
5543	3	1	2	60.0	2	0	[]
5544	3	2	8	60.0	2	0	[]
5545	2	1	8	60.0	2	0	[]
5547	2	1	5	60.0	2	0	[]
5548	29	4	8	60.0	2	4	[(1042, 0), (5424, 2), (3755, 1), (3194, 1)]
5554	2	1	8	60.0	2	0	[]
5556	16	3	8	60.0	2	0	[]
5564	15	2	8	60.0	2	1	[(560, 1)]
5565	11	3	8	60.0	2	4	[(4522, 1), (3283, 2), (8767, 1), (8994, 2)]
5567	2	2	8	60.0	2	0	[]
5568	3	1	8	60.0	2	0	[]
5571	1	1	8	60.0	2	0	[]
5577	2	1	8	60.0	2	0	[]
5581	2	1	8	60.0	2	0	[]
5586	1	4	8	60.0	2	0	[]
5589	4	1	16	100.0	2	1	[(6659, 0)]
5590	9	1	1	60.0	2	0	[]
5591	3	1	8	60.0	2	1	[(5011, 1)]
5594	1	1	8	60.0	2	0	[]
5596	1	4	8	60.0	2	0	[]
5597	1	1	8	60.0	2	0	[]
5599	1	4	8	60.0	2	0	[]
5601	3	1	8	60.0	2	1	[(5022, 2)]
5606	2	1	8	60.0	2	0	[]
5611	2	1	8	60.0	2	0	[]
5612	1	1	5	60.0	2	0	[]
5614	19	2	8	60.0	2	1	[(585, 2)]
5623	3	1	8	60.0	2	0	[]
5624	2	1	8	60.0	2	0	[]
5629	1	1	8	60.0	2	0	[]
5631	3	1	8	60.0	2	0	[]
5636	2	2	8	60.0	2	0	[]
5637	1	1	2	60.0	2	0	[]
5639	5	6	8	60.0	2	0	[]
5644	1	1	1	60.0	2	0	[]
5645	4	1	25	200.0	2	2	[(1153, 0), (2134, 0)]
5646	2	1	8	60.0	2	1	[(6659, 0)]
5647	2	1	8	60.0	2	0	[]
5649	1	7	16	100.0	1	0	[]
5657	2	1	16	60.0	2	4	[(6190, 0), (7790, 0), (4632, 0), (50, 0)]
5664	1	4	8	60.0	2	0	[]
5669	2	4	8	60.0	2	0	[]
5670	2	1	8	60.0	2	0	[]
5677	14	3	8	60.0	2	8	[(9035, 0), (2504, 0), (2469, 0), (5011, 0), (1152, 0), (7976, 0), (1310, 0), (20, 0)]
5678	2	4	8	60.0	2	0	[]
5679	2	1	1	60.0	2	0	[]
5690	2	1	8	60.0	2	0	[]
5691	61	4	8	60.0	2	6	[(4570, 0), (3846, 0), (8528, 0), (1892, 2), (955, 0), (5847, 0)]
5692	2	1	8	60.0	2	0	[]
5695	3	2	8	60.0	2	0	[]
5699	2	1	5	60.0	2	0	[]
5700	1	1	8	60.0	2	0	[]
5703	1	1	2	60.0	2	0	[]
5705	59	3	8	60.0	2	21	[(1416, 0), (5468, 0), (1274, 1), (6659, 0), (281, 2), (8069, 0), (1326, 0), (1388, 1), (473, 0), (2765, 0), (8223, 0), (971, 0), (8618, 2), (945, 0), (2459, 2), (585, 1), (1405, 0), (6972, 0), (4941, 2), (782, 0), (1227, 1)]
5710	2	1	3	60.0	2	0	[]
5715	1	1	8	60.0	2	0	[]
5724	5	6	8	60.0	2	1	[(6659, 0)]
5727	1	4	8	60.0	2	0	[]
5732	5	1	8	60.0	2	0	[]
5738	3	1	8	60.0	2	0	[]
5754	3	1	8	60.0	2	0	[]
5756	2	6	8	60.0	2	0	[]
5758	1	4	8	60.0	2	0	[]
5763	2	1	2	60.0	2	0	[]
5770	1	1	3	60.0	2	0	[]
5774	1	4	8	60.0	2	0	[]
5777	2	6	8	60.0	2	1	[(3685, 1)]
5785	2	1	16	80.0	2	0	[]
5788	2	1	8	60.0	2	0	[]
5792	5	1	8	60.0	2	0	[]
5793	2	1	8	60.0	2	0	[]
5797	2	11	16	100.0	2	0	[]
5798	2	1	8	60.0	2	0	[]
5805	2	1	8	60.0	2	0	[]
5806	1	1	2	60.0	2	0	[]
5807	7	1	2	100.0	2	0	[]
5813	2	1	1	60.0	2	0	[]
5814	2	1	8	60.0	2	0	[]
5815	2	1	4	60.0	2	0	[]
5817	2	1	8	60.0	2	0	[]
5819	1	1	3	60.0	2	0	[]
5827	1	1	2	60.0	2	0	[]
5832	1	1	8	60.0	2	0	[]
5843	1	1	8	60.0	2	0	[]
5847	20	6	8	60.0	2	0	[]
5848	2	1	6	60.0	2	0	[]
5849	2	1	8	60.0	2	1	[(1310, 1)]
5850	1	1	1	60.0	2	0	[]
5851	2	1	8	60.0	2	0	[]
5853	2	16	32	200.0	2	0	[]
5854	2	1	8	60.0	2	0	[]
5858	2	2	8	60.0	2	0	[]
5869	2	1	8	60.0	2	0	[]
5873	5	7	16	60.0	2	0	[]
5875	3	1	8	60.0	2	0	[]
5880	2	1	8	60.0	2	0	[]
5883	23	5	8	60.0	2	1	[(8936, 2)]
5886	12	6	8	60.0	2	1	[(1584, 0)]
5889	18	6	8	60.0	2	56	[(7309, 0), (5063, 0), (4530, 0), (4042, 0), (7058, 0), (8293, 0), (8137, 0), (6663, 0), (9289, 0), (7467, 0), (3845, 2), (5614, 0), (4608, 0), (7267, 0), (8191, 0), (1227, 0), (5028, 0), (7734, 2), (286, 0), (3481, 0), (3077, 0), (9228, 0), (80, 2), (7778, 1), (5468, 0), (5497, 0), (5589, 0), (6062, 0), (9269, 0), (2880, 0), (8400, 0), (6139, 0), (281, 0), (3530, 0), (1740, 0), (473, 0), (8412, 0), (3127, 0), (8045, 2), (365, 0), (1405, 0), (1914, 0), (4778, 0), (2281, 0), (6694, 0), (6188, 0), (2017, 2), (2272, 0), (7154, 0), (8223, 0), (8324, 0), (3692, 0), (585, 0), (5086, 0), (1781, 0), (5997, 0)]
5890	2	1	8	60.0	2	0	[]
5903	17	6	8	60.0	2	4	[(4456, 2), (8293, 1), (7323, 2), (3657, 0)]
5906	2	1	8	60.0	2	0	[]
5911	1	4	8	60.0	2	0	[]
5913	2	1	8	60.0	2	0	[]
5917	2	1	8	60.0	2	0	[]
5918	1	2	8	60.0	2	0	[]
5919	3	4	8	60.0	2	0	[]
5920	1	1	4	60.0	2	0	[]
5922	7	2	8	60.0	2	4	[(4570, 0), (442, 0), (3851, 0), (7928, 1)]
5925	1	1	8	60.0	2	0	[]
5930	1	1	8	60.0	2	0	[]
5939	2	4	8	60.0	2	0	[]
5940	3	1	8	60.0	2	0	[]
5945	1	1	1	60.0	2	0	[]
5946	2	2	8	60.0	2	0	[]
5956	6	2	8	60.0	2	0	[]
5967	2	1	8	60.0	2	0	[]
5984	11	2	8	60.0	2	0	[]
5989	2	1	8	60.0	2	0	[]
5991	4	1	8	40.0	2	0	[]
5997	10	1	8	60.0	2	0	[]
5999	1	1	8	60.0	2	0	[]
6000	1	4	8	60.0	2	0	[]
6005	2	3	8	500.0	2	0	[]
6013	2	1	8	60.0	2	0	[]
6014	1	4	8	60.0	2	0	[]
6020	31	2	16	60.0	2	13	[(6814, 0), (2533, 0), (4646, 0), (7452, 0), (7262, 0), (3558, 0), (2644, 0), (7050, 1), (5022, 0), (3004, 0), (80, 0), (1014, 0), (2138, 0)]
6022	2	2	8	60.0	2	0	[]
6027	1	1	16	60.0	2	0	[]
6029	2	1	8	60.0	2	0	[]
6044	1	1	8	60.0	2	0	[]
6052	4	1	2	60.0	2	1	[(3959, 2)]
6057	6	1	8	60.0	2	1	[(6659, 0)]
6062	9	2	3	80.0	2	0	[]
6068	1	1	8	60.0	2	0	[]
6085	9	1	8	60.0	2	0	[]
6089	6	5	8	60.0	2	0	[]
6092	1	1	8	60.0	2	0	[]
6098	2	1	2	60.0	2	0	[]
6100	1	1	2	60.0	2	0	[]
6103	17	6	8	60.0	2	1	[(6659, 0)]
6109	8	1	8	80.0	2	0	[]
6110	6	1	8	60.0	2	1	[(6659, 0)]
6113	2	1	6	60.0	2	0	[]
6114	1	1	2	60.0	2	0	[]
6120	1	1	8	60.0	2	0	[]
6122	40	6	8	60.0	2	2	[(6659, 0), (7568, 2)]
6124	2	1	8	60.0	2	0	[]
6125	2	1	8	60.0	2	0	[]
6130	2	1	8	60.0	2	0	[]
6132	4	2	8	60.0	2	0	[]
6133	3	1	8	60.0	2	0	[]
6134	4	1	8	60.0	2	0	[]
6136	4	1	8	60.0	2	0	[]
6139	40	12	16	100.0	0	3	[(5028, 0), (3077, 0), (6827, 0)]
6140	1	5	8	60.0	2	0	[]
6142	1	1	1	60.0	2	0	[]
6147	4	3	8	60.0	2	0	[]
6148	2	12	16	80.0	2	0	[]
6153	33	3	8	60.0	2	1	[(8223, 2)]
6156	2	1	8	60.0	2	0	[]
6157	1	1	8	60.0	2	0	[]
6159	1	4	8	60.0	2	0	[]
6162	5	1	2	300.0	2	0	[]
6168	1	1	8	60.0	2	0	[]
6169	1	4	8	60.0	2	0	[]
6177	7	2	4	100.0	2	0	[]
6179	4	1	8	60.0	2	1	[(4042, 2)]
6188	27	2	8	40.0	2	2	[(5028, 0), (3654, 0)]
6190	3	1	2	60.0	2	0	[]
6192	2	6	8	60.0	2	0	[]
6196	5	2	8	60.0	2	0	[]
6197	3	1	8	60.0	2	0	[]
6202	1	1	8	60.0	2	0	[]
6205	1	1	8	60.0	2	0	[]
6208	1	1	8	60.0	2	0	[]
6209	2	1	8	60.0	2	0	[]
6211	5	1	8	60.0	2	0	[]
6212	5	1	8	60.0	2	0	[]
6224	2	1	5	60.0	2	0	[]
6228	2	2	8	60.0	2	0	[]
6229	1	1	1	60.0	2	0	[]
6234	12	1	8	60.0	2	1	[(1919, 0)]
6241	2	3	8	60.0	2	0	[]
6244	1	1	8	60.0	2	0	[]
6245	1	1	7	60.0	2	0	[]
6247	2	1	8	60.0	2	0	[]
6249	2	1	5	60.0	2	0	[]
6252	1	1	8	60.0	2	0	[]
6258	10	1	8	60.0	2	2	[(8767, 2), (7998, 0)]
6260	1	1	1	60.0	2	0	[]
6261	1	8	16	80.0	2	0	[]
6267	3	2	1	100.0	2	0	[]
6268	4	5	8	60.0	2	0	[]
6273	1	1	8	60.0	2	0	[]
6279	1	4	8	60.0	2	0	[]
6280	3	5	8	60.0	2	0	[]
6282	7	2	8	60.0	2	0	[]
6293	4	2	8	60.0	2	0	[]
6296	4	1	8	60.0	2	0	[]
6300	5	6	8	100.0	2	1	[(2067, 0)]
6303	19	6	8	60.0	2	1	[(1152, 0)]
6307	2	1	8	60.0	2	0	[]
6310	2	1	8	60.0	2	0	[]
6315	1	4	8	60.0	2	0	[]
6318	2	1	2	60.0	2	3	[(3653, 0), (6417, 0), (6499, 0)]
6319	2	1	8	60.0	2	0	[]
6320	2	3	8	60.0	2	0	[]
6324	1	1	1	60.0	2	0	[]
6326	5	6	8	60.0	2	0	[]
6331	2	1	8	60.0	2	1	[(92, 2)]
6335	6	1	8	60.0	2	0	[]
6337	2	2	8	60.0	2	0	[]
6338	2	1	8	60.0	2	0	[]
6339	1	8	16	200.0	2	0	[]
6343	2	1	7	60.0	2	0	[]
6347	4	1	8	60.0	2	0	[]
6355	2	1	8	60.0	2	0	[]
6356	1	1	8	60.0	2	0	[]
6359	2	3	8	60.0	2	0	[]
6362	1	1	8	60.0	2	0	[]
6369	3	1	8	60.0	2	0	[]
6374	7	1	8	60.0	2	0	[]
6376	1	8	8	60.0	2	0	[]
6377	21	2	8	60.0	2	3	[(7153, 2), (310, 0), (6293, 2)]
6383	1	4	8	60.0	2	0	[]
6389	1	1	2	60.0	2	0	[]
6390	1	8	16	60.0	2	0	[]
6393	223	6	8	60.0	2	1	[(6659, 0)]
6398	6	4	8	60.0	2	1	[(2710, 0)]
6399	1	1	8	60.0	2	0	[]
6400	4	1	8	60.0	2	0	[]
6404	2	1	8	60.0	2	0	[]
6407	2	1	8	60.0	2	0	[]
6410	2	1	8	60.0	2	0	[]
6413	1	1	8	60.0	2	0	[]
6417	2	1	8	60.0	2	0	[]
6420	1	1	2	60.0	2	0	[]
6425	1	1	8	60.0	2	0	[]
6426	4	1	8	60.0	2	0	[]
6427	2	1	2	60.0	2	0	[]
6430	1	1	8	60.0	2	0	[]
6433	1	4	8	80.0	2	0	[]
6436	2	2	8	60.0	2	0	[]
6448	2	1	8	60.0	2	0	[]
6451	2	1	8	60.0	2	0	[]
6457	2	1	3	60.0	2	0	[]
6466	4	6	8	60.0	2	0	[]
6470	2	2	8	60.0	2	0	[]
6472	4	1	8	60.0	2	0	[]
6473	2	1	16	100.0	2	0	[]
6479	11	1	2	200.0	2	0	[]
6483	29	1	8	60.0	0	6	[(3191, 0), (6293, 0), (7998, 0), (5022, 2), (1048, 0), (7934, 1)]
6486	15	4	8	60.0	2	0	[]
6492	2	1	8	60.0	2	0	[]
6494	3	1	8	60.0	2	0	[]
6499	2	2	8	60.0	2	0	[]
6505	2	1	8	60.0	2	0	[]
6508	2	2	8	60.0	2	1	[(1840, 0)]
6511	4	1	2	60.0	2	0	[]
6515	3	1	3	60.0	2	0	[]
6516	2	1	8	60.0	2	0	[]
6519	2	1	8	60.0	2	0	[]
6525	1	1	8	60.0	2	0	[]
6531	9	1	16	60.0	0	2	[(80, 0), (655, 0)]
6534	8	6	8	60.0	2	1	[(3653, 2)]
6538	2	1	8	60.0	2	0	[]
6544	1	1	8	60.0	2	0	[]
6549	2	1	8	60.0	2	0	[]
6556	1	1	8	60.0	2	0	[]
6560	1	1	8	60.0	2	0	[]
6576	2	1	4	500.0	2	0	[]
6577	1	1	8	60.0	2	0	[]
6581	1	2	8	60.0	2	1	[(3356, 2)]
6585	2	1	2	60.0	2	0	[]
6589	2	1	8	60.0	2	0	[]
6599	2	2	8	60.0	2	0	[]
6601	1	4	8	60.0	2	0	[]
6610	12	2	8	60.0	2	0	[]
6615	1	6	8	60.0	2	0	[]
6627	2	2	8	60.0	2	0	[]
6629	3	1	8	60.0	2	0	[]
6630	1	1	4	60.0	2	0	[]
6632	1	1	2	60.0	2	0	[]
6634	2	1	2	60.0	2	0	[]
6638	2	1	8	60.0	2	0	[]
6643	7	1	8	60.0	2	0	[]
6647	4	2	8	60.0	2	0	[]
6659	117	3	8	120.0	0	94	[(8476, 0), (2263, 0), (4778, 0), (7176, 0), (8767, 0), (8293, 0), (1195, 0), (4514, 0), (1326, 0), (122, 0), (7236, 0), (147, 0), (7333, 0), (9077, 0), (473, 0), (5065, 0), (2731, 0), (2815, 0), (262, 0), (1455, 0), (8223, 0), (6794, 0), (6122, 0), (5063, 0), (5589, 0), (3077, 0), (3235, 0), (7151, 0), (4522, 0), (7744, 0), (3283, 0), (6393, 0), (1310, 0), (3657, 0), (1557, 0), (365, 0), (3654, 0), (281, 0), (7338, 0), (2186, 0), (4648, 0), (1274, 0), (6110, 0), (5705, 0), (3890, 0), (1227, 0), (7467, 0), (4423, 0), (3481, 0), (7928, 0), (782, 0), (1464, 0), (1781, 0), (7309, 0), (1024, 0), (6103, 0), (8069, 0), (2677, 0), (80, 0), (3617, 0), (8165, 0), (5724, 0), (5526, 0), (695, 0), (7065, 0), (4471, 0), (2272, 0), (585, 0), (6694, 0), (1002, 0), (92, 0), (7075, 0), (1509, 0), (3183, 0), (8582, 0), (5022, 0), (2806, 0), (5106, 0), (5028, 0), (7922, 0), (5646, 0), (1158, 0), (3466, 0), (1416, 0), (27, 0), (7619, 0), (6057, 0), (536, 0), (2061, 0), (9017, 0), (3691, 0), (1405, 0), (8618, 0), (9285, 0)]
6662	3	2	8	60.0	2	0	[]
6663	7	3	2	60.0	2	0	[]
6665	2	1	8	60.0	2	0	[]
6666	2	1	4	60.0	2	0	[]
6670	3	1	8	60.0	2	0	[]
6675	1	4	8	60.0	2	0	[]
6677	2	4	8	60.0	2	0	[]
6681	4	1	8	60.0	2	0	[]
6685	1	2	4	60.0	2	0	[]
6694	70	5	16	200.0	2	1	[(6659, 0)]
6704	2	1	8	60.0	2	0	[]
6719	9	1	8	60.0	2	0	[]
6720	2	1	8	60.0	2	0	[]
6722	2	1	2	60.0	2	0	[]
6726	119	3	8	60.0	0	11	[(4320, 2), (6355, 1), (1019, 2), (296, 2), (5412, 2), (7861, 2), (9074, 2), (6234, 2), (3000, 1), (390, 2), (1840, 0)]
6729	13	2	8	60.0	2	0	[]
6739	4	3	8	60.0	2	0	[]
6741	1	1	8	60.0	2	0	[]
6742	2	1	8	60.0	2	0	[]
6753	1	4	8	60.0	2	0	[]
6758	1	1	2	60.0	2	0	[]
6763	4	1	6	60.0	2	0	[]
6765	4	1	8	60.0	2	0	[]
6772	1	8	16	60.0	2	0	[]
6783	1	1	16	60.0	2	0	[]
6784	1	1	10	300.0	2	0	[]
6787	3	1	8	60.0	2	1	[(1919, 0)]
6789	4	1	8	60.0	2	0	[]
6794	5	2	8	60.0	2	1	[(6659, 0)]
6797	1	1	8	60.0	2	0	[]
6799	2	1	1	60.0	2	0	[]
6802	1	1	8	60.0	2	0	[]
6805	2	1	8	60.0	2	2	[(8223, 0), (782, 0)]
6806	5	1	16	60.0	2	0	[]
6808	39	2	8	60.0	2	0	[]
6814	4	1	5	60.0	2	10	[(2533, 0), (4646, 0), (2138, 0), (7452, 0), (7262, 0), (2644, 0), (3558, 0), (3004, 0), (6020, 0), (1014, 0)]
6820	6	2	32	80.0	2	0	[]
6822	2	1	8	60.0	2	0	[]
6825	1	1	8	60.0	2	0	[]
6826	2	1	8	60.0	2	0	[]
6827	21	3	16	60.0	2	2	[(4608, 0), (6139, 0)]
6828	3	1	8	60.0	2	0	[]
6833	2	2	8	60.0	2	0	[]
6834	5	1	8	80.0	2	0	[]
6836	1	4	8	60.0	2	0	[]
6838	14	12	16	60.0	2	0	[]
6840	1	1	8	60.0	2	0	[]
6843	7	1	8	60.0	2	1	[(5813, 1)]
6844	2	1	2	60.0	2	0	[]
6853	2	1	8	60.0	2	0	[]
6855	2	1	8	60.0	2	0	[]
6856	2	1	8	60.0	2	0	[]
6861	2	1	2	60.0	2	0	[]
6866	1	1	8	60.0	2	0	[]
6868	1	1	8	60.0	2	0	[]
6869	2	2	8	60.0	2	0	[]
6872	1	1	7	60.0	2	0	[]
6875	2	1	8	60.0	2	0	[]
6877	2	1	1	60.0	2	0	[]
6888	1	1	8	60.0	2	0	[]
6890	2	1	8	60.0	2	0	[]
6907	17	1	8	60.0	2	0	[]
6912	8	2	2	60.0	2	1	[(7710, 0)]
6915	1	1	16	60.0	2	0	[]
6920	3	1	8	60.0	2	0	[]
6927	1	4	8	60.0	2	0	[]
6932	1	1	8	60.0	2	0	[]
6934	2	1	8	80.0	2	0	[]
6940	20	1	8	80.0	2	0	[]
6944	2	1	8	60.0	2	0	[]
6945	2	1	8	60.0	2	0	[]
6954	2	1	8	60.0	2	0	[]
6955	1	1	1	60.0	2	0	[]
6966	2	1	8	60.0	2	0	[]
6967	1	1	16	40.0	2	0	[]
6968	1	1	8	60.0	2	1	[(1919, 0)]
6971	2	2	8	60.0	2	0	[]
6972	4	6	8	60.0	2	0	[]
6977	1	1	8	60.0	2	0	[]
6981	2	1	7	60.0	2	0	[]
6985	5	6	8	60.0	2	0	[]
6988	1	1	8	60.0	2	0	[]
6990	1	4	8	80.0	2	0	[]
6994	1	1	8	60.0	2	0	[]
6995	1	1	4	60.0	2	0	[]
6998	1	1	8	60.0	2	0	[]
7007	16	3	8	60.0	2	1	[(5011, 1)]
7011	1	1	8	60.0	2	0	[]
7012	4	3	16	60.0	2	0	[]
7015	2	1	1	60.0	2	0	[]
7016	3	1	8	60.0	2	0	[]
7023	2	2	8	60.0	2	0	[]
7025	25	2	8	60.0	2	0	[]
7029	2	1	8	60.0	2	0	[]
7030	1	4	8	60.0	2	0	[]
7032	4	1	1	60.0	2	0	[]
7041	1	2	8	60.0	2	0	[]
7042	2	1	8	60.0	2	0	[]
7048	1	1	12	200.0	1	0	[]
7050	2	1	8	60.0	2	0	[]
7052	8	4	8	60.0	2	0	[]
7053	1	6	12	100.0	2	0	[]
7054	2	1	8	60.0	2	0	[]
7058	19	9	16	200.0	2	3	[(5533, 2), (3845, 0), (1781, 0)]
7061	2	1	8	60.0	2	0	[]
7062	4	1	8	60.0	2	0	[]
7065	9	5	8	60.0	2	1	[(6659, 0)]
7069	1	1	2	60.0	2	0	[]
7070	16	3	8	60.0	2	0	[]
7073	2	1	8	60.0	2	2	[(3077, 2), (782, 2)]
7075	29	2	8	60.0	2	2	[(4522, 2), (6659, 0)]
7077	2	1	8	60.0	2	0	[]
7080	26	3	8	60.0	2	2	[(3003, 2), (2482, 0)]
7089	1	1	2	60.0	2	0	[]
7090	3	1	8	60.0	2	0	[]
7091	10	2	8	60.0	2	1	[(1919, 0)]
7103	2	1	8	60.0	2	0	[]
7104	2	1	8	60.0	2	0	[]
7108	2	1	8	60.0	2	0	[]
7112	3	4	2	60.0	2	0	[]
7113	8	2	8	60.0	2	0	[]
7120	3	1	8	60.0	2	0	[]
7124	3	1	8	60.0	2	0	[]
7130	2	1	2	60.0	2	0	[]
7132	1	1	8	60.0	2	0	[]
7134	2	2	8	60.0	2	0	[]
7139	1	1	8	60.0	2	0	[]
7142	2	1	5	60.0	2	1	[(1240, 0)]
7144	4	1	8	60.0	2	0	[]
7151	2	1	8	60.0	2	1	[(6659, 0)]
7153	1	4	8	60.0	2	0	[]
7154	19	3	8	60.0	0	2	[(80, 2), (6827, 0)]
7158	7	2	8	60.0	2	2	[(8412, 2), (5022, 0)]
7159	1	1	8	60.0	2	0	[]
7161	1	1	2	60.0	2	0	[]
7163	6	1	8	60.0	2	2	[(3078, 0), (4570, 0)]
7166	2	1	8	60.0	2	0	[]
7168	2	1	8	60.0	2	0	[]
7169	1	1	8	60.0	2	0	[]
7174	4	1	8	60.0	2	0	[]
7176	6	1	2	60.0	2	2	[(6659, 0), (1549, 0)]
7178	15	1	2	60.0	2	0	[]
7183	1	2	8	40.0	2	0	[]
7186	1	1	1	60.0	2	0	[]
7188	1	1	8	60.0	2	0	[]
7191	2	1	8	60.0	2	0	[]
7192	12	3	8	60.0	2	0	[]
7197	2	1	8	60.0	2	0	[]
7209	1	1	8	60.0	2	0	[]
7211	1	2	8	60.0	2	0	[]
7212	1	1	8	60.0	2	0	[]
7213	1	2	8	60.0	2	0	[]
7214	16	2	8	40.0	2	5	[(80, 0), (3654, 0), (5022, 0), (7333, 0), (8223, 0)]
7218	1	2	4	60.0	2	0	[]
7221	3	1	8	60.0	2	0	[]
7222	12	1	8	60.0	2	0	[]
7224	1	4	8	60.0	2	0	[]
7226	2	1	8	60.0	2	0	[]
7233	2	1	7	60.0	2	0	[]
7235	1	4	8	60.0	2	0	[]
7236	7	1	8	60.0	2	1	[(6659, 0)]
7244	1	1	1	60.0	2	0	[]
7245	1	1	8	60.0	2	0	[]
7246	5	1	1	60.0	2	0	[]
7249	6	2	8	100.0	2	0	[]
7255	45	12	16	100.0	2	11	[(1919, 0), (6273, 1), (5556, 2), (3425, 0), (3551, 0), (8619, 1), (6647, 2), (8955, 2), (3021, 0), (4941, 2), (7007, 1)]
7260	2	1	2	60.0	2	0	[]
7262	2	1	8	60.0	2	0	[]
7267	6	6	8	60.0	2	2	[(122, 0), (655, 0)]
7269	1	1	2	60.0	2	0	[]
7273	2	1	16	60.0	2	0	[]
7274	2	1	8	60.0	2	0	[]
7275	1	1	5	60.0	2	0	[]
7278	4	1	8	60.0	2	0	[]
7280	1	1	8	60.0	2	0	[]
7286	3	1	18	100.0	2	0	[]
7290	9	1	4	60.0	2	0	[]
7296	1	1	2	60.0	2	0	[]
7299	3	4	8	60.0	2	0	[]
7300	1	1	8	60.0	2	0	[]
7308	1	1	2	60.0	2	0	[]
7309	87	5	8	40.0	0	4	[(80, 2), (4471, 0), (6659, 0), (281, 0)]
7313	1	1	1	60.0	2	0	[]
7317	2	1	1	60.0	2	0	[]
7318	4	6	8	60.0	2	0	[]
7320	1	4	1	60.0	2	0	[]
7322	6	6	8	60.0	2	0	[]
7323	3	4	8	60.0	2	0	[]
7325	1	8	16	150.0	2	0	[]
7326	5	1	8	60.0	2	0	[]
7333	12	2	8	60.0	2	17	[(1416, 2), (3654, 1), (1046, 0), (6659, 0), (4965, 1), (3002, 2), (255, 2), (8223, 0), (6393, 1), (4522, 2), (585, 0), (80, 0), (4190, 2), (9228, 1), (7922, 0), (3183, 1), (5085, 1)]
7334	1	1	8	60.0	2	0	[]
7336	2	4	8	60.0	2	0	[]
7338	120	6	8	60.0	0	11	[(8807, 2), (6659, 0), (2726, 2), (3691, 0), (473, 0), (8223, 2), (7080, 0), (3292, 0), (4042, 0), (3890, 2), (20, 0)]
7347	1	1	8	60.0	2	0	[]
7351	5	1	8	60.0	2	0	[]
7353	1	1	8	60.0	2	0	[]
7367	6	1	8	60.0	2	1	[(3654, 0)]
7368	5	2	8	60.0	2	0	[]
7370	10	1	8	60.0	2	0	[]
7373	2	1	8	60.0	2	0	[]
7375	2	1	3	60.0	2	0	[]
7380	2	1	8	60.0	2	0	[]
7382	2	1	8	60.0	2	0	[]
7385	4	1	8	60.0	2	0	[]
7399	3	2	2	60.0	2	0	[]
7413	5	1	24	150.0	2	0	[]
7423	2	1	8	60.0	2	0	[]
7430	2	1	8	60.0	2	0	[]
7431	1	5	8	60.0	2	0	[]
7432	1	4	8	60.0	2	0	[]
7433	2	1	8	60.0	2	1	[(3227, 0)]
7438	3	1	8	60.0	2	0	[]
7449	2	1	8	60.0	2	0	[]
7452	2	1	8	60.0	2	10	[(6814, 0), (2533, 0), (4646, 0), (2138, 0), (7262, 0), (2644, 0), (3558, 0), (3004, 0), (6020, 0), (1014, 0)]
7458	4	6	2	60.0	2	0	[]
7467	6	1	8	60.0	2	1	[(6659, 0)]
7484	4	4	8	60.0	2	0	[]
7491	2	1	8	80.0	2	0	[]
7501	1	4	8	60.0	2	0	[]
7502	4	4	8	60.0	2	0	[]
7507	6	1	8	60.0	2	0	[]
7508	2	6	6	60.0	2	2	[(147, 0), (1391, 0)]
7512	2	1	8	60.0	2	0	[]
7518	26	3	8	60.0	2	0	[]
7519	2	1	3	60.0	2	0	[]
7520	4	11	16	200.0	2	0	[]
7523	2	1	8	60.0	2	0	[]
7526	1	4	8	60.0	2	0	[]
7527	1	1	8	60.0	2	0	[]
7531	7	7	16	80.0	2	1	[(4941, 0)]
7538	3	2	8	60.0	2	0	[]
7543	3	1	8	60.0	2	0	[]
7546	2	1	8	60.0	2	0	[]
7548	2	1	8	60.0	2	0	[]
7551	5	2	8	100.0	2	2	[(3890, 1), (8223, 2)]
7558	2	1	8	60.0	2	0	[]
7559	8	1	8	60.0	2	0	[]
7560	1	6	8	60.0	2	0	[]
7562	1	1	4	60.0	2	0	[]
7564	5	3	8	60.0	2	0	[]
7565	1	1	8	60.0	2	0	[]
7566	2	3	8	60.0	2	0	[]
7568	13	1	8	60.0	2	0	[]
7569	11	3	8	60.0	2	0	[]
7573	1	1	8	60.0	2	0	[]
7574	4	1	8	60.0	2	0	[]
7584	2	2	8	60.0	2	0	[]
7591	4	1	8	60.0	2	0	[]
7595	1	1	8	60.0	2	0	[]
7598	1	1	8	60.0	2	0	[]
7604	2	1	8	60.0	2	1	[(8805, 0)]
7612	1	4	8	60.0	2	0	[]
7616	1	1	8	60.0	2	0	[]
7619	7	1	8	60.0	2	2	[(5063, 0), (6659, 0)]
7621	2	1	8	60.0	2	0	[]
7623	3	1	8	60.0	2	2	[(2291, 2), (9082, 2)]
7626	1	4	32	100.0	2	11	[(5080, 1), (7716, 2), (4608, 2), (2739, 1), (2851, 1), (1606, 2), (3241, 1), (4037, 2), (80, 2), (737, 2), (4710, 2)]
7629	2	4	16	80.0	2	0	[]
7633	1	1	8	60.0	2	0	[]
7644	2	2	7	150.0	2	0	[]
7645	2	1	8	60.0	2	0	[]
7650	1	4	8	60.0	2	0	[]
7652	9	2	8	60.0	2	2	[(5022, 2), (7073, 1)]
7663	1	1	8	60.0	2	0	[]
7673	3	1	8	60.0	2	0	[]
7676	2	1	8	60.0	2	0	[]
7677	2	1	8	60.0	2	0	[]
7678	1	4	8	80.0	2	0	[]
7680	2	2	8	60.0	2	0	[]
7683	16	12	16	100.0	2	0	[]
7684	2	1	8	60.0	2	0	[]
7687	2	1	8	60.0	2	0	[]
7690	2	1	8	60.0	2	0	[]
7697	3	2	8	60.0	2	0	[]
7702	1	1	8	60.0	2	0	[]
7704	2	1	8	60.0	2	0	[]
7708	32	3	8	60.0	2	20	[(8713, 2), (1046, 1), (317, 2), (4702, 2), (1310, 2), (3283, 2), (296, 0), (3445, 0), (8767, 1), (5011, 1), (4847, 2), (8097, 0), (8412, 0), (817, 0), (390, 2), (6124, 1), (147, 0), (5793, 0), (2844, 0), (7007, 0)]
7709	4	2	8	60.0	2	0	[]
7710	2	1	8	60.0	2	0	[]
7711	2	1	1	60.0	2	0	[]
7712	2	1	8	60.0	2	0	[]
7715	1	1	8	60.0	2	0	[]
7716	4	3	32	60.0	2	8	[(7626, 2), (5080, 1), (2739, 1), (3241, 1), (2851, 1), (4275, 2), (80, 2), (4710, 2)]
7720	2	1	8	60.0	2	0	[]
7722	1	1	16	100.0	2	0	[]
7723	2	1	2	60.0	2	0	[]
7724	6	2	8	60.0	2	0	[]
7731	1	2	8	60.0	2	0	[]
7734	7	2	8	40.0	0	5	[(80, 0), (2616, 0), (3077, 0), (5022, 0), (312, 0)]
7735	8	2	8	60.0	2	0	[]
7738	5	3	8	60.0	2	0	[]
7743	2	1	8	60.0	2	0	[]
7744	2	1	8	60.0	2	1	[(6659, 0)]
7748	2	4	8	60.0	2	0	[]
7753	2	1	8	60.0	2	0	[]
7755	1	1	8	60.0	2	0	[]
7757	2	1	8	60.0	2	0	[]
7758	7	1	8	60.0	2	0	[]
7762	3	1	8	60.0	2	0	[]
7763	1	1	8	60.0	2	0	[]
7764	8	2	8	60.0	2	0	[]
7768	7	4	8	60.0	2	0	[]
7773	5	1	8	60.0	2	0	[]
7778	21	2	16	60.0	2	0	[]
7780	2	5	8	60.0	2	0	[]
7782	1	1	8	60.0	2	0	[]
7790	1	1	8	60.0	2	0	[]
7791	1	1	8	60.0	2	0	[]
7794	9	12	16	100.0	2	0	[]
7797	10	2	8	60.0	2	2	[(1919, 0), (1046, 2)]
7798	16	3	8	60.0	2	0	[]
7799	2	2	8	60.0	2	1	[(5220, 2)]
7802	20	6	8	150.0	2	0	[]
7805	25	2	8	60.0	2	2	[(5011, 1), (3183, 0)]
7810	2	4	8	60.0	2	0	[]
7811	3	1	8	60.0	2	0	[]
7812	2	1	8	60.0	2	0	[]
7815	2	1	8	60.0	2	0	[]
7822	9	6	16	80.0	2	0	[]
7838	1	1	8	60.0	2	0	[]
7843	1	1	8	60.0	2	0	[]
7850	2	1	2	60.0	2	0	[]
7852	1	2	8	60.0	2	0	[]
7853	22	1	8	60.0	2	1	[(1708, 0)]
7854	1	2	8	60.0	2	0	[]
7856	2	1	8	60.0	2	0	[]
7858	2	2	8	60.0	2	0	[]
7860	1	1	8	40.0	0	0	[]
7861	5	1	8	60.0	2	0	[]
7862	2	1	8	60.0	2	0	[]
7867	2	1	7	60.0	2	0	[]
7871	6	2	8	60.0	2	0	[]
7873	6	1	8	500.0	2	0	[]
7876	1	12	8	60.0	2	0	[]
7884	1	1	1	60.0	2	0	[]
7898	1	1	8	60.0	2	0	[]
7900	2	1	2	60.0	2	0	[]
7902	1	1	1	60.0	2	0	[]
7903	1	1	4	60.0	2	0	[]
7905	6	1	8	60.0	2	0	[]
7907	2	2	8	60.0	2	0	[]
7908	2	4	8	60.0	2	0	[]
7922	2	1	2	60.0	2	1	[(6659, 0)]
7924	4	1	6	60.0	2	0	[]
7928	90	2	8	60.0	2	7	[(365, 0), (2649, 0), (3077, 0), (5022, 0), (2739, 2), (6659, 0), (8223, 0)]
7929	1	1	8	60.0	2	0	[]
7932	10	1	8	60.0	2	41	[(6307, 0), (2533, 0), (8172, 0), (1438, 0), (8663, 0), (602, 0), (7798, 0), (1509, 0), (7385, 0), (3235, 0), (959, 0), (7222, 0), (7998, 0), (3885, 0), (548, 0), (317, 0), (2029, 0), (5670, 0), (7077, 0), (8483, 0), (4459, 0), (8805, 0), (144, 0), (1077, 0), (3894, 0), (3851, 0), (8700, 0), (6556, 0), (3054, 0), (1901, 0), (4071, 0), (5222, 0), (310, 0), (8996, 0), (5220, 0), (1391, 1), (8855, 0), (7652, 0), (5515, 0), (2876, 0), (6726, 0)]
7934	2	1	8	60.0	2	0	[]
7937	1	4	8	80.0	2	0	[]
7942	7	1	8	60.0	2	0	[]
7943	2	1	3	60.0	2	0	[]
7945	12	1	8	60.0	2	0	[]
7948	2	1	8	60.0	2	0	[]
7951	2	1	8	60.0	2	0	[]
7958	2	1	8	60.0	2	0	[]
7962	3	1	8	60.0	2	0	[]
7965	2	1	8	60.0	2	0	[]
7966	2	1	2	60.0	2	0	[]
7971	2	1	16	80.0	2	0	[]
7972	2	2	8	60.0	2	0	[]
7976	2	1	8	60.0	2	0	[]
7978	2	2	1	60.0	2	0	[]
7991	2	1	8	60.0	2	0	[]
7992	4	1	8	60.0	2	0	[]
7998	81	1	8	60.0	0	13	[(6125, 2), (4364, 2), (4214, 0), (7260, 2), (3191, 0), (3653, 0), (596, 1), (7007, 2), (6211, 1), (4429, 2), (9123, 2), (5657, 0), (4963, 0)]
8003	3	1	2	60.0	2	0	[]
8004	2	1	8	60.0	2	0	[]
8008	1	4	8	60.0	2	0	[]
8011	3	1	8	60.0	2	0	[]
8013	2	1	1	60.0	2	0	[]
8020	1	3	8	60.0	2	0	[]
8026	2	1	8	60.0	2	0	[]
8029	1	1	3	60.0	2	0	[]
8031	2	1	8	60.0	2	0	[]
8033	4	2	8	60.0	2	1	[(473, 2)]
8041	10	1	8	60.0	2	0	[]
8043	2	1	6	60.0	2	0	[]
8045	3	1	8	60.0	2	0	[]
8046	27	4	8	80.0	2	0	[]
8049	3	1	1	60.0	2	0	[]
8052	7	1	8	60.0	2	0	[]
8063	2	1	8	60.0	2	0	[]
8064	2	1	8	60.0	2	0	[]
8069	43	6	8	40.0	2	3	[(2333, 0), (6659, 0), (1919, 0)]
8077	2	1	2	60.0	2	0	[]
8079	1	2	8	60.0	2	0	[]
8083	1	1	8	80.0	2	0	[]
8084	2	1	8	60.0	2	0	[]
8085	6	1	8	60.0	2	0	[]
8097	2	2	8	60.0	2	0	[]
8098	1	1	8	60.0	2	0	[]
8099	4	1	8	60.0	2	0	[]
8108	1	1	8	60.0	2	0	[]
8127	2	1	8	60.0	2	0	[]
8131	5	2	8	60.0	2	0	[]
8134	2	1	8	60.0	2	0	[]
8137	4	3	8	60.0	2	0	[]
8147	2	1	8	60.0	2	0	[]
8149	4	1	4	60.0	2	0	[]
8154	1	1	8	60.0	2	0	[]
8159	2	1	8	60.0	2	0	[]
8160	1	4	8	60.0	2	0	[]
8161	2	1	8	60.0	2	0	[]
8164	1	1	8	60.0	2	0	[]
8165	4	1	4	60.0	2	1	[(6659, 0)]
8172	26	4	8	60.0	2	1	[(1070, 0)]
8173	2	1	3	60.0	2	0	[]
8191	110	6	8	40.0	2	3	[(5112, 1), (5022, 1), (7338, 0)]
8192	1	3	3	60.0	2	0	[]
8193	1	1	2	60.0	2	0	[]
8194	18	2	8	60.0	2	0	[]
8198	4	2	8	60.0	2	0	[]
8209	8	1	8	60.0	2	0	[]
8215	6	2	8	60.0	2	1	[(80, 2)]
8223	130	24	32	80.0	0	2	[(1606, 0), (6659, 0)]
8226	2	3	8	60.0	2	0	[]
8229	9	1	8	60.0	2	1	[(5690, 1)]
8230	1	1	8	60.0	2	0	[]
8246	3	1	8	60.0	2	0	[]
8249	1	1	36	60.0	2	0	[]
8261	7	1	8	40.0	2	0	[]
8266	4	1	8	100.0	2	0	[]
8269	1	1	8	60.0	2	0	[]
8270	6	1	7	60.0	2	1	[(7368, 0)]
8272	2	1	8	60.0	2	0	[]
8279	2	1	8	60.0	2	0	[]
8284	2	1	8	60.0	2	0	[]
8290	2	1	8	60.0	2	0	[]
8293	25	1	16	60.0	2	1	[(6659, 0)]
8295	1	1	2	60.0	2	0	[]
8296	2	1	8	60.0	2	0	[]
8297	5	1	8	60.0	2	0	[]
8298	1	2	8	60.0	2	0	[]
8299	2	4	8	60.0	2	0	[]
8303	2	1	8	60.0	2	0	[]
8305	3	1	8	60.0	2	0	[]
8307	1	1	16	60.0	2	0	[]
8313	10	1	8	60.0	2	2	[(8131, 0), (1952, 0)]
8315	8	1	8	60.0	2	0	[]
8317	1	6	8	60.0	2	0	[]
8321	2	5	8	60.0	2	0	[]
8322	2	1	8	60.0	2	0	[]
8324	44	8	16	100.0	2	0	[]
8338	6	1	2	100.0	2	0	[]
8342	1	1	8	60.0	2	0	[]
8345	2	1	8	60.0	2	0	[]
8348	2	1	8	60.0	2	0	[]
8354	2	1	5	60.0	2	0	[]
8355	1	1	8	60.0	2	0	[]
8363	7	1	8	60.0	2	0	[]
8365	7	1	8	60.0	2	3	[(7798, 2), (1019, 0), (2701, 2)]
8370	5	1	8	60.0	2	0	[]
8374	1	1	1	60.0	2	0	[]
8375	5	1	8	60.0	2	0	[]
8380	2	1	8	60.0	2	0	[]
8383	2	1	8	60.0	2	0	[]
8384	2	1	2	60.0	2	0	[]
8387	1	1	1	60.0	2	0	[]
8388	2	1	8	60.0	2	0	[]
8390	1	1	8	60.0	2	0	[]
8393	3	1	2	60.0	2	0	[]
8394	2	1	5	60.0	2	0	[]
8395	2	1	8	60.0	2	0	[]
8400	1	1	7	60.0	2	0	[]
8401	1	1	8	60.0	2	0	[]
8405	3	1	8	60.0	2	0	[]
8407	7	2	8	60.0	2	0	[]
8412	31	3	8	60.0	2	3	[(80, 1), (464, 0), (2621, 0)]
8415	2	1	8	60.0	2	0	[]
8421	1	4	8	60.0	2	0	[]
8422	1	1	4	60.0	2	0	[]
8426	4	1	6	60.0	2	0	[]
8428	2	2	16	150.0	2	0	[]
8429	50	1	16	60.0	2	0	[]
8431	1	1	8	60.0	2	0	[]
8439	33	36	48	300.0	2	1	[(2890, 2)]
8444	3	1	8	60.0	2	0	[]
8445	2	1	8	60.0	2	0	[]
8455	2	1	8	60.0	2	0	[]
8459	1	1	1	60.0	2	0	[]
8462	2	1	6	60.0	2	0	[]
8472	2	4	8	60.0	2	0	[]
8474	1	4	8	60.0	2	0	[]
8476	50	6	8	60.0	2	2	[(6659, 0), (6410, 1)]
8483	5	1	16	60.0	2	0	[]
8486	4	1	8	60.0	2	2	[(4531, 1), (8767, 1)]
8494	3	1	8	60.0	2	0	[]
8508	1	1	8	60.0	2	0	[]
8515	1	4	8	60.0	2	0	[]
8518	1	1	8	60.0	2	0	[]
8525	1	4	8	60.0	2	0	[]
8528	5	5	8	60.0	2	0	[]
8533	1	1	8	60.0	2	0	[]
8535	1	1	16	60.0	1	11	[(7626, 1), (7716, 1), (4608, 1), (2739, 2), (2851, 2), (1606, 1), (5080, 1), (3241, 2), (4275, 1), (4037, 1), (737, 1)]
8536	8	6	8	60.0	2	0	[]
8541	3	2	8	60.0	2	0	[]
8542	3	2	8	60.0	2	0	[]
8545	4	1	8	60.0	2	0	[]
8547	3	1	8	60.0	2	0	[]
8550	1	1	8	60.0	2	0	[]
8558	11	2	8	60.0	2	0	[]
8559	2	32	128	600.0	2	0	[]
8564	4	4	8	60.0	2	1	[(7623, 2)]
8566	5	3	8	60.0	2	0	[]
8572	1	1	8	60.0	2	0	[]
8575	2	1	8	60.0	2	0	[]
8579	3	1	8	60.0	2	0	[]
8582	14	24	32	80.0	2	1	[(6659, 0)]
8585	2	1	4	60.0	2	0	[]
8588	5	23	32	80.0	2	0	[]
8589	1	16	32	60.0	0	0	[]
8592	1	2	9	80.0	2	0	[]
8593	2	2	8	60.0	2	1	[(3356, 1)]
8596	2	1	8	60.0	2	0	[]
8598	2	1	1	60.0	2	2	[(6337, 2), (3894, 2)]
8601	1	4	8	80.0	2	0	[]
8602	13	1	1	200.0	2	0	[]
8605	6	2	8	60.0	2	0	[]
8613	2	1	8	60.0	2	0	[]
8618	23	1	8	60.0	2	2	[(6659, 0), (3495, 2)]
8619	2	6	8	60.0	2	0	[]
8621	1	1	8	60.0	2	4	[(9222, 0), (7370, 0), (8370, 0), (1020, 0)]
8624	1	4	8	60.0	2	0	[]
8625	2	1	8	60.0	2	0	[]
8633	2	1	2	60.0	2	0	[]
8636	3	3	8	60.0	2	0	[]
8638	3	3	8	60.0	2	0	[]
8640	1	1	8	60.0	2	0	[]
8645	1	1	2	60.0	2	0	[]
8649	2	1	2	60.0	2	0	[]
8650	1	1	1	60.0	2	0	[]
8656	3	2	8	60.0	2	0	[]
8663	4	2	8	60.0	2	0	[]
8666	1	1	16	60.0	2	0	[]
8670	2	1	8	60.0	2	0	[]
8677	2	3	8	60.0	2	0	[]
8680	12	1	8	60.0	2	0	[]
8690	2	1	2	60.0	2	0	[]
8693	1	1	2	60.0	2	0	[]
8697	2	1	16	60.0	2	0	[]
8700	6	1	8	60.0	2	0	[]
8702	2	1	7	60.0	2	0	[]
8706	1	4	8	60.0	2	0	[]
8711	6	2	8	60.0	2	0	[]
8713	8	1	4	60.0	2	0	[]
8715	1	1	8	60.0	2	0	[]
8726	4	1	8	200.0	2	0	[]
8731	4	2	8	60.0	2	0	[]
8733	2	1	8	60.0	2	0	[]
8736	11	2	8	60.0	2	0	[]
8750	2	1	8	60.0	2	0	[]
8753	2	1	6	60.0	2	0	[]
8754	18	1	6	200.0	2	0	[]
8757	1	1	8	60.0	2	0	[]
8762	2	1	2	60.0	2	0	[]
8765	8	1	8	60.0	2	0	[]
8767	180	5	8	60.0	2	15	[(6659, 0), (1153, 0), (281, 2), (5029, 1), (585, 2), (7922, 1), (8429, 1), (971, 2), (3495, 1), (2018, 1), (5203, 2), (80, 2), (6972, 0), (3890, 2), (2153, 1)]
8769	1	1	16	60.0	0	0	[]
8773	8	2	8	60.0	2	0	[]
8774	25	6	8	60.0	2	0	[]
8778	2	1	8	60.0	2	2	[(147, 0), (4717, 2)]
8779	1	1	8	60.0	2	0	[]
8780	2	1	2	60.0	2	0	[]
8782	1	1	2	60.0	2	0	[]
8783	8	1	8	60.0	2	0	[]
8785	1	1	8	60.0	2	0	[]
8790	2	1	8	60.0	2	0	[]
8791	2	1	8	60.0	2	0	[]
8796	4	2	2	80.0	2	0	[]
8799	2	1	8	60.0	2	0	[]
8800	2	1	3	60.0	2	0	[]
8805	34	5	8	100.0	2	2	[(2846, 0), (1919, 0)]
8806	2	1	8	60.0	2	0	[]
8807	1	4	16	80.0	2	0	[]
8808	1	1	8	60.0	2	0	[]
8813	1	4	2	60.0	2	0	[]
8814	2	1	8	60.0	2	0	[]
8819	8	5	8	60.0	2	0	[]
8822	57	3	16	60.0	2	7	[(3127, 0), (4570, 0), (5480, 0), (2163, 0), (7267, 0), (1153, 0), (9228, 0)]
8828	7	1	16	80.0	2	0	[]
8829	2	1	8	60.0	2	0	[]
8833	1	1	8	60.0	2	0	[]
8852	24	6	8	60.0	2	1	[(7323, 2)]
8855	5	3	8	60.0	2	1	[(1919, 2)]
8859	5	1	8	60.0	2	0	[]
8862	2	1	8	1024.0	2	0	[]
8863	2	2	8	60.0	2	0	[]
8865	1	1	1	80.0	2	0	[]
8866	20	3	8	80.0	2	0	[]
8867	2	1	7	60.0	2	0	[]
8868	1	3	16	40.0	2	0	[]
8872	6	1	8	60.0	2	0	[]
8873	2	4	8	60.0	2	0	[]
8877	1	1	2	60.0	2	0	[]
8878	2	3	8	60.0	2	0	[]
8879	1	1	8	60.0	2	0	[]
8881	1	1	3	60.0	2	0	[]
8887	2	1	8	60.0	2	0	[]
8890	2	1	8	60.0	2	0	[]
8891	1	1	6	60.0	2	0	[]
8893	2	1	8	60.0	2	0	[]
8895	1	4	8	60.0	2	0	[]
8898	16	4	8	60.0	2	2	[(585, 1), (5063, 0)]
8903	2	1	7	60.0	2	0	[]
8905	6	1	7	60.0	2	0	[]
8913	1	1	1	60.0	2	0	[]
8914	2	1	8	60.0	2	0	[]
8917	7	6	8	100.0	2	1	[(5224, 2)]
8919	1	1	1	60.0	2	0	[]
8922	6	2	8	60.0	2	0	[]
8925	2	2	8	60.0	2	0	[]
8929	1	1	2	60.0	2	0	[]
8936	2	1	8	60.0	2	0	[]
8937	1	1	15	80.0	2	0	[]
8939	3	1	8	60.0	2	0	[]
8946	6	2	8	60.0	2	0	[]
8947	1	1	8	60.0	2	0	[]
8948	2	2	8	60.0	2	0	[]
8952	1	1	6	60.0	2	0	[]
8955	12	2	8	60.0	2	1	[(7290, 0)]
8959	2	1	8	60.0	2	1	[(5883, 0)]
8962	1	1	4	100.0	2	0	[]
8963	1	1	1	60.0	2	0	[]
8970	2	1	8	60.0	2	0	[]
8971	8	1	2	60.0	2	0	[]
8973	2	1	8	60.0	2	0	[]
8977	4	1	8	60.0	2	2	[(80, 0), (2263, 0)]
8980	2	1	8	60.0	2	0	[]
8983	2	4	8	60.0	2	0	[]
8988	1	1	8	60.0	2	0	[]
8989	1	1	1	60.0	2	0	[]
8994	18	1	2	60.0	2	0	[]
8996	2	1	8	60.0	2	0	[]
8999	1	1	1	60.0	2	0	[]
9008	1	1	1	40.0	2	0	[]
9011	9	3	8	60.0	2	0	[]
9012	2	1	8	60.0	2	0	[]
9017	33	1	8	60.0	2	1	[(6659, 0)]
9018	2	1	2	60.0	2	0	[]
9024	1	1	8	60.0	2	1	[(1046, 1)]
9035	55	3	8	100.0	1	19	[(8173, 1), (8324, 1), (4925, 2), (7998, 2), (3582, 2), (4298, 2), (3894, 1), (2111, 1), (7260, 1), (6483, 2), (5519, 2), (3008, 2), (2027, 2), (1919, 0), (4816, 1), (6020, 1), (3555, 2), (4319, 2), (1391, 0)]
9041	2	4	8	60.0	2	0	[]
9054	2	1	8	60.0	2	0	[]
9058	1	4	8	60.0	2	0	[]
9061	2	4	8	60.0	2	0	[]
9062	1	4	8	60.0	2	0	[]
9065	3	1	8	60.0	2	0	[]
9067	2	1	8	60.0	2	0	[]
9068	1	4	8	60.0	2	0	[]
9069	1	1	7	60.0	2	0	[]
9074	3	2	8	60.0	2	0	[]
9075	9	2	8	60.0	2	1	[(3654, 1)]
9077	33	4	8	60.0	2	2	[(6659, 0), (8223, 1)]
9078	1	1	2	60.0	2	0	[]
9082	1	4	8	60.0	2	0	[]
9083	1	6	8	60.0	2	0	[]
9084	30	6	16	60.0	2	1	[(1606, 0)]
9109	3	1	8	60.0	2	0	[]
9123	4	1	8	60.0	2	0	[]
9126	1	4	8	60.0	2	0	[]
9129	1	1	8	60.0	2	0	[]
9131	1	1	3	60.0	2	0	[]
9142	2	1	8	60.0	2	0	[]
9146	2	3	16	60.0	0	0	[]
9147	1	4	8	60.0	2	0	[]
9152	4	1	15	100.0	2	0	[]
9157	5	2	8	60.0	2	1	[(2915, 2)]
9162	8	1	8	60.0	2	0	[]
9170	1	1	8	60.0	2	0	[]
9174	9	2	8	60.0	2	2	[(5022, 1), (1195, 0)]
9175	1	1	2	60.0	2	0	[]
9176	7	1	16	60.0	2	0	[]
9184	1	1	4	60.0	2	0	[]
9195	2	1	2	60.0	2	0	[]
9196	2	1	8	60.0	2	0	[]
9197	2	12	16	100.0	2	0	[]
9204	6	1	8	60.0	2	0	[]
9205	1	1	1	60.0	2	0	[]
9208	2	1	8	60.0	2	0	[]
9209	5	6	8	60.0	2	0	[]
9213	2	1	8	60.0	2	0	[]
9222	2	1	7	60.0	2	0	[]
9224	2	1	3	60.0	2	0	[]
9228	42	4	8	40.0	2	5	[(4570, 0), (3654, 0), (8822, 0), (5063, 0), (1464, 0)]
9230	2	1	1	60.0	2	0	[]
9231	3	1	8	60.0	2	0	[]
9232	1	1	8	60.0	2	0	[]
9234	2	1	8	60.0	2	0	[]
9238	1	4	8	60.0	2	0	[]
9244	3	1	8	60.0	2	0	[]
9247	2	1	1	60.0	2	0	[]
9248	1	1	8	60.0	2	0	[]
9249	5	1	8	60.0	2	0	[]
9254	1	1	2	60.0	2	1	[(7368, 1)]
9256	1	1	8	60.0	2	0	[]
9257	4	2	8	60.0	2	0	[]
9258	2	1	8	60.0	2	0	[]
9260	2	2	8	60.0	2	0	[]
9267	1	1	1	60.0	2	0	[]
9269	210	4	16	60.0	0	11	[(3657, 0), (5320, 0), (788, 0), (8069, 0), (312, 0), (1969, 1), (80, 0), (8223, 0), (5022, 0), (4229, 0), (5548, 0)]
9270	2	1	8	60.0	2	0	[]
9277	3	1	8	60.0	2	0	[]
9279	1	1	8	60.0	2	0	[]
9280	1	1	8	60.0	2	0	[]
9285	5	1	8	60.0	2	1	[(6659, 0)]
9286	10	1	16	60.0	2	1	[(6758, 1)]
9289	18	10	2	100.0	2	1	[(4649, 1)]
9290	2	1	8	60.0	2	0	[]
9297	25	2	8	60.0	2	0	[]
9298	3	2	8	60.0	2	1	[(1919, 0)]
9304	2	1	8	60.0	2	0	[]
9305	2	1	8	60.0	2	0	[]
9307	2	6	8	60.0	2	0	[]
9309	1	4	8	60.0	2	0	[]
9313	1	8	32	80.0	0	0	[]
9317	2	1	8	60.0	2	0	[]
9323	1	1	1	40.0	2	0	[]
9324	12	1	8	100.0	2	0	[]
9327	3	1	8	60.0	2	0	[]
9329	3	2	8	60.0	2	0	[]
9330	11	6	8	60.0	2	0	[]
9332	1	3	2	60.0	2	0	[]
9337	6	1	8	60.0	2	0	[]
