app_id	nb_instances	core	memory	disk	intra_value	inter_degree	inter_aff
2	1	1	8	60.0	2	0	[]
8	4	1	8	60.0	2	0	[]
13	8	2	2	60.0	2	0	[]
14	3	1	8	60.0	2	0	[]
21	4	1	7	60.0	2	0	[]
28	10	1	1	60.0	2	6	[(1296, 1), (4231, 2), (1361, 2), (440, 1), (4781, 0), (8946, 1)]
34	12	1	8	60.0	2	0	[]
35	2	1	8	60.0	2	0	[]
44	2	1	8	60.0	2	0	[]
46	2	1	4	60.0	2	0	[]
48	17	3	8	60.0	2	0	[]
53	6	1	8	60.0	2	0	[]
57	1	4	8	60.0	2	0	[]
60	10	4	8	60.0	2	11	[(2487, 0), (2857, 0), (2485, 0), (8199, 1), (7443, 0), (7352, 1), (2486, 0), (7085, 0), (4551, 0), (2332, 0), (91, 0)]
67	21	1	8	60.0	2	0	[]
72	1	1	1	60.0	2	0	[]
79	1	1	8	60.0	2	0	[]
83	2	2	2	60.0	2	0	[]
86	2	1	8	60.0	2	1	[(1494, 2)]
90	2	2	8	60.0	2	0	[]
91	2	4	8	60.0	2	0	[]
97	5	2	8	60.0	2	0	[]
106	1	10	8	60.0	2	0	[]
117	1	4	4	60.0	2	0	[]
122	36	2	8	40.0	2	0	[]
126	1	1	3	60.0	2	0	[]
132	2	6	8	60.0	2	0	[]
140	3	6	8	60.0	2	0	[]
145	2	1	8	60.0	2	0	[]
147	315	6	8	60.0	2	13	[(4895, 0), (6232, 0), (2263, 3), (4429, 0), (1891, 3), (6831, 0), (3511, 0), (3802, 0), (6490, 4), (1443, 1), (7813, 0), (7443, 4), (4280, 0)]
153	2	1	8	60.0	2	0	[]
156	1	1	8	60.0	2	0	[]
159	3	2	8	60.0	2	0	[]
164	3	1	8	60.0	2	0	[]
165	2	1	8	60.0	2	0	[]
172	2	1	3	60.0	2	0	[]
173	4	1	2	60.0	2	0	[]
177	1	1	8	60.0	2	0	[]
182	6	1	8	60.0	2	2	[(3240, 0), (3170, 0)]
187	5	2	8	60.0	2	0	[]
190	4	3	8	60.0	2	0	[]
191	7	1	2	60.0	2	0	[]
196	2	1	2	60.0	2	0	[]
207	2	1	1	60.0	2	0	[]
208	62	3	8	40.0	2	0	[]
209	2	1	8	60.0	2	0	[]
211	3	1	8	60.0	2	0	[]
212	1	1	8	60.0	2	0	[]
215	2	1	8	60.0	2	0	[]
220	8	4	16	60.0	2	0	[]
226	10	4	8	60.0	2	18	[(7879, 0), (1024, 0), (4210, 0), (5900, 0), (1227, 0), (8069, 0), (577, 0), (6304, 0), (8931, 0), (4280, 0), (5528, 0), (8194, 0), (7443, 0), (6896, 0), (1955, 0), (4231, 0), (1055, 0), (1443, 0)]
229	2	1	3	60.0	2	0	[]
241	1	1	6	60.0	2	0	[]
244	4	3	8	60.0	2	0	[]
245	2	1	8	60.0	2	0	[]
246	1	1	1	60.0	2	0	[]
251	1	1	8	60.0	2	0	[]
253	2	1	2	60.0	2	0	[]
254	3	1	8	60.0	2	0	[]
257	1	3	8	60.0	2	0	[]
261	5	1	8	60.0	2	3	[(4231, 0), (190, 0), (6478, 0)]
262	29	4	8	60.0	0	26	[(1916, 0), (5264, 0), (2910, 0), (8606, 0), (8695, 0), (1024, 0), (208, 0), (5418, 0), (7970, 0), (8485, 0), (737, 0), (6710, 0), (5217, 0), (4866, 0), (4175, 0), (2853, 0), (2900, 0), (8069, 0), (4864, 0), (2302, 0), (254, 0), (8553, 0), (2485, 0), (5882, 0), (1443, 0), (6628, 0)]
267	2	1	8	60.0	2	0	[]
268	3	4	8	60.0	2	0	[]
273	1	16	60	60.0	2	18	[(7716, 2), (6097, 2), (7045, 2), (1741, 2), (6831, 2), (5135, 2), (5363, 2), (3942, 2), (4520, 2), (4014, 2), (6104, 2), (4210, 2), (4037, 2), (2688, 2), (6034, 2), (6429, 2), (737, 2), (3039, 1)]
278	5	1	8	60.0	2	0	[]
279	7	1	7	60.0	2	1	[(2484, 0)]
281	8	3	8	40.0	2	0	[]
283	4	3	8	60.0	2	0	[]
288	2	1	8	60.0	2	0	[]
294	2	1	8	60.0	2	0	[]
296	2	1	8	60.0	2	0	[]
298	2	1	8	60.0	2	0	[]
300	2	2	8	60.0	2	0	[]
303	5	1	8	60.0	2	0	[]
304	1	1	8	60.0	2	0	[]
306	4	1	8	60.0	2	0	[]
307	11	1	8	60.0	2	0	[]
315	1	1	2	60.0	2	1	[(4096, 0)]
318	6	1	8	60.0	2	0	[]
320	3	1	8	60.0	2	0	[]
327	5	2	8	60.0	2	0	[]
334	2	1	8	60.0	2	0	[]
341	12	1	8	60.0	2	2	[(3802, 2), (7394, 0)]
344	17	2	8	60.0	2	0	[]
346	3	1	8	60.0	2	0	[]
351	24	1	4	60.0	2	0	[]
352	1	1	1	60.0	2	0	[]
355	106	11	16	100.0	2	3	[(6825, 1), (1099, 1), (6540, 1)]
356	2	1	2	60.0	2	0	[]
361	4	1	8	60.0	2	0	[]
371	5	1	8	60.0	2	0	[]
375	3	1	1	60.0	2	0	[]
377	1	1	8	60.0	2	0	[]
382	3	1	8	60.0	2	0	[]
383	1	1	8	60.0	2	0	[]
384	1	1	8	60.0	2	0	[]
399	2	1	8	60.0	2	0	[]
407	2	1	8	60.0	2	0	[]
412	1	4	8	60.0	2	0	[]
416	8	2	8	60.0	2	0	[]
420	2	2	5	60.0	2	0	[]
423	4	2	8	60.0	2	0	[]
437	1	1	8	60.0	2	0	[]
438	2	1	8	60.0	2	0	[]
439	1	1	2	60.0	2	0	[]
440	4	2	8	60.0	2	1	[(4085, 1)]
442	25	2	8	60.0	2	1	[(4730, 0)]
445	4	1	8	60.0	2	0	[]
446	2	2	8	60.0	2	0	[]
448	2	1	3	60.0	2	0	[]
450	5	1	8	60.0	2	0	[]
456	35	2	8	60.0	2	4	[(7880, 0), (4210, 0), (208, 0), (8223, 1)]
462	1	2	32	80.0	2	0	[]
463	2	1	2	60.0	2	0	[]
464	73	6	8	60.0	2	8	[(7970, 0), (3629, 2), (281, 0), (8223, 2), (3802, 2), (4210, 2), (7009, 2), (4424, 0)]
467	4	1	8	60.0	2	0	[]
470	1	1	1	60.0	2	0	[]
472	2	1	8	60.0	2	0	[]
481	2	1	3	60.0	2	0	[]
495	1	4	8	60.0	2	0	[]
496	6	1	8	60.0	2	0	[]
497	1	1	5	60.0	2	0	[]
505	14	2	8	60.0	2	1	[(1454, 1)]
508	1	1	8	60.0	2	0	[]
510	2	1	16	60.0	2	0	[]
515	5	1	8	60.0	2	0	[]
516	17	2	8	60.0	2	0	[]
523	2	4	8	60.0	2	0	[]
524	1	1	8	60.0	2	0	[]
525	1	3	8	60.0	2	0	[]
530	1	1	8	60.0	2	0	[]
536	51	2	8	167.0	2	62	[(1916, 0), (4341, 0), (1031, 0), (4530, 0), (7522, 0), (8069, 0), (1024, 0), (4210, 2), (6736, 0), (1640, 0), (7379, 0), (7009, 0), (7970, 0), (510, 0), (4551, 0), (5855, 0), (7414, 0), (8194, 0), (7792, 0), (4373, 0), (6304, 0), (5418, 0), (1235, 0), (9228, 0), (122, 0), (2745, 0), (854, 0), (8931, 0), (3048, 0), (6710, 0), (3178, 0), (4175, 0), (5496, 0), (8698, 0), (3559, 0), (281, 0), (8199, 0), (772, 0), (208, 0), (1259, 0), (5995, 0), (5778, 0), (5389, 0), (1227, 0), (4231, 0), (7843, 0), (2488, 0), (6694, 0), (3292, 2), (2900, 0), (4864, 0), (8223, 1), (3802, 0), (6152, 0), (6605, 0), (3849, 0), (2491, 0), (5127, 0), (7578, 0), (2485, 0), (1443, 0), (4424, 0)]
538	2	1	8	60.0	2	0	[]
544	22	6	8	60.0	2	2	[(8308, 2), (4543, 2)]
547	2	1	6	60.0	2	0	[]
551	16	3	8	100.0	2	0	[]
552	4	1	8	60.0	2	0	[]
555	6	1	8	60.0	2	0	[]
556	9	1	8	60.0	2	0	[]
562	33	2	8	60.0	2	2	[(182, 2), (688, 0)]
567	2	1	5	60.0	2	0	[]
570	8	1	8	60.0	2	0	[]
571	2	1	8	60.0	2	0	[]
577	1	2	8	40.0	2	3	[(281, 0), (7443, 0), (208, 0)]
578	2	1	8	60.0	2	0	[]
592	1	16	32	200.0	2	0	[]
597	3	1	8	60.0	2	0	[]
600	1	1	8	60.0	2	0	[]
602	3	1	8	60.0	2	0	[]
606	2	1	8	60.0	2	0	[]
609	1	1	8	60.0	2	0	[]
616	9	3	8	60.0	2	0	[]
624	1	4	8	60.0	2	0	[]
625	5	2	8	60.0	2	0	[]
631	1	1	8	60.0	2	0	[]
633	4	1	8	60.0	2	0	[]
636	95	1	8	60.0	2	12	[(4174, 0), (7998, 0), (7638, 1), (6336, 1), (4429, 0), (3490, 2), (9074, 2), (2214, 2), (3301, 1), (3964, 2), (7732, 1), (9136, 2)]
637	1	1	32	200.0	0	0	[]
638	13	3	8	60.0	2	0	[]
639	2	1	8	60.0	2	0	[]
644	1	2	8	60.0	2	0	[]
645	1	1	8	60.0	2	0	[]
647	2	3	2	60.0	2	0	[]
663	2	2	4	60.0	2	0	[]
664	6	1	8	60.0	2	0	[]
667	2	1	8	60.0	2	1	[(4242, 2)]
672	1	1	2	60.0	2	0	[]
676	1	1	8	60.0	2	0	[]
677	1	11	16	80.0	2	0	[]
678	1	1	8	60.0	2	0	[]
687	4	6	8	60.0	2	0	[]
688	36	6	8	100.0	2	2	[(6259, 0), (2244, 2)]
696	2	6	8	60.0	2	0	[]
697	2	1	8	60.0	2	0	[]
700	2	1	2	60.0	2	0	[]
710	3	1	8	60.0	2	0	[]
711	2	1	7	60.0	2	0	[]
715	4	1	8	60.0	2	0	[]
721	1	1	8	60.0	2	0	[]
722	1	1	2	60.0	2	0	[]
724	2	1	8	60.0	2	0	[]
725	25	1	8	60.0	2	6	[(4341, 0), (5288, 0), (3851, 0), (6671, 0), (8980, 0), (8297, 2)]
726	135	6	8	60.0	2	26	[(7855, 2), (1710, 2), (1026, 0), (1195, 0), (399, 0), (3720, 0), (510, 2), (647, 2), (2029, 0), (3156, 1), (1622, 2), (5616, 2), (7631, 2), (8192, 2), (819, 2), (3179, 0), (1494, 1), (2277, 2), (1483, 2), (974, 2), (7559, 0), (2663, 2), (2347, 0), (8734, 1), (2819, 0), (1270, 0)]
728	8	1	8	60.0	2	0	[]
730	3	1	2	60.0	2	0	[]
737	10	5	32	60.0	2	11	[(7045, 2), (1741, 2), (3942, 2), (5135, 2), (5363, 2), (4520, 2), (4014, 2), (273, 1), (4210, 2), (6034, 2), (3039, 1)]
745	2	1	8	80.0	2	0	[]
746	12	3	8	60.0	2	0	[]
747	4	2	8	60.0	2	2	[(122, 2), (1019, 2)]
749	2	4	8	60.0	2	0	[]
751	1	1	1	60.0	2	0	[]
752	2	1	8	60.0	2	0	[]
761	1	4	8	80.0	2	0	[]
763	3	1	8	60.0	2	0	[]
765	2	2	16	40.0	2	0	[]
769	12	4	2	100.0	2	0	[]
771	2	1	8	60.0	2	0	[]
772	1	1	8	60.0	2	0	[]
774	40	6	8	80.0	2	2	[(2889, 2), (5551, 1)]
778	2	1	8	60.0	2	0	[]
784	1	1	8	40.0	2	0	[]
788	5	4	8	60.0	2	0	[]
792	2	2	8	60.0	2	0	[]
803	8	3	8	60.0	2	0	[]
805	1	1	8	60.0	2	0	[]
815	3	1	8	60.0	2	0	[]
819	3	1	8	80.0	2	0	[]
821	2	1	3	60.0	2	0	[]
824	5	2	8	60.0	2	0	[]
829	7	1	8	60.0	2	0	[]
832	6	1	8	60.0	2	0	[]
837	2	1	8	60.0	2	0	[]
847	2	5	8	60.0	2	0	[]
851	5	2	8	60.0	2	0	[]
854	26	9	2	60.0	2	0	[]
856	1	1	7	60.0	2	0	[]
857	7	6	8	60.0	2	0	[]
858	2	1	8	60.0	2	0	[]
860	2	1	8	60.0	2	0	[]
867	1	1	8	60.0	2	0	[]
871	2	1	4	60.0	2	0	[]
872	1	1	8	60.0	2	0	[]
875	2	1	8	60.0	2	4	[(6814, 0), (6689, 0), (7770, 0), (2172, 0)]
884	1	4	8	60.0	2	0	[]
890	2	1	8	60.0	2	0	[]
894	9	3	8	60.0	2	0	[]
895	14	3	8	60.0	2	1	[(6409, 0)]
900	1	8	16	60.0	1	0	[]
901	5	2	8	60.0	2	0	[]
902	3	1	8	60.0	2	0	[]
903	2	1	8	60.0	2	0	[]
904	1	1	8	60.0	2	0	[]
911	1	1	2	60.0	2	0	[]
913	5	1	8	60.0	2	0	[]
915	2	4	8	60.0	2	0	[]
920	4	2	8	200.0	2	3	[(3495, 0), (8138, 2), (4264, 1)]
924	4	1	8	60.0	2	0	[]
927	1	1	8	60.0	2	0	[]
929	2	1	8	60.0	2	0	[]
930	7	3	8	60.0	2	0	[]
935	2	1	1	60.0	2	0	[]
944	1	1	8	60.0	2	0	[]
946	3	1	8	60.0	2	0	[]
952	41	3	8	40.0	2	0	[]
955	2	1	8	60.0	2	0	[]
960	1	1	2	60.0	2	0	[]
963	18	6	8	60.0	2	0	[]
964	1	1	8	60.0	2	0	[]
972	7	2	8	60.0	2	0	[]
974	1	1	8	60.0	2	0	[]
978	5	1	16	80.0	2	0	[]
981	2	1	8	80.0	2	0	[]
983	1	1	7	60.0	2	0	[]
987	1	1	8	60.0	2	0	[]
988	2	1	8	80.0	2	0	[]
992	1	4	8	60.0	2	0	[]
1001	3	1	8	60.0	2	0	[]
1002	6	3	8	80.0	2	0	[]
1004	3	1	8	60.0	2	0	[]
1008	4	1	8	60.0	2	0	[]
1009	11	3	8	60.0	2	0	[]
1010	1	1	8	60.0	2	0	[]
1018	2	1	1	60.0	2	0	[]
1019	6	2	8	60.0	2	0	[]
1022	2	1	8	60.0	2	0	[]
1024	123	5	10	60.0	1	9	[(3495, 1), (6521, 0), (4071, 0), (8223, 1), (4760, 0), (4642, 0), (3945, 1), (536, 0), (4424, 0)]
1025	4	1	8	40.0	2	1	[(577, 0)]
1026	12	4	8	60.0	2	3	[(6975, 2), (1863, 0), (6133, 0)]
1027	2	1	8	60.0	2	0	[]
1031	6	2	2	60.0	2	0	[]
1035	1	1	7	60.0	2	0	[]
1038	1	8	16	80.0	2	0	[]
1041	1	1	2	60.0	2	0	[]
1044	6	3	8	60.0	2	1	[(8935, 2)]
1045	19	3	8	60.0	2	4	[(4085, 0), (6521, 2), (3366, 0), (571, 0)]
1047	1	1	1	60.0	2	0	[]
1052	1	1	8	60.0	2	0	[]
1055	3	2	8	60.0	2	0	[]
1057	4	1	8	60.0	2	0	[]
1061	1	1	8	60.0	2	0	[]
1068	2	1	8	60.0	2	0	[]
1070	4	1	2	60.0	2	0	[]
1075	2	1	5	60.0	2	0	[]
1082	1	1	8	60.0	2	0	[]
1088	1	4	8	60.0	2	0	[]
1091	12	6	8	60.0	2	1	[(9136, 2)]
1099	15	1	2	60.0	2	1	[(1253, 1)]
1103	2	1	8	60.0	2	0	[]
1104	2	1	2	60.0	2	4	[(3676, 1), (4318, 0), (5557, 1), (8936, 1)]
1113	1	32	80	600.0	2	0	[]
1115	6	1	8	60.0	2	0	[]
1118	2	1	8	60.0	2	0	[]
1119	3	5	8	100.0	2	0	[]
1128	2	1	8	60.0	2	0	[]
1131	2	1	8	60.0	2	0	[]
1134	2	1	7	100.0	2	0	[]
1139	2	1	7	60.0	2	0	[]
1141	1	1	8	60.0	2	0	[]
1150	4	6	8	60.0	2	0	[]
1151	1	2	8	60.0	2	0	[]
1158	2	1	8	60.0	2	0	[]
1160	12	1	8	60.0	2	0	[]
1167	4	3	7	60.0	2	0	[]
1172	3	1	8	60.0	2	0	[]
1177	1	1	8	60.0	2	0	[]
1179	1	1	8	60.0	2	0	[]
1181	1	1	8	60.0	2	0	[]
1187	2	1	8	60.0	2	0	[]
1191	2	1	8	60.0	2	0	[]
1195	98	5	8	60.0	2	4	[(9283, 2), (963, 0), (9174, 0), (7438, 0)]
1197	6	2	8	60.0	2	0	[]
1202	1	1	8	60.0	2	0	[]
1203	7	1	8	60.0	2	0	[]
1204	2	1	8	60.0	2	0	[]
1207	3	1	8	100.0	2	0	[]
1209	1	4	8	60.0	2	0	[]
1210	1	1	8	60.0	2	0	[]
1211	1	1	5	60.0	2	0	[]
1212	2	1	8	60.0	2	0	[]
1213	4	1	8	60.0	2	0	[]
1214	2	1	8	60.0	2	0	[]
1216	5	1	8	60.0	2	0	[]
1217	2	1	6	60.0	2	0	[]
1227	76	3	8	60.0	2	4	[(7980, 0), (9089, 1), (8223, 2), (577, 0)]
1231	1	1	8	60.0	2	0	[]
1235	6	2	8	60.0	2	0	[]
1237	5	1	8	60.0	2	0	[]
1240	2	6	8	60.0	2	0	[]
1242	1	1	8	60.0	2	0	[]
1249	2	4	8	60.0	2	0	[]
1250	1	1	8	60.0	2	0	[]
1253	2	1	8	60.0	2	0	[]
1255	2	1	8	60.0	2	1	[(6152, 0)]
1259	21	4	8	60.0	2	0	[]
1265	1	1	8	60.0	2	0	[]
1267	5	1	2	60.0	2	0	[]
1268	2	1	8	60.0	2	0	[]
1270	3	1	3	60.0	2	0	[]
1271	2	4	8	60.0	2	0	[]
1273	2	1	7	60.0	2	0	[]
1276	1	1	8	60.0	2	0	[]
1277	1	1	8	60.0	2	0	[]
1280	2	1	8	60.0	2	0	[]
1282	1	1	1	60.0	2	0	[]
1284	2	1	8	60.0	2	0	[]
1288	16	2	8	60.0	2	0	[]
1289	1	4	8	60.0	2	0	[]
1292	4	1	5	60.0	2	0	[]
1296	12	1	8	60.0	2	2	[(9091, 1), (8816, 1)]
1297	1	1	8	60.0	2	0	[]
1299	1	1	3	60.0	2	0	[]
1300	2	1	8	60.0	2	0	[]
1303	2	1	8	60.0	2	0	[]
1313	1	1	8	60.0	2	0	[]
1316	1	5	8	60.0	2	0	[]
1319	1	4	8	60.0	2	0	[]
1320	2	1	8	60.0	2	0	[]
1325	2	1	8	60.0	2	0	[]
1326	4	1	8	60.0	2	1	[(7511, 0)]
1332	1	1	1	60.0	2	0	[]
1337	1	3	8	60.0	2	0	[]
1338	4	1	8	60.0	2	0	[]
1340	1	1	1	60.0	2	0	[]
1342	3	2	8	60.0	2	0	[]
1350	2	3	8	60.0	2	0	[]
1353	1	1	1	60.0	2	0	[]
1357	1	1	2	60.0	2	0	[]
1359	2	4	8	80.0	2	0	[]
1360	34	4	8	60.0	2	3	[(1026, 0), (6557, 0), (8641, 0)]
1361	7	1	8	60.0	2	1	[(5570, 0)]
1369	2	1	8	40.0	2	0	[]
1370	1	4	16	80.0	2	0	[]
1371	1	1	8	60.0	2	0	[]
1373	7	3	7	60.0	2	0	[]
1375	3	4	8	60.0	2	0	[]
1382	5	4	8	60.0	2	0	[]
1385	2	3	8	60.0	2	0	[]
1388	8	2	8	60.0	2	0	[]
1391	189	6	8	60.0	2	10	[(815, 0), (6142, 0), (1172, 0), (3682, 0), (6671, 0), (5118, 0), (7732, 1), (6442, 0), (1454, 0), (6119, 1)]
1397	1	1	8	60.0	2	0	[]
1402	4	1	8	60.0	2	0	[]
1406	1	1	8	60.0	2	0	[]
1412	6	5	8	60.0	2	0	[]
1414	13	3	8	60.0	2	1	[(472, 0)]
1417	1	2	8	60.0	2	0	[]
1420	2	1	32	100.0	2	0	[]
1429	2	1	8	60.0	2	0	[]
1432	2	1	8	60.0	2	0	[]
1435	3	1	8	60.0	2	0	[]
1437	95	6	8	60.0	2	30	[(2682, 2), (3603, 1), (4688, 2), (4785, 1), (8719, 0), (5019, 1), (446, 0), (2487, 2), (663, 2), (1470, 0), (696, 2), (3702, 0), (344, 1), (6336, 1), (6610, 2), (6478, 0), (5188, 2), (450, 1), (2300, 0), (2277, 1), (6397, 2), (6639, 2), (5222, 1), (3491, 1), (4730, 0), (9272, 1), (2666, 0), (437, 1), (1025, 1), (3385, 1)]
1440	2	1	8	60.0	2	0	[]
1443	103	6	8	60.0	0	6	[(1326, 2), (7980, 0), (7511, 0), (8223, 0), (5418, 0), (7026, 0)]
1445	1	2	6	60.0	2	0	[]
1446	1	1	8	60.0	2	0	[]
1451	1	1	1	60.0	2	0	[]
1453	1	1	5	60.0	2	0	[]
1454	3	1	8	60.0	2	0	[]
1462	1	1	8	60.0	2	0	[]
1465	1	4	8	60.0	2	0	[]
1468	2	1	8	60.0	2	0	[]
1470	2	1	8	100.0	2	0	[]
1473	3	1	16	60.0	2	0	[]
1474	1	1	6	60.0	2	0	[]
1475	4	3	8	40.0	2	0	[]
1483	58	4	8	60.0	2	5	[(4531, 0), (3851, 0), (3856, 0), (955, 0), (5847, 0)]
1488	20	7	8	100.0	2	0	[]
1492	1	4	8	60.0	2	0	[]
1494	47	2	8	60.0	2	5	[(1683, 0), (6288, 0), (5394, 0), (4781, 0), (7998, 0)]
1495	2	2	8	60.0	2	0	[]
1504	1	1	2	60.0	2	0	[]
1507	3	2	8	60.0	2	0	[]
1508	3	1	8	60.0	2	0	[]
1513	1	1	8	60.0	2	0	[]
1516	2	1	8	60.0	2	0	[]
1518	3	1	8	60.0	2	0	[]
1523	12	6	8	60.0	2	1	[(7443, 0)]
1524	8	1	8	100.0	2	0	[]
1526	2	1	8	60.0	2	0	[]
1533	3	1	8	60.0	2	0	[]
1535	2	1	8	60.0	2	0	[]
1543	2	1	8	60.0	2	0	[]
1554	2	1	1	60.0	2	0	[]
1558	2	1	6	60.0	2	0	[]
1563	2	2	8	60.0	2	0	[]
1571	1	1	1	60.0	2	0	[]
1572	2	1	8	60.0	2	0	[]
1579	45	6	8	60.0	2	0	[]
1580	1	1	8	60.0	2	0	[]
1581	1	1	1	60.0	2	0	[]
1582	1	1	8	60.0	2	0	[]
1587	21	8	32	60.0	0	2	[(730, 0), (6628, 0)]
1588	2	4	8	60.0	2	0	[]
1593	9	2	8	60.0	2	3	[(7880, 0), (8994, 0), (147, 0)]
1595	1	1	8	60.0	2	0	[]
1600	1	1	8	60.0	2	0	[]
1601	1	2	16	60.0	2	0	[]
1602	51	6	8	60.0	2	2	[(3718, 0), (1435, 0)]
1603	1	2	8	100.0	2	0	[]
1604	2	1	8	60.0	2	0	[]
1617	1	4	8	60.0	2	0	[]
1620	1	1	8	60.0	2	0	[]
1622	1	1	1	60.0	2	0	[]
1629	1	1	8	60.0	2	0	[]
1639	100	2	8	60.0	2	27	[(1019, 2), (5557, 2), (303, 1), (6288, 2), (4611, 1), (3830, 2), (6053, 1), (2911, 2), (5825, 0), (7508, 2), (4170, 0), (7631, 2), (182, 0), (1494, 2), (5926, 2), (4921, 1), (5767, 0), (4736, 1), (1338, 0), (7879, 2), (445, 2), (8095, 2), (4085, 2), (4244, 2), (1700, 1), (5220, 0), (2558, 2)]
1640	13	2	8	60.0	2	0	[]
1643	4	2	8	60.0	2	0	[]
1647	5	2	8	60.0	2	0	[]
1656	2	1	8	60.0	2	0	[]
1673	8	4	8	60.0	2	0	[]
1676	4	6	8	60.0	2	0	[]
1681	1	1	8	60.0	2	0	[]
1683	71	5	8	40.0	2	4	[(6347, 0), (7522, 2), (8223, 1), (4829, 2)]
1689	2	1	8	60.0	2	0	[]
1694	2	1	1	60.0	2	0	[]
1700	15	6	16	100.0	2	1	[(7998, 0)]
1709	1	1	8	60.0	2	0	[]
1710	6	2	8	60.0	2	0	[]
1711	1	1	8	60.0	2	0	[]
1712	1	1	1	60.0	2	0	[]
1724	4	1	8	60.0	2	0	[]
1725	3	1	8	60.0	2	0	[]
1731	2	2	8	60.0	2	0	[]
1734	5	5	8	60.0	2	0	[]
1740	4	1	8	60.0	2	3	[(8273, 2), (7414, 0), (7511, 2)]
1741	1	2	16	60.0	1	16	[(7716, 2), (6097, 2), (7045, 2), (6831, 2), (3942, 2), (4520, 2), (4014, 2), (6104, 2), (273, 2), (4210, 2), (4037, 2), (2688, 2), (6034, 2), (6429, 2), (737, 2), (3039, 1)]
1748	5	2	16	200.0	2	1	[(4895, 0)]
1753	1	1	7	60.0	2	0	[]
1754	2	1	8	60.0	2	0	[]
1759	2	1	8	60.0	2	0	[]
1760	7	4	8	60.0	2	0	[]
1761	2	6	8	60.0	2	0	[]
1765	1	1	8	60.0	2	0	[]
1767	2	1	2	60.0	2	0	[]
1784	22	1	8	60.0	2	0	[]
1785	4	1	8	60.0	2	0	[]
1789	2	2	8	60.0	2	0	[]
1790	4	2	8	60.0	2	0	[]
1791	1	1	8	60.0	2	0	[]
1817	1	1	1	60.0	2	0	[]
1818	1	1	8	60.0	2	0	[]
1822	10	4	16	200.0	2	0	[]
1825	2	4	8	60.0	2	0	[]
1827	2	1	8	60.0	2	0	[]
1829	2	1	8	60.0	2	0	[]
1832	3	1	16	80.0	2	0	[]
1838	2	1	8	60.0	2	0	[]
1840	3	1	8	60.0	2	0	[]
1848	5	3	8	60.0	2	2	[(1024, 2), (4543, 1)]
1854	1	1	8	60.0	2	0	[]
1859	1	1	8	60.0	2	0	[]
1862	2	1	8	60.0	2	0	[]
1863	60	6	8	60.0	2	4	[(1026, 0), (8641, 0), (6133, 0), (2448, 1)]
1873	2	1	8	60.0	2	0	[]
1879	1	36	37	300.0	2	0	[]
1881	2	1	2	60.0	2	0	[]
1890	2	1	2	60.0	2	0	[]
1891	2	1	8	60.0	2	3	[(6490, 4), (7443, 4), (147, 3)]
1893	3	1	8	60.0	2	0	[]
1895	3	4	8	60.0	2	0	[]
1897	1	1	8	60.0	2	0	[]
1900	50	1	16	60.0	2	59	[(2788, 1), (901, 0), (2070, 1), (2263, 0), (2890, 0), (3235, 1), (1483, 2), (1024, 0), (6440, 2), (5438, 0), (4373, 0), (6777, 0), (7184, 1), (7998, 0), (7472, 0), (5000, 0), (8593, 2), (7064, 0), (6108, 1), (2029, 2), (3265, 2), (2486, 1), (6823, 1), (803, 0), (2923, 1), (8130, 0), (6605, 1), (1195, 0), (2703, 0), (7773, 0), (3843, 0), (4170, 0), (536, 0), (726, 0), (2186, 0), (2214, 0), (2484, 1), (4863, 2), (3936, 0), (2053, 2), (5670, 2), (1962, 0), (7148, 0), (3693, 2), (1582, 0), (523, 1), (5244, 1), (4611, 0), (8554, 0), (7106, 2), (2900, 0), (3009, 1), (1391, 0), (3802, 0), (6128, 1), (4499, 1), (7178, 1), (2485, 1), (8816, 1)]
1903	2	1	8	60.0	2	0	[]
1906	3	1	8	80.0	2	0	[]
1908	2	1	8	60.0	2	0	[]
1909	2	1	1	60.0	2	0	[]
1910	1	1	2	60.0	2	0	[]
1916	28	12	6	100.0	2	1	[(6152, 0)]
1920	1	1	2	60.0	2	0	[]
1924	1	1	3	60.0	2	0	[]
1929	7	4	16	60.0	2	0	[]
1937	2	5	8	60.0	2	0	[]
1941	3	1	12	80.0	2	0	[]
1942	2	1	8	60.0	2	0	[]
1945	7	6	8	60.0	2	1	[(8386, 2)]
1946	3	3	4	200.0	2	0	[]
1948	2	1	8	60.0	2	0	[]
1955	18	3	3	300.0	2	0	[]
1962	10	1	8	60.0	2	0	[]
1963	1	4	8	60.0	2	0	[]
1980	2	1	8	60.0	2	0	[]
1983	5	2	2	60.0	2	0	[]
1986	2	4	8	60.0	2	0	[]
1988	2	1	8	60.0	2	0	[]
1989	1	4	8	60.0	2	0	[]
1990	7	2	8	60.0	2	0	[]
1992	1	4	8	60.0	2	0	[]
1993	6	3	8	60.0	2	0	[]
1994	2	2	8	60.0	2	0	[]
2004	2	1	8	60.0	2	0	[]
2005	3	1	8	60.0	2	0	[]
2009	1	1	8	60.0	2	0	[]
2010	2	1	2	60.0	2	0	[]
2014	1	1	8	60.0	2	0	[]
2017	2	1	8	60.0	2	0	[]
2022	7	16	96	300.0	2	0	[]
2024	2	1	8	60.0	2	0	[]
2025	1	4	8	60.0	2	0	[]
2026	2	1	8	60.0	2	0	[]
2027	2	1	8	60.0	2	1	[(442, 0)]
2029	55	2	8	60.0	2	6	[(5418, 0), (4215, 0), (1350, 1), (725, 2), (901, 2), (3184, 2)]
2037	5	4	8	60.0	2	1	[(4551, 2)]
2047	1	1	1	60.0	2	0	[]
2048	24	5	8	60.0	2	3	[(895, 0), (6626, 0), (2701, 0)]
2053	4	1	8	60.0	2	0	[]
2055	2	1	8	60.0	2	3	[(8935, 0), (725, 1), (1391, 1)]
2058	3	1	2	200.0	2	0	[]
2059	2	1	2	60.0	2	0	[]
2064	2	4	8	60.0	2	0	[]
2065	2	1	8	60.0	2	0	[]
2070	5	4	16	200.0	2	0	[]
2077	4	1	8	60.0	2	0	[]
2079	3	1	8	60.0	2	0	[]
2092	1	2	8	60.0	2	0	[]
2097	1	1	8	60.0	2	0	[]
2099	1	1	3	60.0	2	0	[]
2102	1	2	6	60.0	2	0	[]
2103	2	1	8	60.0	2	0	[]
2107	4	1	8	60.0	2	0	[]
2115	1	1	8	60.0	2	0	[]
2117	2	2	8	60.0	2	0	[]
2124	3	1	8	60.0	2	0	[]
2125	12	6	8	60.0	2	0	[]
2127	2	1	8	60.0	2	0	[]
2147	6	1	8	250.0	2	0	[]
2159	1	1	16	80.0	2	0	[]
2167	1	1	8	60.0	2	0	[]
2172	2	1	8	60.0	2	0	[]
2183	1	1	8	60.0	2	0	[]
2186	124	6	8	60.0	2	18	[(4071, 2), (8554, 1), (4551, 1), (4864, 1), (6831, 0), (5967, 1), (7880, 2), (6304, 2), (8018, 0), (5418, 2), (122, 1), (2263, 1), (6499, 1), (4699, 1), (3856, 0), (1640, 2), (3360, 1), (4531, 0)]
2189	10	5	2	200.0	2	0	[]
2190	1	1	1	60.0	2	0	[]
2191	1	2	8	60.0	2	0	[]
2193	6	1	8	80.0	2	0	[]
2197	5	2	6	60.0	2	0	[]
2198	1	1	2	60.0	2	0	[]
2200	6	4	3	60.0	2	0	[]
2201	2	2	8	60.0	2	0	[]
2205	2	1	8	60.0	2	0	[]
2208	1	1	8	60.0	2	0	[]
2214	2	1	8	60.0	2	0	[]
2216	2	1	16	200.0	2	0	[]
2221	2	1	8	60.0	2	0	[]
2222	1	5	8	60.0	2	0	[]
2228	1	8	16	60.0	2	0	[]
2230	1	1	7	60.0	2	0	[]
2231	17	2	8	60.0	2	3	[(1026, 0), (3919, 0), (6980, 1)]
2233	2	1	8	60.0	2	0	[]
2241	3	1	8	60.0	2	0	[]
2244	2	6	8	60.0	2	0	[]
2247	1	1	8	60.0	2	0	[]
2252	2	3	8	60.0	2	0	[]
2260	2	1	8	60.0	2	0	[]
2261	2	3	8	60.0	2	1	[(8554, 2)]
2263	318	5	8	60.0	2	7	[(4341, 1), (2927, 2), (6490, 4), (1429, 2), (7009, 2), (7443, 4), (147, 3)]
2274	4	2	8	40.0	2	2	[(7443, 0), (6057, 0)]
2275	2	1	8	60.0	2	0	[]
2277	4	1	8	60.0	2	0	[]
2279	2	1	8	60.0	2	0	[]
2282	1	4	8	60.0	2	0	[]
2283	1	1	4	60.0	2	1	[(3759, 2)]
2288	1	1	8	60.0	2	0	[]
2290	19	6	8	60.0	2	2	[(6658, 2), (8848, 0)]
2292	16	1	16	80.0	2	0	[]
2293	2	1	8	60.0	2	0	[]
2300	6	2	8	60.0	2	0	[]
2301	2	1	8	60.0	2	0	[]
2302	14	2	16	80.0	2	0	[]
2303	6	1	8	60.0	2	0	[]
2306	1	1	7	60.0	2	0	[]
2310	3	2	8	60.0	2	1	[(8806, 1)]
2313	1	1	8	60.0	2	0	[]
2322	2	1	3	60.0	2	0	[]
2323	1	1	1	60.0	2	0	[]
2324	1	1	8	60.0	2	0	[]
2325	2	1	8	60.0	2	0	[]
2332	26	2	8	80.0	2	37	[(1160, 0), (2910, 0), (3511, 0), (8606, 1), (7522, 0), (6736, 0), (5900, 0), (2751, 0), (1955, 0), (48, 0), (4257, 0), (1227, 0), (8485, 0), (8194, 0), (5418, 0), (122, 0), (4837, 0), (3395, 0), (737, 0), (6710, 0), (2745, 0), (4280, 0), (1587, 0), (1602, 0), (208, 0), (3759, 0), (35, 0), (688, 0), (3048, 0), (2900, 0), (9228, 0), (6694, 0), (3802, 0), (34, 0), (351, 0), (2485, 0), (1443, 0)]
2337	2	1	2	60.0	2	0	[]
2347	3	1	8	60.0	2	0	[]
2350	2	1	8	60.0	2	0	[]
2355	1	1	8	60.0	2	0	[]
2364	1	2	8	60.0	2	0	[]
2367	1	4	16	80.0	2	0	[]
2370	1	4	8	60.0	2	0	[]
2372	1	1	8	60.0	2	0	[]
2379	1	1	8	60.0	2	0	[]
2385	1	1	8	60.0	2	0	[]
2387	1	1	8	60.0	2	0	[]
2389	1	4	8	60.0	2	0	[]
2395	1	1	7	80.0	2	0	[]
2401	1	4	8	60.0	2	0	[]
2402	1	1	8	60.0	2	0	[]
2405	1	1	8	60.0	2	0	[]
2414	2	1	8	60.0	2	0	[]
2415	2	1	8	60.0	2	0	[]
2421	2	1	6	60.0	2	0	[]
2424	2	1	8	60.0	2	0	[]
2426	2	1	8	60.0	2	0	[]
2432	3	1	8	60.0	2	0	[]
2436	4	4	8	60.0	2	0	[]
2438	4	1	8	60.0	2	0	[]
2440	4	1	8	60.0	2	0	[]
2441	4	2	8	60.0	2	0	[]
2442	4	1	8	60.0	2	1	[(8080, 1)]
2447	4	2	8	60.0	2	0	[]
2448	4	2	8	100.0	2	0	[]
2449	4	1	8	60.0	2	0	[]
2453	5	1	8	60.0	2	0	[]
2461	5	1	8	60.0	2	0	[]
2467	6	2	8	60.0	2	0	[]
2471	6	5	16	80.0	2	0	[]
2474	6	12	16	100.0	2	0	[]
2484	28	1	2	60.0	2	2	[(5874, 2), (7690, 0)]
2485	419	6	8	40.0	2	14	[(6694, 0), (2263, 0), (4797, 0), (2186, 0), (1602, 0), (4760, 2), (5418, 0), (7394, 0), (7198, 0), (4499, 0), (5864, 0), (1008, 2), (147, 0), (3753, 0)]
2486	519	6	8	100.0	2	5	[(7814, 0), (7443, 0), (2029, 0), (592, 2), (2704, 0)]
2487	138	6	8	60.0	2	4	[(1019, 2), (8990, 0), (2896, 0), (946, 0)]
2488	42	6	7	60.0	2	29	[(7505, 1), (1195, 1), (2910, 1), (5558, 0), (2964, 0), (4709, 1), (9328, 1), (4773, 2), (2487, 0), (4164, 1), (7507, 2), (1388, 1), (8524, 0), (7421, 0), (2029, 2), (5795, 0), (8883, 0), (7010, 0), (4429, 0), (3759, 0), (688, 0), (5038, 2), (2858, 0), (7064, 0), (2674, 0), (3802, 1), (5601, 2), (4085, 1), (2288, 2)]
2489	14	2	8	60.0	2	3	[(3800, 0), (2484, 0), (2701, 0)]
2491	12	4	8	60.0	2	0	[]
2502	9	6	8	60.0	2	0	[]
2503	9	1	2	60.0	2	0	[]
2509	8	1	8	60.0	2	0	[]
2519	3	4	8	60.0	2	0	[]
2522	3	1	8	60.0	2	0	[]
2524	2	5	8	60.0	2	0	[]
2526	2	1	2	60.0	2	0	[]
2529	2	1	8	60.0	2	0	[]
2532	2	1	13	60.0	2	0	[]
2538	2	1	2	60.0	2	0	[]
2539	2	1	8	60.0	2	0	[]
2544	2	1	8	60.0	2	0	[]
2545	2	1	8	60.0	2	0	[]
2547	2	4	8	60.0	2	0	[]
2548	2	4	8	60.0	2	0	[]
2549	2	4	8	60.0	2	0	[]
2552	2	1	8	60.0	2	0	[]
2558	2	1	8	60.0	2	0	[]
2572	2	1	8	60.0	2	0	[]
2574	2	1	8	60.0	2	0	[]
2578	2	2	8	60.0	2	0	[]
2580	2	1	2	60.0	2	0	[]
2589	3	1	8	60.0	2	0	[]
2600	12	7	24	150.0	2	0	[]
2603	1	1	8	60.0	2	0	[]
2615	1	1	2	60.0	2	0	[]
2623	2	1	2	60.0	2	0	[]
2625	1	1	1	60.0	2	0	[]
2631	1	1	8	60.0	2	0	[]
2632	2	1	7	60.0	2	0	[]
2642	1	1	8	60.0	2	0	[]
2643	6	8	12	60.0	2	0	[]
2645	1	1	8	60.0	2	0	[]
2646	3	3	8	100.0	2	0	[]
2650	3	2	8	60.0	2	0	[]
2651	8	5	8	60.0	2	0	[]
2656	2	1	8	60.0	2	0	[]
2659	1	1	2	60.0	2	0	[]
2660	2	1	8	60.0	2	0	[]
2663	1	1	7	60.0	2	0	[]
2666	2	1	8	60.0	2	0	[]
2669	2	1	8	60.0	2	0	[]
2672	2	1	8	60.0	2	0	[]
2674	2	1	8	60.0	2	0	[]
2681	1	4	8	60.0	2	0	[]
2682	4	1	8	100.0	2	0	[]
2685	5	5	8	60.0	2	0	[]
2686	2	1	2	60.0	2	0	[]
2688	1	7	32	60.0	2	11	[(7045, 2), (1741, 2), (3942, 2), (5135, 2), (5363, 2), (4520, 2), (4014, 2), (273, 1), (4210, 2), (6034, 2), (3039, 1)]
2690	9	3	8	60.0	2	1	[(8223, 2)]
2692	119	12	16	200.0	2	0	[]
2694	2	1	8	60.0	2	0	[]
2696	21	6	8	60.0	2	2	[(2191, 1), (1643, 0)]
2701	27	4	7	60.0	2	3	[(3800, 0), (5568, 0), (2489, 1)]
2703	4	1	8	60.0	2	0	[]
2704	2	1	8	60.0	2	0	[]
2708	2	1	8	60.0	2	0	[]
2712	2	1	8	60.0	2	0	[]
2713	2	2	8	60.0	2	0	[]
2715	2	1	8	60.0	2	0	[]
2724	2	2	8	60.0	2	0	[]
2729	2	1	8	60.0	2	0	[]
2732	1	1	8	60.0	2	0	[]
2741	4	1	8	60.0	2	0	[]
2745	46	12	16	80.0	2	5	[(5418, 0), (8695, 0), (688, 0), (7443, 0), (147, 0)]
2748	1	1	8	60.0	2	0	[]
2750	1	1	16	80.0	2	0	[]
2751	16	5	2	60.0	2	0	[]
2753	1	1	8	60.0	2	0	[]
2757	7	2	8	60.0	2	0	[]
2759	2	1	8	60.0	2	0	[]
2764	2	6	8	60.0	2	0	[]
2765	7	1	8	60.0	2	0	[]
2771	2	1	8	60.0	2	0	[]
2778	2	1	2	60.0	2	0	[]
2788	11	1	10	180.0	2	13	[(1948, 0), (1172, 0), (711, 0), (4737, 0), (8352, 0), (5883, 0), (4097, 2), (2845, 0), (5031, 0), (8122, 0), (3081, 0), (7165, 0), (3184, 0)]
2789	1	2	8	80.0	2	0	[]
2793	1	1	8	40.0	2	0	[]
2801	1	1	2	60.0	2	0	[]
2804	2	1	8	60.0	2	0	[]
2807	2	1	1	60.0	2	0	[]
2808	2	1	8	60.0	2	0	[]
2809	2	2	8	60.0	2	0	[]
2811	1	1	8	60.0	2	0	[]
2818	2	2	8	60.0	2	0	[]
2819	4	2	8	60.0	2	0	[]
2821	1	1	8	60.0	2	0	[]
2822	2	3	8	80.0	2	0	[]
2825	4	1	8	60.0	2	0	[]
2828	4	1	8	60.0	2	0	[]
2830	1	1	2	60.0	2	0	[]
2834	1	4	16	100.0	2	0	[]
2841	3	1	8	60.0	2	0	[]
2845	4	1	8	60.0	2	0	[]
2852	18	4	8	60.0	2	0	[]
2853	6	2	8	40.0	2	0	[]
2855	1	1	8	60.0	2	0	[]
2857	1	11	16	100.0	2	0	[]
2858	1	1	8	60.0	2	0	[]
2864	2	1	8	60.0	2	0	[]
2870	2	1	8	60.0	2	0	[]
2871	1	1	2	60.0	2	0	[]
2879	1	2	16	60.0	2	0	[]
2883	4	1	8	60.0	2	0	[]
2889	4	1	8	60.0	2	0	[]
2890	2	3	8	60.0	2	0	[]
2896	5	2	16	80.0	2	0	[]
2900	24	2	8	60.0	2	1	[(3629, 2)]
2906	2	1	8	60.0	2	0	[]
2908	1	1	8	60.0	2	0	[]
2910	50	5	8	60.0	2	6	[(307, 2), (1019, 2), (7414, 1), (4982, 1), (1227, 2), (4210, 2)]
2911	4	1	8	60.0	2	0	[]
2919	1	1	8	60.0	2	0	[]
2920	1	12	8	60.0	2	0	[]
2923	1	1	8	60.0	2	0	[]
2927	1	2	8	60.0	2	0	[]
2931	1	3	8	60.0	0	0	[]
2934	1	1	8	60.0	2	0	[]
2938	3	1	8	60.0	2	0	[]
2939	2	1	8	60.0	2	0	[]
2941	1	1	8	60.0	2	0	[]
2951	1	1	8	60.0	2	0	[]
2955	2	4	8	60.0	2	0	[]
2958	1	1	8	60.0	2	0	[]
2963	2	6	16	80.0	2	0	[]
2964	99	4	8	60.0	2	1	[(6628, 1)]
2970	14	6	16	100.0	0	42	[(6736, 0), (7879, 0), (8606, 0), (1024, 0), (208, 0), (854, 0), (7792, 0), (1640, 0), (7970, 0), (1227, 0), (416, 0), (5418, 0), (2485, 0), (122, 0), (6304, 0), (6694, 0), (7026, 0), (9089, 1), (7648, 0), (6625, 0), (1602, 0), (1259, 0), (1213, 0), (7316, 0), (5497, 0), (6232, 0), (7843, 0), (688, 0), (3048, 0), (2900, 0), (8069, 0), (4423, 0), (4864, 0), (9228, 0), (8223, 0), (3802, 0), (1216, 0), (8883, 0), (5893, 0), (341, 0), (1025, 0), (1443, 0)]
2975	1	1	8	60.0	2	0	[]
2976	1	7	16	100.0	2	0	[]
2981	2	1	8	60.0	2	0	[]
2983	3	6	8	60.0	2	0	[]
2985	1	2	8	40.0	1	0	[]
2988	1	1	8	60.0	2	0	[]
2991	2	1	8	60.0	2	1	[(4252, 2)]
2993	1	2	8	60.0	2	0	[]
2997	2	1	8	60.0	2	0	[]
3009	24	3	8	60.0	2	5	[(3490, 0), (645, 0), (2467, 0), (6710, 2), (2222, 0)]
3017	2	1	8	60.0	2	0	[]
3022	3	2	8	60.0	2	0	[]
3023	6	4	8	60.0	2	0	[]
3028	1	4	8	60.0	2	0	[]
3031	2	1	8	40.0	2	0	[]
3035	1	1	3	60.0	2	0	[]
3038	1	1	8	100.0	2	0	[]
3039	1	11	16	60.0	2	17	[(7716, 2), (6097, 2), (4037, 2), (7045, 2), (1741, 2), (6831, 2), (5135, 2), (5363, 2), (3942, 2), (4520, 2), (4014, 2), (273, 2), (4210, 2), (2688, 2), (6034, 2), (6429, 2), (737, 2)]
3043	1	2	8	60.0	2	0	[]
3048	62	12	16	80.0	2	1	[(6694, 0)]
3053	4	1	8	60.0	2	0	[]
3057	1	1	1	60.0	2	0	[]
3058	1	1	1	60.0	2	0	[]
3060	2	1	8	60.0	2	0	[]
3061	1	1	8	60.0	2	0	[]
3062	2	1	5	60.0	2	0	[]
3065	2	1	1	60.0	2	0	[]
3069	1	4	8	60.0	2	0	[]
3072	1	1	8	60.0	2	0	[]
3075	2	1	8	60.0	2	0	[]
3078	4	1	8	60.0	2	0	[]
3080	3	2	8	60.0	2	0	[]
3081	2	1	8	60.0	2	0	[]
3092	2	1	8	60.0	2	0	[]
3093	1	1	8	40.0	2	0	[]
3094	2	1	1	60.0	2	0	[]
3099	1	1	8	60.0	2	0	[]
3104	3	2	8	60.0	2	0	[]
3109	1	1	2	60.0	2	0	[]
3122	1	4	8	60.0	2	0	[]
3123	2	1	1	60.0	2	0	[]
3125	2	2	16	60.0	2	0	[]
3129	1	1	4	60.0	2	0	[]
3136	8	1	2	60.0	2	0	[]
3137	1	2	7	60.0	2	0	[]
3142	1	1	2	60.0	2	0	[]
3143	2	1	8	60.0	2	0	[]
3146	3	1	8	60.0	2	0	[]
3147	2	1	2	60.0	2	0	[]
3153	6	3	8	60.0	2	0	[]
3156	2	1	8	60.0	2	0	[]
3162	17	1	2	60.0	2	0	[]
3163	2	1	8	60.0	2	0	[]
3168	10	2	8	60.0	2	6	[(5482, 0), (3354, 0), (1473, 0), (2964, 0), (1099, 0), (1990, 0)]
3170	3	1	8	60.0	2	0	[]
3177	2	1	8	80.0	2	0	[]
3178	2	1	12	60.0	2	1	[(4895, 0)]
3179	2	1	1	60.0	2	0	[]
3181	1	1	2	100.0	2	0	[]
3184	1	1	8	60.0	2	0	[]
3185	1	1	8	60.0	2	0	[]
3186	3	1	8	60.0	2	0	[]
3187	5	1	8	60.0	2	0	[]
3188	1	1	8	60.0	2	0	[]
3189	5	1	8	60.0	2	0	[]
3190	2	2	8	60.0	2	0	[]
3192	3	1	14	80.0	2	0	[]
3198	1	1	8	60.0	2	0	[]
3200	2	1	8	60.0	2	0	[]
3205	2	1	8	60.0	2	0	[]
3206	1	1	8	60.0	2	0	[]
3209	2	3	8	60.0	2	0	[]
3222	4	1	8	80.0	2	0	[]
3224	2	2	8	60.0	2	0	[]
3230	1	1	4	200.0	2	0	[]
3232	1	1	8	60.0	2	0	[]
3234	2	1	8	60.0	2	0	[]
3235	11	2	8	60.0	2	1	[(1172, 2)]
3239	4	1	8	60.0	2	0	[]
3240	7	1	8	80.0	2	0	[]
3242	2	2	8	60.0	2	0	[]
3246	3	1	8	60.0	2	1	[(3490, 2)]
3249	3	1	8	60.0	2	0	[]
3255	1	1	8	60.0	2	0	[]
3258	2	1	8	60.0	2	0	[]
3260	15	4	8	60.0	2	4	[(5220, 0), (774, 0), (6288, 2), (8717, 0)]
3265	2	2	8	60.0	2	0	[]
3269	1	1	8	60.0	2	0	[]
3282	1	1	1	60.0	2	0	[]
3288	4	4	8	60.0	2	1	[(6283, 0)]
3292	8	3	8	40.0	2	0	[]
3294	1	1	2	60.0	2	0	[]
3296	2	1	8	60.0	2	0	[]
3301	3	1	8	60.0	2	0	[]
3304	2	1	8	60.0	2	0	[]
3307	6	1	8	60.0	2	0	[]
3311	3	1	8	60.0	2	0	[]
3315	2	1	8	60.0	2	0	[]
3318	2	3	8	60.0	2	0	[]
3319	3	1	8	60.0	2	0	[]
3323	2	1	8	60.0	2	0	[]
3337	8	3	2	60.0	2	0	[]
3344	35	4	8	60.0	2	2	[(5418, 0), (7917, 2)]
3351	4	2	8	60.0	2	0	[]
3353	1	1	8	60.0	2	0	[]
3354	4	2	8	60.0	2	0	[]
3360	3	1	8	60.0	2	0	[]
3365	1	1	1	60.0	2	0	[]
3366	5	1	8	60.0	2	0	[]
3369	1	1	8	60.0	2	0	[]
3370	50	6	8	60.0	2	6	[(2751, 0), (3751, 0), (2263, 0), (4876, 0), (8069, 0), (536, 0)]
3371	6	1	8	200.0	2	0	[]
3372	18	2	8	60.0	2	1	[(8893, 2)]
3376	2	1	1	60.0	2	0	[]
3381	3	1	8	60.0	2	0	[]
3383	4	4	6	60.0	2	0	[]
3385	6	3	8	60.0	2	0	[]
3386	2	1	1	60.0	2	0	[]
3389	5	3	16	80.0	2	0	[]
3391	4	1	8	60.0	2	0	[]
3393	1	1	1	60.0	2	0	[]
3394	2	1	8	60.0	2	0	[]
3395	4	1	8	60.0	2	0	[]
3404	1	1	8	60.0	2	0	[]
3408	4	2	8	60.0	2	0	[]
3421	1	2	8	60.0	2	0	[]
3423	2	4	8	60.0	2	0	[]
3425	53	5	8	60.0	2	3	[(7402, 1), (815, 2), (6583, 2)]
3426	30	5	8	60.0	2	1	[(5951, 1)]
3430	1	1	8	60.0	2	0	[]
3434	2	2	8	60.0	2	0	[]
3444	2	1	2	60.0	2	0	[]
3446	1	1	8	60.0	2	0	[]
3451	2	1	8	60.0	2	0	[]
3457	2	4	8	60.0	2	0	[]
3458	1	2	2	60.0	2	0	[]
3463	2	4	8	60.0	2	0	[]
3466	2	1	8	60.0	2	0	[]
3471	1	1	2	60.0	2	0	[]
3472	2	2	8	40.0	2	0	[]
3482	9	5	16	60.0	0	0	[]
3490	22	1	8	60.0	2	1	[(9136, 1)]
3491	3	1	8	60.0	2	0	[]
3495	2	1	2	60.0	2	0	[]
3499	6	1	8	60.0	2	0	[]
3500	1	1	2	60.0	2	0	[]
3503	3	1	8	60.0	2	0	[]
3508	1	4	16	40.0	2	0	[]
3511	8	6	8	40.0	2	2	[(2964, 2), (562, 2)]
3528	1	1	8	60.0	2	0	[]
3532	1	1	1	60.0	2	0	[]
3537	3	3	8	60.0	2	0	[]
3545	2	2	8	60.0	2	0	[]
3548	2	1	8	60.0	2	0	[]
3553	3	1	1	60.0	2	0	[]
3556	4	1	8	60.0	2	0	[]
3559	1	1	8	60.0	2	0	[]
3561	1	1	5	80.0	2	0	[]
3562	3	1	2	60.0	2	0	[]
3563	2	1	8	60.0	2	0	[]
3564	5	1	8	60.0	2	2	[(963, 0), (7035, 0)]
3579	1	2	8	60.0	2	0	[]
3586	1	6	8	60.0	2	0	[]
3591	2	1	8	60.0	2	0	[]
3592	4	1	8	60.0	2	0	[]
3601	1	1	2	60.0	2	0	[]
3603	4	1	8	60.0	2	0	[]
3608	8	5	8	60.0	2	0	[]
3613	1	4	8	60.0	2	0	[]
3617	5	2	8	80.0	2	0	[]
3623	2	3	8	60.0	2	0	[]
3624	16	2	8	100.0	2	1	[(788, 1)]
3625	1	1	1	60.0	2	0	[]
3626	1	1	2	60.0	2	0	[]
3629	4	1	8	60.0	2	0	[]
3632	4	1	2	60.0	2	0	[]
3636	77	4	8	60.0	2	5	[(6550, 0), (1187, 2), (3187, 0), (1195, 0), (303, 1)]
3646	1	1	1	60.0	2	0	[]
3651	1	1	2	60.0	2	0	[]
3652	4	6	8	60.0	2	0	[]
3656	1	1	8	60.0	2	0	[]
3658	2	1	8	40.0	2	0	[]
3666	5	1	4	60.0	2	0	[]
3667	1	1	1	60.0	2	0	[]
3668	3	1	8	60.0	2	0	[]
3676	2	1	7	60.0	2	3	[(8936, 2), (1104, 1), (4318, 1)]
3682	28	3	8	60.0	2	3	[(9195, 1), (5883, 0), (6671, 1)]
3685	2	1	8	60.0	2	0	[]
3688	5	1	8	60.0	2	0	[]
3693	18	6	8	60.0	2	2	[(4170, 0), (4341, 2)]
3696	2	1	7	60.0	2	0	[]
3697	1	1	8	60.0	2	0	[]
3702	3	1	8	80.0	2	0	[]
3703	2	4	8	60.0	2	0	[]
3706	2	1	8	60.0	2	0	[]
3715	4	3	8	60.0	2	0	[]
3718	15	1	8	60.0	2	0	[]
3720	8	1	8	60.0	2	0	[]
3726	3	6	8	40.0	2	0	[]
3738	3	1	16	60.0	2	0	[]
3739	1	1	1	60.0	2	0	[]
3740	2	1	8	60.0	2	0	[]
3744	1	4	8	60.0	2	0	[]
3751	6	1	8	60.0	2	2	[(4210, 0), (8069, 2)]
3752	1	4	8	60.0	2	0	[]
3753	2	1	8	60.0	2	1	[(2484, 0)]
3756	2	3	8	60.0	2	0	[]
3757	1	1	2	60.0	2	0	[]
3759	19	6	8	60.0	2	0	[]
3760	1	1	8	60.0	2	0	[]
3773	3	1	8	60.0	2	0	[]
3774	8	2	8	60.0	2	1	[(7732, 1)]
3775	1	8	16	80.0	2	0	[]
3783	2	1	8	60.0	2	0	[]
3793	4	6	8	60.0	2	0	[]
3796	1	4	8	60.0	2	0	[]
3798	1	1	8	60.0	2	0	[]
3800	2	1	8	60.0	2	0	[]
3801	4	1	8	60.0	2	0	[]
3802	178	6	16	100.0	2	2	[(9228, 0), (208, 0)]
3804	3	1	8	60.0	2	0	[]
3807	3	1	2	60.0	2	1	[(5438, 0)]
3808	2	1	8	60.0	2	0	[]
3811	1	1	2	60.0	2	0	[]
3820	1	1	2	60.0	2	0	[]
3821	30	1	8	60.0	2	0	[]
3826	2	1	8	60.0	2	0	[]
3830	3	1	8	60.0	2	0	[]
3834	3	1	1	60.0	2	1	[(1593, 2)]
3835	2	1	8	60.0	2	0	[]
3837	1	1	8	40.0	2	0	[]
3840	2	1	8	60.0	2	0	[]
3842	24	4	8	60.0	2	0	[]
3843	3	1	8	80.0	2	0	[]
3849	15	6	8	60.0	2	0	[]
3851	29	6	8	60.0	2	7	[(2484, 1), (7959, 1), (7799, 1), (1863, 2), (7101, 2), (4150, 2), (1942, 1)]
3852	2	2	8	60.0	2	0	[]
3854	2	1	8	60.0	2	0	[]
3856	2	2	8	60.0	2	0	[]
3859	1	7	24	80.0	2	0	[]
3866	9	2	2	60.0	2	2	[(8385, 2), (8597, 1)]
3868	2	1	8	60.0	2	0	[]
3874	5	1	8	60.0	2	0	[]
3876	4	4	4	60.0	2	0	[]
3883	1	1	8	60.0	2	0	[]
3888	4	1	16	100.0	2	0	[]
3892	4	10	16	200.0	2	1	[(2125, 2)]
3893	3	1	5	60.0	2	0	[]
3897	1	1	1	60.0	2	0	[]
3905	21	1	8	60.0	2	1	[(737, 2)]
3909	2	1	8	60.0	2	0	[]
3918	4	3	8	60.0	2	0	[]
3919	2	1	8	60.0	2	0	[]
3922	4	4	8	60.0	2	0	[]
3923	6	1	8	60.0	2	0	[]
3931	2	1	8	60.0	2	0	[]
3936	6	3	8	60.0	2	0	[]
3940	2	1	3	60.0	2	0	[]
3942	6	5	32	100.0	2	16	[(7716, 2), (6097, 2), (4037, 2), (7045, 2), (1741, 2), (6831, 2), (5135, 2), (5363, 2), (4520, 2), (6034, 2), (273, 1), (4210, 0), (2688, 2), (6429, 2), (737, 2), (3039, 1)]
3943	1	4	8	60.0	2	0	[]
3945	2	1	8	60.0	2	0	[]
3954	3	1	8	60.0	2	0	[]
3955	28	6	8	60.0	2	2	[(6233, 2), (1492, 2)]
3956	2	1	8	60.0	2	0	[]
3960	11	6	8	60.0	2	0	[]
3964	2	1	8	60.0	2	0	[]
3968	4	2	8	60.0	2	0	[]
3970	15	3	8	60.0	2	0	[]
3971	1	1	8	60.0	2	0	[]
3973	2	4	8	60.0	2	0	[]
3981	1	4	8	60.0	2	0	[]
3985	3	1	8	60.0	2	0	[]
3992	4	1	8	60.0	2	0	[]
3999	16	2	8	60.0	2	0	[]
4000	2	1	2	60.0	2	0	[]
4003	2	1	5	60.0	2	0	[]
4010	1	1	8	60.0	2	0	[]
4012	5	4	8	60.0	2	0	[]
4014	1	2	32	100.0	2	16	[(7716, 2), (6097, 2), (4037, 2), (7045, 2), (1741, 2), (6831, 2), (5135, 2), (5363, 2), (4520, 2), (6034, 2), (273, 1), (4210, 2), (2688, 2), (6429, 2), (737, 2), (3039, 1)]
4017	2	1	4	60.0	2	0	[]
4020	2	1	8	80.0	2	0	[]
4022	4	1	8	60.0	2	0	[]
4024	2	4	8	60.0	2	0	[]
4030	1	1	1	60.0	2	0	[]
4031	1	1	1	60.0	2	0	[]
4036	2	2	8	60.0	2	0	[]
4037	1	2	32	60.0	2	11	[(7045, 2), (1741, 2), (3942, 2), (5135, 2), (5363, 2), (4520, 2), (4014, 2), (273, 1), (4210, 2), (6034, 2), (3039, 1)]
4041	6	3	8	40.0	2	0	[]
4044	1	5	16	60.0	2	0	[]
4051	1	1	8	40.0	2	0	[]
4052	2	4	8	60.0	2	0	[]
4053	2	2	8	60.0	2	1	[(5946, 2)]
4057	2	4	8	60.0	2	0	[]
4061	2	1	7	60.0	2	0	[]
4071	26	2	8	60.0	2	1	[(725, 0)]
4073	1	1	4	60.0	2	0	[]
4074	1	1	8	60.0	2	0	[]
4079	1	1	7	60.0	2	0	[]
4082	1	1	8	60.0	2	0	[]
4085	84	2	2	60.0	2	20	[(7463, 1), (4974, 2), (6364, 1), (3366, 0), (7176, 0), (2488, 0), (7992, 0), (6442, 0), (7917, 2), (190, 0), (2290, 2), (7732, 0), (344, 0), (6336, 2), (147, 0), (5570, 2), (5442, 0), (1862, 0), (3351, 1), (5643, 2)]
4090	2	1	24	500.0	2	0	[]
4091	16	2	8	60.0	2	0	[]
4095	2	1	8	60.0	2	0	[]
4096	2	1	8	60.0	2	0	[]
4097	3	1	8	60.0	2	0	[]
4102	6	2	8	60.0	2	0	[]
4105	1	4	8	60.0	2	0	[]
4106	2	1	8	60.0	2	0	[]
4107	5	2	8	80.0	2	0	[]
4111	2	4	8	60.0	2	0	[]
4112	1	8	16	200.0	2	0	[]
4126	1	4	16	80.0	2	0	[]
4130	2	1	8	60.0	2	0	[]
4138	2	1	8	60.0	2	0	[]
4139	1	1	1	60.0	2	0	[]
4143	4	12	16	60.0	2	0	[]
4144	2	1	8	60.0	2	0	[]
4148	1	1	8	60.0	2	0	[]
4150	3	5	8	500.0	2	0	[]
4157	2	1	6	60.0	2	0	[]
4158	2	1	8	60.0	2	0	[]
4162	4	1	8	60.0	2	0	[]
4164	4	2	32	80.0	2	0	[]
4170	43	2	8	60.0	2	0	[]
4174	2	1	2	60.0	2	0	[]
4175	20	6	8	80.0	2	3	[(3802, 0), (3629, 0), (6710, 0)]
4178	2	1	1	60.0	2	0	[]
4183	4	4	8	80.0	2	0	[]
4189	2	2	8	60.0	2	0	[]
4204	1	4	8	60.0	2	0	[]
4205	6	1	8	60.0	2	0	[]
4206	4	1	8	60.0	2	0	[]
4209	3	2	8	60.0	2	1	[(4760, 1)]
4210	98	12	16	60.0	2	20	[(952, 0), (7716, 2), (6097, 2), (4143, 0), (4037, 2), (1741, 3), (3942, 2), (7980, 0), (5135, 3), (5363, 3), (6831, 2), (7880, 0), (4014, 2), (456, 0), (273, 2), (3370, 0), (2688, 2), (6429, 2), (3395, 0), (737, 2)]
4213	2	1	8	60.0	2	0	[]
4215	2	4	8	60.0	2	0	[]
4220	1	1	8	60.0	2	0	[]
4231	31	6	8	60.0	0	6	[(281, 0), (7443, 0), (226, 0), (2578, 1), (4210, 0), (8553, 0)]
4233	1	1	2	60.0	2	0	[]
4235	2	1	8	60.0	2	0	[]
4242	2	1	2	60.0	2	0	[]
4244	2	1	8	60.0	2	0	[]
4246	1	4	8	60.0	2	0	[]
4247	1	1	8	60.0	2	0	[]
4251	1	1	8	60.0	2	0	[]
4252	19	12	16	100.0	2	0	[]
4257	3	1	2	60.0	2	0	[]
4264	4	1	8	60.0	2	0	[]
4266	1	2	2	60.0	2	0	[]
4270	3	3	8	60.0	2	0	[]
4276	2	2	8	60.0	2	0	[]
4277	1	1	1	60.0	2	0	[]
4279	2	1	8	60.0	2	0	[]
4280	5	3	8	40.0	2	1	[(7980, 2)]
4286	24	1	8	80.0	2	5	[(5418, 0), (5220, 0), (8761, 1), (895, 0), (8554, 0)]
4287	5	22	32	80.0	2	2	[(4085, 2), (7421, 2)]
4291	1	1	8	60.0	2	0	[]
4292	3	1	8	60.0	2	0	[]
4294	4	1	5	60.0	2	0	[]
4295	2	1	8	60.0	2	0	[]
4296	2	2	16	80.0	2	0	[]
4299	2	1	8	60.0	2	0	[]
4302	4	1	8	60.0	2	0	[]
4303	1	1	16	60.0	2	0	[]
4306	1	1	8	60.0	2	0	[]
4312	2	1	8	60.0	2	0	[]
4313	1	1	8	60.0	2	0	[]
4314	1	1	2	60.0	2	0	[]
4318	2	1	4	60.0	2	2	[(3676, 2), (1104, 1)]
4326	1	1	8	60.0	2	0	[]
4327	15	1	8	60.0	0	2	[(4071, 0), (4760, 0)]
4331	2	1	2	60.0	2	0	[]
4332	2	2	8	60.0	2	0	[]
4333	2	1	5	80.0	2	0	[]
4336	1	4	8	80.0	2	0	[]
4339	2	1	8	60.0	2	0	[]
4341	2	2	8	60.0	2	0	[]
4345	2	1	2	60.0	2	0	[]
4346	3	1	8	60.0	2	0	[]
4350	3	1	8	60.0	2	0	[]
4355	2	1	8	60.0	2	0	[]
4364	2	1	8	60.0	2	0	[]
4373	6	12	16	60.0	2	1	[(5426, 0)]
4374	1	4	8	60.0	2	0	[]
4377	2	1	2	60.0	2	0	[]
4380	1	1	8	60.0	2	0	[]
4383	2	1	8	60.0	2	0	[]
4387	2	1	8	60.0	2	0	[]
4394	3	1	8	60.0	2	0	[]
4398	15	6	8	60.0	2	4	[(6232, 2), (7443, 0), (456, 1), (2263, 2)]
4400	4	2	8	60.0	2	0	[]
4410	2	1	8	60.0	2	0	[]
4415	2	1	8	60.0	2	0	[]
4422	1	1	8	60.0	2	0	[]
4423	36	3	16	60.0	2	0	[]
4424	3	2	8	40.0	2	0	[]
4426	5	4	8	60.0	2	0	[]
4429	4	4	8	60.0	2	4	[(1099, 0), (442, 0), (1253, 0), (8816, 0)]
4431	1	1	8	80.0	2	0	[]
4437	1	1	1	80.0	2	0	[]
4438	6	1	8	250.0	2	0	[]
4442	2	1	8	60.0	2	0	[]
4443	4	4	8	60.0	2	0	[]
4455	3	1	8	60.0	2	0	[]
4457	3	1	8	60.0	2	0	[]
4463	25	5	32	200.0	2	0	[]
4475	2	1	1	60.0	2	0	[]
4479	2	1	8	60.0	2	0	[]
4480	4	1	8	60.0	2	0	[]
4487	2	2	48	300.0	2	0	[]
4488	2	1	2	60.0	2	0	[]
4490	1	4	8	60.0	2	0	[]
4492	1	1	8	60.0	2	0	[]
4497	1	1	2	60.0	2	0	[]
4498	1	1	8	60.0	2	0	[]
4499	37	1	8	60.0	2	1	[(7414, 2)]
4500	2	1	1	60.0	2	0	[]
4503	6	1	8	60.0	2	0	[]
4506	1	4	8	60.0	2	0	[]
4514	14	2	8	60.0	2	0	[]
4519	1	1	4	60.0	2	0	[]
4520	1	1	16	60.0	2	13	[(7716, 2), (6097, 2), (4037, 2), (1741, 3), (3942, 2), (5135, 3), (5363, 3), (6831, 2), (4014, 2), (273, 2), (2688, 2), (6429, 2), (737, 2)]
4524	4	2	8	60.0	2	0	[]
4526	2	1	8	60.0	2	0	[]
4530	27	5	8	100.0	2	0	[]
4531	99	4	8	60.0	2	1	[(4503, 2)]
4533	3	4	8	60.0	2	0	[]
4536	12	3	8	100.0	2	0	[]
4543	44	10	16	60.0	2	3	[(6980, 1), (2488, 1), (3366, 1)]
4546	2	4	8	60.0	2	0	[]
4547	1	1	8	60.0	2	0	[]
4551	29	2	8	40.0	2	0	[]
4561	1	1	2	60.0	2	0	[]
4570	15	4	8	60.0	2	0	[]
4571	2	1	8	60.0	2	0	[]
4578	8	2	8	60.0	2	0	[]
4579	4	1	8	60.0	2	0	[]
4580	4	12	24	60.0	2	0	[]
4583	3	1	8	60.0	2	0	[]
4591	8	2	16	100.0	2	0	[]
4597	1	1	7	60.0	2	0	[]
4609	2	1	4	60.0	2	0	[]
4611	2	1	1	60.0	2	0	[]
4612	1	1	8	60.0	2	0	[]
4614	2	1	5	60.0	2	0	[]
4618	1	1	8	60.0	2	0	[]
4621	2	1	8	60.0	2	0	[]
4627	4	1	7	60.0	2	0	[]
4633	4	1	8	80.0	2	0	[]
4640	5	4	8	60.0	2	0	[]
4642	13	2	8	60.0	2	6	[(2029, 1), (8166, 0), (212, 2), (7998, 0), (5220, 1), (5702, 1)]
4650	7	1	8	60.0	2	0	[]
4654	4	2	8	60.0	2	0	[]
4658	1	1	8	60.0	2	0	[]
4659	2	1	8	60.0	2	0	[]
4666	1	1	8	60.0	2	0	[]
4670	1	4	8	60.0	2	0	[]
4673	1	4	8	60.0	2	0	[]
4676	2	2	8	60.0	2	0	[]
4685	2	4	8	60.0	2	0	[]
4686	3	2	8	60.0	2	0	[]
4688	2	1	8	60.0	2	0	[]
4695	5	1	8	60.0	2	0	[]
4699	7	3	8	60.0	2	0	[]
4709	4	1	2	60.0	2	0	[]
4712	2	1	3	60.0	2	0	[]
4714	1	1	8	60.0	2	0	[]
4725	3	1	8	60.0	2	0	[]
4726	1	1	8	60.0	2	0	[]
4727	2	1	1	60.0	2	0	[]
4730	25	6	8	60.0	2	9	[(2467, 0), (6233, 0), (7799, 0), (5883, 0), (5847, 0), (5806, 2), (1492, 0), (2685, 0), (6942, 0)]
4735	2	1	8	60.0	2	0	[]
4736	2	1	8	60.0	2	0	[]
4737	1	1	8	60.0	2	0	[]
4739	2	1	8	60.0	2	0	[]
4741	7	1	1	60.0	2	27	[(346, 0), (7461, 0), (8087, 0), (3960, 0), (4400, 0), (4426, 1), (3288, 0), (8264, 0), (6336, 0), (1391, 0), (1437, 0), (7170, 0), (3425, 0), (3426, 0), (1488, 0), (6128, 0), (9133, 0), (8055, 0), (7192, 0), (1579, 0), (3423, 0), (1785, 0), (5847, 0), (2651, 0), (1593, 0), (1414, 0), (7834, 0)]
4745	1	1	8	60.0	2	0	[]
4748	4	4	8	60.0	2	0	[]
4750	11	1	8	60.0	2	0	[]
4759	2	1	8	60.0	2	0	[]
4760	51	2	8	60.0	2	6	[(6825, 0), (6728, 2), (3808, 2), (6540, 0), (4209, 2), (7603, 1)]
4765	1	1	8	60.0	2	0	[]
4766	2	1	8	60.0	2	0	[]
4767	6	2	8	60.0	2	0	[]
4773	3	3	8	60.0	2	0	[]
4780	4	2	8	60.0	2	0	[]
4781	20	2	8	60.0	2	0	[]
4783	2	1	8	60.0	2	0	[]
4785	2	2	8	60.0	2	0	[]
4788	1	2	8	60.0	2	0	[]
4789	2	1	2	40.0	2	1	[(6694, 2)]
4793	2	2	8	60.0	2	0	[]
4797	11	2	8	40.0	2	1	[(4210, 0)]
4798	1	1	8	60.0	2	0	[]
4803	2	1	8	60.0	2	0	[]
4807	2	1	1	100.0	2	0	[]
4817	1	1	2	60.0	2	0	[]
4822	1	1	7	60.0	2	0	[]
4823	2	1	8	60.0	2	0	[]
4826	2	4	16	60.0	2	0	[]
4828	2	1	8	60.0	2	0	[]
4829	1	1	2	60.0	2	0	[]
4832	1	1	8	60.0	2	0	[]
4836	2	3	8	60.0	2	0	[]
4837	3	1	3	60.0	2	0	[]
4841	2	1	8	60.0	2	0	[]
4847	4	6	8	60.0	2	0	[]
4851	2	1	8	60.0	2	0	[]
4857	2	2	8	60.0	2	1	[(456, 0)]
4863	3	1	8	60.0	2	1	[(1676, 0)]
4864	28	4	8	60.0	2	1	[(2322, 1)]
4865	1	1	8	60.0	2	0	[]
4866	14	2	8	60.0	2	0	[]
4869	9	3	8	80.0	2	0	[]
4871	1	1	8	60.0	2	0	[]
4872	2	1	8	60.0	2	0	[]
4873	8	1	2	60.0	2	0	[]
4874	13	3	8	60.0	2	4	[(8386, 0), (4341, 0), (8889, 2), (6694, 0)]
4876	1	1	8	60.0	2	0	[]
4880	1	1	8	60.0	2	0	[]
4886	2	1	1	60.0	2	0	[]
4895	2	2	8	60.0	2	0	[]
4901	4	1	8	60.0	2	0	[]
4904	2	1	8	60.0	2	0	[]
4913	7	2	8	60.0	2	0	[]
4915	1	1	8	60.0	2	0	[]
4917	2	1	8	60.0	2	0	[]
4919	2	1	8	60.0	2	0	[]
4921	2	1	8	60.0	2	0	[]
4922	1	1	1	60.0	2	0	[]
4927	2	4	8	60.0	2	0	[]
4931	5	1	8	60.0	2	0	[]
4932	3	2	8	60.0	2	0	[]
4933	7	2	8	60.0	2	0	[]
4935	2	1	8	60.0	2	0	[]
4942	2	1	8	60.0	2	0	[]
4944	2	2	8	60.0	2	0	[]
4945	1	4	8	60.0	2	0	[]
4950	4	1	8	60.0	2	0	[]
4956	2	1	8	60.0	2	0	[]
4957	2	1	8	60.0	2	0	[]
4959	1	4	8	60.0	2	0	[]
4968	2	1	8	60.0	2	0	[]
4971	3	4	8	60.0	2	0	[]
4972	1	1	8	100.0	2	0	[]
4974	4	1	2	60.0	2	0	[]
4976	1	1	2	60.0	2	0	[]
4981	1	1	8	60.0	2	0	[]
4982	2	1	8	60.0	2	0	[]
4983	4	1	2	60.0	2	0	[]
4989	1	1	8	60.0	2	0	[]
4992	1	4	8	40.0	2	0	[]
4993	3	1	8	60.0	2	0	[]
5000	2	1	8	60.0	2	0	[]
5003	3	1	8	1024.0	2	0	[]
5005	1	1	7	60.0	2	0	[]
5007	6	1	8	60.0	2	0	[]
5018	1	1	1	60.0	2	0	[]
5019	2	1	8	60.0	2	0	[]
5024	2	1	2	100.0	2	0	[]
5025	7	1	8	60.0	2	0	[]
5026	2	1	8	60.0	2	0	[]
5029	1	1	1	60.0	2	0	[]
5031	2	1	8	60.0	2	0	[]
5032	2	1	8	60.0	2	0	[]
5033	2	1	8	60.0	2	0	[]
5038	4	1	8	60.0	2	0	[]
5055	1	1	1	60.0	2	0	[]
5056	1	2	32	60.0	0	0	[]
5058	1	1	8	60.0	2	0	[]
5062	1	1	8	60.0	2	0	[]
5084	1	1	8	60.0	2	0	[]
5094	1	1	8	60.0	2	0	[]
5096	3	1	8	60.0	2	0	[]
5098	2	1	8	60.0	2	0	[]
5099	2	1	8	60.0	2	0	[]
5100	1	1	3	60.0	2	0	[]
5105	4	1	8	60.0	2	0	[]
5113	3	1	8	60.0	2	0	[]
5116	2	1	8	60.0	2	0	[]
5117	1	1	8	80.0	2	0	[]
5118	4	3	8	60.0	2	0	[]
5120	1	1	8	60.0	2	0	[]
5127	21	4	16	60.0	2	2	[(1227, 0), (3942, 0)]
5135	1	7	16	60.0	1	16	[(7716, 2), (6097, 2), (7045, 2), (6831, 2), (3942, 2), (4520, 2), (4014, 2), (6104, 2), (273, 2), (4210, 2), (4037, 2), (2688, 2), (6034, 2), (6429, 2), (737, 2), (3039, 1)]
5140	1	1	8	60.0	2	0	[]
5143	1	1	8	60.0	2	0	[]
5150	1	1	8	60.0	2	0	[]
5154	2	1	8	60.0	2	0	[]
5155	3	1	8	100.0	2	0	[]
5160	2	1	8	60.0	2	0	[]
5167	2	1	8	60.0	2	0	[]
5170	4	1	8	60.0	2	0	[]
5171	1	1	8	60.0	2	0	[]
5172	8	1	8	60.0	2	0	[]
5178	1	1	8	60.0	2	0	[]
5182	1	4	8	60.0	2	0	[]
5183	3	4	8	60.0	2	0	[]
5184	2	1	8	60.0	2	0	[]
5187	2	1	8	60.0	2	0	[]
5188	4	1	8	60.0	2	0	[]
5190	2	1	8	60.0	2	0	[]
5192	2	1	8	60.0	2	0	[]
5201	2	1	8	60.0	2	0	[]
5203	1	1	2	60.0	2	0	[]
5204	4	1	8	60.0	2	0	[]
5205	1	3	8	60.0	2	0	[]
5209	1	1	8	60.0	2	0	[]
5213	4	1	8	100.0	2	0	[]
5216	2	1	8	60.0	2	2	[(6710, 2), (4864, 2)]
5217	28	5	2	200.0	2	0	[]
5220	72	3	8	60.0	2	2	[(7536, 2), (792, 2)]
5222	30	6	8	60.0	2	1	[(1941, 0)]
5223	4	5	16	60.0	2	0	[]
5227	5	1	8	60.0	2	0	[]
5231	2	1	8	60.0	2	0	[]
5234	2	2	8	60.0	2	0	[]
5237	10	6	8	60.0	2	0	[]
5238	3	5	8	60.0	2	0	[]
5240	5	3	8	60.0	2	0	[]
5244	18	1	8	60.0	2	0	[]
5245	3	1	1	60.0	2	0	[]
5263	2	1	8	60.0	2	0	[]
5264	145	12	16	60.0	1	10	[(6097, 0), (1227, 0), (1741, 0), (2197, 0), (7112, 2), (7210, 1), (8223, 0), (5619, 2), (4736, 1), (9273, 2)]
5268	1	6	8	60.0	2	0	[]
5272	3	1	8	100.0	2	0	[]
5277	3	2	8	60.0	2	0	[]
5278	2	1	8	60.0	2	0	[]
5288	6	1	8	60.0	2	2	[(6605, 0), (1195, 0)]
5290	1	1	2	60.0	2	0	[]
5293	2	1	2	60.0	2	0	[]
5303	1	1	8	60.0	2	0	[]
5308	1	3	8	60.0	2	0	[]
5315	2	1	5	60.0	2	0	[]
5316	1	1	8	60.0	2	0	[]
5319	1	4	8	60.0	2	0	[]
5323	2	1	8	60.0	2	0	[]
5328	1	1	8	60.0	2	0	[]
5329	2	1	8	60.0	2	2	[(1099, 0), (9136, 0)]
5330	2	1	8	60.0	2	0	[]
5334	1	1	8	60.0	2	0	[]
5335	2	10	16	200.0	2	0	[]
5343	1	4	8	60.0	2	0	[]
5346	9	2	8	60.0	2	0	[]
5348	2	3	8	60.0	2	0	[]
5349	3	1	8	60.0	2	0	[]
5358	2	1	8	60.0	2	0	[]
5361	1	4	8	60.0	2	0	[]
5363	3	3	16	60.0	1	16	[(7716, 2), (6097, 2), (7045, 2), (6831, 2), (3942, 2), (4520, 2), (4014, 2), (6104, 2), (273, 2), (4210, 2), (4037, 2), (2688, 2), (6034, 2), (6429, 2), (737, 2), (3039, 1)]
5365	1	1	2	60.0	2	0	[]
5371	1	1	8	60.0	2	0	[]
5372	1	1	8	60.0	2	0	[]
5380	1	4	8	60.0	2	0	[]
5388	16	1	16	60.0	2	0	[]
5389	2	1	43	60.0	2	0	[]
5391	2	1	8	60.0	2	0	[]
5394	19	1	8	60.0	2	4	[(9091, 2), (1683, 1), (6288, 1), (4071, 2)]
5413	3	2	16	100.0	2	0	[]
5418	233	6	8	60.0	2	5	[(8920, 1), (4377, 2), (7732, 2), (4257, 0), (6347, 1)]
5424	2	1	8	60.0	2	0	[]
5426	5	1	8	60.0	2	0	[]
5428	1	1	8	60.0	2	0	[]
5429	7	1	16	80.0	2	0	[]
5435	5	1	8	60.0	2	0	[]
5436	40	6	8	60.0	2	0	[]
5438	104	2	8	60.0	2	12	[(4170, 2), (8761, 2), (4364, 1), (4287, 0), (7623, 0), (8524, 2), (8564, 0), (1360, 0), (3482, 2), (1019, 0), (9179, 2), (279, 0)]
5442	2	1	8	60.0	2	0	[]
5444	1	1	8	60.0	2	0	[]
5450	1	1	6	60.0	2	0	[]
5451	2	2	8	60.0	2	0	[]
5452	5	1	8	60.0	2	0	[]
5461	1	1	8	60.0	2	0	[]
5473	2	1	8	60.0	2	0	[]
5482	2	1	8	60.0	2	0	[]
5486	3	1	8	60.0	2	0	[]
5488	1	1	2	60.0	2	0	[]
5491	2	1	8	60.0	2	0	[]
5496	5	2	8	60.0	2	0	[]
5497	5	1	8	60.0	2	0	[]
5500	3	1	8	60.0	2	0	[]
5507	3	1	8	60.0	2	0	[]
5518	1	1	8	60.0	2	0	[]
5519	4	3	8	60.0	2	0	[]
5521	2	1	8	60.0	2	0	[]
5528	1	6	8	40.0	2	0	[]
5529	3	1	8	60.0	2	0	[]
5533	2	1	2	60.0	2	0	[]
5537	3	2	8	60.0	2	1	[(8554, 2)]
5540	1	1	8	60.0	2	0	[]
5543	3	1	2	60.0	2	0	[]
5544	3	2	8	60.0	2	0	[]
5545	2	1	8	60.0	2	0	[]
5546	8	1	8	60.0	2	0	[]
5549	1	1	8	60.0	2	0	[]
5550	2	1	8	60.0	2	0	[]
5551	8	2	8	60.0	2	1	[(2713, 2)]
5554	2	1	8	60.0	2	0	[]
5557	2	2	8	60.0	2	3	[(8936, 2), (1104, 2), (4318, 2)]
5558	23	4	16	80.0	2	2	[(5793, 0), (1840, 0)]
5560	6	1	8	60.0	2	0	[]
5562	1	1	8	60.0	2	0	[]
5563	3	2	8	60.0	2	0	[]
5565	11	3	8	60.0	2	1	[(8994, 2)]
5568	3	1	8	60.0	2	0	[]
5570	9	1	2	100.0	2	0	[]
5571	1	1	8	60.0	2	0	[]
5577	2	1	8	60.0	2	0	[]
5578	2	4	8	60.0	2	0	[]
5581	2	1	8	60.0	2	0	[]
5584	1	1	8	40.0	2	0	[]
5587	2	1	8	60.0	2	0	[]
5593	2	1	2	60.0	2	0	[]
5597	1	1	8	60.0	2	0	[]
5601	3	1	8	60.0	2	0	[]
5606	2	1	8	60.0	2	0	[]
5609	2	4	8	60.0	2	0	[]
5613	1	1	8	60.0	2	0	[]
5616	2	1	8	60.0	2	0	[]
5619	9	4	2	60.0	2	0	[]
5623	3	1	8	60.0	2	0	[]
5625	1	4	8	60.0	2	0	[]
5627	2	1	8	60.0	2	1	[(2125, 2)]
5642	2	4	8	60.0	2	0	[]
5643	2	1	8	60.0	2	0	[]
5644	1	1	1	60.0	2	0	[]
5645	4	1	25	200.0	2	0	[]
5646	2	1	8	60.0	2	0	[]
5653	2	1	8	60.0	2	0	[]
5654	1	1	8	60.0	2	0	[]
5656	2	1	2	60.0	2	0	[]
5662	2	1	8	60.0	2	0	[]
5663	1	3	8	60.0	2	0	[]
5665	7	6	8	60.0	2	0	[]
5670	2	1	8	60.0	2	0	[]
5671	2	1	8	60.0	2	0	[]
5672	2	1	2	60.0	2	0	[]
5687	5	1	8	100.0	2	0	[]
5696	3	6	8	60.0	2	2	[(8554, 1), (6142, 1)]
5698	8	12	2	60.0	2	0	[]
5701	1	1	8	60.0	2	0	[]
5702	7	2	8	60.0	2	0	[]
5706	1	4	16	80.0	2	0	[]
5709	1	1	8	60.0	2	0	[]
5711	1	4	8	60.0	2	0	[]
5718	4	1	8	60.0	2	0	[]
5721	2	1	6	60.0	2	0	[]
5722	5	1	8	60.0	2	0	[]
5728	1	4	8	60.0	2	0	[]
5729	1	4	8	60.0	2	0	[]
5732	5	1	8	60.0	2	0	[]
5733	1	1	8	60.0	2	0	[]
5736	2	1	11	80.0	2	0	[]
5737	5	1	8	60.0	2	0	[]
5739	2	1	8	300.0	2	0	[]
5743	2	2	8	60.0	2	0	[]
5757	1	2	2	60.0	2	0	[]
5765	1	1	8	60.0	2	0	[]
5767	6	1	8	60.0	2	0	[]
5769	1	4	8	60.0	2	0	[]
5771	6	2	8	60.0	2	0	[]
5774	1	4	8	60.0	2	0	[]
5776	1	1	8	60.0	2	1	[(8786, 2)]
5777	2	6	8	60.0	2	1	[(3685, 1)]
5778	2	2	8	60.0	2	1	[(7314, 0)]
5784	6	2	8	60.0	2	0	[]
5787	1	1	8	60.0	2	0	[]
5789	2	4	8	60.0	2	0	[]
5793	2	1	8	60.0	2	0	[]
5795	2	1	8	60.0	2	0	[]
5798	2	1	8	60.0	2	0	[]
5799	1	8	16	150.0	2	0	[]
5801	1	1	8	60.0	2	0	[]
5802	1	1	8	60.0	2	0	[]
5804	1	1	4	60.0	2	0	[]
5806	1	1	2	60.0	2	0	[]
5810	40	4	8	60.0	2	14	[(4479, 0), (3802, 1), (3022, 1), (1325, 2), (1227, 2), (355, 0), (6450, 2), (7304, 2), (1602, 0), (7610, 1), (1099, 2), (4210, 1), (5549, 0), (8807, 0)]
5811	1	1	8	60.0	2	0	[]
5818	2	1	8	60.0	2	0	[]
5819	1	1	3	60.0	2	0	[]
5825	2	2	8	60.0	2	1	[(4709, 2)]
5828	2	1	8	167.0	2	0	[]
5839	2	1	8	60.0	2	0	[]
5841	2	1	8	60.0	2	0	[]
5847	20	6	8	60.0	2	0	[]
5848	2	1	6	60.0	2	0	[]
5851	2	1	8	60.0	2	0	[]
5854	2	1	8	60.0	2	0	[]
5855	2	4	8	60.0	2	0	[]
5859	5	34	2	600.0	2	0	[]
5860	2	1	8	60.0	2	0	[]
5861	3	1	8	60.0	2	0	[]
5864	69	4	8	60.0	2	6	[(2484, 0), (9174, 0), (1524, 1), (4170, 0), (6605, 0), (2489, 0)]
5867	2	1	1	60.0	2	0	[]
5868	2	1	5	60.0	2	0	[]
5874	1	1	8	60.0	2	0	[]
5882	5	14	96	300.0	2	0	[]
5883	23	5	8	60.0	2	5	[(3676, 1), (5557, 1), (8936, 2), (1104, 1), (4318, 2)]
5889	18	6	8	60.0	2	45	[(1916, 0), (4530, 0), (1160, 0), (2910, 0), (341, 0), (6663, 0), (4210, 0), (6736, 0), (6295, 0), (5127, 0), (7970, 0), (510, 0), (1227, 0), (1983, 2), (5855, 0), (7414, 0), (5418, 0), (9228, 0), (3482, 1), (8931, 0), (5497, 0), (6628, 0), (5217, 0), (281, 0), (1587, 2), (1740, 0), (1259, 0), (1475, 0), (2300, 0), (7511, 0), (3031, 1), (6232, 0), (6694, 0), (7980, 0), (4175, 2), (2900, 0), (6710, 0), (2017, 2), (8223, 0), (191, 0), (3802, 0), (351, 0), (3318, 0), (2485, 0), (1443, 0)]
5891	1	4	8	60.0	2	0	[]
5893	1	1	16	60.0	2	0	[]
5900	26	3	10	40.0	2	0	[]
5901	5	1	8	60.0	2	1	[(4210, 2)]
5904	2	1	7	60.0	2	0	[]
5907	1	1	8	60.0	2	0	[]
5915	3	1	8	60.0	2	0	[]
5918	1	2	8	60.0	2	0	[]
5926	2	1	8	60.0	2	0	[]
5936	1	1	3	60.0	2	0	[]
5938	2	2	8	60.0	2	0	[]
5941	1	1	1	60.0	2	0	[]
5944	7	6	8	60.0	2	0	[]
5945	1	1	1	60.0	2	0	[]
5946	2	2	8	60.0	2	0	[]
5951	2	1	8	60.0	2	0	[]
5952	2	1	8	60.0	2	0	[]
5960	1	1	2	60.0	2	0	[]
5963	3	1	6	60.0	2	0	[]
5964	6	2	8	60.0	2	0	[]
5967	2	1	8	60.0	2	0	[]
5973	1	1	3	60.0	2	0	[]
5977	1	1	8	60.0	2	0	[]
5979	1	1	8	60.0	2	0	[]
5982	2	1	2	60.0	2	0	[]
5995	15	10	16	80.0	2	0	[]
5999	1	1	8	60.0	2	0	[]
6000	1	4	8	60.0	2	0	[]
6002	1	1	8	60.0	2	0	[]
6003	5	1	8	40.0	2	0	[]
6005	2	3	8	500.0	2	0	[]
6006	2	1	8	60.0	2	0	[]
6014	1	4	8	60.0	2	0	[]
6018	2	1	8	60.0	2	0	[]
6034	1	2	16	60.0	2	13	[(7716, 2), (6097, 2), (4037, 2), (1741, 3), (3942, 2), (5135, 3), (5363, 3), (6831, 2), (4014, 2), (273, 2), (2688, 2), (6429, 2), (737, 2)]
6035	3	1	8	60.0	2	0	[]
6041	2	1	5	60.0	2	0	[]
6042	2	2	8	60.0	2	0	[]
6048	4	1	8	60.0	2	1	[(788, 2)]
6050	6	2	16	80.0	2	0	[]
6053	1	1	8	60.0	2	0	[]
6057	6	1	8	60.0	2	0	[]
6059	2	2	8	60.0	2	0	[]
6065	2	1	2	1000.0	2	0	[]
6067	17	3	8	60.0	2	0	[]
6070	2	1	8	60.0	2	0	[]
6079	2	4	8	60.0	2	0	[]
6086	2	1	2	60.0	2	0	[]
6088	3	1	8	60.0	2	0	[]
6097	2	3	32	60.0	2	11	[(7045, 2), (1741, 2), (3942, 2), (5135, 2), (5363, 2), (4520, 2), (4014, 2), (273, 1), (4210, 2), (6034, 2), (3039, 1)]
6104	2	1	16	60.0	1	14	[(7716, 1), (6097, 1), (1741, 2), (6831, 1), (5135, 2), (5363, 2), (3942, 1), (4014, 1), (273, 2), (4037, 1), (2688, 1), (6429, 1), (737, 1), (3039, 1)]
6108	8	3	8	60.0	2	0	[]
6110	6	1	8	60.0	2	0	[]
6113	2	1	6	60.0	2	0	[]
6114	1	1	2	60.0	2	0	[]
6115	9	6	16	60.0	2	2	[(8199, 0), (2260, 0)]
6119	2	1	8	60.0	2	0	[]
6128	15	5	8	80.0	2	0	[]
6132	4	2	8	60.0	2	0	[]
6133	3	1	8	60.0	2	0	[]
6142	1	1	1	60.0	2	0	[]
6150	5	1	8	60.0	2	1	[(7063, 2)]
6152	7	1	8	60.0	2	0	[]
6157	1	1	8	60.0	2	0	[]
6164	1	4	8	60.0	2	0	[]
6169	1	4	8	60.0	2	0	[]
6172	10	1	8	60.0	2	3	[(2487, 0), (4642, 0), (7998, 0)]
6176	11	8	16	60.0	2	0	[]
6179	4	1	8	60.0	2	0	[]
6182	1	1	8	60.0	2	0	[]
6186	3	1	8	60.0	2	0	[]
6187	3	1	8	60.0	2	0	[]
6194	1	1	8	60.0	2	0	[]
6198	1	1	8	60.0	2	0	[]
6204	1	1	8	60.0	2	0	[]
6208	1	1	8	60.0	2	0	[]
6209	2	1	8	60.0	2	0	[]
6211	5	1	8	60.0	2	0	[]
6221	2	1	8	60.0	2	0	[]
6223	2	1	2	60.0	2	0	[]
6224	2	1	5	60.0	2	0	[]
6225	2	1	8	60.0	2	0	[]
6232	45	6	8	40.0	2	6	[(145, 0), (577, 0), (1388, 2), (7443, 0), (4210, 0), (7437, 2)]
6233	1	1	4	60.0	2	0	[]
6241	2	3	8	60.0	2	0	[]
6242	1	1	2	60.0	2	0	[]
6244	1	1	8	60.0	2	0	[]
6245	1	1	7	60.0	2	0	[]
6257	2	1	8	60.0	2	0	[]
6259	1	3	8	60.0	2	0	[]
6263	1	1	3	60.0	2	0	[]
6270	3	6	8	60.0	2	3	[(2172, 1), (3702, 2), (2701, 1)]
6271	1	1	8	60.0	2	0	[]
6275	2	1	8	200.0	2	0	[]
6279	1	4	8	60.0	2	0	[]
6281	2	1	1	60.0	2	0	[]
6283	6	12	2	200.0	2	1	[(6993, 0)]
6284	1	2	8	60.0	2	0	[]
6288	15	2	8	60.0	2	1	[(6057, 2)]
6292	1	4	8	60.0	2	0	[]
6294	1	4	8	60.0	2	0	[]
6295	14	4	8	40.0	2	5	[(1388, 2), (6018, 2), (456, 0), (4210, 0), (577, 0)]
6297	1	4	8	60.0	2	0	[]
6299	1	1	2	60.0	2	0	[]
6301	2	1	8	60.0	2	0	[]
6303	19	6	8	60.0	2	0	[]
6304	10	2	8	60.0	0	4	[(7980, 0), (456, 0), (4210, 0), (577, 0)]
6308	2	1	8	60.0	2	0	[]
6310	2	1	8	60.0	2	0	[]
6314	1	1	2	60.0	2	0	[]
6327	2	1	8	60.0	2	0	[]
6328	1	1	8	60.0	2	0	[]
6329	2	1	8	60.0	2	0	[]
6332	6	1	8	60.0	2	2	[(4264, 1), (6288, 1)]
6333	1	1	8	60.0	2	0	[]
6336	13	1	8	60.0	2	1	[(5118, 2)]
6337	2	2	8	60.0	2	0	[]
6338	2	1	8	60.0	2	0	[]
6347	4	1	8	60.0	2	0	[]
6351	2	1	1	60.0	2	0	[]
6357	3	1	8	80.0	2	0	[]
6358	2	1	2	60.0	2	0	[]
6362	1	1	8	60.0	2	0	[]
6364	5	1	8	60.0	2	1	[(8138, 2)]
6371	1	1	8	60.0	2	0	[]
6380	3	1	8	60.0	2	1	[(1873, 2)]
6387	1	1	8	60.0	2	0	[]
6388	1	4	8	60.0	2	0	[]
6394	1	1	2	60.0	2	0	[]
6397	4	1	8	60.0	2	0	[]
6404	2	1	8	60.0	2	0	[]
6409	10	1	16	60.0	2	0	[]
6412	2	1	8	60.0	2	0	[]
6418	1	1	8	60.0	2	0	[]
6420	1	1	2	60.0	2	0	[]
6422	1	1	6	60.0	2	0	[]
6428	2	1	8	60.0	2	0	[]
6429	2	4	32	60.0	2	11	[(7045, 2), (1741, 2), (3942, 2), (5135, 2), (5363, 2), (4520, 2), (4014, 2), (273, 1), (4210, 2), (6034, 2), (3039, 1)]
6432	4	1	8	60.0	2	0	[]
6434	5	1	8	60.0	2	1	[(6503, 2)]
6440	2	1	8	60.0	2	0	[]
6441	1	1	8	60.0	2	0	[]
6442	20	2	8	60.0	2	4	[(4085, 0), (4429, 0), (8554, 1), (1391, 0)]
6445	1	1	8	60.0	2	0	[]
6450	5	2	16	60.0	2	2	[(1916, 0), (8194, 0)]
6463	10	2	8	60.0	2	0	[]
6465	1	4	8	60.0	2	0	[]
6467	1	4	8	40.0	0	0	[]
6468	2	1	8	60.0	2	0	[]
6469	2	1	8	60.0	2	0	[]
6470	2	2	8	60.0	2	0	[]
6473	2	1	16	100.0	2	0	[]
6475	4	2	8	200.0	2	0	[]
6478	7	2	8	60.0	2	1	[(9074, 2)]
6480	1	1	1	60.0	2	0	[]
6481	5	2	8	60.0	2	0	[]
6482	5	1	8	60.0	2	0	[]
6486	15	4	8	60.0	2	0	[]
6487	1	1	8	60.0	2	0	[]
6489	1	1	8	60.0	2	0	[]
6490	3	1	8	60.0	3	3	[(2263, 3), (1891, 3), (147, 3)]
6492	2	1	8	60.0	2	0	[]
6495	11	2	8	60.0	2	0	[]
6496	3	1	8	60.0	2	0	[]
6499	2	2	8	60.0	2	0	[]
6501	1	1	8	60.0	2	0	[]
6502	1	4	8	60.0	2	0	[]
6503	3	1	8	60.0	2	0	[]
6504	2	2	8	60.0	2	0	[]
6508	2	2	8	60.0	2	5	[(1237, 0), (1840, 0), (7184, 0), (1647, 0), (7947, 0)]
6521	3	1	8	60.0	2	0	[]
6531	9	1	16	60.0	0	2	[(456, 0), (3370, 0)]
6533	3	2	2	60.0	2	0	[]
6535	1	4	8	60.0	2	0	[]
6537	1	1	8	60.0	2	0	[]
6540	2	1	8	60.0	2	0	[]
6542	1	1	1	40.0	0	0	[]
6543	1	4	8	60.0	2	0	[]
6547	1	1	8	60.0	2	0	[]
6548	1	4	8	60.0	2	0	[]
6549	2	1	8	60.0	2	0	[]
6550	21	12	16	100.0	2	1	[(8005, 0)]
6551	1	1	2	60.0	2	0	[]
6552	1	1	8	60.0	2	0	[]
6557	43	6	8	60.0	2	17	[(4570, 0), (1026, 0), (1451, 0), (7754, 0), (638, 0), (1019, 0), (8524, 0), (3851, 0), (257, 0), (1360, 0), (3759, 0), (1151, 0), (515, 0), (7369, 0), (3426, 0), (4695, 0), (8816, 0)]
6558	4	1	8	60.0	2	0	[]
6560	1	1	8	60.0	2	0	[]
6569	1	1	8	60.0	2	0	[]
6570	2	3	16	100.0	2	0	[]
6575	1	2	8	40.0	2	0	[]
6583	3	1	8	60.0	2	0	[]
6585	2	1	2	60.0	2	0	[]
6586	4	2	7	60.0	2	0	[]
6593	22	3	8	60.0	2	0	[]
6594	1	1	8	60.0	2	0	[]
6598	1	1	8	40.0	2	0	[]
6605	37	6	8	60.0	2	1	[(472, 1)]
6609	2	1	1	80.0	2	0	[]
6610	12	2	8	60.0	2	0	[]
6613	2	1	8	60.0	2	0	[]
6623	2	2	8	60.0	2	0	[]
6624	2	1	8	60.0	2	0	[]
6625	2	1	8	60.0	2	0	[]
6626	24	6	8	60.0	2	2	[(4096, 0), (1990, 0)]
6628	21	5	8	60.0	2	0	[]
6632	1	1	2	60.0	2	0	[]
6637	1	1	8	60.0	2	0	[]
6639	3	1	5	60.0	2	0	[]
6644	2	1	2	60.0	2	0	[]
6648	2	1	2	60.0	2	0	[]
6657	2	1	8	100.0	2	0	[]
6658	1	1	2	60.0	2	0	[]
6663	7	3	2	60.0	2	0	[]
6665	2	1	8	60.0	2	0	[]
6671	1	1	2	60.0	2	0	[]
6678	2	1	6	60.0	2	0	[]
6681	4	1	8	60.0	2	0	[]
6682	2	1	8	60.0	2	0	[]
6689	6	2	8	60.0	2	0	[]
6691	1	1	2	60.0	2	0	[]
6694	70	5	16	200.0	2	2	[(4341, 0), (6152, 0)]
6697	1	8	16	80.0	2	0	[]
6698	1	1	1	60.0	2	0	[]
6704	2	1	8	60.0	2	0	[]
6710	69	6	8	60.0	2	6	[(4895, 0), (7634, 1), (7210, 2), (7648, 2), (8616, 1), (1518, 2)]
6719	9	1	8	60.0	2	0	[]
6721	2	3	8	60.0	2	0	[]
6728	1	1	6	60.0	2	0	[]
6733	4	1	8	60.0	2	0	[]
6736	56	3	8	60.0	2	5	[(3802, 2), (7980, 1), (3495, 0), (5619, 2), (854, 1)]
6739	4	3	8	60.0	2	0	[]
6742	2	1	8	60.0	2	0	[]
6756	4	1	8	60.0	2	0	[]
6757	3	1	8	60.0	2	1	[(788, 1)]
6759	2	4	8	60.0	2	0	[]
6777	1	1	8	60.0	2	0	[]
6780	1	4	8	60.0	2	0	[]
6794	5	2	8	60.0	2	0	[]
6798	1	1	8	60.0	2	0	[]
6804	11	6	8	60.0	2	0	[]
6805	2	1	8	60.0	2	2	[(2014, 0), (8223, 0)]
6806	5	1	16	60.0	2	0	[]
6810	5	6	8	60.0	2	0	[]
6812	1	1	8	60.0	2	0	[]
6813	1	1	1	60.0	2	0	[]
6814	4	1	5	60.0	2	4	[(875, 0), (6689, 0), (7770, 0), (2172, 0)]
6821	2	1	2	60.0	2	0	[]
6823	2	1	8	60.0	2	0	[]
6824	2	2	8	60.0	2	0	[]
6825	1	1	8	60.0	2	0	[]
6828	3	1	8	60.0	2	0	[]
6829	2	1	8	60.0	2	0	[]
6831	1	8	32	60.0	2	11	[(7045, 2), (1741, 2), (5135, 2), (5363, 2), (3942, 2), (4520, 2), (4014, 2), (273, 1), (4210, 2), (6034, 2), (3039, 1)]
6833	2	2	8	60.0	2	0	[]
6834	5	1	8	80.0	2	0	[]
6840	1	1	8	60.0	2	0	[]
6844	2	1	2	60.0	2	0	[]
6853	2	1	8	60.0	2	0	[]
6855	2	1	8	60.0	2	0	[]
6856	2	1	8	60.0	2	0	[]
6859	2	1	8	60.0	2	0	[]
6865	1	3	16	60.0	2	0	[]
6868	1	1	8	60.0	2	0	[]
6876	1	1	1	60.0	2	0	[]
6882	2	1	1	60.0	2	0	[]
6883	20	5	8	60.0	2	0	[]
6885	2	1	4	60.0	2	0	[]
6886	2	1	8	60.0	2	0	[]
6887	1	1	8	60.0	2	0	[]
6888	1	1	8	60.0	2	0	[]
6893	2	1	7	60.0	2	0	[]
6894	2	2	8	60.0	2	0	[]
6896	10	2	8	60.0	2	2	[(9228, 0), (7394, 0)]
6897	1	1	8	60.0	2	0	[]
6901	1	4	10	180.0	2	0	[]
6906	1	1	2	60.0	2	0	[]
6914	5	6	8	60.0	2	0	[]
6925	1	1	7	60.0	2	0	[]
6930	4	1	13	80.0	2	0	[]
6931	1	1	8	60.0	2	0	[]
6933	2	1	8	60.0	2	0	[]
6942	7	1	8	60.0	2	0	[]
6947	3	1	8	60.0	2	0	[]
6950	1	4	8	60.0	2	0	[]
6957	1	1	4	60.0	2	0	[]
6969	1	1	8	60.0	2	0	[]
6975	2	4	8	60.0	2	0	[]
6978	1	2	8	60.0	2	0	[]
6980	1	1	2	60.0	2	0	[]
6982	2	1	8	60.0	2	0	[]
6985	5	6	8	60.0	2	0	[]
6987	2	12	32	200.0	2	0	[]
6990	1	4	8	80.0	2	0	[]
6993	3	1	8	60.0	2	0	[]
6995	1	1	4	60.0	2	0	[]
6996	2	4	8	60.0	2	0	[]
7002	2	1	8	60.0	2	0	[]
7009	7	2	8	60.0	2	0	[]
7010	4	2	8	60.0	2	0	[]
7011	1	1	8	60.0	2	0	[]
7017	2	1	8	60.0	2	0	[]
7019	3	6	8	60.0	2	0	[]
7021	2	1	1	60.0	2	0	[]
7023	2	2	8	60.0	2	0	[]
7025	25	2	8	60.0	2	0	[]
7026	4	4	8	60.0	2	0	[]
7028	3	1	8	60.0	2	0	[]
7029	2	1	8	60.0	2	0	[]
7035	14	2	8	100.0	2	0	[]
7040	1	1	8	60.0	2	0	[]
7042	2	1	8	60.0	2	0	[]
7045	2	2	16	60.0	2	13	[(7716, 2), (6097, 2), (4037, 2), (1741, 3), (3942, 2), (5135, 3), (5363, 3), (6831, 2), (4014, 2), (273, 2), (2688, 2), (6429, 2), (737, 2)]
7050	2	1	8	60.0	2	0	[]
7051	1	1	1	60.0	2	0	[]
7053	1	6	12	100.0	2	0	[]
7056	1	1	8	60.0	2	0	[]
7060	1	1	8	60.0	2	0	[]
7063	3	5	8	60.0	2	0	[]
7064	11	5	8	60.0	2	0	[]
7069	1	1	2	60.0	2	0	[]
7070	16	3	8	60.0	2	0	[]
7083	1	1	8	60.0	2	0	[]
7085	20	4	2	100.0	2	0	[]
7086	2	1	8	60.0	2	0	[]
7090	3	1	8	60.0	2	0	[]
7094	1	1	8	60.0	2	0	[]
7099	1	1	8	60.0	2	0	[]
7101	2	1	24	60.0	2	0	[]
7104	2	1	8	60.0	2	0	[]
7106	6	2	8	60.0	2	0	[]
7107	2	3	8	60.0	2	0	[]
7110	1	1	8	60.0	2	0	[]
7112	3	4	2	60.0	2	0	[]
7116	1	1	1	60.0	2	0	[]
7121	5	2	8	60.0	2	0	[]
7122	3	2	8	60.0	2	0	[]
7124	3	1	8	60.0	2	0	[]
7125	9	2	8	60.0	2	0	[]
7134	2	2	8	60.0	2	0	[]
7138	1	4	8	60.0	2	0	[]
7140	2	2	8	60.0	2	0	[]
7142	2	1	5	60.0	2	1	[(1240, 0)]
7144	4	1	8	60.0	2	0	[]
7147	2	1	16	80.0	2	0	[]
7148	1	1	8	60.0	2	0	[]
7157	3	1	8	60.0	2	0	[]
7160	1	1	2	100.0	2	0	[]
7161	1	1	2	60.0	2	0	[]
7162	1	1	16	80.0	2	0	[]
7165	6	1	1	60.0	2	0	[]
7170	5	1	8	60.0	2	1	[(8828, 0)]
7172	5	2	8	60.0	2	0	[]
7176	6	1	2	60.0	2	1	[(4085, 0)]
7178	15	1	2	60.0	2	0	[]
7179	2	1	8	60.0	2	0	[]
7184	20	2	16	150.0	2	0	[]
7192	12	3	8	60.0	2	0	[]
7194	1	4	8	60.0	2	0	[]
7195	2	1	8	60.0	2	0	[]
7198	5	1	6	60.0	2	0	[]
7205	1	1	8	60.0	2	1	[(6975, 2)]
7210	6	2	8	60.0	2	0	[]
7216	2	1	8	60.0	2	0	[]
7220	1	4	8	60.0	2	0	[]
7234	2	1	8	60.0	2	0	[]
7235	1	4	8	60.0	2	0	[]
7243	2	2	8	60.0	2	0	[]
7244	1	1	1	60.0	2	0	[]
7245	1	1	8	60.0	2	0	[]
7248	5	2	8	60.0	2	0	[]
7250	3	6	8	60.0	2	0	[]
7273	2	1	16	60.0	2	0	[]
7274	2	1	8	60.0	2	0	[]
7275	1	1	5	60.0	2	0	[]
7284	1	4	8	60.0	2	0	[]
7286	3	1	18	100.0	2	0	[]
7291	8	6	8	60.0	2	0	[]
7292	2	4	8	60.0	2	0	[]
7293	1	1	1	60.0	2	0	[]
7298	2	1	8	60.0	2	0	[]
7304	17	6	8	60.0	2	0	[]
7314	1	1	8	60.0	2	1	[(2964, 1)]
7316	3	1	8	60.0	2	0	[]
7319	7	1	8	60.0	2	2	[(8308, 0), (8564, 1)]
7321	2	5	8	60.0	2	0	[]
7326	5	1	8	60.0	2	0	[]
7327	1	10	16	100.0	2	0	[]
7332	6	1	1	80.0	2	0	[]
7334	1	1	8	60.0	2	0	[]
7340	1	1	1	60.0	2	0	[]
7341	34	4	8	60.0	2	0	[]
7343	17	1	1	60.0	2	0	[]
7345	2	1	8	60.0	2	0	[]
7350	3	1	8	60.0	2	0	[]
7352	2	5	8	60.0	2	0	[]
7354	4	1	8	60.0	2	0	[]
7365	1	2	8	40.0	2	0	[]
7368	5	2	8	60.0	2	0	[]
7369	54	6	8	60.0	2	0	[]
7374	6	1	8	60.0	2	0	[]
7376	4	1	8	60.0	2	0	[]
7379	1	1	16	60.0	2	0	[]
7393	2	4	8	60.0	2	0	[]
7394	251	3	8	60.0	2	15	[(6694, 0), (7443, 0), (208, 0), (2186, 0), (9228, 0), (122, 0), (341, 0), (8755, 1), (4210, 0), (765, 2), (8223, 0), (6429, 1), (8931, 0), (6896, 0), (147, 0)]
7396	3	2	8	60.0	2	0	[]
7397	2	1	16	60.0	2	0	[]
7399	3	2	2	60.0	2	0	[]
7400	4	1	8	60.0	2	0	[]
7402	5	2	8	60.0	2	1	[(5394, 2)]
7405	1	1	1	60.0	2	0	[]
7411	2	1	4	60.0	2	0	[]
7413	5	1	24	150.0	2	0	[]
7414	31	3	8	60.0	2	0	[]
7415	1	4	8	60.0	2	0	[]
7416	3	1	8	60.0	2	0	[]
7417	2	4	8	60.0	2	0	[]
7421	6	1	8	60.0	2	0	[]
7422	2	2	8	40.0	2	0	[]
7425	3	1	8	60.0	2	0	[]
7427	1	2	8	60.0	2	0	[]
7429	1	1	1	60.0	2	0	[]
7430	2	1	8	60.0	2	0	[]
7437	7	1	8	60.0	2	0	[]
7438	3	1	8	60.0	2	0	[]
7439	3	1	8	60.0	2	0	[]
7440	1	4	8	60.0	2	0	[]
7443	158	6	8	60.0	0	9	[(2263, 0), (5436, 0), (3751, 0), (4231, 0), (1891, 3), (2186, 0), (2927, 0), (8223, 0), (147, 3)]
7451	1	4	8	60.0	2	0	[]
7453	1	1	8	60.0	2	0	[]
7455	1	4	8	80.0	2	0	[]
7459	3	1	8	60.0	2	0	[]
7461	3	2	8	60.0	2	0	[]
7463	3	1	8	60.0	2	0	[]
7464	2	1	8	60.0	2	0	[]
7470	1	1	8	40.0	2	0	[]
7471	3	1	8	60.0	2	0	[]
7472	2	1	8	60.0	2	0	[]
7478	2	1	8	60.0	2	0	[]
7479	2	6	8	60.0	2	0	[]
7491	2	1	8	80.0	2	0	[]
7497	5	3	8	60.0	2	0	[]
7505	16	2	8	60.0	2	1	[(5874, 0)]
7507	6	1	8	60.0	2	0	[]
7508	2	6	6	60.0	2	2	[(147, 0), (1391, 0)]
7510	3	1	4	60.0	2	0	[]
7511	19	1	8	60.0	2	1	[(7291, 2)]
7514	2	1	8	60.0	2	0	[]
7515	3	1	16	60.0	1	0	[]
7517	1	1	8	60.0	2	0	[]
7522	11	3	8	60.0	2	0	[]
7523	2	1	8	60.0	2	0	[]
7526	1	4	8	60.0	2	0	[]
7529	2	1	8	60.0	2	0	[]
7533	1	2	16	60.0	0	0	[]
7536	1	1	8	60.0	2	0	[]
7541	3	1	8	60.0	2	0	[]
7542	2	1	8	60.0	2	0	[]
7550	1	1	8	60.0	2	0	[]
7553	1	1	1	60.0	2	0	[]
7554	4	1	8	60.0	2	0	[]
7559	8	1	8	60.0	2	0	[]
7560	1	6	8	60.0	2	0	[]
7567	1	1	8	60.0	2	0	[]
7572	1	1	8	60.0	2	0	[]
7578	6	3	8	60.0	2	0	[]
7579	1	1	8	60.0	2	0	[]
7588	2	2	16	60.0	0	0	[]
7591	4	1	8	60.0	2	0	[]
7593	5	1	8	60.0	2	0	[]
7600	1	5	48	500.0	2	0	[]
7603	1	1	2	60.0	2	0	[]
7604	2	1	8	60.0	2	0	[]
7606	2	1	16	40.0	2	0	[]
7607	2	1	8	60.0	2	0	[]
7610	1	1	8	60.0	2	0	[]
7611	1	11	128	600.0	2	0	[]
7616	1	1	8	60.0	2	0	[]
7623	3	1	8	60.0	2	1	[(978, 2)]
7629	2	4	16	80.0	2	0	[]
7630	2	1	8	60.0	2	0	[]
7631	1	1	8	60.0	2	0	[]
7634	2	3	5	60.0	2	0	[]
7638	2	1	8	60.0	2	0	[]
7645	2	1	8	60.0	2	0	[]
7646	1	1	8	60.0	2	0	[]
7648	8	2	2	60.0	2	2	[(1916, 0), (1227, 0)]
7655	3	1	8	60.0	2	0	[]
7665	1	1	8	60.0	2	0	[]
7668	1	1	8	60.0	2	0	[]
7673	3	1	8	60.0	2	0	[]
7678	1	4	8	80.0	2	0	[]
7687	2	1	8	60.0	2	0	[]
7690	2	1	8	60.0	2	0	[]
7691	2	1	6	60.0	2	0	[]
7701	2	1	8	60.0	2	0	[]
7703	1	1	8	40.0	0	0	[]
7704	2	1	8	60.0	2	0	[]
7705	1	1	8	60.0	2	0	[]
7714	2	1	8	60.0	2	0	[]
7715	1	1	8	60.0	2	0	[]
7716	4	3	32	60.0	2	11	[(7045, 2), (1741, 2), (3942, 2), (5135, 2), (5363, 2), (4520, 2), (4014, 2), (273, 1), (4210, 2), (6034, 2), (3039, 1)]
7717	1	4	8	60.0	2	0	[]
7724	6	2	8	60.0	2	1	[(7369, 2)]
7725	2	1	8	60.0	2	0	[]
7732	6	2	8	60.0	2	0	[]
7736	10	4	8	60.0	2	0	[]
7737	3	1	8	60.0	2	0	[]
7742	2	1	8	60.0	2	0	[]
7743	2	1	8	60.0	2	0	[]
7744	2	1	8	60.0	2	0	[]
7746	1	1	1	60.0	2	0	[]
7748	2	4	8	60.0	2	0	[]
7750	1	1	8	167.0	2	0	[]
7751	1	1	8	60.0	2	0	[]
7754	22	1	8	60.0	2	1	[(147, 0)]
7761	1	6	8	60.0	2	0	[]
7764	8	2	8	60.0	2	0	[]
7770	4	1	2	60.0	2	0	[]
7773	5	1	8	60.0	2	0	[]
7775	2	1	8	60.0	2	0	[]
7776	8	1	8	60.0	2	0	[]
7779	1	4	8	60.0	2	0	[]
7780	2	5	8	60.0	2	0	[]
7786	2	4	8	60.0	2	0	[]
7787	1	1	16	60.0	2	0	[]
7790	1	1	8	60.0	2	0	[]
7792	14	2	8	60.0	2	0	[]
7799	2	2	8	60.0	2	5	[(3676, 2), (5220, 2), (1104, 1), (4318, 2), (5557, 2)]
7808	6	1	8	60.0	2	0	[]
7809	8	1	8	60.0	2	0	[]
7813	7	4	16	100.0	2	0	[]
7814	1	1	8	60.0	2	0	[]
7816	1	2	8	60.0	2	0	[]
7821	1	1	8	60.0	2	0	[]
7823	3	1	8	60.0	2	0	[]
7826	2	1	8	60.0	2	0	[]
7827	2	4	8	60.0	2	0	[]
7832	3	2	8	60.0	2	0	[]
7834	4	4	8	60.0	2	0	[]
7838	1	1	8	60.0	2	0	[]
7839	2	4	8	60.0	2	0	[]
7840	2	1	8	60.0	2	0	[]
7843	1	1	8	60.0	2	0	[]
7845	6	1	8	60.0	2	1	[(303, 1)]
7847	2	1	8	60.0	2	0	[]
7854	1	2	8	60.0	2	0	[]
7855	2	1	8	60.0	2	0	[]
7856	2	1	8	60.0	2	0	[]
7859	1	4	8	60.0	2	0	[]
7868	3	1	8	60.0	2	0	[]
7869	5	1	8	60.0	2	0	[]
7879	3	2	8	60.0	2	0	[]
7880	49	6	8	60.0	2	1	[(2529, 1)]
7881	2	1	8	60.0	2	0	[]
7886	1	1	8	60.0	2	0	[]
7894	2	1	8	60.0	2	0	[]
7911	3	2	8	60.0	2	1	[(725, 2)]
7913	2	4	8	60.0	2	0	[]
7916	10	1	8	60.0	2	5	[(6925, 1), (4570, 0), (7178, 1), (3851, 0), (6496, 1)]
7917	2	1	8	60.0	2	0	[]
7921	2	2	8	60.0	2	0	[]
7926	2	2	8	60.0	2	0	[]
7941	1	1	2	60.0	2	0	[]
7943	2	1	3	60.0	2	0	[]
7947	4	1	8	60.0	2	0	[]
7949	1	1	8	60.0	2	0	[]
7951	2	1	8	60.0	2	0	[]
7957	13	5	8	60.0	2	0	[]
7959	7	6	8	60.0	2	5	[(4530, 0), (2708, 0), (3954, 0), (2488, 2), (278, 0)]
7961	3	1	8	60.0	2	0	[]
7962	3	1	8	60.0	2	0	[]
7970	30	1	8	40.0	2	3	[(8804, 2), (4210, 2), (8223, 2)]
7971	2	1	16	80.0	2	0	[]
7973	2	1	7	60.0	2	0	[]
7976	2	1	8	60.0	2	0	[]
7980	55	5	16	60.0	0	4	[(8115, 0), (6304, 0), (4210, 0), (456, 0)]
7983	1	1	1	60.0	2	0	[]
7989	1	4	8	60.0	2	0	[]
7992	4	1	8	60.0	2	0	[]
7998	81	1	8	60.0	0	13	[(2964, 0), (1483, 2), (725, 2), (4364, 2), (3636, 1), (1832, 1), (7248, 1), (6657, 2), (5120, 0), (6211, 1), (4429, 2), (7354, 2), (5438, 2)]
8001	1	1	6	60.0	2	0	[]
8005	8	4	8	60.0	2	0	[]
8006	4	6	8	60.0	2	0	[]
8008	1	4	8	60.0	2	0	[]
8014	10	1	8	60.0	2	6	[(9254, 0), (7368, 0), (8199, 0), (7341, 0), (3923, 2), (4071, 1)]
8015	2	1	8	60.0	2	0	[]
8018	1	1	8	60.0	2	0	[]
8020	1	3	8	60.0	2	0	[]
8024	1	1	5	60.0	2	0	[]
8030	2	1	2	60.0	2	0	[]
8033	4	2	8	60.0	2	0	[]
8035	2	1	8	60.0	2	0	[]
8037	2	1	8	60.0	2	0	[]
8039	1	1	1	60.0	2	0	[]
8050	1	1	1	60.0	2	0	[]
8054	1	1	8	60.0	2	0	[]
8055	2	2	8	60.0	2	0	[]
8059	2	4	8	60.0	2	0	[]
8066	1	2	8	60.0	2	0	[]
8069	43	6	8	40.0	2	3	[(7634, 1), (3751, 0), (456, 0)]
8070	4	1	8	60.0	2	0	[]
8071	1	1	2	60.0	2	0	[]
8072	4	1	8	60.0	2	0	[]
8078	1	1	8	60.0	2	0	[]
8079	1	2	8	60.0	2	0	[]
8080	2	1	8	60.0	2	1	[(1070, 2)]
8087	1	1	4	60.0	2	0	[]
8089	2	1	2	60.0	2	0	[]
8091	1	4	8	60.0	2	0	[]
8095	5	1	8	60.0	2	0	[]
8097	2	2	8	60.0	2	0	[]
8098	1	1	8	60.0	2	0	[]
8100	5	2	8	60.0	2	0	[]
8105	2	4	8	60.0	2	0	[]
8108	1	1	8	60.0	2	0	[]
8114	3	1	8	60.0	2	0	[]
8115	16	2	8	40.0	2	1	[(577, 0)]
8118	2	1	8	60.0	2	0	[]
8122	10	1	2	60.0	2	1	[(2788, 0)]
8130	1	1	8	60.0	2	0	[]
8138	100	6	8	60.0	2	6	[(1983, 0), (8223, 1), (3601, 2), (3048, 0), (147, 0), (6628, 0)]
8140	4	1	8	60.0	2	0	[]
8145	2	6	8	60.0	2	0	[]
8151	5	1	8	60.0	2	0	[]
8156	2	2	16	100.0	2	0	[]
8157	1	1	8	60.0	2	0	[]
8163	1	4	8	60.0	2	0	[]
8166	13	1	8	100.0	2	3	[(5551, 2), (2889, 1), (8748, 0)]
8170	4	1	8	60.0	2	0	[]
8175	1	1	8	500.0	2	0	[]
8181	1	1	8	60.0	2	0	[]
8184	1	1	8	60.0	2	0	[]
8189	1	1	8	60.0	2	0	[]
8190	2	2	8	60.0	2	0	[]
8192	1	3	3	60.0	2	0	[]
8194	18	2	8	60.0	2	0	[]
8199	16	2	2	40.0	2	0	[]
8205	2	1	8	60.0	2	0	[]
8206	2	1	8	60.0	2	0	[]
8207	3	1	8	60.0	2	0	[]
8223	130	24	32	80.0	0	3	[(3370, 0), (577, 0), (7443, 0)]
8227	2	1	8	60.0	2	0	[]
8237	4	2	8	60.0	2	0	[]
8238	12	1	8	60.0	2	0	[]
8242	8	5	8	60.0	2	1	[(7541, 0)]
8244	1	8	8	60.0	2	0	[]
8249	1	1	36	60.0	2	0	[]
8259	1	1	1	60.0	2	0	[]
8264	2	2	8	60.0	2	0	[]
8268	2	4	8	60.0	2	0	[]
8272	2	1	8	60.0	2	0	[]
8273	11	1	2	60.0	2	0	[]
8274	3	1	2	60.0	2	0	[]
8275	1	8	16	200.0	2	0	[]
8276	11	6	8	100.0	2	0	[]
8278	3	3	7	60.0	2	0	[]
8280	2	1	2	60.0	2	0	[]
8285	2	4	8	60.0	2	0	[]
8286	1	1	1	80.0	2	0	[]
8296	2	1	8	60.0	2	0	[]
8297	5	1	8	60.0	2	0	[]
8307	1	1	16	60.0	2	0	[]
8308	3	2	8	60.0	2	3	[(1906, 2), (5609, 1), (7319, 2)]
8312	42	4	8	40.0	1	2	[(737, 2), (3923, 2)]
8314	2	1	8	60.0	2	0	[]
8319	2	1	8	60.0	2	1	[(2125, 2)]
8325	2	4	8	60.0	2	0	[]
8327	2	1	8	60.0	2	0	[]
8344	2	1	8	60.0	2	0	[]
8345	2	1	8	60.0	2	0	[]
8348	2	1	8	60.0	2	0	[]
8352	2	1	6	60.0	2	0	[]
8353	4	1	3	60.0	2	0	[]
8359	1	1	8	60.0	2	0	[]
8376	2	1	8	60.0	2	0	[]
8379	4	2	8	60.0	2	0	[]
8385	2	5	8	60.0	2	1	[(7732, 0)]
8386	75	2	8	60.0	2	0	[]
8389	2	1	8	60.0	2	0	[]
8393	3	1	2	60.0	2	0	[]
8394	2	1	5	60.0	2	0	[]
8395	2	1	8	60.0	2	0	[]
8405	3	1	8	60.0	2	0	[]
8409	1	1	8	60.0	2	0	[]
8418	2	1	8	60.0	2	0	[]
8422	1	1	4	60.0	2	0	[]
8423	4	1	6	60.0	2	0	[]
8425	1	1	6	60.0	2	0	[]
8432	2	1	8	60.0	2	0	[]
8456	1	1	8	60.0	2	0	[]
8459	1	1	1	60.0	2	0	[]
8461	1	8	16	100.0	2	0	[]
8466	2	2	8	60.0	2	0	[]
8472	2	4	8	60.0	2	0	[]
8485	4	1	8	40.0	2	0	[]
8486	4	1	8	60.0	2	1	[(4531, 1)]
8487	2	1	8	60.0	2	0	[]
8494	3	1	8	60.0	2	0	[]
8498	17	1	8	60.0	2	0	[]
8512	2	2	8	60.0	2	0	[]
8524	18	5	8	60.0	2	0	[]
8534	2	1	8	60.0	2	0	[]
8536	8	6	8	60.0	2	4	[(190, 0), (6947, 0), (2441, 0), (7427, 0)]
8543	7	1	8	60.0	2	0	[]
8546	2	1	8	60.0	2	0	[]
8548	2	1	8	60.0	2	0	[]
8550	1	1	8	60.0	2	0	[]
8552	1	1	8	60.0	2	0	[]
8553	7	1	8	40.0	2	3	[(4231, 0), (281, 0), (577, 0)]
8554	128	6	8	60.0	0	4	[(6757, 0), (4480, 0), (3636, 0), (1187, 0)]
8555	3	6	8	60.0	2	0	[]
8556	8	1	8	60.0	2	2	[(3802, 0), (6710, 0)]
8563	2	4	8	60.0	2	0	[]
8564	4	4	8	60.0	2	1	[(7623, 2)]
8566	5	3	8	60.0	2	0	[]
8568	1	4	8	100.0	2	0	[]
8570	1	4	8	60.0	2	0	[]
8573	1	1	8	60.0	2	0	[]
8574	4	1	8	60.0	2	0	[]
8577	1	4	8	60.0	2	0	[]
8579	3	1	8	60.0	2	0	[]
8581	1	1	8	60.0	2	0	[]
8586	3	1	8	60.0	2	0	[]
8588	5	23	32	80.0	2	0	[]
8593	2	2	8	60.0	2	2	[(8554, 2), (4286, 2)]
8594	2	1	8	60.0	2	0	[]
8595	1	1	8	60.0	2	0	[]
8596	2	1	8	60.0	2	0	[]
8597	1	1	8	60.0	2	0	[]
8601	1	4	8	80.0	2	0	[]
8603	1	1	8	60.0	2	0	[]
8606	12	2	8	60.0	2	0	[]
8609	2	1	6	60.0	2	0	[]
8611	1	4	8	60.0	2	0	[]
8616	5	1	2	80.0	2	0	[]
8619	2	6	8	60.0	2	0	[]
8620	1	16	32	80.0	2	0	[]
8623	1	1	16	60.0	2	0	[]
8625	2	1	8	60.0	2	0	[]
8629	2	1	8	60.0	2	0	[]
8630	2	1	8	60.0	2	0	[]
8639	2	1	8	60.0	2	0	[]
8641	14	6	8	60.0	2	3	[(1284, 2), (1863, 0), (6133, 0)]
8649	2	1	2	60.0	2	0	[]
8654	1	1	8	60.0	2	0	[]
8661	2	1	8	60.0	2	0	[]
8665	1	1	3	60.0	2	0	[]
8666	1	1	16	60.0	2	0	[]
8670	2	1	8	60.0	2	0	[]
8671	7	1	8	60.0	2	0	[]
8675	2	4	8	60.0	2	0	[]
8680	12	1	8	60.0	2	0	[]
8681	2	1	8	60.0	2	0	[]
8685	2	1	8	60.0	2	0	[]
8687	2	1	8	60.0	2	0	[]
8689	1	1	8	60.0	2	0	[]
8691	2	4	8	60.0	2	0	[]
8694	1	1	2	60.0	2	0	[]
8695	11	1	8	100.0	2	1	[(147, 0)]
8698	18	3	8	40.0	2	0	[]
8699	1	1	8	60.0	2	0	[]
8705	3	2	8	60.0	2	0	[]
8709	5	1	8	60.0	2	0	[]
8713	8	1	4	60.0	2	0	[]
8714	1	4	8	60.0	2	0	[]
8717	44	6	8	60.0	2	0	[]
8719	4	1	7	60.0	2	0	[]
8720	2	1	8	60.0	2	0	[]
8727	1	1	8	60.0	2	0	[]
8734	3	2	8	60.0	2	0	[]
8736	11	2	8	60.0	2	0	[]
8737	2	1	8	60.0	2	0	[]
8741	3	4	8	60.0	2	0	[]
8742	3	1	8	60.0	2	0	[]
8748	2	1	8	60.0	2	0	[]
8751	1	1	8	60.0	2	0	[]
8752	1	1	8	60.0	2	0	[]
8753	2	1	6	60.0	2	0	[]
8755	2	1	8	60.0	2	0	[]
8761	3	4	8	60.0	2	1	[(8327, 1)]
8762	2	1	2	60.0	2	0	[]
8763	1	1	8	40.0	2	0	[]
8765	8	1	8	60.0	2	0	[]
8772	2	1	8	60.0	2	0	[]
8773	8	2	8	60.0	2	0	[]
8779	1	1	8	60.0	2	0	[]
8782	1	1	2	60.0	2	0	[]
8784	1	1	8	60.0	2	0	[]
8786	4	4	8	60.0	2	0	[]
8789	7	4	8	60.0	2	0	[]
8802	2	4	8	60.0	2	0	[]
8804	1	1	2	60.0	2	0	[]
8806	2	1	8	60.0	2	0	[]
8807	1	4	16	80.0	2	0	[]
8815	2	1	3	60.0	2	0	[]
8816	59	4	8	60.0	2	1	[(5798, 2)]
8818	25	2	8	60.0	2	1	[(5874, 1)]
8820	2	4	8	60.0	2	0	[]
8825	1	1	8	60.0	2	0	[]
8828	7	1	16	80.0	2	0	[]
8829	2	1	8	60.0	2	0	[]
8841	2	1	6	60.0	2	0	[]
8848	14	3	16	80.0	2	0	[]
8853	2	1	2	60.0	2	0	[]
8857	1	2	8	60.0	2	0	[]
8869	1	6	8	60.0	2	0	[]
8870	2	2	13	150.0	2	0	[]
8875	1	1	8	60.0	2	0	[]
8877	1	1	2	60.0	2	0	[]
8878	2	3	8	60.0	2	0	[]
8879	1	1	8	60.0	2	0	[]
8880	2	1	8	60.0	2	0	[]
8883	10	2	16	200.0	2	0	[]
8889	2	1	8	60.0	2	0	[]
8892	1	1	8	60.0	2	0	[]
8893	2	1	8	60.0	2	0	[]
8900	1	3	16	60.0	1	0	[]
8903	2	1	7	60.0	2	0	[]
8904	24	4	8	60.0	2	2	[(2701, 0), (5883, 0)]
8908	2	1	8	60.0	2	0	[]
8909	2	1	2	60.0	2	0	[]
8917	7	6	8	100.0	2	0	[]
8920	5	1	8	60.0	2	0	[]
8925	2	2	8	60.0	2	0	[]
8928	4	1	8	60.0	2	0	[]
8931	56	3	8	40.0	2	2	[(7394, 0), (8223, 1)]
8934	2	1	8	60.0	2	0	[]
8935	16	2	8	60.0	2	8	[(1863, 0), (3234, 0), (4974, 0), (13, 0), (4085, 0), (2889, 0), (2172, 0), (4424, 0)]
8936	2	1	8	60.0	2	4	[(3676, 1), (5557, 2), (1104, 1), (4318, 1)]
8939	3	1	8	60.0	2	0	[]
8941	2	2	8	60.0	2	0	[]
8946	6	2	8	60.0	2	0	[]
8953	8	1	8	60.0	2	0	[]
8959	2	1	8	60.0	2	1	[(5883, 0)]
8961	1	1	8	60.0	2	0	[]
8964	2	1	8	60.0	2	0	[]
8971	8	1	2	60.0	2	0	[]
8972	5	6	8	60.0	2	0	[]
8980	2	1	8	60.0	2	0	[]
8981	1	1	8	60.0	2	0	[]
8984	1	1	8	60.0	2	0	[]
8985	2	1	8	60.0	2	0	[]
8989	1	1	1	60.0	2	0	[]
8990	3	1	2	60.0	2	0	[]
8994	18	1	2	60.0	2	0	[]
8996	2	1	8	60.0	2	0	[]
8997	4	2	8	60.0	2	0	[]
8999	1	1	1	60.0	2	0	[]
9007	1	1	8	60.0	2	0	[]
9008	1	1	1	40.0	2	0	[]
9011	9	3	8	60.0	2	0	[]
9012	2	1	8	60.0	2	0	[]
9015	2	1	11	200.0	2	0	[]
9018	2	1	2	60.0	2	0	[]
9029	3	1	8	60.0	2	0	[]
9033	2	1	1	60.0	2	0	[]
9039	2	1	8	60.0	2	0	[]
9041	2	4	8	60.0	2	0	[]
9043	2	1	8	60.0	2	0	[]
9044	7	1	8	80.0	2	0	[]
9048	2	4	8	60.0	2	0	[]
9062	1	4	8	60.0	2	0	[]
9065	3	1	8	60.0	2	0	[]
9074	3	2	8	60.0	2	0	[]
9076	1	1	8	60.0	2	0	[]
9083	1	6	8	60.0	2	0	[]
9088	1	1	8	60.0	2	0	[]
9089	3	3	2	100.0	2	0	[]
9091	7	5	8	60.0	2	1	[(6482, 2)]
9104	1	1	2	60.0	2	0	[]
9108	10	1	8	60.0	2	0	[]
9114	2	2	8	60.0	2	0	[]
9126	1	4	8	60.0	2	0	[]
9132	4	1	16	80.0	2	0	[]
9133	8	1	1	60.0	2	0	[]
9135	1	2	3	60.0	2	0	[]
9136	5	1	8	60.0	2	0	[]
9142	2	1	8	60.0	2	0	[]
9154	1	1	8	60.0	2	0	[]
9166	9	1	2	60.0	2	0	[]
9167	2	1	8	60.0	2	0	[]
9169	1	1	8	60.0	2	0	[]
9174	9	2	8	60.0	2	2	[(5864, 0), (1195, 0)]
9176	7	1	16	60.0	2	0	[]
9179	2	1	8	60.0	2	0	[]
9192	7	1	8	60.0	2	0	[]
9195	2	1	2	60.0	2	0	[]
9198	1	2	16	60.0	0	0	[]
9202	2	1	8	60.0	2	0	[]
9211	2	1	8	60.0	2	0	[]
9219	5	3	8	60.0	2	0	[]
9222	2	1	7	60.0	2	0	[]
9225	1	1	7	60.0	2	0	[]
9228	42	4	8	40.0	2	5	[(4570, 0), (4231, 0), (3802, 0), (7394, 0), (6896, 0)]
9231	3	1	8	60.0	2	0	[]
9244	3	1	8	60.0	2	0	[]
9252	5	6	8	60.0	2	2	[(2578, 2), (8273, 0)]
9254	1	1	2	60.0	2	1	[(7368, 1)]
9257	4	2	8	60.0	2	0	[]
9263	1	4	8	60.0	2	0	[]
9272	3	1	8	60.0	2	0	[]
9273	4	2	8	60.0	2	0	[]
9276	4	3	16	100.0	2	0	[]
9278	2	4	8	60.0	2	0	[]
9281	2	1	8	60.0	2	0	[]
9283	103	6	8	60.0	2	11	[(3366, 0), (8098, 2), (4010, 0), (4611, 1), (1454, 1), (747, 1), (8889, 1), (7992, 1), (6980, 0), (344, 2), (7162, 2)]
9290	2	1	8	60.0	2	0	[]
9293	1	1	3	60.0	2	0	[]
9296	2	1	6	60.0	2	0	[]
9300	2	4	8	60.0	2	0	[]
9306	1	1	8	60.0	2	0	[]
9309	1	4	8	60.0	2	0	[]
9312	2	1	3	60.0	2	0	[]
9323	1	1	1	40.0	2	0	[]
9326	1	4	8	80.0	2	0	[]
9328	13	6	8	100.0	2	1	[(472, 0)]
