app_id	nb_instances	core	memory	disk	intra_value	inter_degree	inter_aff
2	1	1	8	60.0	2	0	[]
8	4	1	8	60.0	2	0	[]
12	2	1	8	60.0	2	0	[]
16	2	1	8	60.0	2	0	[]
18	6	1	8	60.0	2	0	[]
20	4	6	8	60.0	2	0	[]
21	4	1	7	60.0	2	0	[]
25	2	2	2	60.0	2	0	[]
26	4	1	16	40.0	2	0	[]
29	2	1	8	60.0	2	0	[]
33	1	1	8	60.0	2	0	[]
35	2	1	8	60.0	2	0	[]
44	2	1	8	60.0	2	0	[]
49	4	1	8	60.0	2	0	[]
51	2	1	8	60.0	2	0	[]
53	6	1	8	60.0	2	0	[]
54	3	1	8	60.0	2	0	[]
58	1	1	8	60.0	2	0	[]
60	10	4	8	60.0	2	9	[(2880, 1), (2129, 0), (2406, 0), (3997, 1), (3264, 1), (3911, 1), (4551, 0), (5856, 0), (2496, 0)]
61	2	1	2	60.0	2	0	[]
62	2	1	8	60.0	2	0	[]
66	3	4	8	60.0	2	0	[]
71	15	2	8	60.0	2	0	[]
72	1	1	1	60.0	2	0	[]
76	1	1	8	60.0	2	0	[]
78	2	1	8	60.0	2	0	[]
79	1	1	8	60.0	2	0	[]
81	2	1	2	60.0	2	0	[]
84	2	1	7	60.0	2	0	[]
86	2	1	8	60.0	2	2	[(4386, 2), (7401, 1)]
87	4	1	8	60.0	2	0	[]
89	1	1	8	60.0	2	0	[]
92	105	6	8	60.0	2	10	[(5851, 0), (3578, 2), (6659, 0), (9211, 1), (5449, 0), (4375, 2), (3023, 2), (7947, 0), (3445, 1), (682, 2)]
93	2	4	8	300.0	2	0	[]
99	1	1	8	60.0	2	0	[]
100	10	3	8	60.0	2	1	[(1589, 2)]
101	2	1	8	60.0	2	0	[]
102	1	1	8	60.0	2	0	[]
107	1	4	8	60.0	2	0	[]
111	2	1	8	60.0	2	0	[]
112	2	1	2	60.0	2	0	[]
119	1	2	2	60.0	2	1	[(4436, 2)]
120	7	1	8	60.0	2	0	[]
121	5	1	8	60.0	2	0	[]
124	1	1	8	60.0	2	0	[]
127	21	2	8	60.0	2	1	[(8291, 2)]
131	2	4	8	60.0	2	0	[]
134	1	1	7	60.0	2	0	[]
145	2	1	8	60.0	2	0	[]
155	2	1	8	60.0	2	0	[]
157	2	1	2	60.0	2	0	[]
161	1	1	8	60.0	2	0	[]
163	1	1	8	60.0	2	0	[]
173	4	1	2	60.0	2	0	[]
177	1	1	8	60.0	2	0	[]
182	6	1	8	60.0	2	2	[(4678, 0), (3170, 0)]
185	6	2	8	60.0	2	0	[]
186	2	1	8	60.0	2	0	[]
187	5	2	8	60.0	2	0	[]
189	1	1	8	60.0	2	0	[]
205	1	1	8	60.0	2	0	[]
211	3	1	8	60.0	2	0	[]
215	2	1	8	60.0	2	0	[]
218	1	1	8	60.0	2	0	[]
223	2	1	8	60.0	2	0	[]
224	5	3	8	60.0	2	0	[]
225	2	2	8	60.0	2	0	[]
226	10	4	8	60.0	2	25	[(7309, 0), (5097, 0), (1773, 0), (1024, 0), (6139, 0), (1728, 0), (6393, 0), (8287, 0), (4576, 0), (473, 0), (4517, 0), (4393, 0), (3865, 0), (8194, 0), (6161, 0), (7639, 0), (7498, 0), (1637, 0), (7270, 0), (8410, 0), (4471, 0), (4169, 0), (5684, 0), (4325, 0), (9145, 0)]
229	2	1	3	60.0	2	0	[]
232	17	5	8	60.0	2	1	[(8142, 2)]
233	1	1	8	60.0	2	2	[(276, 4), (6693, 4)]
238	37	3	8	80.0	0	8	[(6232, 2), (3108, 1), (5264, 0), (6659, 0), (473, 1), (6431, 1), (3526, 0), (9336, 0)]
239	1	1	8	60.0	2	0	[]
242	3	1	5	60.0	2	0	[]
243	2	1	5	60.0	2	0	[]
244	4	3	8	60.0	2	0	[]
245	2	1	8	60.0	2	0	[]
248	8	8	16	500.0	2	1	[(9145, 2)]
257	1	3	8	60.0	2	0	[]
263	2	1	8	60.0	2	0	[]
267	2	1	8	60.0	2	0	[]
269	6	1	8	60.0	2	0	[]
276	1	5	8	60.0	3	2	[(233, 3), (5879, 3)]
281	8	3	8	40.0	2	4	[(5366, 0), (7309, 0), (1637, 0), (6659, 0)]
282	1	1	8	60.0	2	0	[]
284	2	1	1	60.0	2	0	[]
290	103	3	8	60.0	2	6	[(6659, 0), (3108, 2), (7414, 2), (4871, 1), (3201, 1), (7738, 0)]
296	2	1	8	60.0	2	0	[]
299	2	1	2	60.0	2	0	[]
300	2	2	8	60.0	2	0	[]
303	5	1	8	60.0	2	0	[]
305	3	1	8	60.0	2	0	[]
308	2	1	2	60.0	2	0	[]
309	2	1	8	60.0	2	0	[]
314	1	6	8	60.0	2	0	[]
315	1	1	2	60.0	2	0	[]
317	6	2	8	60.0	2	0	[]
319	1	1	8	60.0	2	0	[]
320	3	1	8	60.0	2	0	[]
333	1	1	8	60.0	2	0	[]
335	2	1	1	60.0	2	0	[]
336	2	1	8	60.0	2	0	[]
341	12	1	8	60.0	2	5	[(2767, 1), (473, 1), (6139, 0), (6659, 0), (9145, 2)]
342	2	6	8	60.0	2	0	[]
350	7	3	8	60.0	2	0	[]
353	2	1	8	60.0	2	0	[]
354	6	1	8	60.0	2	1	[(6659, 0)]
357	8	1	8	60.0	2	0	[]
363	1	1	8	60.0	2	0	[]
378	2	1	8	60.0	2	0	[]
381	1	1	8	60.0	2	0	[]
388	3	1	1	60.0	2	0	[]
390	2	2	8	60.0	2	0	[]
395	1	4	8	60.0	2	0	[]
398	2	1	1	60.0	2	0	[]
402	3	1	8	60.0	2	0	[]
406	2	4	8	60.0	2	0	[]
413	3	1	8	60.0	2	0	[]
418	5	2	8	60.0	2	0	[]
428	3	5	16	200.0	2	0	[]
435	25	1	8	80.0	2	0	[]
449	15	3	16	60.0	1	2	[(3108, 2), (1728, 2)]
452	3	3	8	80.0	2	0	[]
457	3	1	8	60.0	2	0	[]
458	2	1	8	60.0	2	0	[]
459	13	1	8	60.0	2	3	[(121, 0), (6377, 0), (725, 0)]
462	1	2	32	80.0	2	0	[]
465	3	1	8	60.0	2	1	[(6659, 0)]
467	4	1	8	60.0	2	0	[]
469	2	1	2	200.0	2	0	[]
471	1	1	8	60.0	2	0	[]
472	2	1	8	60.0	2	0	[]
473	77	3	8	40.0	0	4	[(6659, 0), (5942, 2), (1062, 1), (7229, 0)]
475	1	1	3	60.0	2	0	[]
477	1	1	8	60.0	2	0	[]
480	3	3	8	60.0	2	1	[(7222, 0)]
484	5	1	8	60.0	2	0	[]
485	3	1	8	60.0	2	0	[]
486	2	1	6	60.0	2	0	[]
489	2	1	8	60.0	2	0	[]
491	35	1	8	60.0	2	2	[(6659, 0), (3383, 1)]
493	6	1	8	60.0	2	0	[]
496	6	1	8	60.0	2	0	[]
497	1	1	5	60.0	2	0	[]
498	2	1	8	60.0	2	0	[]
507	3	2	8	60.0	2	0	[]
513	11	2	8	60.0	2	0	[]
514	5	1	8	80.0	2	0	[]
522	2	1	2	60.0	2	0	[]
528	2	1	8	60.0	2	0	[]
530	1	1	8	60.0	2	0	[]
533	15	1	8	60.0	2	1	[(1046, 1)]
539	2	1	8	60.0	2	0	[]
542	1	1	8	60.0	2	0	[]
552	4	1	8	60.0	2	0	[]
561	2	1	8	60.0	2	0	[]
564	2	1	8	60.0	2	0	[]
573	3	1	8	60.0	2	0	[]
576	2	1	2	60.0	2	0	[]
580	30	2	8	60.0	2	1	[(4988, 2)]
581	1	1	2	60.0	2	0	[]
583	2	4	16	80.0	2	0	[]
588	2	5	2	60.0	2	0	[]
591	1	1	2	60.0	2	0	[]
592	1	16	32	200.0	2	0	[]
594	2	1	8	60.0	2	0	[]
597	3	1	8	60.0	2	0	[]
600	1	1	8	60.0	2	0	[]
602	3	1	8	60.0	2	0	[]
611	3	1	8	60.0	2	1	[(707, 1)]
612	4	5	8	60.0	2	0	[]
618	53	2	8	60.0	2	4	[(4998, 2), (7426, 0), (290, 2), (4996, 2)]
622	1	1	8	60.0	2	0	[]
624	1	4	8	60.0	2	0	[]
627	1	2	8	60.0	2	0	[]
636	95	1	8	60.0	2	9	[(2892, 1), (7998, 0), (7100, 2), (4890, 2), (6220, 2), (5064, 0), (7785, 2), (5747, 2), (1309, 0)]
637	1	1	32	200.0	0	0	[]
638	13	3	8	60.0	2	0	[]
656	2	12	8	60.0	2	0	[]
662	2	1	8	60.0	2	0	[]
665	1	4	8	60.0	2	0	[]
666	23	11	16	100.0	2	5	[(8669, 1), (6892, 1), (4346, 1), (1982, 1), (1643, 1)]
672	1	1	2	60.0	2	0	[]
674	5	1	8	60.0	2	1	[(7725, 1)]
676	1	1	8	60.0	2	0	[]
678	1	1	8	60.0	2	0	[]
679	1	1	8	60.0	2	0	[]
682	5	1	8	60.0	2	0	[]
683	2	12	8	60.0	2	0	[]
689	5	6	8	60.0	2	0	[]
691	1	1	6	60.0	2	0	[]
692	4	1	8	60.0	2	0	[]
697	2	1	8	60.0	2	0	[]
698	1	1	2	80.0	2	0	[]
701	41	4	16	60.0	2	7	[(1993, 2), (4682, 0), (4015, 0), (8717, 0), (4060, 1), (2191, 1), (5747, 0)]
702	58	3	8	40.0	2	5	[(3108, 2), (1728, 0), (2462, 1), (7516, 1), (6659, 0)]
707	7	1	8	60.0	2	1	[(611, 0)]
708	2	6	8	60.0	2	0	[]
709	3	4	8	60.0	2	2	[(1222, 0), (5449, 2)]
714	1	1	8	60.0	2	0	[]
715	4	1	8	60.0	2	0	[]
721	1	1	8	60.0	2	0	[]
723	1	1	2	60.0	2	0	[]
724	2	1	8	60.0	2	0	[]
725	25	1	8	60.0	2	4	[(5747, 0), (3619, 0), (8433, 0), (8435, 0)]
726	135	6	8	60.0	2	32	[(6819, 1), (1195, 0), (6566, 0), (5830, 1), (4006, 1), (6949, 0), (576, 1), (3720, 0), (16, 2), (7895, 1), (1078, 0), (5559, 1), (1735, 0), (5616, 2), (7631, 2), (8192, 2), (4900, 1), (2862, 2), (8824, 1), (5638, 0), (5530, 1), (7337, 2), (3262, 1), (2347, 0), (8022, 0), (8600, 0), (4669, 2), (627, 0), (2819, 0), (7777, 2), (8338, 0), (1270, 0)]
727	3	1	8	80.0	2	0	[]
733	2	1	8	60.0	2	0	[]
736	37	4	8	60.0	2	0	[]
737	10	5	32	60.0	2	11	[(3368, 1), (6061, 1), (2739, 1), (1741, 2), (4471, 0), (5684, 0), (1637, 0), (4014, 2), (8106, 0), (6034, 2), (1850, 0)]
742	1	1	1	60.0	2	0	[]
755	6	12	16	60.0	2	0	[]
756	23	2	8	60.0	2	2	[(1059, 2), (708, 1)]
765	2	2	16	40.0	2	0	[]
768	6	2	8	60.0	2	0	[]
770	1	1	8	60.0	2	0	[]
781	2	3	8	60.0	2	0	[]
783	1	1	8	60.0	2	0	[]
787	2	1	8	60.0	2	0	[]
794	1	32	96	300.0	2	0	[]
795	6	4	16	100.0	2	0	[]
799	2	1	8	60.0	2	0	[]
802	1	4	8	60.0	2	0	[]
805	1	1	8	60.0	2	0	[]
807	6	1	8	60.0	2	0	[]
808	6	4	8	60.0	2	0	[]
809	1	1	8	60.0	2	0	[]
816	2	1	8	60.0	2	0	[]
827	3	1	8	60.0	2	0	[]
828	1	1	8	60.0	2	0	[]
830	2	1	8	60.0	2	0	[]
832	6	1	8	60.0	2	3	[(6683, 1), (9145, 2), (7309, 2)]
833	3	1	8	60.0	2	0	[]
844	3	1	8	60.0	2	0	[]
845	3	1	8	60.0	2	0	[]
847	2	5	8	60.0	2	0	[]
848	2	1	8	60.0	2	0	[]
852	3	2	8	60.0	2	0	[]
853	10	1	8	60.0	2	1	[(6659, 0)]
858	2	1	8	60.0	2	0	[]
859	12	3	16	80.0	2	1	[(4325, 1)]
870	2	4	8	60.0	2	0	[]
872	1	1	8	60.0	2	0	[]
876	4	1	8	60.0	2	0	[]
879	1	1	8	60.0	2	0	[]
881	1	1	4	60.0	2	0	[]
882	1	4	8	60.0	2	0	[]
885	1	1	8	60.0	2	0	[]
892	1	1	8	60.0	2	0	[]
896	1	1	3	200.0	2	0	[]
899	2	1	8	60.0	2	0	[]
900	1	8	16	60.0	1	0	[]
901	5	2	8	60.0	2	0	[]
907	1	1	8	60.0	2	0	[]
913	5	1	8	60.0	2	0	[]
915	2	4	8	60.0	2	0	[]
921	6	2	8	60.0	2	0	[]
924	4	1	8	60.0	2	0	[]
929	2	1	8	60.0	2	0	[]
938	50	1	8	80.0	2	0	[]
945	21	1	8	60.0	2	2	[(3108, 2), (7414, 2)]
951	1	1	8	60.0	2	0	[]
955	2	1	8	60.0	2	0	[]
956	2	1	8	60.0	2	0	[]
970	4	1	8	60.0	2	0	[]
975	20	36	48	300.0	2	0	[]
976	2	1	2	60.0	2	0	[]
977	2	1	3	60.0	2	0	[]
979	2	4	8	60.0	2	0	[]
981	2	1	8	80.0	2	0	[]
982	2	1	8	60.0	2	0	[]
985	2	1	4	60.0	2	0	[]
989	11	2	8	60.0	2	0	[]
992	1	4	8	60.0	2	0	[]
1003	1	1	8	60.0	2	0	[]
1004	3	1	8	60.0	2	0	[]
1008	4	1	8	60.0	2	0	[]
1012	7	1	8	60.0	2	0	[]
1014	3	1	8	60.0	2	6	[(3711, 0), (2138, 0), (7452, 0), (7262, 0), (4045, 0), (3558, 0)]
1020	3	1	8	60.0	2	0	[]
1022	2	1	8	60.0	2	0	[]
1024	123	5	10	60.0	1	7	[(6659, 0), (5942, 0), (1059, 2), (4642, 0), (8842, 0), (6485, 1), (3183, 0)]
1028	1	1	1	60.0	2	0	[]
1034	2	1	8	60.0	2	1	[(8669, 1)]
1044	6	3	8	60.0	2	0	[]
1045	19	3	8	60.0	2	5	[(4085, 0), (6417, 1), (3366, 0), (5035, 0), (484, 0)]
1046	44	4	32	100.0	2	0	[]
1047	1	1	1	60.0	2	0	[]
1052	1	1	8	60.0	2	0	[]
1056	1	1	2	60.0	2	0	[]
1057	4	1	8	60.0	2	0	[]
1059	31	6	8	60.0	2	1	[(6659, 0)]
1061	1	1	8	60.0	2	0	[]
1062	1	2	8	60.0	2	1	[(473, 2)]
1064	1	1	8	60.0	2	0	[]
1067	50	4	8	40.0	2	4	[(1637, 0), (4667, 0), (5490, 0), (1728, 0)]
1070	4	1	2	60.0	2	0	[]
1071	23	2	10	60.0	1	0	[]
1074	1	1	2	60.0	2	0	[]
1078	2	1	8	60.0	2	0	[]
1079	1	1	1	60.0	2	0	[]
1081	1	1	1	60.0	2	0	[]
1083	5	2	8	60.0	2	0	[]
1088	1	4	8	60.0	2	0	[]
1092	1	1	8	60.0	2	0	[]
1093	3	1	8	60.0	2	0	[]
1094	1	4	8	60.0	2	0	[]
1095	1	1	8	60.0	2	0	[]
1096	15	2	8	60.0	2	0	[]
1102	2	1	8	60.0	2	0	[]
1103	2	1	8	60.0	2	0	[]
1108	2	1	8	60.0	2	0	[]
1110	5	2	8	60.0	2	0	[]
1114	1	4	8	60.0	0	0	[]
1117	2	1	8	60.0	2	0	[]
1120	2	1	2	60.0	2	0	[]
1129	2	1	8	60.0	2	0	[]
1132	1	4	8	60.0	2	0	[]
1133	1	1	8	60.0	2	0	[]
1143	3	1	7	60.0	2	0	[]
1157	2	1	8	60.0	2	0	[]
1162	2	1	8	60.0	2	0	[]
1163	11	3	8	60.0	2	1	[(3022, 0)]
1171	1	1	8	60.0	2	0	[]
1172	3	1	8	60.0	2	0	[]
1173	53	3	8	60.0	2	5	[(4179, 0), (5862, 2), (4471, 1), (6622, 2), (6659, 0)]
1178	10	2	8	60.0	2	0	[]
1181	1	1	8	60.0	2	0	[]
1182	5	2	8	60.0	2	0	[]
1187	2	1	8	60.0	2	0	[]
1191	2	1	8	60.0	2	0	[]
1193	2	1	8	60.0	2	0	[]
1194	3	1	8	60.0	2	0	[]
1195	98	5	8	60.0	2	5	[(4163, 2), (6659, 0), (5367, 1), (8271, 2), (4909, 0)]
1200	2	1	8	60.0	2	0	[]
1202	1	1	8	60.0	2	0	[]
1208	2	1	8	60.0	2	0	[]
1211	1	1	5	60.0	2	0	[]
1214	2	1	8	60.0	2	0	[]
1219	1	1	8	60.0	2	0	[]
1220	2	1	8	60.0	2	0	[]
1222	397	7	16	60.0	0	2	[(8842, 0), (6659, 0)]
1223	1	1	8	60.0	2	0	[]
1226	2	2	2	60.0	2	0	[]
1229	12	2	8	60.0	2	4	[(3108, 0), (4169, 0), (4471, 2), (5264, 0)]
1230	1	4	8	60.0	2	0	[]
1232	3	1	8	60.0	2	0	[]
1234	2	1	8	60.0	2	0	[]
1235	6	2	8	60.0	2	0	[]
1237	5	1	8	60.0	2	0	[]
1242	1	1	8	60.0	2	0	[]
1244	2	1	8	60.0	2	0	[]
1250	1	1	8	60.0	2	0	[]
1259	21	4	8	60.0	2	1	[(6659, 0)]
1264	1	4	8	60.0	2	0	[]
1268	2	1	8	60.0	2	0	[]
1269	1	1	8	60.0	2	0	[]
1270	3	1	3	60.0	2	0	[]
1271	2	4	8	60.0	2	0	[]
1272	4	1	8	60.0	2	0	[]
1275	3	6	8	60.0	2	0	[]
1282	1	1	1	60.0	2	0	[]
1284	2	1	8	60.0	2	0	[]
1286	1	1	8	60.0	2	0	[]
1294	8	1	8	60.0	2	1	[(6659, 0)]
1296	12	1	8	60.0	2	2	[(9091, 1), (8816, 1)]
1299	1	1	3	60.0	2	0	[]
1308	2	1	8	60.0	2	0	[]
1309	2	1	2	60.0	2	0	[]
1316	1	5	8	60.0	2	0	[]
1322	4	4	8	60.0	2	0	[]
1332	1	1	1	60.0	2	2	[(6817, 0), (2895, 1)]
1333	10	1	8	60.0	2	0	[]
1340	1	1	1	60.0	2	0	[]
1341	1	1	7	60.0	2	0	[]
1347	2	1	1	60.0	2	0	[]
1348	15	3	8	60.0	2	0	[]
1352	4	3	8	60.0	2	0	[]
1362	7	6	16	80.0	2	1	[(3183, 2)]
1363	1	1	8	60.0	2	0	[]
1365	8	1	8	60.0	2	0	[]
1367	17	5	8	60.0	2	1	[(1235, 2)]
1370	1	4	16	80.0	2	0	[]
1373	7	3	7	60.0	2	0	[]
1376	2	4	8	60.0	2	0	[]
1378	2	2	32	60.0	2	7	[(3368, 1), (6061, 1), (2739, 1), (1741, 2), (1637, 1), (4014, 2), (6034, 2)]
1383	2	1	8	60.0	2	0	[]
1384	1	1	8	60.0	2	0	[]
1387	2	1	3	60.0	2	0	[]
1390	1	1	8	60.0	2	0	[]
1394	2	4	8	60.0	2	0	[]
1397	1	1	8	60.0	2	0	[]
1398	2	1	8	60.0	2	0	[]
1399	2	2	8	60.0	2	0	[]
1402	4	1	8	60.0	2	0	[]
1404	1	1	26	300.0	2	0	[]
1411	1	1	16	60.0	2	0	[]
1413	2	1	8	60.0	2	0	[]
1414	13	3	8	60.0	2	2	[(472, 0), (3987, 1)]
1415	2	1	8	60.0	2	0	[]
1419	3	2	2	100.0	2	0	[]
1422	1	2	16	100.0	2	0	[]
1423	2	1	1	60.0	2	0	[]
1427	6	2	8	60.0	2	1	[(3220, 1)]
1437	95	6	8	60.0	2	34	[(5842, 0), (4785, 1), (4862, 1), (4393, 1), (8719, 0), (2633, 0), (7401, 2), (9324, 2), (1200, 0), (9259, 1), (8648, 2), (2998, 1), (5132, 1), (5449, 0), (9327, 1), (1178, 0), (413, 1), (4328, 0), (6610, 2), (9185, 0), (6760, 1), (6916, 0), (885, 2), (6253, 1), (6520, 1), (5103, 2), (6485, 0), (2300, 0), (6639, 2), (5222, 1), (4730, 0), (5983, 0), (6444, 0), (1309, 0)]
1438	8	2	8	60.0	2	0	[]
1439	1	1	2	60.0	2	0	[]
1445	1	2	6	60.0	2	0	[]
1452	3	5	8	60.0	2	0	[]
1453	1	1	5	60.0	2	0	[]
1454	3	1	8	60.0	2	0	[]
1455	18	6	8	60.0	2	1	[(6659, 0)]
1458	3	4	8	60.0	2	0	[]
1459	4	2	8	60.0	2	0	[]
1462	1	1	8	60.0	2	0	[]
1467	1	4	8	60.0	2	0	[]
1469	3	1	8	60.0	2	0	[]
1471	1	1	8	60.0	2	0	[]
1472	1	1	8	60.0	2	0	[]
1473	3	1	16	60.0	2	0	[]
1476	2	1	8	60.0	2	0	[]
1477	1	1	8	60.0	2	0	[]
1484	2	1	8	60.0	2	0	[]
1487	2	1	1	60.0	2	0	[]
1493	1	4	8	60.0	2	0	[]
1498	2	1	8	60.0	2	0	[]
1499	2	1	8	60.0	2	0	[]
1503	12	3	16	60.0	2	0	[]
1512	1	1	4	60.0	2	0	[]
1513	1	1	8	60.0	2	0	[]
1516	2	1	8	60.0	2	0	[]
1517	1	1	8	60.0	2	0	[]
1538	2	1	8	60.0	2	0	[]
1539	2	1	8	60.0	2	0	[]
1540	4	1	8	60.0	2	0	[]
1556	1	1	8	60.0	2	0	[]
1560	2	1	28	80.0	2	0	[]
1561	5	1	8	60.0	2	0	[]
1562	2	1	8	100.0	2	0	[]
1563	2	2	8	60.0	2	0	[]
1568	1	4	16	80.0	2	0	[]
1570	2	1	7	60.0	2	0	[]
1572	2	1	8	60.0	2	0	[]
1579	45	6	8	60.0	2	0	[]
1581	1	1	1	60.0	2	0	[]
1588	2	4	8	60.0	2	0	[]
1589	5	1	8	60.0	2	0	[]
1590	2	1	6	60.0	2	0	[]
1600	1	1	8	60.0	2	0	[]
1603	1	2	8	100.0	2	0	[]
1605	2	1	8	60.0	2	0	[]
1606	2	2	32	60.0	2	7	[(3368, 1), (6061, 1), (2739, 1), (1741, 2), (1637, 1), (4014, 2), (6034, 2)]
1611	1	1	6	60.0	2	0	[]
1612	2	1	8	60.0	2	0	[]
1616	5	1	8	60.0	2	0	[]
1618	3	1	8	60.0	2	0	[]
1627	2	1	8	60.0	2	0	[]
1632	1	4	8	60.0	2	0	[]
1633	1	1	8	60.0	2	0	[]
1635	52	2	8	60.0	2	1	[(6559, 0)]
1636	1	1	8	60.0	2	0	[]
1637	137	24	60	60.0	2	14	[(3367, 2), (7716, 2), (6061, 1), (6659, 0), (1741, 2), (2049, 2), (1606, 0), (4014, 2), (1378, 2), (4037, 2), (6034, 2), (3270, 2), (737, 2), (6683, 2)]
1643	4	2	8	60.0	2	0	[]
1644	15	2	8	60.0	2	0	[]
1654	7	16	32	200.0	2	0	[]
1655	1	4	8	60.0	2	0	[]
1657	3	6	8	60.0	2	0	[]
1669	1	1	8	60.0	2	0	[]
1672	1	4	8	60.0	2	1	[(6659, 0)]
1673	8	4	8	60.0	2	0	[]
1678	1	1	8	100.0	2	0	[]
1679	2	1	8	60.0	2	0	[]
1684	2	1	8	60.0	2	0	[]
1688	2	3	8	60.0	2	0	[]
1696	1	2	8	60.0	2	0	[]
1699	2	1	8	60.0	2	0	[]
1701	1	1	8	60.0	2	0	[]
1702	1	1	8	60.0	2	0	[]
1707	2	1	8	60.0	2	0	[]
1717	1	4	8	60.0	2	0	[]
1719	1	1	8	60.0	2	0	[]
1721	2	4	8	60.0	2	0	[]
1722	8	1	8	60.0	2	0	[]
1728	139	6	8	60.0	0	6	[(6659, 0), (4667, 0), (5239, 0), (702, 0), (1851, 0), (6250, 0)]
1729	7	1	8	60.0	2	0	[]
1734	5	5	8	60.0	2	0	[]
1735	4	2	8	60.0	2	1	[(7126, 1)]
1740	4	1	8	60.0	2	3	[(3108, 1), (7414, 0), (4576, 1)]
1741	1	2	16	60.0	1	15	[(3368, 2), (3367, 2), (7716, 2), (6061, 1), (2049, 2), (1606, 2), (1637, 2), (4014, 2), (2739, 2), (1378, 2), (4037, 2), (6034, 2), (3270, 2), (737, 2), (6683, 2)]
1742	11	1	8	60.0	2	0	[]
1743	2	1	8	60.0	2	0	[]
1752	2	1	8	60.0	2	0	[]
1754	2	1	8	60.0	2	0	[]
1757	6	2	16	80.0	2	0	[]
1759	2	1	8	60.0	2	0	[]
1760	7	4	8	60.0	2	0	[]
1768	3	1	8	60.0	2	0	[]
1769	1	2	8	60.0	2	0	[]
1770	6	3	8	60.0	2	0	[]
1771	2	3	8	60.0	2	1	[(7321, 2)]
1773	11	5	2	60.0	2	0	[]
1782	14	2	16	60.0	2	0	[]
1786	11	5	8	60.0	2	1	[(1728, 0)]
1787	2	4	8	60.0	2	0	[]
1790	4	2	8	60.0	2	0	[]
1803	2	1	8	60.0	2	0	[]
1806	1	1	2	60.0	2	0	[]
1807	1	1	8	60.0	2	0	[]
1808	2	4	16	80.0	2	0	[]
1809	1	1	8	60.0	2	0	[]
1816	2	1	8	60.0	2	0	[]
1831	2	1	1	60.0	2	0	[]
1837	6	1	3	60.0	2	0	[]
1840	3	1	8	60.0	2	0	[]
1841	4	1	8	60.0	2	0	[]
1846	1	4	8	60.0	2	0	[]
1847	1	8	8	60.0	2	0	[]
1848	5	3	8	60.0	2	2	[(1024, 2), (3183, 0)]
1850	1	2	10	40.0	2	0	[]
1851	2	1	8	60.0	2	0	[]
1853	5	1	8	60.0	2	0	[]
1856	2	1	8	60.0	2	0	[]
1862	2	1	8	60.0	2	0	[]
1864	4	5	8	60.0	2	0	[]
1866	2	1	2	60.0	2	0	[]
1880	2	1	4	60.0	2	0	[]
1886	2	1	5	60.0	2	0	[]
1887	11	1	8	40.0	2	0	[]
1890	2	1	2	60.0	2	0	[]
1893	3	1	8	60.0	2	0	[]
1897	1	1	8	60.0	2	0	[]
1901	4	1	8	60.0	2	0	[]
1907	1	1	8	60.0	2	0	[]
1912	2	1	2	60.0	2	0	[]
1918	3	1	1	60.0	2	0	[]
1920	1	1	2	60.0	2	0	[]
1925	1	1	8	60.0	2	0	[]
1926	1	1	8	60.0	2	0	[]
1929	7	4	16	60.0	2	0	[]
1936	5	6	8	40.0	2	0	[]
1937	2	5	8	60.0	2	0	[]
1938	2	1	8	60.0	2	1	[(6659, 0)]
1940	3	1	8	60.0	2	0	[]
1941	3	1	12	80.0	2	0	[]
1946	3	3	4	200.0	2	0	[]
1948	2	1	8	60.0	2	0	[]
1949	17	3	8	60.0	2	0	[]
1951	1	1	2	60.0	2	0	[]
1961	2	1	8	60.0	2	0	[]
1966	1	4	8	60.0	2	0	[]
1967	2	4	16	80.0	2	0	[]
1968	2	1	8	60.0	2	0	[]
1970	1	1	8	60.0	2	0	[]
1972	14	12	16	60.0	2	0	[]
1976	3	1	8	60.0	2	0	[]
1980	2	1	8	60.0	2	0	[]
1982	4	5	8	60.0	2	0	[]
1985	1	2	8	60.0	2	0	[]
1986	2	4	8	60.0	2	0	[]
1992	1	4	8	60.0	2	0	[]
1993	6	3	8	60.0	2	0	[]
1995	1	1	1	60.0	2	0	[]
2001	1	1	4	60.0	2	0	[]
2010	2	1	2	60.0	2	0	[]
2017	2	1	8	60.0	2	0	[]
2018	3	2	8	80.0	2	0	[]
2021	1	1	2	60.0	2	0	[]
2022	7	16	96	300.0	2	0	[]
2023	2	2	8	60.0	2	0	[]
2025	1	4	8	60.0	2	0	[]
2028	1	8	16	60.0	2	0	[]
2030	4	1	8	60.0	2	0	[]
2035	2	1	8	60.0	2	0	[]
2036	1	1	8	60.0	2	0	[]
2037	5	4	8	60.0	2	2	[(2129, 2), (4551, 2)]
2041	2	1	8	60.0	2	0	[]
2045	2	1	8	60.0	2	0	[]
2049	1	3	32	60.0	2	7	[(3368, 1), (6061, 1), (2739, 1), (1741, 2), (1637, 1), (4014, 2), (6034, 2)]
2053	4	1	8	60.0	2	0	[]
2054	12	5	8	60.0	2	1	[(3108, 1)]
2058	3	1	2	200.0	2	0	[]
2059	2	1	2	60.0	2	0	[]
2060	1	3	8	60.0	2	0	[]
2067	3	1	8	60.0	2	0	[]
2069	1	1	1	60.0	2	0	[]
2075	1	1	8	60.0	2	0	[]
2078	9	7	16	100.0	2	1	[(6659, 0)]
2080	1	4	8	60.0	2	0	[]
2081	1	6	2	60.0	2	0	[]
2085	1	1	8	60.0	2	0	[]
2087	1	1	2	60.0	2	0	[]
2088	2	1	8	60.0	2	0	[]
2092	1	2	8	60.0	2	0	[]
2094	4	1	8	100.0	2	0	[]
2100	2	1	1	60.0	2	0	[]
2103	2	1	8	60.0	2	0	[]
2104	4	1	8	60.0	2	0	[]
2105	1	1	8	60.0	2	0	[]
2111	9	2	8	60.0	2	1	[(5757, 2)]
2117	2	2	8	60.0	2	0	[]
2118	1	1	6	60.0	2	0	[]
2119	1	1	2	80.0	2	0	[]
2125	12	6	8	60.0	2	0	[]
2129	38	6	16	60.0	0	1	[(7426, 0)]
2131	2	1	8	60.0	2	0	[]
2137	1	1	8	60.0	2	0	[]
2138	4	1	8	60.0	2	6	[(3711, 0), (7452, 0), (7262, 0), (4045, 0), (3558, 0), (1014, 0)]
2140	7	1	8	60.0	2	0	[]
2143	24	1	8	60.0	2	1	[(6659, 0)]
2145	11	1	2	60.0	2	1	[(924, 0)]
2146	2	1	8	60.0	2	0	[]
2149	1	1	8	60.0	2	0	[]
2151	1	1	8	60.0	2	0	[]
2159	1	1	16	80.0	2	0	[]
2163	2	1	8	60.0	2	0	[]
2164	1	1	8	60.0	2	0	[]
2165	2	1	8	60.0	2	0	[]
2176	2	1	2	60.0	2	0	[]
2181	1	1	8	60.0	2	0	[]
2190	1	1	1	60.0	2	0	[]
2191	1	2	8	60.0	2	0	[]
2192	3	1	16	60.0	2	0	[]
2195	3	1	8	60.0	2	0	[]
2200	6	4	3	60.0	2	0	[]
2201	2	2	8	60.0	2	0	[]
2208	1	1	8	60.0	2	0	[]
2210	1	1	8	60.0	2	0	[]
2211	3	1	5	60.0	2	0	[]
2215	3	1	8	60.0	2	0	[]
2218	2	1	8	167.0	2	0	[]
2219	2	1	8	60.0	2	0	[]
2221	2	1	8	60.0	2	0	[]
2222	1	5	8	60.0	2	0	[]
2230	1	1	7	60.0	2	0	[]
2231	17	2	8	60.0	2	1	[(61, 2)]
2241	3	1	8	60.0	2	0	[]
2243	2	1	8	60.0	2	0	[]
2245	3	4	8	60.0	2	0	[]
2246	10	1	8	60.0	2	0	[]
2247	1	1	8	60.0	2	0	[]
2251	5	2	8	60.0	2	0	[]
2261	2	3	8	60.0	2	0	[]
2265	2	1	8	60.0	2	0	[]
2266	2	1	8	60.0	2	0	[]
2268	2	1	8	60.0	2	0	[]
2270	2	3	8	60.0	2	0	[]
2272	24	2	8	40.0	1	3	[(5366, 0), (3108, 1), (6659, 0)]
2279	2	1	8	60.0	2	0	[]
2283	1	1	4	60.0	2	0	[]
2288	1	1	8	60.0	2	0	[]
2292	16	1	16	80.0	2	0	[]
2300	6	2	8	60.0	2	0	[]
2301	2	1	8	60.0	2	0	[]
2309	6	1	8	40.0	2	1	[(8287, 1)]
2313	1	1	8	60.0	2	0	[]
2314	1	4	8	60.0	2	0	[]
2317	5	3	2	650.0	2	0	[]
2319	50	1	8	60.0	2	0	[]
2320	1	4	8	60.0	2	0	[]
2323	1	1	1	60.0	2	0	[]
2327	1	1	2	60.0	2	0	[]
2333	2	12	16	80.0	2	0	[]
2334	1	4	8	80.0	2	0	[]
2338	3	1	8	60.0	2	0	[]
2341	4	1	8	60.0	2	0	[]
2343	2	1	8	60.0	2	0	[]
2345	4	4	8	60.0	2	0	[]
2347	3	1	8	60.0	2	0	[]
2350	2	1	8	60.0	2	0	[]
2351	2	4	8	60.0	2	0	[]
2352	2	1	8	60.0	2	0	[]
2357	2	1	8	60.0	2	0	[]
2367	1	4	16	80.0	2	0	[]
2369	1	4	8	60.0	2	0	[]
2372	1	1	8	60.0	2	0	[]
2380	1	1	8	60.0	2	0	[]
2388	1	4	8	60.0	2	0	[]
2389	1	4	8	60.0	2	0	[]
2396	1	1	1	60.0	2	0	[]
2401	1	4	8	60.0	2	0	[]
2406	1	8	16	80.0	2	0	[]
2407	1	1	4	60.0	2	0	[]
2414	2	1	8	60.0	2	0	[]
2418	2	1	8	60.0	2	0	[]
2421	2	1	6	60.0	2	0	[]
2428	3	1	8	60.0	2	0	[]
2431	3	4	8	60.0	2	0	[]
2433	4	6	8	60.0	2	0	[]
2441	4	2	8	60.0	2	0	[]
2445	4	1	8	60.0	2	0	[]
2452	5	4	8	60.0	2	0	[]
2461	5	1	8	60.0	2	0	[]
2462	5	3	8	60.0	2	0	[]
2467	6	2	8	60.0	2	0	[]
2468	6	2	8	60.0	2	0	[]
2470	6	4	8	60.0	2	0	[]
2474	6	12	16	100.0	2	0	[]
2475	6	1	8	60.0	2	0	[]
2478	16	1	8	60.0	2	2	[(4728, 0), (484, 0)]
2483	27	1	8	60.0	2	4	[(471, 0), (2868, 2), (8959, 2), (6541, 1)]
2484	28	1	2	60.0	2	0	[]
2489	14	2	8	60.0	2	3	[(2484, 0), (2701, 0), (7290, 0)]
2493	10	3	8	60.0	2	0	[]
2496	10	4	8	100.0	2	10	[(2568, 0), (60, 1), (4551, 0), (9011, 1), (4980, 0), (4677, 1), (2129, 0), (2742, 1), (7748, 0), (1454, 1)]
2500	10	1	16	60.0	2	1	[(8842, 2)]
2501	9	2	8	60.0	2	0	[]
2505	9	1	8	60.0	2	0	[]
2516	3	3	8	60.0	2	0	[]
2517	3	1	8	60.0	2	0	[]
2519	3	4	8	60.0	2	0	[]
2520	3	4	8	60.0	2	0	[]
2521	3	4	8	60.0	2	0	[]
2524	2	5	8	60.0	2	0	[]
2525	2	1	8	60.0	2	0	[]
2526	2	1	2	60.0	2	0	[]
2531	2	1	10	80.0	2	0	[]
2538	2	1	2	60.0	2	0	[]
2540	2	1	1	80.0	2	0	[]
2542	2	1	1	60.0	2	0	[]
2543	2	1	16	60.0	2	0	[]
2544	2	1	8	60.0	2	0	[]
2551	2	1	8	60.0	2	0	[]
2556	2	1	1	60.0	2	0	[]
2557	2	1	8	60.0	2	0	[]
2558	2	1	8	60.0	2	0	[]
2561	2	1	16	80.0	2	0	[]
2565	2	4	16	80.0	2	0	[]
2566	2	2	8	60.0	2	0	[]
2568	2	1	1	60.0	2	4	[(2496, 0), (6295, 0), (2129, 0), (1454, 0)]
2575	2	1	8	60.0	2	0	[]
2577	2	1	1	60.0	2	0	[]
2584	2	1	8	60.0	2	0	[]
2589	3	1	8	60.0	2	0	[]
2593	29	6	8	60.0	2	46	[(6235, 0), (5264, 0), (290, 0), (3397, 0), (1222, 0), (5449, 2), (2751, 0), (1786, 0), (3422, 0), (5441, 0), (6393, 0), (8499, 0), (6710, 0), (7414, 0), (9145, 0), (618, 0), (2668, 0), (4173, 0), (4175, 0), (6025, 0), (4393, 0), (6139, 0), (7229, 0), (281, 0), (8716, 0), (2483, 0), (1067, 0), (7768, 0), (5929, 0), (4190, 0), (3619, 0), (4754, 0), (9207, 0), (6232, 0), (4471, 0), (2017, 0), (7468, 0), (8842, 0), (8324, 0), (2767, 0), (3873, 0), (5112, 0), (4169, 0), (5684, 0), (6444, 2), (8194, 0)]
2601	2	1	8	60.0	2	0	[]
2604	1	1	8	60.0	2	0	[]
2607	4	2	8	60.0	2	0	[]
2611	3	1	8	60.0	2	0	[]
2613	8	1	8	60.0	2	0	[]
2615	1	1	2	60.0	2	0	[]
2622	5	1	8	60.0	2	0	[]
2630	5	2	8	60.0	2	0	[]
2633	2	1	8	60.0	2	0	[]
2638	1	1	8	60.0	2	0	[]
2645	1	1	8	60.0	2	0	[]
2646	3	3	8	100.0	2	0	[]
2650	3	2	8	60.0	2	0	[]
2651	8	5	8	60.0	2	0	[]
2662	1	1	8	40.0	0	0	[]
2668	114	6	2	60.0	2	4	[(3624, 1), (7768, 0), (6659, 0), (8333, 0)]
2669	2	1	8	60.0	2	0	[]
2673	2	1	8	60.0	2	0	[]
2675	2	2	8	60.0	2	0	[]
2680	11	2	8	60.0	2	0	[]
2681	1	4	8	60.0	2	0	[]
2683	2	1	8	60.0	2	0	[]
2684	1	1	7	60.0	2	0	[]
2693	9	1	8	60.0	2	0	[]
2695	4	1	32	80.0	2	0	[]
2696	21	6	8	60.0	2	5	[(5747, 0), (8260, 0), (2191, 1), (4015, 0), (1643, 0)]
2701	27	4	7	60.0	2	3	[(2165, 1), (2489, 1), (7290, 0)]
2703	4	1	8	60.0	2	0	[]
2707	2	4	8	60.0	2	0	[]
2711	1	1	8	60.0	2	0	[]
2723	2	1	8	40.0	2	0	[]
2730	1	1	8	60.0	2	0	[]
2731	7	36	48	300.0	2	3	[(737, 0), (6659, 0), (4801, 0)]
2737	2	2	32	80.0	2	0	[]
2739	1	1	60	60.0	2	13	[(3367, 2), (7716, 2), (6061, 1), (1741, 2), (2049, 2), (1606, 2), (4014, 2), (1378, 2), (4037, 2), (6034, 2), (3270, 2), (737, 2), (6683, 2)]
2742	15	4	8	40.0	2	2	[(1059, 2), (4858, 2)]
2743	1	1	8	60.0	2	0	[]
2744	2	1	8	60.0	2	0	[]
2750	1	1	16	80.0	2	0	[]
2751	16	5	2	60.0	2	1	[(6659, 0)]
2753	1	1	8	60.0	2	0	[]
2755	3	1	8	60.0	2	0	[]
2756	1	4	8	60.0	2	0	[]
2763	3	3	8	60.0	2	0	[]
2767	275	6	8	60.0	2	3	[(8888, 0), (6659, 0), (6161, 2)]
2768	1	1	1	60.0	2	0	[]
2769	6	2	8	40.0	2	0	[]
2771	2	1	8	60.0	2	0	[]
2784	4	1	2	60.0	2	0	[]
2786	2	4	8	60.0	2	0	[]
2788	11	1	10	180.0	2	15	[(121, 0), (4405, 0), (1948, 0), (1172, 0), (2731, 0), (242, 0), (3379, 0), (3797, 0), (5559, 0), (4194, 0), (2845, 0), (8122, 0), (4653, 0), (2452, 0), (3184, 0)]
2792	2	1	8	60.0	2	0	[]
2793	1	1	8	40.0	2	0	[]
2795	1	4	8	60.0	2	0	[]
2799	2	1	8	60.0	2	0	[]
2801	1	1	2	60.0	2	0	[]
2804	2	1	8	60.0	2	0	[]
2806	2	1	8	60.0	2	1	[(6659, 0)]
2811	1	1	8	60.0	2	0	[]
2815	60	1	8	60.0	2	1	[(6659, 0)]
2819	4	2	8	60.0	2	0	[]
2822	2	3	8	80.0	2	0	[]
2828	4	1	8	60.0	2	0	[]
2833	2	1	8	60.0	2	0	[]
2839	10	6	8	60.0	2	0	[]
2840	2	1	4	60.0	2	0	[]
2844	7	2	16	100.0	2	0	[]
2845	4	1	8	60.0	2	0	[]
2855	1	1	8	60.0	2	0	[]
2856	4	1	8	60.0	2	0	[]
2862	2	1	8	60.0	2	0	[]
2865	1	1	8	60.0	2	0	[]
2868	1	1	8	60.0	2	0	[]
2872	4	1	8	60.0	2	0	[]
2874	98	3	3	60.0	2	7	[(257, 0), (7426, 0), (6557, 0), (7907, 0), (7916, 0), (4695, 0), (8002, 1)]
2879	1	2	16	60.0	2	0	[]
2880	6	4	8	60.0	2	0	[]
2882	1	4	8	80.0	2	0	[]
2883	4	1	8	60.0	2	0	[]
2884	2	1	8	60.0	2	0	[]
2885	1	1	8	60.0	2	0	[]
2890	2	3	8	60.0	2	0	[]
2892	18	1	8	60.0	2	0	[]
2895	8	1	8	60.0	2	0	[]
2902	2	1	7	60.0	2	0	[]
2913	17	2	8	60.0	2	1	[(8812, 2)]
2914	3	4	8	60.0	2	0	[]
2919	1	1	8	60.0	2	0	[]
2923	1	1	8	60.0	2	0	[]
2927	1	2	8	60.0	2	0	[]
2930	2	1	1	60.0	2	0	[]
2934	1	1	8	60.0	2	0	[]
2942	13	2	8	60.0	2	1	[(1742, 1)]
2943	1	1	8	60.0	2	0	[]
2946	2	2	16	100.0	2	0	[]
2948	1	1	1	60.0	2	0	[]
2951	1	1	8	60.0	2	0	[]
2952	5	1	8	60.0	2	0	[]
2955	2	4	8	60.0	2	0	[]
2959	2	1	8	60.0	2	0	[]
2962	6	6	2	60.0	2	0	[]
2963	2	6	16	80.0	2	0	[]
2968	1	4	8	60.0	2	0	[]
2971	1	1	8	100.0	2	0	[]
2975	1	1	8	60.0	2	0	[]
2982	2	2	8	60.0	2	0	[]
2992	1	1	2	60.0	2	0	[]
2995	1	1	8	60.0	2	0	[]
2998	16	2	8	60.0	2	0	[]
2999	1	1	16	40.0	2	0	[]
3001	14	1	8	60.0	2	1	[(6659, 0)]
3008	5	1	8	60.0	2	0	[]
3016	1	1	8	60.0	2	0	[]
3018	2	1	2	60.0	2	0	[]
3022	3	2	8	60.0	2	0	[]
3023	6	4	8	60.0	2	0	[]
3030	2	1	8	60.0	2	0	[]
3033	11	4	8	80.0	2	0	[]
3036	6	3	8	60.0	2	1	[(5757, 1)]
3040	1	4	8	60.0	2	0	[]
3041	9	3	8	60.0	2	2	[(6659, 0), (8824, 2)]
3047	5	1	8	60.0	2	0	[]
3061	1	1	8	60.0	2	0	[]
3065	2	1	1	60.0	2	0	[]
3071	2	1	8	60.0	2	0	[]
3072	1	1	8	60.0	2	0	[]
3075	2	1	8	60.0	2	0	[]
3084	2	1	8	60.0	2	0	[]
3087	18	1	8	60.0	2	0	[]
3089	2	2	16	80.0	2	0	[]
3091	40	5	8	60.0	2	0	[]
3094	2	1	1	60.0	2	0	[]
3096	7	1	8	60.0	2	0	[]
3097	9	3	8	60.0	2	0	[]
3099	1	1	8	60.0	2	0	[]
3102	1	1	8	60.0	2	0	[]
3104	3	2	8	60.0	2	0	[]
3108	63	8	16	60.0	2	2	[(6659, 0), (4014, 0)]
3118	2	1	8	60.0	2	0	[]
3129	1	1	4	60.0	2	0	[]
3142	1	1	2	60.0	2	0	[]
3146	3	1	8	60.0	2	0	[]
3154	1	1	8	60.0	2	0	[]
3155	2	1	8	60.0	2	0	[]
3161	2	1	8	60.0	2	0	[]
3170	3	1	8	60.0	2	0	[]
3175	1	2	16	60.0	2	0	[]
3177	2	1	8	80.0	2	0	[]
3182	9	6	8	60.0	2	0	[]
3183	200	12	16	100.0	2	6	[(6009, 2), (5127, 0), (5278, 0), (3578, 1), (6659, 0), (7026, 0)]
3184	1	1	8	60.0	2	0	[]
3200	2	1	8	60.0	2	0	[]
3201	2	3	16	60.0	0	0	[]
3209	2	3	8	60.0	2	0	[]
3214	1	1	8	60.0	2	0	[]
3218	3	1	8	60.0	2	0	[]
3220	14	2	3	60.0	2	1	[(726, 2)]
3222	4	1	8	80.0	2	1	[(2767, 2)]
3237	1	1	6	180.0	2	0	[]
3243	2	1	8	60.0	2	0	[]
3249	3	1	8	60.0	2	0	[]
3251	3	1	8	300.0	2	0	[]
3257	1	1	5	60.0	2	0	[]
3260	15	4	8	60.0	2	4	[(5220, 0), (4996, 2), (8717, 0), (435, 0)]
3262	2	1	1	60.0	2	0	[]
3264	1	3	8	60.0	2	0	[]
3265	2	2	8	60.0	2	0	[]
3267	1	1	16	60.0	2	0	[]
3269	1	1	8	60.0	2	0	[]
3270	5	1	32	60.0	2	7	[(3368, 1), (6061, 1), (2739, 1), (1741, 2), (1637, 1), (4014, 2), (6034, 2)]
3273	2	2	7	60.0	2	0	[]
3277	2	1	8	60.0	2	0	[]
3279	3	1	7	60.0	2	0	[]
3289	2	2	8	60.0	2	0	[]
3298	1	4	8	60.0	2	0	[]
3307	6	1	8	60.0	2	0	[]
3308	1	1	2	60.0	2	0	[]
3309	1	4	8	60.0	2	0	[]
3314	12	3	8	60.0	2	0	[]
3319	3	1	8	60.0	2	0	[]
3322	2	2	8	60.0	2	0	[]
3324	1	6	16	200.0	2	0	[]
3329	2	2	8	60.0	2	3	[(6226, 0), (6551, 0), (1754, 0)]
3330	1	1	8	60.0	2	0	[]
3333	4	1	8	60.0	2	0	[]
3344	35	4	8	60.0	2	4	[(2462, 1), (4234, 0), (435, 0), (3510, 2)]
3346	4	1	8	60.0	2	0	[]
3354	4	2	8	60.0	2	0	[]
3360	3	1	8	60.0	2	0	[]
3362	1	1	3	60.0	2	0	[]
3365	1	1	1	60.0	2	0	[]
3366	5	1	8	60.0	2	0	[]
3367	2	1	32	60.0	2	7	[(3368, 1), (6061, 1), (2739, 1), (1741, 2), (1637, 1), (4014, 2), (6034, 2)]
3368	3	9	60	60.0	2	13	[(3367, 2), (7716, 2), (6061, 1), (1741, 2), (2049, 2), (1606, 2), (4014, 2), (1378, 2), (4037, 2), (6034, 2), (3270, 2), (737, 2), (6683, 2)]
3369	1	1	8	60.0	2	0	[]
3379	3	1	8	60.0	2	0	[]
3383	4	4	6	60.0	2	0	[]
3389	5	3	16	80.0	2	0	[]
3393	1	1	1	60.0	2	0	[]
3396	1	1	5	60.0	2	0	[]
3397	22	12	16	100.0	2	0	[]
3400	4	1	8	60.0	2	0	[]
3404	1	1	8	60.0	2	0	[]
3408	4	2	8	60.0	2	0	[]
3416	3	1	8	60.0	2	0	[]
3418	1	1	7	60.0	2	0	[]
3419	1	1	4	60.0	2	0	[]
3422	4	1	8	60.0	2	0	[]
3423	2	4	8	60.0	2	0	[]
3424	2	1	2	100.0	2	0	[]
3426	30	5	8	60.0	2	1	[(2357, 0)]
3433	1	1	2	60.0	2	0	[]
3436	1	1	8	60.0	2	0	[]
3437	2	2	8	60.0	2	0	[]
3439	1	1	8	60.0	2	0	[]
3444	2	1	2	60.0	2	0	[]
3445	3	1	8	60.0	2	0	[]
3447	1	3	8	60.0	2	0	[]
3451	2	1	8	60.0	2	1	[(8731, 0)]
3459	5	1	8	60.0	2	0	[]
3460	2	1	8	40.0	2	0	[]
3466	2	1	8	60.0	2	1	[(6659, 0)]
3468	4	1	1	60.0	2	0	[]
3471	1	1	2	60.0	2	0	[]
3476	4	1	8	60.0	2	0	[]
3477	1	1	2	60.0	2	0	[]
3482	9	5	16	60.0	0	1	[(6659, 0)]
3483	2	1	8	60.0	2	0	[]
3488	1	1	8	60.0	2	0	[]
3510	2	1	8	60.0	2	0	[]
3513	5	2	8	60.0	2	2	[(6267, 0), (702, 2)]
3514	1	1	2	60.0	2	0	[]
3523	6	2	8	60.0	2	1	[(2517, 2)]
3526	63	6	8	60.0	2	3	[(2129, 0), (6659, 0), (5060, 0)]
3528	1	1	8	60.0	2	0	[]
3533	1	1	2	60.0	2	0	[]
3534	34	2	8	60.0	2	5	[(4085, 0), (107, 0), (6442, 0), (2668, 0), (2129, 1)]
3538	2	4	8	60.0	2	0	[]
3539	4	1	2	60.0	2	0	[]
3540	6	2	8	60.0	2	0	[]
3541	2	1	8	60.0	2	0	[]
3542	46	3	8	60.0	2	0	[]
3549	1	4	8	60.0	2	0	[]
3553	3	1	1	60.0	2	0	[]
3555	60	3	8	60.0	2	16	[(8235, 2), (4156, 2), (3277, 1), (5757, 1), (4127, 2), (807, 2), (7174, 1), (7828, 1), (2902, 1), (7251, 0), (3445, 0), (4311, 1), (6178, 2), (7934, 2), (2844, 1), (4806, 2)]
3558	1	1	4	60.0	2	0	[]
3559	1	1	8	60.0	2	0	[]
3565	45	2	8	60.0	2	11	[(7337, 1), (5044, 2), (3366, 0), (5061, 2), (5757, 2), (9131, 1), (484, 0), (7080, 2), (6417, 1), (5638, 2), (622, 1)]
3568	2	4	8	60.0	2	0	[]
3575	1	1	2	60.0	2	0	[]
3578	2	1	8	60.0	2	0	[]
3592	4	1	8	60.0	2	0	[]
3595	47	11	16	60.0	0	3	[(2246, 0), (7261, 0), (1637, 0)]
3598	2	2	2	60.0	2	0	[]
3601	1	1	2	60.0	2	0	[]
3602	3	1	8	60.0	2	0	[]
3606	2	2	8	60.0	2	0	[]
3610	1	4	8	60.0	2	0	[]
3611	16	1	8	60.0	2	1	[(6021, 0)]
3615	2	1	8	60.0	2	0	[]
3616	2	1	8	60.0	2	0	[]
3617	5	2	8	80.0	2	1	[(6659, 0)]
3619	4	1	8	60.0	2	0	[]
3624	16	2	8	100.0	2	1	[(120, 0)]
3626	1	1	2	60.0	2	0	[]
3627	4	1	8	60.0	2	0	[]
3628	55	2	8	60.0	2	5	[(3108, 1), (6683, 2), (6622, 1), (6659, 0), (3383, 0)]
3629	4	1	8	60.0	2	0	[]
3633	15	1	2	100.0	2	0	[]
3642	1	1	8	60.0	2	0	[]
3645	5	1	8	60.0	2	0	[]
3646	1	1	1	60.0	2	0	[]
3648	2	4	8	60.0	2	0	[]
3652	4	6	8	60.0	2	0	[]
3666	5	1	4	60.0	2	0	[]
3668	3	1	8	60.0	2	0	[]
3674	2	1	8	60.0	2	0	[]
3677	1	5	8	60.0	2	3	[(6486, 0), (3965, 0), (507, 0)]
3679	2	1	8	60.0	2	0	[]
3681	1	1	8	60.0	2	0	[]
3683	4	7	8	60.0	2	0	[]
3689	2	1	8	60.0	2	0	[]
3690	1	4	8	60.0	2	0	[]
3692	7	24	32	200.0	2	2	[(7426, 0), (1024, 0)]
3696	2	1	7	60.0	2	0	[]
3697	1	1	8	60.0	2	0	[]
3704	7	1	8	60.0	2	0	[]
3711	2	3	3	60.0	2	0	[]
3720	8	1	8	60.0	2	0	[]
3723	1	4	8	60.0	2	0	[]
3725	1	1	8	80.0	2	0	[]
3729	15	2	8	60.0	2	0	[]
3732	1	1	2	60.0	2	0	[]
3733	1	2	8	60.0	2	0	[]
3735	1	1	2	60.0	2	0	[]
3744	1	4	8	60.0	2	0	[]
3745	4	3	8	60.0	2	1	[(4522, 2)]
3747	18	1	8	60.0	2	10	[(4454, 2), (8500, 1), (3904, 0), (6940, 1), (7506, 2), (3952, 1), (6729, 2), (5490, 1), (6474, 1), (4781, 1)]
3752	1	4	8	60.0	2	0	[]
3754	2	1	8	60.0	2	0	[]
3758	2	4	8	60.0	2	0	[]
3760	1	1	8	60.0	2	0	[]
3762	2	1	2	60.0	2	0	[]
3763	1	1	8	60.0	2	0	[]
3764	2	4	8	60.0	2	0	[]
3765	13	2	8	60.0	2	0	[]
3767	1	4	8	60.0	2	0	[]
3773	3	1	8	60.0	2	0	[]
3777	1	1	1	60.0	2	0	[]
3786	4	2	8	60.0	2	0	[]
3790	2	1	8	60.0	2	0	[]
3792	2	1	8	80.0	2	1	[(3997, 2)]
3795	2	1	2	60.0	2	0	[]
3797	2	1	2	60.0	2	0	[]
3801	4	1	8	60.0	2	1	[(6659, 0)]
3812	1	1	8	60.0	2	0	[]
3813	10	6	8	250.0	2	0	[]
3819	2	1	8	60.0	2	0	[]
3828	1	1	1	60.0	2	0	[]
3830	3	1	8	60.0	2	0	[]
3832	1	1	8	60.0	2	0	[]
3834	3	1	1	60.0	2	1	[(3988, 1)]
3837	1	1	8	40.0	2	0	[]
3839	15	2	8	60.0	2	0	[]
3843	3	1	8	80.0	2	0	[]
3846	4	1	8	60.0	2	0	[]
3856	2	2	8	60.0	2	0	[]
3857	2	1	8	60.0	2	0	[]
3860	3	1	8	60.0	2	0	[]
3863	1	1	8	60.0	2	0	[]
3865	2	1	8	40.0	2	0	[]
3866	9	2	2	60.0	2	1	[(4939, 2)]
3872	1	24	48	300.0	2	0	[]
3873	13	2	8	40.0	2	1	[(5490, 0)]
3878	6	1	8	60.0	2	0	[]
3885	14	4	8	60.0	2	0	[]
3886	47	21	32	200.0	0	4	[(6659, 0), (5958, 2), (2143, 0), (4667, 0)]
3887	1	4	8	60.0	2	0	[]
3888	4	1	16	100.0	2	0	[]
3896	2	4	8	60.0	2	0	[]
3897	1	1	1	60.0	2	0	[]
3900	1	1	8	60.0	2	0	[]
3903	2	1	8	60.0	2	0	[]
3904	3	1	8	60.0	2	0	[]
3905	21	1	8	60.0	2	1	[(737, 2)]
3910	1	2	16	60.0	2	0	[]
3911	2	1	8	60.0	2	0	[]
3916	3	4	8	60.0	2	0	[]
3917	2	1	8	60.0	2	0	[]
3937	2	2	8	60.0	2	0	[]
3946	1	2	8	60.0	2	0	[]
3949	2	1	2	60.0	2	0	[]
3952	35	3	8	60.0	2	7	[(1759, 1), (5669, 2), (6474, 2), (6276, 1), (303, 2), (9145, 1), (4996, 1)]
3954	3	1	8	60.0	2	0	[]
3965	2	1	8	80.0	2	0	[]
3967	1	4	8	60.0	2	0	[]
3971	1	1	8	60.0	2	0	[]
3979	19	1	8	60.0	2	2	[(9333, 0), (244, 0)]
3986	2	1	8	60.0	2	1	[(6659, 0)]
3987	26	2	8	40.0	0	5	[(8716, 0), (8842, 0), (6659, 0), (3482, 2), (1741, 2)]
3988	10	1	8	60.0	2	2	[(3987, 0), (2143, 0)]
3991	2	1	3	60.0	2	0	[]
3996	1	1	8	60.0	2	0	[]
3997	7	6	8	60.0	2	0	[]
4000	2	1	2	60.0	2	0	[]
4002	4	2	8	80.0	2	4	[(357, 1), (4230, 1), (7907, 0), (5512, 1)]
4003	2	1	5	60.0	2	0	[]
4006	1	1	1	60.0	2	0	[]
4014	1	2	32	100.0	2	15	[(3368, 1), (6061, 1), (3367, 2), (7716, 2), (2739, 1), (4037, 2), (1741, 2), (2049, 2), (1606, 2), (1637, 1), (6034, 2), (1378, 2), (3270, 2), (737, 2), (6683, 2)]
4015	2	1	8	60.0	2	0	[]
4019	1	1	3	60.0	2	0	[]
4026	11	3	8	60.0	2	69	[(7892, 1), (6468, 1), (6806, 0), (1384, 1), (7825, 1), (4874, 1), (5747, 1), (727, 1), (8102, 0), (8248, 1), (9035, 2), (5956, 1), (4157, 1), (4858, 1), (5781, 2), (8035, 2), (2613, 1), (2902, 1), (3752, 1), (1635, 2), (9324, 1), (7471, 1), (3846, 1), (6651, 2), (2478, 2), (5323, 1), (5083, 1), (3023, 2), (6162, 2), (1946, 2), (8717, 2), (1743, 1), (3792, 0), (1949, 1), (497, 0), (78, 1), (921, 1), (6187, 1), (2279, 0), (8549, 1), (9131, 1), (8781, 2), (876, 1), (2622, 1), (7682, 1), (2221, 1), (924, 1), (3523, 0), (9285, 1), (3652, 1), (2982, 1), (9172, 2), (9011, 0), (5731, 2), (1484, 1), (2347, 1), (8531, 1), (3251, 1), (736, 1), (8216, 1), (7895, 1), (2556, 1), (4206, 1), (7921, 1), (7052, 1), (1045, 1), (1721, 0), (5373, 1), (3182, 1)]
4028	2	2	8	60.0	2	0	[]
4032	3	1	16	60.0	2	0	[]
4034	9	6	8	60.0	2	6	[(388, 0), (4375, 1), (2231, 2), (1163, 1), (3214, 0), (1309, 0)]
4037	1	2	32	60.0	2	7	[(3368, 1), (6061, 1), (2739, 1), (1741, 2), (1637, 1), (4014, 2), (6034, 2)]
4045	7	6	8	60.0	2	6	[(3711, 0), (2138, 0), (7452, 0), (7262, 0), (3558, 0), (1014, 0)]
4052	2	4	8	60.0	2	0	[]
4055	7	1	8	60.0	2	0	[]
4060	3	1	8	60.0	2	0	[]
4066	2	1	1	60.0	2	0	[]
4068	26	2	8	60.0	2	0	[]
4075	7	2	8	60.0	2	0	[]
4077	4	2	8	60.0	2	0	[]
4081	1	1	8	60.0	2	0	[]
4085	84	2	2	60.0	2	22	[(707, 1), (9035, 2), (6892, 2), (3366, 0), (3534, 0), (6442, 0), (6417, 1), (484, 0), (8378, 1), (4728, 1), (3602, 0), (2483, 2), (6520, 0), (1862, 0), (390, 0), (5101, 1), (4505, 0), (5553, 1), (5378, 2), (4574, 1), (5064, 0), (2069, 0)]
4086	6	3	8	60.0	2	0	[]
4089	2	1	8	60.0	2	0	[]
4106	2	1	8	60.0	2	0	[]
4107	5	2	8	80.0	2	0	[]
4108	6	2	8	60.0	2	0	[]
4111	2	4	8	60.0	2	0	[]
4121	3	1	8	60.0	2	0	[]
4124	1	1	8	60.0	2	0	[]
4127	1	1	2	60.0	2	0	[]
4134	2	1	8	60.0	2	0	[]
4136	2	1	3	60.0	2	0	[]
4139	1	1	1	60.0	2	0	[]
4143	4	12	16	60.0	2	0	[]
4150	3	5	8	500.0	2	0	[]
4154	18	6	2	100.0	2	3	[(3183, 0), (6663, 0), (7763, 0)]
4156	2	1	8	60.0	2	0	[]
4157	2	1	6	60.0	2	0	[]
4159	2	1	8	60.0	2	0	[]
4162	4	1	8	60.0	2	0	[]
4163	1	1	8	60.0	2	0	[]
4166	1	1	8	60.0	2	0	[]
4169	82	4	10	40.0	2	8	[(4517, 0), (6659, 0), (3886, 0), (8842, 0), (7261, 0), (4325, 2), (1229, 0), (8324, 0)]
4172	4	1	2	60.0	2	0	[]
4173	2	2	8	60.0	2	0	[]
4175	20	6	8	80.0	2	5	[(6683, 0), (3595, 0), (2272, 0), (3629, 0), (6710, 0)]
4179	1	1	8	60.0	2	0	[]
4183	4	4	8	80.0	2	0	[]
4189	2	2	8	60.0	2	0	[]
4190	23	12	16	60.0	1	2	[(1637, 0), (7426, 0)]
4194	4	1	8	60.0	2	0	[]
4196	1	4	8	60.0	2	0	[]
4200	1	1	1	60.0	2	0	[]
4203	1	7	60	60.0	0	0	[]
4204	1	4	8	60.0	2	0	[]
4206	4	1	8	60.0	2	0	[]
4207	2	1	8	60.0	2	0	[]
4211	3	3	8	60.0	2	0	[]
4213	2	1	8	60.0	2	0	[]
4216	1	3	8	60.0	2	0	[]
4222	3	2	8	60.0	2	0	[]
4230	1	1	8	60.0	2	0	[]
4233	1	1	2	60.0	2	0	[]
4234	13	6	8	60.0	2	0	[]
4235	2	1	8	60.0	2	0	[]
4237	1	1	2	60.0	2	0	[]
4238	1	1	8	40.0	2	0	[]
4245	1	1	8	60.0	2	0	[]
4251	1	1	8	60.0	2	0	[]
4255	1	1	8	60.0	2	0	[]
4257	3	1	2	60.0	2	1	[(7768, 0)]
4259	32	5	8	100.0	2	3	[(4794, 2), (2129, 2), (7886, 1)]
4263	3	3	8	60.0	2	0	[]
4269	4	4	8	60.0	2	0	[]
4271	2	1	8	60.0	2	0	[]
4273	1	1	2	60.0	2	0	[]
4282	7	5	32	200.0	2	1	[(1637, 0)]
4296	2	2	16	80.0	2	0	[]
4298	2	1	8	60.0	2	0	[]
4303	1	1	16	60.0	2	0	[]
4305	1	4	8	60.0	2	0	[]
4307	2	1	8	60.0	2	0	[]
4308	2	24	48	300.0	2	0	[]
4311	3	1	8	60.0	2	0	[]
4313	1	1	8	60.0	2	0	[]
4314	1	1	2	60.0	2	0	[]
4322	3	4	8	60.0	2	0	[]
4323	2	1	8	60.0	2	0	[]
4325	5	1	8	60.0	2	0	[]
4326	1	1	8	60.0	2	0	[]
4328	1	4	8	60.0	2	0	[]
4336	1	4	8	80.0	2	0	[]
4340	2	6	8	60.0	2	0	[]
4342	2	4	8	60.0	2	0	[]
4343	1	1	2	60.0	2	0	[]
4346	3	1	8	60.0	2	0	[]
4350	3	1	8	60.0	2	0	[]
4355	2	1	8	60.0	2	0	[]
4357	2	3	16	60.0	0	1	[(7639, 1)]
4361	3	1	8	60.0	2	0	[]
4363	1	1	1	60.0	2	0	[]
4372	2	1	8	60.0	2	0	[]
4373	6	12	16	60.0	2	0	[]
4374	1	4	8	60.0	2	0	[]
4375	3	1	8	60.0	2	0	[]
4376	10	3	8	60.0	0	8	[(3565, 0), (7995, 0), (3595, 0), (8774, 0), (4085, 0), (5825, 0), (20, 0), (3001, 0)]
4377	2	1	2	60.0	2	0	[]
4386	69	2	8	60.0	2	13	[(7309, 2), (8027, 2), (1589, 0), (6659, 0), (6722, 2), (945, 1), (3987, 0), (2129, 2), (4576, 2), (9013, 2), (4311, 2), (3408, 2), (2489, 1)]
4388	2	2	8	100.0	2	0	[]
4393	67	4	8	80.0	2	2	[(9010, 0), (6838, 0)]
4396	2	1	1	60.0	2	0	[]
4398	15	6	8	60.0	2	5	[(6232, 2), (7261, 0), (7639, 2), (4471, 0), (2930, 2)]
4399	1	1	8	60.0	2	0	[]
4405	10	12	16	60.0	2	0	[]
4410	2	1	8	60.0	2	0	[]
4411	2	1	8	60.0	2	0	[]
4413	1	1	8	60.0	2	0	[]
4415	2	1	8	60.0	2	0	[]
4420	4	6	8	60.0	2	0	[]
4425	3	1	8	60.0	2	0	[]
4427	1	4	8	60.0	2	0	[]
4432	1	1	8	60.0	2	0	[]
4436	2	2	8	60.0	2	0	[]
4439	1	1	8	60.0	2	0	[]
4448	13	5	8	60.0	2	1	[(6439, 0)]
4452	8	1	8	60.0	2	1	[(6659, 0)]
4454	31	1	8	60.0	2	1	[(6659, 0)]
4455	3	1	8	60.0	2	0	[]
4462	3	1	8	60.0	2	0	[]
4466	1	1	8	60.0	2	0	[]
4468	4	1	8	60.0	2	0	[]
4471	46	6	8	40.0	0	9	[(2246, 0), (7309, 0), (6659, 0), (281, 0), (4667, 0), (7261, 0), (1637, 0), (4398, 2), (2742, 0)]
4476	1	1	1	60.0	2	0	[]
4477	2	1	8	60.0	2	0	[]
4480	4	1	8	60.0	2	0	[]
4483	2	1	8	60.0	2	0	[]
4485	1	1	8	60.0	2	0	[]
4494	2	1	8	60.0	2	0	[]
4505	4	1	8	60.0	2	0	[]
4512	3	2	8	60.0	2	1	[(5095, 2)]
4517	54	6	8	40.0	2	7	[(3108, 1), (7414, 1), (6431, 0), (3459, 2), (402, 1), (1771, 0), (6295, 2)]
4521	1	1	8	60.0	2	0	[]
4522	42	12	16	100.0	2	2	[(8842, 0), (6659, 0)]
4525	2	1	3	60.0	2	0	[]
4533	3	4	8	60.0	2	0	[]
4551	29	2	8	40.0	2	0	[]
4552	14	6	8	60.0	2	2	[(2767, 2), (473, 1)]
4556	1	1	8	60.0	2	0	[]
4562	2	1	3	60.0	2	0	[]
4563	2	8	16	60.0	0	0	[]
4565	3	2	8	60.0	2	0	[]
4574	3	6	8	60.0	2	0	[]
4576	61	4	8	40.0	0	6	[(6659, 0), (2081, 0), (7261, 0), (473, 2), (1062, 0), (8500, 0)]
4580	4	12	24	60.0	2	0	[]
4586	1	1	7	60.0	2	0	[]
4588	2	2	8	60.0	2	0	[]
4591	8	2	16	100.0	2	0	[]
4593	2	1	8	60.0	2	1	[(6659, 0)]
4594	2	1	8	60.0	2	0	[]
4597	1	1	7	60.0	2	0	[]
4602	1	1	8	60.0	2	0	[]
4606	4	8	16	200.0	2	0	[]
4613	2	1	8	60.0	2	0	[]
4618	1	1	8	60.0	2	0	[]
4620	1	1	8	60.0	2	0	[]
4625	1	1	8	60.0	2	0	[]
4628	2	1	8	60.0	2	0	[]
4636	2	1	8	60.0	2	0	[]
4640	5	4	8	60.0	2	0	[]
4642	13	2	8	60.0	2	5	[(8584, 2), (7998, 0), (5220, 1), (3555, 0), (3036, 1)]
4647	25	6	8	60.0	2	0	[]
4651	1	1	8	60.0	2	0	[]
4653	19	6	8	60.0	2	1	[(8651, 2)]
4657	2	1	8	60.0	2	0	[]
4658	1	1	8	60.0	2	0	[]
4659	2	1	8	60.0	2	0	[]
4664	3	1	9	80.0	2	0	[]
4666	1	1	8	60.0	2	0	[]
4667	29	5	8	60.0	2	1	[(6659, 0)]
4669	1	1	8	60.0	2	0	[]
4677	5	1	6	60.0	2	0	[]
4678	15	6	3	60.0	2	1	[(2668, 0)]
4682	2	1	8	60.0	2	0	[]
4686	3	2	8	60.0	2	0	[]
4689	3	3	8	60.0	2	0	[]
4691	1	12	16	100.0	2	0	[]
4692	14	1	8	60.0	2	3	[(1178, 0), (8369, 0), (7998, 0)]
4695	5	1	8	60.0	2	0	[]
4697	2	2	8	60.0	2	0	[]
4701	1	1	8	60.0	2	0	[]
4702	3	1	8	60.0	2	0	[]
4712	2	1	3	60.0	2	0	[]
4720	2	4	8	60.0	2	0	[]
4723	2	1	8	60.0	2	0	[]
4724	1	4	8	60.0	2	0	[]
4727	2	1	1	60.0	2	0	[]
4728	5	1	8	60.0	2	1	[(6439, 0)]
4730	25	6	8	60.0	2	4	[(7811, 0), (2467, 0), (7018, 2), (6942, 0)]
4732	2	2	8	60.0	2	0	[]
4736	2	1	8	60.0	2	0	[]
4740	1	1	8	60.0	2	0	[]
4742	1	1	1	60.0	2	0	[]
4745	1	1	8	60.0	2	0	[]
4749	191	3	8	60.0	2	3	[(3445, 1), (2767, 0), (6659, 0)]
4754	64	6	8	60.0	2	2	[(1067, 0), (8781, 2)]
4755	1	1	3	60.0	2	0	[]
4756	1	1	8	60.0	2	0	[]
4757	1	2	3	60.0	2	0	[]
4765	1	1	8	60.0	2	0	[]
4766	2	1	8	60.0	2	0	[]
4767	6	2	8	60.0	2	0	[]
4779	4	1	1	60.0	2	0	[]
4781	20	2	8	60.0	2	1	[(2880, 2)]
4785	2	2	8	60.0	2	0	[]
4794	1	1	2	60.0	2	0	[]
4800	3	4	8	60.0	2	0	[]
4801	14	3	2	60.0	2	3	[(8888, 0), (6838, 0), (3183, 2)]
4803	2	1	8	60.0	2	0	[]
4804	2	1	8	60.0	2	0	[]
4806	2	1	8	60.0	2	0	[]
4807	2	1	1	100.0	2	0	[]
4811	2	1	8	60.0	2	0	[]
4812	6	2	8	60.0	2	0	[]
4814	3	2	8	60.0	2	0	[]
4817	1	1	2	60.0	2	0	[]
4822	1	1	7	60.0	2	0	[]
4834	1	4	8	60.0	2	0	[]
4835	2	1	8	60.0	2	0	[]
4836	2	3	8	60.0	2	0	[]
4846	1	4	8	60.0	2	0	[]
4851	2	1	8	60.0	2	0	[]
4858	11	12	2	60.0	2	11	[(5340, 0), (5055, 0), (726, 0), (2839, 0), (2630, 0), (1299, 0), (5030, 0), (4620, 0), (2892, 0), (674, 0), (2742, 0)]
4862	3	6	8	60.0	2	0	[]
4864	28	4	8	60.0	2	1	[(8842, 0)]
4866	14	2	8	60.0	2	0	[]
4870	2	1	8	60.0	2	0	[]
4871	1	1	8	60.0	2	0	[]
4872	2	1	8	60.0	2	0	[]
4874	13	3	8	60.0	2	1	[(9301, 0)]
4880	1	1	8	60.0	2	0	[]
4881	4	1	8	60.0	2	0	[]
4882	20	6	8	60.0	2	2	[(6659, 0), (4179, 1)]
4890	2	1	8	60.0	2	0	[]
4900	2	1	7	60.0	2	0	[]
4905	1	1	2	60.0	2	0	[]
4907	3	1	8	60.0	2	0	[]
4909	18	2	8	60.0	2	6	[(7186, 1), (406, 2), (3542, 1), (627, 1), (4965, 1), (475, 1)]
4910	2	1	1	60.0	2	0	[]
4928	2	1	8	60.0	2	0	[]
4931	5	1	8	60.0	2	0	[]
4935	2	1	8	60.0	2	0	[]
4939	18	4	2	100.0	2	2	[(6659, 0), (2769, 1)]
4940	1	1	8	60.0	2	0	[]
4945	1	4	8	60.0	2	0	[]
4950	4	1	8	60.0	2	0	[]
4958	2	1	9	80.0	2	0	[]
4959	1	4	8	60.0	2	0	[]
4960	2	1	2	60.0	2	0	[]
4965	3	1	8	60.0	2	0	[]
4966	3	4	8	60.0	2	0	[]
4975	2	2	8	60.0	2	0	[]
4979	2	1	8	60.0	2	0	[]
4980	17	2	8	60.0	2	2	[(3628, 0), (6659, 0)]
4983	4	1	2	60.0	2	0	[]
4988	2	1	8	60.0	2	0	[]
4993	3	1	8	60.0	2	0	[]
4996	100	6	16	100.0	2	4	[(8641, 0), (3260, 0), (6659, 0), (8701, 0)]
4997	3	1	3	60.0	2	0	[]
4998	104	4	8	40.0	2	4	[(5810, 0), (5942, 2), (1362, 1), (6659, 0)]
5004	30	3	8	60.0	2	3	[(8959, 0), (3987, 0), (6151, 0)]
5007	6	1	8	60.0	2	1	[(6659, 0)]
5013	1	1	2	60.0	2	2	[(4998, 0), (6139, 0)]
5016	8	2	8	60.0	2	0	[]
5018	1	1	1	60.0	2	0	[]
5026	2	1	8	60.0	2	0	[]
5029	1	1	1	60.0	2	0	[]
5030	2	1	8	60.0	2	0	[]
5032	2	1	8	60.0	2	0	[]
5033	2	1	8	60.0	2	0	[]
5035	2	5	8	60.0	2	0	[]
5037	2	1	8	60.0	2	0	[]
5040	2	1	8	60.0	2	0	[]
5042	3	1	8	60.0	2	0	[]
5043	2	1	7	60.0	2	0	[]
5044	1	1	1	60.0	2	0	[]
5055	1	1	1	60.0	2	0	[]
5056	1	2	32	60.0	0	0	[]
5060	33	6	8	60.0	2	3	[(945, 2), (7522, 1), (5718, 1)]
5061	3	1	1	60.0	2	0	[]
5064	7	1	8	60.0	2	0	[]
5067	3	6	8	60.0	2	0	[]
5071	9	1	8	60.0	2	0	[]
5073	2	1	2	60.0	2	0	[]
5076	1	1	8	60.0	2	0	[]
5077	2	1	8	60.0	2	0	[]
5079	2	4	8	60.0	2	0	[]
5083	5	1	8	80.0	2	14	[(4405, 0), (7269, 0), (9065, 0), (5441, 0), (7962, 0), (7963, 0), (7639, 0), (9186, 0), (7504, 0), (844, 0), (3540, 0), (5438, 0), (8057, 0), (6991, 0)]
5084	1	1	8	60.0	2	0	[]
5086	22	2	8	60.0	2	2	[(6622, 1), (3987, 2)]
5092	2	1	8	60.0	2	0	[]
5095	3	1	8	60.0	2	1	[(1195, 0)]
5097	5	1	8	60.0	2	0	[]
5099	2	1	8	60.0	2	0	[]
5101	20	6	8	200.0	2	0	[]
5103	4	1	8	60.0	2	0	[]
5104	1	4	8	60.0	2	0	[]
5105	4	1	8	60.0	2	0	[]
5109	25	6	8	60.0	2	0	[]
5110	1	1	1	60.0	2	0	[]
5112	30	6	8	40.0	2	1	[(7597, 2)]
5114	2	1	8	60.0	2	0	[]
5124	2	1	8	60.0	2	0	[]
5127	21	4	16	60.0	2	4	[(1222, 0), (3578, 0), (1059, 0), (3183, 0)]
5128	1	1	7	60.0	2	0	[]
5129	1	1	8	60.0	2	0	[]
5132	16	1	8	60.0	2	0	[]
5136	2	4	8	60.0	2	0	[]
5137	1	1	1	60.0	2	0	[]
5139	31	2	8	60.0	2	0	[]
5146	27	5	8	80.0	2	0	[]
5153	1	2	8	60.0	2	0	[]
5155	3	1	8	100.0	2	0	[]
5157	1	1	8	60.0	2	0	[]
5159	1	1	8	60.0	2	0	[]
5164	1	1	128	600.0	2	0	[]
5170	4	1	8	60.0	2	0	[]
5171	1	1	8	60.0	2	0	[]
5173	1	1	8	60.0	2	0	[]
5176	1	1	8	60.0	2	0	[]
5179	4	1	8	60.0	2	0	[]
5184	2	1	8	60.0	2	0	[]
5186	5	4	8	60.0	2	0	[]
5193	2	1	8	60.0	2	1	[(6474, 2)]
5198	1	1	8	60.0	2	0	[]
5200	3	1	8	60.0	2	0	[]
5203	1	1	2	60.0	2	0	[]
5207	2	1	8	60.0	2	0	[]
5220	72	3	8	60.0	2	3	[(2684, 0), (6101, 1), (6500, 1)]
5222	30	6	8	60.0	2	1	[(1941, 0)]
5224	3	2	8	60.0	2	0	[]
5225	2	1	8	60.0	2	2	[(6334, 0), (1887, 0)]
5227	5	1	8	60.0	2	0	[]
5229	3	1	8	80.0	2	0	[]
5232	24	3	8	60.0	2	0	[]
5238	3	5	8	60.0	2	0	[]
5239	3	2	8	40.0	2	0	[]
5240	5	3	8	60.0	2	0	[]
5249	2	2	8	60.0	2	0	[]
5258	2	1	8	60.0	2	0	[]
5260	5	3	8	60.0	2	1	[(5366, 0)]
5263	2	1	8	60.0	2	0	[]
5264	145	12	16	60.0	1	9	[(4154, 0), (6683, 0), (6659, 0), (1741, 0), (7112, 2), (473, 1), (1637, 0), (1229, 0), (4736, 1)]
5267	14	4	8	60.0	2	2	[(3108, 2), (7117, 2)]
5268	1	6	8	60.0	2	0	[]
5271	21	1	8	60.0	2	0	[]
5273	1	1	2	60.0	2	0	[]
5277	3	2	8	60.0	2	0	[]
5278	2	1	8	60.0	2	0	[]
5287	1	1	8	60.0	2	0	[]
5289	6	1	8	60.0	2	0	[]
5291	1	1	2	60.0	2	0	[]
5297	2	1	3	60.0	2	0	[]
5300	1	1	8	60.0	2	0	[]
5304	1	4	8	60.0	2	0	[]
5305	3	1	8	60.0	2	0	[]
5308	1	3	8	60.0	2	0	[]
5309	4	1	8	60.0	2	0	[]
5314	2	1	128	600.0	2	0	[]
5318	25	2	8	60.0	2	0	[]
5322	12	1	2	60.0	2	3	[(5598, 0), (2833, 1), (5340, 0)]
5323	2	1	8	60.0	2	0	[]
5337	2	1	1	60.0	2	0	[]
5338	16	6	8	60.0	2	0	[]
5340	6	1	8	60.0	2	2	[(5598, 0), (5322, 0)]
5342	2	2	8	60.0	2	0	[]
5346	9	2	8	60.0	2	0	[]
5350	2	1	8	60.0	2	0	[]
5352	1	1	6	60.0	2	0	[]
5353	2	1	8	60.0	2	0	[]
5354	1	1	8	60.0	2	0	[]
5357	1	1	6	60.0	2	0	[]
5364	4	1	8	60.0	2	0	[]
5366	142	12	16	60.0	1	18	[(9336, 2), (1672, 1), (6659, 0), (281, 0), (9010, 2), (473, 2), (7639, 0), (4667, 0), (1606, 0), (5684, 0), (5646, 2), (6250, 0), (3602, 0), (3482, 0), (5724, 1), (3988, 0), (5260, 0), (1229, 0)]
5367	14	2	16	60.0	2	1	[(4085, 0)]
5373	1	1	8	60.0	2	0	[]
5376	1	1	8	60.0	2	0	[]
5378	7	1	8	80.0	2	0	[]
5382	3	1	8	60.0	2	0	[]
5383	2	1	8	60.0	2	0	[]
5390	1	1	2	60.0	2	0	[]
5391	2	1	8	60.0	2	0	[]
5399	2	4	8	60.0	2	0	[]
5402	1	1	8	60.0	2	0	[]
5404	2	4	8	60.0	2	0	[]
5407	1	1	8	60.0	2	0	[]
5408	2	1	8	60.0	2	0	[]
5419	1	4	8	60.0	2	0	[]
5430	2	1	8	60.0	2	0	[]
5438	104	2	8	60.0	2	11	[(299, 2), (3965, 1), (2902, 0), (3476, 0), (2143, 2), (3555, 0), (4996, 2), (3482, 2), (3916, 0), (9179, 2), (435, 2)]
5440	2	1	2	60.0	2	0	[]
5441	24	2	8	40.0	2	0	[]
5443	4	1	2	60.0	2	0	[]
5447	2	4	8	60.0	2	0	[]
5449	35	6	8	60.0	2	1	[(5915, 2)]
5451	2	2	8	60.0	2	0	[]
5469	9	4	8	60.0	2	0	[]
5480	14	8	2	100.0	2	0	[]
5490	43	2	8	40.0	2	16	[(6683, 1), (1222, 1), (4471, 2), (2767, 2), (3108, 0), (473, 1), (7639, 0), (7414, 0), (6295, 2), (290, 2), (4998, 2), (3459, 2), (4576, 2), (8287, 2), (2593, 1), (7270, 1)]
5493	9	2	8	60.0	2	0	[]
5494	1	4	8	60.0	2	0	[]
5497	5	1	8	60.0	2	0	[]
5502	2	1	1	60.0	2	0	[]
5505	2	5	8	60.0	2	0	[]
5512	5	1	8	60.0	2	0	[]
5519	4	3	8	60.0	2	0	[]
5521	2	1	8	60.0	2	0	[]
5529	3	1	8	60.0	2	0	[]
5530	2	1	8	60.0	2	1	[(3952, 1)]
5538	9	12	16	60.0	2	1	[(7998, 2)]
5542	1	6	8	60.0	2	0	[]
5543	3	1	2	60.0	2	0	[]
5549	1	1	8	60.0	2	0	[]
5553	2	1	8	60.0	2	0	[]
5559	2	1	8	60.0	2	0	[]
5560	6	1	8	60.0	2	0	[]
5575	1	1	2	60.0	2	0	[]
5577	2	1	8	60.0	2	0	[]
5593	2	1	2	60.0	2	0	[]
5594	1	1	8	60.0	2	0	[]
5598	4	1	8	60.0	2	2	[(5340, 0), (5322, 0)]
5606	2	1	8	60.0	2	0	[]
5611	2	1	8	60.0	2	0	[]
5612	1	1	5	60.0	2	0	[]
5616	2	1	8	60.0	2	0	[]
5617	2	1	8	60.0	2	0	[]
5621	1	1	8	40.0	2	0	[]
5626	3	1	8	60.0	2	0	[]
5631	3	1	8	60.0	2	0	[]
5635	3	3	2	60.0	2	0	[]
5638	2	1	2	60.0	2	0	[]
5640	2	1	8	60.0	2	0	[]
5646	2	1	8	60.0	2	1	[(6659, 0)]
5647	2	1	8	60.0	2	0	[]
5653	2	1	8	60.0	2	0	[]
5658	2	1	8	60.0	2	0	[]
5664	1	4	8	60.0	2	0	[]
5666	1	4	8	60.0	2	0	[]
5669	2	4	8	60.0	2	0	[]
5671	2	1	8	60.0	2	0	[]
5681	2	1	8	60.0	2	0	[]
5684	46	3	16	60.0	2	3	[(737, 0), (7426, 0), (5490, 0)]
5686	3	6	8	60.0	2	0	[]
5688	1	1	2	60.0	2	0	[]
5694	1	1	8	60.0	2	0	[]
5695	3	2	8	60.0	2	0	[]
5698	8	12	2	60.0	2	0	[]
5706	1	4	16	80.0	2	0	[]
5711	1	4	8	60.0	2	0	[]
5712	2	1	8	60.0	2	0	[]
5716	1	1	8	100.0	2	0	[]
5718	4	1	8	60.0	2	0	[]
5721	2	1	6	60.0	2	0	[]
5724	5	6	8	60.0	2	1	[(6659, 0)]
5726	1	1	8	60.0	2	0	[]
5731	57	6	16	80.0	2	1	[(7019, 1)]
5733	1	1	8	60.0	2	0	[]
5737	5	1	8	60.0	2	0	[]
5743	2	2	8	60.0	2	0	[]
5744	1	12	8	60.0	2	0	[]
5746	1	1	8	60.0	2	0	[]
5747	18	3	8	60.0	2	0	[]
5748	2	1	8	60.0	2	0	[]
5757	1	2	2	60.0	2	0	[]
5762	3	1	8	60.0	2	0	[]
5763	2	1	2	60.0	2	0	[]
5765	1	1	8	60.0	2	0	[]
5769	1	4	8	60.0	2	0	[]
5774	1	4	8	60.0	2	0	[]
5780	1	4	8	60.0	2	0	[]
5781	36	3	8	60.0	2	2	[(6683, 2), (6659, 0)]
5786	2	1	8	60.0	2	0	[]
5787	1	1	8	60.0	2	0	[]
5791	2	1	8	60.0	2	0	[]
5799	1	8	16	150.0	2	0	[]
5803	2	1	8	60.0	2	0	[]
5804	1	1	4	60.0	2	0	[]
5807	7	1	2	100.0	2	0	[]
5808	1	1	8	60.0	2	0	[]
5810	40	4	8	60.0	2	13	[(3022, 1), (8336, 1), (6015, 0), (2078, 1), (7304, 2), (6919, 0), (5136, 1), (290, 2), (5983, 0), (5549, 0), (5716, 2), (4522, 2), (4998, 0)]
5817	2	1	8	60.0	2	0	[]
5825	2	2	8	60.0	2	0	[]
5830	2	1	8	80.0	2	0	[]
5838	1	1	1	60.0	2	0	[]
5842	2	2	1	60.0	2	0	[]
5843	1	1	8	60.0	2	0	[]
5845	1	1	1	60.0	2	0	[]
5846	2	1	8	60.0	2	0	[]
5851	2	1	8	60.0	2	0	[]
5854	2	1	8	60.0	2	0	[]
5855	2	4	8	60.0	2	1	[(6659, 0)]
5856	46	4	8	60.0	2	5	[(8636, 0), (4517, 2), (1222, 0), (9010, 0), (945, 2)]
5858	2	2	8	60.0	2	0	[]
5862	6	1	8	60.0	2	0	[]
5865	15	1	8	60.0	2	0	[]
5870	4	3	8	60.0	2	0	[]
5879	2	2	8	60.0	2	2	[(276, 4), (6693, 4)]
5884	2	1	8	60.0	2	0	[]
5888	4	1	1	60.0	2	0	[]
5898	3	1	8	60.0	2	0	[]
5914	23	12	2	60.0	2	0	[]
5915	3	1	8	60.0	2	0	[]
5921	14	5	8	60.0	2	1	[(8669, 2)]
5927	2	1	2	60.0	2	0	[]
5929	8	2	8	40.0	2	1	[(6659, 0)]
5935	2	1	8	100.0	2	1	[(6659, 0)]
5938	2	2	8	60.0	2	0	[]
5941	1	1	1	60.0	2	0	[]
5942	9	6	8	60.0	2	28	[(6232, 0), (2022, 0), (7279, 0), (9122, 0), (1222, 0), (4551, 0), (6393, 0), (9336, 0), (3262, 0), (6474, 1), (3108, 0), (473, 0), (7414, 0), (9039, 0), (290, 1), (2078, 0), (4939, 0), (2767, 0), (1259, 0), (3873, 0), (5350, 0), (1887, 0), (4996, 2), (737, 0), (8556, 0), (9145, 0), (6520, 0), (1949, 2)]
5944	7	6	8	60.0	2	0	[]
5946	2	2	8	60.0	2	0	[]
5955	2	2	8	60.0	2	0	[]
5956	6	2	8	60.0	2	0	[]
5958	6	2	2	60.0	2	12	[(3422, 0), (9122, 0), (7686, 0), (5264, 0), (1222, 0), (5071, 0), (473, 0), (9039, 0), (2828, 0), (6958, 0), (662, 0), (6161, 0)]
5961	6	2	8	60.0	2	0	[]
5973	1	1	3	60.0	2	0	[]
5975	1	4	8	60.0	2	0	[]
5976	2	3	8	60.0	2	0	[]
5980	3	1	8	60.0	2	0	[]
5981	3	1	8	60.0	2	0	[]
5983	5	1	8	40.0	2	0	[]
5984	11	2	8	60.0	2	0	[]
5985	1	4	8	60.0	2	0	[]
5989	2	1	8	60.0	2	0	[]
5991	4	1	8	40.0	2	0	[]
6009	1	1	1	60.0	2	0	[]
6013	2	1	8	60.0	2	0	[]
6015	12	4	8	60.0	2	5	[(8291, 0), (303, 0), (1742, 0), (4754, 1), (7507, 2)]
6021	12	3	8	60.0	2	1	[(7886, 2)]
6023	4	1	2	60.0	2	0	[]
6025	19	1	8	40.0	0	4	[(1637, 0), (6481, 0), (8716, 0), (7309, 0)]
6029	2	1	8	60.0	2	0	[]
6034	1	2	16	60.0	2	14	[(3368, 2), (3367, 2), (7716, 2), (4037, 2), (1741, 3), (2049, 2), (6683, 2), (1606, 2), (1637, 2), (4014, 2), (2739, 2), (1378, 2), (3270, 2), (737, 2)]
6035	3	1	8	60.0	2	0	[]
6039	2	1	8	60.0	2	0	[]
6042	2	2	8	60.0	2	0	[]
6046	2	1	8	60.0	2	1	[(6659, 0)]
6051	19	6	8	60.0	2	0	[]
6054	6	1	8	60.0	2	0	[]
6057	6	1	8	60.0	2	1	[(6659, 0)]
6061	1	10	16	60.0	2	15	[(3368, 2), (3367, 2), (7716, 2), (2739, 2), (1741, 2), (2049, 2), (1606, 2), (1637, 2), (4014, 2), (1378, 2), (4037, 2), (6034, 2), (3270, 2), (737, 2), (6683, 2)]
6066	3	1	8	60.0	2	0	[]
6071	1	1	5	100.0	2	0	[]
6072	4	1	8	60.0	2	0	[]
6077	6	4	32	80.0	2	0	[]
6086	2	1	2	60.0	2	0	[]
6091	4	2	8	60.0	2	0	[]
6101	2	1	8	60.0	2	0	[]
6102	2	1	16	60.0	2	0	[]
6107	1	4	8	60.0	2	0	[]
6111	3	1	8	60.0	2	0	[]
6114	1	1	2	60.0	2	0	[]
6118	2	2	8	60.0	2	0	[]
6119	2	1	8	60.0	2	0	[]
6120	1	1	8	60.0	2	0	[]
6121	2	1	8	60.0	2	0	[]
6126	1	1	8	60.0	2	0	[]
6132	4	2	8	60.0	2	0	[]
6133	3	1	8	60.0	2	0	[]
6139	40	12	16	100.0	0	5	[(9336, 0), (3595, 0), (9145, 0), (8888, 0), (341, 0)]
6140	1	5	8	60.0	2	1	[(1742, 2)]
6151	28	1	8	60.0	2	0	[]
6157	1	1	8	60.0	2	0	[]
6161	9	1	8	40.0	2	0	[]
6162	5	1	2	300.0	2	0	[]
6164	1	4	8	60.0	2	0	[]
6166	2	1	8	60.0	2	0	[]
6172	10	1	8	60.0	2	2	[(4642, 0), (7998, 0)]
6178	2	1	8	60.0	2	0	[]
6186	3	1	8	60.0	2	1	[(185, 1)]
6187	3	1	8	60.0	2	0	[]
6190	3	1	2	60.0	2	0	[]
6192	2	6	8	60.0	2	0	[]
6193	1	1	1	60.0	2	0	[]
6207	1	1	8	60.0	2	0	[]
6209	2	1	8	60.0	2	0	[]
6218	4	1	16	200.0	2	0	[]
6219	1	4	8	60.0	2	0	[]
6220	3	1	8	60.0	2	0	[]
6224	2	1	5	60.0	2	0	[]
6226	10	6	8	60.0	2	1	[(3329, 0)]
6232	45	6	8	40.0	2	6	[(145, 0), (4593, 1), (6659, 0), (3108, 2), (7639, 0), (473, 1)]
6235	67	3	8	60.0	2	2	[(7291, 1), (6659, 0)]
6239	17	1	8	60.0	2	0	[]
6240	15	6	2	60.0	2	0	[]
6242	1	1	2	60.0	2	0	[]
6243	2	1	8	60.0	2	0	[]
6244	1	1	8	60.0	2	0	[]
6247	2	1	8	60.0	2	0	[]
6250	36	3	16	40.0	2	2	[(5944, 2), (4667, 0)]
6252	1	1	8	60.0	2	0	[]
6253	2	1	8	60.0	2	0	[]
6254	1	1	8	60.0	2	0	[]
6257	2	1	8	60.0	2	0	[]
6259	1	3	8	60.0	2	0	[]
6263	1	1	3	60.0	2	0	[]
6266	4	1	8	60.0	2	0	[]
6267	3	2	1	100.0	2	0	[]
6274	2	1	8	60.0	2	0	[]
6276	4	1	8	60.0	2	1	[(4471, 1)]
6277	1	1	8	60.0	2	1	[(2163, 0)]
6289	2	1	8	60.0	2	0	[]
6290	1	1	16	60.0	2	0	[]
6292	1	4	8	60.0	2	1	[(1590, 0)]
6295	14	4	8	40.0	2	0	[]
6298	2	1	8	60.0	2	0	[]
6311	4	1	8	60.0	2	0	[]
6312	5	1	8	60.0	2	0	[]
6318	2	1	2	60.0	2	2	[(6417, 0), (1643, 0)]
6319	2	1	8	60.0	2	0	[]
6320	2	3	8	60.0	2	0	[]
6321	9	1	8	60.0	2	0	[]
6323	2	1	3	60.0	2	0	[]
6324	1	1	1	60.0	2	0	[]
6328	1	1	8	60.0	2	0	[]
6329	2	1	8	60.0	2	0	[]
6332	6	1	8	60.0	2	3	[(5490, 2), (8500, 2), (3904, 2)]
6334	50	12	16	100.0	2	1	[(9301, 0)]
6335	6	1	8	60.0	2	0	[]
6338	2	1	8	60.0	2	0	[]
6343	2	1	7	60.0	2	0	[]
6350	1	1	8	60.0	2	0	[]
6353	2	1	8	60.0	2	0	[]
6359	2	3	8	60.0	2	0	[]
6368	3	1	8	60.0	2	0	[]
6377	21	2	8	60.0	2	3	[(6558, 0), (7153, 2), (1721, 1)]
6379	1	1	1	60.0	2	0	[]
6389	1	1	2	60.0	2	0	[]
6390	1	8	16	60.0	2	0	[]
6393	223	6	8	60.0	2	4	[(459, 1), (1864, 1), (6659, 0), (2489, 2)]
6395	1	1	8	60.0	2	0	[]
6396	1	6	4	60.0	2	0	[]
6404	2	1	8	60.0	2	0	[]
6405	6	1	8	60.0	2	0	[]
6411	2	1	8	60.0	2	0	[]
6417	2	1	8	60.0	2	0	[]
6423	1	1	8	60.0	2	0	[]
6431	2	4	8	60.0	2	1	[(6659, 0)]
6432	4	1	8	60.0	2	0	[]
6439	6	3	8	60.0	2	0	[]
6442	20	2	8	60.0	2	3	[(4085, 0), (4749, 2), (3534, 0)]
6443	2	1	8	40.0	2	0	[]
6444	3	3	3	60.0	2	0	[]
6451	2	1	8	60.0	2	0	[]
6457	2	1	3	60.0	2	0	[]
6468	2	1	8	60.0	2	0	[]
6471	1	1	8	60.0	2	0	[]
6474	15	6	8	60.0	2	1	[(5112, 2)]
6481	5	2	8	60.0	2	0	[]
6485	3	3	8	60.0	2	0	[]
6486	15	4	8	60.0	2	0	[]
6491	2	6	8	60.0	2	0	[]
6496	3	1	8	60.0	2	0	[]
6500	2	1	8	60.0	2	0	[]
6507	4	1	8	60.0	2	0	[]
6509	1	3	2	60.0	2	1	[(5222, 0)]
6510	4	2	8	60.0	2	0	[]
6513	2	1	8	60.0	2	0	[]
6517	1	1	2	60.0	2	0	[]
6520	36	3	8	40.0	2	9	[(6659, 0), (6057, 2), (1728, 0), (7261, 0), (7151, 1), (4749, 0), (4576, 0), (1059, 2), (2742, 0)]
6522	1	4	10	60.0	2	0	[]
6524	1	1	8	60.0	2	0	[]
6528	1	5	8	60.0	2	0	[]
6529	1	1	8	60.0	2	0	[]
6530	12	3	8	60.0	2	4	[(3565, 0), (1740, 1), (8713, 0), (7998, 0)]
6539	1	8	16	60.0	2	0	[]
6541	1	2	8	60.0	2	0	[]
6543	1	4	8	60.0	2	0	[]
6546	1	1	2	60.0	2	0	[]
6550	21	12	16	100.0	2	0	[]
6551	1	1	2	60.0	2	0	[]
6553	4	1	8	60.0	2	0	[]
6554	5	2	8	60.0	2	0	[]
6557	43	6	8	60.0	2	13	[(638, 0), (6039, 0), (2613, 0), (2874, 0), (257, 0), (2054, 0), (6220, 0), (756, 0), (435, 0), (3426, 0), (4695, 0), (5271, 0), (8816, 0)]
6558	4	1	8	60.0	2	0	[]
6559	2	5	8	60.0	2	0	[]
6561	5	6	8	60.0	2	1	[(6659, 0)]
6566	1	1	1	60.0	2	0	[]
6569	1	1	8	60.0	2	0	[]
6579	2	1	4	60.0	2	0	[]
6583	3	1	8	60.0	2	0	[]
6591	2	1	16	80.0	2	0	[]
6594	1	1	8	60.0	2	0	[]
6602	2	1	2	60.0	2	0	[]
6603	1	1	2	60.0	2	0	[]
6604	2	2	8	60.0	2	0	[]
6608	3	1	8	60.0	2	0	[]
6610	12	2	8	60.0	2	0	[]
6614	1	1	8	60.0	2	0	[]
6615	1	6	8	60.0	2	0	[]
6618	1	4	8	60.0	2	0	[]
6620	1	4	8	60.0	2	0	[]
6622	13	3	8	60.0	2	2	[(4471, 0), (6659, 0)]
6624	2	1	8	60.0	2	0	[]
6625	2	1	8	60.0	2	0	[]
6630	1	1	4	60.0	2	0	[]
6635	1	2	8	60.0	2	0	[]
6639	3	1	5	60.0	2	0	[]
6651	2	1	8	40.0	2	0	[]
6653	2	1	8	60.0	2	0	[]
6659	117	3	8	120.0	0	105	[(1173, 0), (6046, 0), (7096, 0), (8476, 0), (3987, 0), (290, 0), (8293, 0), (1195, 0), (491, 0), (4386, 0), (4576, 0), (6991, 0), (7236, 0), (238, 0), (3108, 0), (473, 0), (6520, 0), (2731, 0), (465, 0), (2815, 0), (9207, 0), (4593, 0), (7500, 0), (1455, 0), (6794, 0), (6965, 0), (1294, 0), (6235, 0), (8500, 0), (7151, 0), (7064, 0), (4522, 0), (2751, 0), (6393, 0), (6431, 0), (1938, 0), (2468, 0), (281, 0), (2143, 0), (1059, 0), (7026, 0), (7467, 0), (6561, 0), (4996, 0), (3986, 0), (1672, 0), (9156, 0), (7309, 0), (5264, 0), (6622, 0), (4454, 0), (7261, 0), (1024, 0), (1222, 0), (702, 0), (3041, 0), (3482, 0), (7374, 0), (3617, 0), (3628, 0), (3001, 0), (8165, 0), (5724, 0), (354, 0), (4939, 0), (1259, 0), (1637, 0), (4471, 0), (6710, 0), (4882, 0), (2272, 0), (2767, 0), (4749, 0), (6916, 0), (5855, 0), (92, 0), (3183, 0), (1728, 0), (5781, 0), (8582, 0), (341, 0), (2806, 0), (5935, 0), (3526, 0), (4980, 0), (5366, 0), (5646, 0), (4452, 0), (3466, 0), (8484, 0), (5007, 0), (6057, 0), (2078, 0), (8824, 0), (853, 0), (5929, 0), (6232, 0), (4667, 0), (8842, 0), (3886, 0), (4998, 0), (2668, 0), (4169, 0), (3801, 0), (9285, 0)]
6662	3	2	8	60.0	2	0	[]
6663	7	3	2	60.0	2	1	[(290, 0)]
6672	1	1	8	60.0	2	0	[]
6679	2	1	2	60.0	2	0	[]
6682	2	1	8	60.0	2	0	[]
6683	153	12	32	60.0	2	10	[(3368, 1), (6061, 1), (2739, 1), (1741, 2), (5366, 0), (8287, 0), (1637, 0), (4014, 2), (4576, 0), (6034, 2)]
6684	2	1	8	60.0	2	0	[]
6685	1	2	4	60.0	2	0	[]
6693	1	1	8	60.0	3	2	[(233, 3), (5879, 3)]
6695	4	1	8	60.0	2	0	[]
6699	2	4	8	60.0	2	0	[]
6703	6	1	8	80.0	2	0	[]
6704	2	1	8	60.0	2	0	[]
6705	1	1	8	60.0	2	0	[]
6707	3	1	7	60.0	2	0	[]
6708	2	36	48	300.0	2	0	[]
6710	69	6	8	60.0	2	7	[(7279, 0), (6659, 0), (3904, 2), (473, 2), (7270, 2), (2593, 2), (8616, 1)]
6712	1	1	8	60.0	2	0	[]
6716	2	1	8	60.0	2	0	[]
6722	2	1	2	60.0	2	0	[]
6724	2	1	7	60.0	2	0	[]
6728	1	1	6	60.0	2	0	[]
6729	13	2	8	60.0	2	0	[]
6739	4	3	8	60.0	2	0	[]
6743	1	4	8	60.0	2	0	[]
6746	2	1	8	60.0	2	0	[]
6747	1	1	8	40.0	2	0	[]
6758	1	1	2	60.0	2	0	[]
6760	3	3	8	60.0	2	0	[]
6763	4	1	6	60.0	2	0	[]
6770	2	2	3	60.0	2	0	[]
6775	4	1	2	100.0	2	0	[]
6776	2	1	2	60.0	2	0	[]
6779	2	1	8	60.0	2	0	[]
6781	1	4	8	60.0	2	0	[]
6785	10	3	8	60.0	2	0	[]
6788	2	1	8	60.0	2	0	[]
6791	21	3	8	60.0	2	2	[(1941, 2), (4108, 2)]
6793	1	1	16	60.0	2	0	[]
6794	5	2	8	60.0	2	1	[(6659, 0)]
6795	2	1	2	60.0	2	0	[]
6800	2	3	8	60.0	2	0	[]
6805	2	1	8	60.0	2	0	[]
6806	5	1	16	60.0	2	0	[]
6812	1	1	8	60.0	2	0	[]
6813	1	1	1	60.0	2	0	[]
6817	5	1	2	60.0	2	0	[]
6819	2	1	2	60.0	2	0	[]
6829	2	1	8	60.0	2	0	[]
6834	5	1	8	80.0	2	0	[]
6837	5	1	8	60.0	2	0	[]
6838	14	12	16	60.0	2	0	[]
6839	9	4	16	60.0	1	0	[]
6846	5	1	8	60.0	2	0	[]
6848	1	2	8	60.0	2	0	[]
6857	2	1	8	60.0	2	0	[]
6859	2	1	8	60.0	2	0	[]
6860	3	1	8	60.0	2	0	[]
6862	1	1	2	60.0	2	0	[]
6864	1	1	8	60.0	2	0	[]
6865	1	3	16	60.0	2	0	[]
6867	3	1	8	60.0	2	0	[]
6871	5	2	8	60.0	2	0	[]
6875	2	1	8	60.0	2	0	[]
6876	1	1	1	60.0	2	0	[]
6878	1	1	8	60.0	2	0	[]
6881	3	1	8	60.0	2	0	[]
6883	20	5	8	60.0	2	1	[(2018, 2)]
6892	4	1	8	60.0	2	0	[]
6897	1	1	8	60.0	2	0	[]
6899	1	3	8	60.0	2	0	[]
6907	17	1	8	60.0	2	0	[]
6909	4	2	8	60.0	2	0	[]
6913	4	6	6	60.0	2	0	[]
6914	5	6	8	60.0	2	0	[]
6916	23	2	8	80.0	2	2	[(7516, 0), (6659, 0)]
6919	1	1	8	60.0	2	0	[]
6920	3	1	8	60.0	2	0	[]
6921	5	2	8	60.0	2	0	[]
6922	1	1	8	40.0	2	0	[]
6924	1	1	2	60.0	2	0	[]
6927	1	4	8	60.0	2	0	[]
6929	2	1	8	60.0	2	0	[]
6932	1	1	8	60.0	2	0	[]
6933	2	1	8	60.0	2	0	[]
6936	9	12	16	60.0	0	0	[]
6939	9	2	8	60.0	2	0	[]
6940	20	1	8	80.0	2	2	[(2125, 2), (3904, 0)]
6942	7	1	8	60.0	2	0	[]
6949	1	1	3	60.0	2	0	[]
6952	1	1	8	60.0	2	0	[]
6953	2	1	8	60.0	2	0	[]
6956	2	3	8	60.0	2	0	[]
6958	6	1	8	60.0	2	0	[]
6964	19	11	2	60.0	2	0	[]
6965	12	1	16	80.0	2	1	[(6659, 0)]
6969	1	1	8	60.0	2	0	[]
6975	2	4	8	60.0	2	0	[]
6985	5	6	8	60.0	2	0	[]
6991	25	2	8	100.0	2	1	[(6659, 0)]
6996	2	4	8	60.0	2	0	[]
7003	1	1	2	60.0	2	0	[]
7011	1	1	8	60.0	2	0	[]
7012	4	3	16	60.0	2	0	[]
7018	2	1	8	60.0	2	0	[]
7019	3	6	8	60.0	2	0	[]
7026	4	4	8	60.0	2	1	[(6659, 0)]
7034	1	4	8	60.0	2	0	[]
7038	2	3	8	60.0	2	0	[]
7039	16	1	8	60.0	2	1	[(7261, 0)]
7042	2	1	8	60.0	2	0	[]
7046	2	1	8	60.0	2	0	[]
7048	1	1	12	200.0	1	0	[]
7052	8	4	8	60.0	2	1	[(1742, 2)]
7054	2	1	8	60.0	2	0	[]
7057	1	4	8	60.0	2	0	[]
7059	2	1	7	60.0	2	0	[]
7062	4	1	8	60.0	2	0	[]
7064	11	5	8	60.0	2	1	[(6659, 0)]
7072	4	1	8	80.0	2	0	[]
7079	2	5	8	60.0	2	0	[]
7080	26	3	8	60.0	2	3	[(2767, 0), (7270, 2), (1936, 2)]
7084	1	3	16	100.0	2	0	[]
7093	2	1	8	60.0	2	0	[]
7094	1	1	8	60.0	2	0	[]
7095	3	4	8	60.0	2	1	[(7471, 2)]
7096	22	3	16	60.0	2	1	[(6659, 0)]
7098	13	2	16	80.0	2	0	[]
7099	1	1	8	60.0	2	0	[]
7100	4	1	8	60.0	2	0	[]
7112	3	4	2	60.0	2	0	[]
7117	20	2	8	60.0	2	6	[(3886, 1), (5747, 0), (1721, 0), (3896, 2), (4015, 0), (2191, 1)]
7118	4	1	8	60.0	2	0	[]
7121	5	2	8	60.0	2	0	[]
7123	2	6	8	60.0	2	0	[]
7126	2	1	1	60.0	2	0	[]
7134	2	2	8	60.0	2	0	[]
7139	1	1	8	60.0	2	0	[]
7140	2	2	8	60.0	2	0	[]
7148	1	1	8	60.0	2	0	[]
7150	2	6	8	60.0	2	0	[]
7151	2	1	8	60.0	2	1	[(6659, 0)]
7152	2	4	8	60.0	2	0	[]
7153	1	4	8	60.0	2	0	[]
7159	1	1	8	60.0	2	0	[]
7160	1	1	2	100.0	2	0	[]
7166	2	1	8	60.0	2	0	[]
7167	1	1	8	60.0	2	0	[]
7171	2	1	8	60.0	2	0	[]
7172	5	2	8	60.0	2	0	[]
7174	4	1	8	60.0	2	0	[]
7180	1	1	8	60.0	2	0	[]
7186	1	1	1	60.0	2	0	[]
7190	1	8	8	60.0	2	0	[]
7197	2	1	8	60.0	2	0	[]
7200	1	1	2	60.0	2	0	[]
7203	1	1	8	60.0	2	0	[]
7205	1	1	8	60.0	2	1	[(6975, 2)]
7209	1	1	8	60.0	2	0	[]
7218	1	2	4	60.0	2	0	[]
7222	12	1	8	60.0	2	0	[]
7223	2	4	16	200.0	2	0	[]
7226	2	1	8	60.0	2	0	[]
7229	7	1	8	40.0	2	0	[]
7231	1	1	4	60.0	2	0	[]
7234	2	1	8	60.0	2	0	[]
7235	1	4	8	60.0	2	0	[]
7236	7	1	8	60.0	2	1	[(6659, 0)]
7245	1	1	8	60.0	2	0	[]
7251	2	1	8	60.0	2	0	[]
7254	1	4	8	60.0	2	0	[]
7261	18	6	8	60.0	2	1	[(6659, 0)]
7262	2	1	8	60.0	2	0	[]
7265	2	1	8	60.0	2	0	[]
7268	14	2	16	60.0	2	0	[]
7269	1	1	2	60.0	2	0	[]
7270	4	1	8	60.0	2	0	[]
7271	3	1	2	60.0	2	0	[]
7274	2	1	8	60.0	2	0	[]
7277	2	1	2	60.0	2	0	[]
7279	22	3	16	200.0	2	1	[(1024, 0)]
7290	9	1	4	60.0	2	0	[]
7291	8	6	8	60.0	2	0	[]
7294	1	1	8	60.0	2	0	[]
7299	3	4	8	60.0	2	0	[]
7303	2	2	8	60.0	2	0	[]
7304	17	6	8	60.0	2	0	[]
7305	1	4	8	80.0	2	0	[]
7307	1	1	1	60.0	2	0	[]
7309	87	5	8	40.0	0	5	[(7426, 0), (4517, 0), (4471, 0), (6659, 0), (281, 0)]
7321	2	5	8	60.0	2	0	[]
7324	1	1	2	60.0	2	0	[]
7336	2	4	8	60.0	2	0	[]
7337	3	2	8	60.0	2	0	[]
7339	2	1	1	60.0	2	0	[]
7359	1	8	8	60.0	2	0	[]
7374	6	1	8	60.0	2	1	[(6659, 0)]
7378	1	4	8	60.0	2	0	[]
7385	4	1	8	60.0	2	0	[]
7389	1	1	2	60.0	2	0	[]
7391	3	1	8	80.0	2	0	[]
7401	23	3	8	60.0	2	4	[(6474, 0), (5112, 0), (4781, 0), (9158, 0)]
7405	1	1	1	60.0	2	0	[]
7414	31	3	8	60.0	2	0	[]
7417	2	4	8	60.0	2	0	[]
7422	2	2	8	40.0	2	0	[]
7424	1	1	8	60.0	2	0	[]
7426	74	12	16	100.0	1	13	[(6232, 2), (6550, 2), (3526, 0), (5366, 2), (473, 2), (2129, 0), (1606, 1), (618, 0), (4190, 0), (7026, 0), (4257, 1), (4754, 1), (3595, 0)]
7432	1	4	8	60.0	2	0	[]
7450	1	1	1	60.0	2	0	[]
7452	2	1	8	60.0	2	6	[(3711, 0), (2138, 0), (7262, 0), (4045, 0), (3558, 0), (1014, 0)]
7458	4	6	2	60.0	2	0	[]
7467	6	1	8	60.0	2	1	[(6659, 0)]
7468	3	1	8	60.0	2	0	[]
7469	3	1	8	60.0	2	0	[]
7471	3	1	8	60.0	2	0	[]
7472	2	1	8	60.0	2	0	[]
7475	5	1	8	60.0	2	0	[]
7479	2	6	8	60.0	2	0	[]
7498	9	10	32	80.0	2	0	[]
7499	1	4	8	60.0	2	0	[]
7500	22	1	8	60.0	2	1	[(6659, 0)]
7501	1	4	8	60.0	2	0	[]
7504	17	4	8	60.0	2	2	[(435, 2), (4996, 1)]
7506	7	1	8	60.0	2	0	[]
7507	6	1	8	60.0	2	0	[]
7516	2	1	8	60.0	2	0	[]
7518	26	3	8	60.0	2	0	[]
7521	5	1	8	60.0	2	0	[]
7522	11	3	8	60.0	2	0	[]
7523	2	1	8	60.0	2	0	[]
7525	1	1	2	60.0	2	0	[]
7529	2	1	8	60.0	2	0	[]
7532	2	1	8	60.0	2	0	[]
7533	1	2	16	60.0	0	0	[]
7534	2	1	8	60.0	2	0	[]
7542	2	1	8	60.0	2	0	[]
7547	1	1	8	60.0	2	0	[]
7551	5	2	8	100.0	2	0	[]
7554	4	1	8	60.0	2	0	[]
7560	1	6	8	60.0	2	0	[]
7572	1	1	8	60.0	2	0	[]
7588	2	2	16	60.0	0	0	[]
7590	2	3	8	60.0	2	0	[]
7592	2	1	8	60.0	2	0	[]
7595	1	1	8	60.0	2	0	[]
7597	2	1	2	60.0	2	0	[]
7603	1	1	2	60.0	2	0	[]
7605	2	1	8	60.0	2	0	[]
7606	2	1	16	40.0	2	0	[]
7608	1	1	8	60.0	2	0	[]
7611	1	11	128	600.0	2	0	[]
7618	1	1	2	200.0	2	0	[]
7621	2	1	8	60.0	2	0	[]
7629	2	4	16	80.0	2	0	[]
7631	1	1	8	60.0	2	0	[]
7639	22	2	8	40.0	0	6	[(9156, 0), (6334, 0), (5441, 2), (3108, 1), (1606, 0), (6710, 2)]
7642	2	1	8	60.0	2	0	[]
7657	2	4	8	60.0	2	0	[]
7665	1	1	8	60.0	2	0	[]
7666	1	1	1	60.0	2	0	[]
7669	2	1	8	60.0	2	0	[]
7675	1	4	8	60.0	2	0	[]
7676	2	1	8	60.0	2	0	[]
7682	1	1	8	60.0	2	0	[]
7686	2	1	8	60.0	2	0	[]
7700	67	21	48	300.0	2	0	[]
7703	1	1	8	40.0	0	0	[]
7709	4	2	8	60.0	2	0	[]
7711	2	1	1	60.0	2	0	[]
7714	2	1	8	60.0	2	0	[]
7715	1	1	8	60.0	2	0	[]
7716	4	3	32	60.0	2	7	[(3368, 1), (6061, 1), (2739, 1), (1741, 2), (1637, 1), (4014, 2), (6034, 2)]
7719	3	2	8	60.0	2	0	[]
7722	1	1	16	100.0	2	0	[]
7725	2	1	8	60.0	2	0	[]
7726	2	1	8	60.0	2	0	[]
7728	1	1	8	60.0	2	0	[]
7731	1	2	8	60.0	2	0	[]
7737	3	1	8	60.0	2	0	[]
7738	5	3	8	60.0	2	0	[]
7748	2	4	8	60.0	2	0	[]
7749	2	1	8	60.0	2	0	[]
7752	2	1	8	60.0	2	0	[]
7759	3	1	8	60.0	2	0	[]
7763	1	1	8	60.0	2	0	[]
7765	2	1	8	60.0	2	0	[]
7768	7	4	8	60.0	2	0	[]
7777	2	1	16	200.0	2	0	[]
7785	2	1	8	60.0	2	0	[]
7795	3	5	8	60.0	2	0	[]
7797	10	2	8	60.0	2	3	[(5757, 1), (1046, 2), (3896, 2)]
7798	16	3	8	60.0	2	0	[]
7811	3	1	8	60.0	2	0	[]
7824	5	1	8	60.0	2	0	[]
7825	19	3	8	60.0	2	0	[]
7827	2	4	8	60.0	2	0	[]
7828	4	3	8	60.0	2	0	[]
7829	2	1	8	60.0	2	0	[]
7833	4	1	8	60.0	2	0	[]
7845	6	1	8	60.0	2	1	[(303, 1)]
7851	2	1	8	60.0	2	0	[]
7857	3	1	8	60.0	2	0	[]
7859	1	4	8	60.0	2	0	[]
7863	6	1	8	60.0	2	0	[]
7866	3	1	8	60.0	2	0	[]
7868	3	1	8	60.0	2	0	[]
7872	2	4	8	60.0	2	0	[]
7884	1	1	1	60.0	2	0	[]
7886	1	1	8	60.0	2	0	[]
7888	1	1	8	60.0	2	0	[]
7891	3	1	8	100.0	2	0	[]
7892	3	2	8	60.0	2	0	[]
7895	2	2	2	60.0	2	0	[]
7902	1	1	1	60.0	2	0	[]
7904	2	1	8	60.0	2	0	[]
7907	2	2	8	60.0	2	0	[]
7909	1	2	8	60.0	2	0	[]
7910	1	4	8	60.0	2	0	[]
7911	3	2	8	60.0	2	1	[(725, 2)]
7912	1	1	8	60.0	2	0	[]
7916	10	1	8	60.0	2	3	[(2874, 0), (6496, 1), (8164, 0)]
7918	2	1	8	60.0	2	0	[]
7921	2	2	8	60.0	2	0	[]
7927	6	1	8	60.0	2	1	[(6622, 1)]
7929	1	1	8	60.0	2	0	[]
7934	2	1	8	60.0	2	0	[]
7936	2	1	8	60.0	2	1	[(3904, 2)]
7937	1	4	8	80.0	2	0	[]
7938	3	4	8	167.0	2	0	[]
7939	6	2	3	100.0	2	0	[]
7944	2	1	8	100.0	2	0	[]
7945	12	1	8	60.0	2	0	[]
7947	4	1	8	60.0	2	0	[]
7953	1	1	8	60.0	2	0	[]
7956	6	1	8	60.0	2	2	[(3220, 1), (4996, 1)]
7958	2	1	8	60.0	2	0	[]
7962	3	1	8	60.0	2	0	[]
7963	90	2	8	60.0	2	3	[(7019, 1), (473, 0), (3422, 2)]
7965	2	1	8	60.0	2	0	[]
7966	2	1	2	60.0	2	0	[]
7967	2	1	1	60.0	2	0	[]
7974	3	5	8	60.0	2	0	[]
7981	3	8	16	200.0	2	0	[]
7983	1	1	1	60.0	2	0	[]
7985	2	1	8	60.0	2	0	[]
7993	2	1	8	60.0	2	0	[]
7995	6	1	8	60.0	2	0	[]
7996	13	4	8	60.0	2	0	[]
7998	81	1	8	60.0	0	6	[(725, 2), (6819, 2), (8102, 2), (9123, 2), (5438, 2), (4420, 0)]
7999	1	1	8	60.0	2	0	[]
8000	1	1	8	60.0	2	0	[]
8002	10	2	8	60.0	2	0	[]
8007	2	4	8	60.0	2	0	[]
8008	1	4	8	60.0	2	0	[]
8010	2	1	8	60.0	2	0	[]
8013	2	1	1	60.0	2	0	[]
8019	2	1	2	60.0	2	0	[]
8020	1	3	8	60.0	2	0	[]
8022	2	1	2	60.0	2	0	[]
8024	1	1	5	60.0	2	0	[]
8027	2	4	8	60.0	2	0	[]
8030	2	1	2	60.0	2	0	[]
8035	2	1	8	60.0	2	0	[]
8038	3	3	8	60.0	2	0	[]
8040	2	1	8	60.0	2	0	[]
8043	2	1	6	60.0	2	0	[]
8051	6	4	8	60.0	2	0	[]
8056	2	1	8	60.0	2	0	[]
8057	6	3	8	100.0	2	0	[]
8059	2	4	8	60.0	2	0	[]
8064	2	1	8	60.0	2	0	[]
8066	1	2	8	60.0	2	0	[]
8070	4	1	8	60.0	2	0	[]
8071	1	1	2	60.0	2	0	[]
8073	6	2	8	60.0	2	1	[(2143, 2)]
8076	4	2	16	100.0	2	0	[]
8077	2	1	2	60.0	2	0	[]
8079	1	2	8	60.0	2	0	[]
8101	8	3	8	60.0	2	0	[]
8102	2	1	4	60.0	2	0	[]
8106	36	2	8	60.0	2	10	[(701, 2), (945, 0), (3220, 1), (1046, 0), (7414, 0), (290, 2), (8842, 0), (2767, 1), (4749, 0), (2143, 1)]
8110	2	1	8	100.0	2	0	[]
8111	2	1	8	60.0	2	0	[]
8113	4	1	16	100.0	2	1	[(5929, 1)]
8117	2	2	8	60.0	2	0	[]
8122	10	1	2	60.0	2	2	[(5980, 0), (2788, 0)]
8132	10	5	8	60.0	2	0	[]
8134	2	1	8	60.0	2	0	[]
8137	4	3	8	60.0	2	0	[]
8142	6	1	8	60.0	2	0	[]
8148	23	3	8	60.0	2	0	[]
8153	3	1	8	60.0	2	0	[]
8164	1	1	8	60.0	2	0	[]
8165	4	1	4	60.0	2	1	[(6659, 0)]
8179	1	4	8	60.0	2	0	[]
8183	1	1	8	60.0	2	0	[]
8188	2	1	8	80.0	2	0	[]
8192	1	3	3	60.0	2	0	[]
8194	18	2	8	60.0	2	0	[]
8206	2	1	8	60.0	2	0	[]
8210	2	1	8	60.0	2	0	[]
8214	1	4	8	60.0	2	0	[]
8216	2	1	8	60.0	2	0	[]
8217	4	6	8	100.0	2	0	[]
8219	4	1	8	60.0	2	0	[]
8225	2	1	8	60.0	2	0	[]
8228	4	1	8	60.0	2	0	[]
8231	3	1	8	60.0	2	0	[]
8233	1	1	8	60.0	2	0	[]
8235	3	1	8	60.0	2	0	[]
8238	12	1	8	60.0	2	0	[]
8239	2	1	8	60.0	2	0	[]
8243	9	3	8	60.0	2	0	[]
8245	2	1	8	60.0	2	0	[]
8247	2	1	8	60.0	2	0	[]
8248	3	1	8	60.0	2	1	[(4996, 2)]
8250	2	1	8	60.0	2	0	[]
8255	2	1	8	60.0	2	0	[]
8260	6	6	8	100.0	2	0	[]
8264	2	2	8	60.0	2	0	[]
8265	5	5	8	60.0	2	0	[]
8271	2	1	2	60.0	2	0	[]
8278	3	3	7	60.0	2	0	[]
8282	2	1	8	60.0	2	0	[]
8284	2	1	8	60.0	2	0	[]
8287	18	3	8	40.0	2	0	[]
8291	32	2	8	60.0	2	1	[(7414, 2)]
8292	2	2	8	60.0	2	0	[]
8293	25	1	16	60.0	2	1	[(6659, 0)]
8294	1	1	8	60.0	2	0	[]
8311	1	4	8	60.0	2	0	[]
8316	2	1	18	100.0	2	0	[]
8318	1	1	1	60.0	2	0	[]
8324	44	8	16	100.0	2	2	[(4169, 0), (8842, 0)]
8325	2	4	8	60.0	2	0	[]
8326	2	1	8	60.0	2	0	[]
8333	10	2	16	80.0	2	2	[(2668, 0), (3526, 0)]
8336	2	2	8	60.0	2	0	[]
8338	6	1	2	100.0	2	0	[]
8342	1	1	8	60.0	2	0	[]
8344	2	1	8	60.0	2	0	[]
8345	2	1	8	60.0	2	0	[]
8351	1	1	8	60.0	2	0	[]
8354	2	1	5	60.0	2	0	[]
8358	1	1	8	60.0	2	0	[]
8361	2	2	16	200.0	2	0	[]
8365	7	1	8	60.0	2	3	[(7798, 2), (2701, 2), (3001, 2)]
8369	2	1	8	60.0	2	0	[]
8378	6	1	2	60.0	2	0	[]
8382	1	1	2	60.0	2	0	[]
8384	2	1	2	60.0	2	0	[]
8387	1	1	1	60.0	2	0	[]
8390	1	1	8	60.0	2	0	[]
8395	2	1	8	60.0	2	0	[]
8403	2	4	8	60.0	2	0	[]
8406	2	1	8	60.0	2	0	[]
8410	9	2	8	60.0	2	0	[]
8411	2	1	8	60.0	2	0	[]
8418	2	1	8	60.0	2	0	[]
8425	1	1	6	60.0	2	0	[]
8433	2	1	4	60.0	2	0	[]
8435	6	1	8	60.0	2	0	[]
8437	1	1	8	60.0	2	0	[]
8455	2	1	8	60.0	2	0	[]
8460	13	2	8	60.0	2	0	[]
8466	2	2	8	60.0	2	1	[(7279, 1)]
8471	2	1	8	60.0	2	0	[]
8475	14	2	8	60.0	2	0	[]
8476	50	6	8	60.0	2	2	[(6659, 0), (299, 2)]
8478	17	2	8	60.0	2	3	[(4998, 0), (6622, 0), (3987, 0)]
8480	1	1	8	60.0	2	0	[]
8481	6	6	8	60.0	2	0	[]
8484	8	2	8	60.0	2	1	[(6659, 0)]
8487	2	1	8	60.0	2	0	[]
8488	1	1	8	60.0	2	0	[]
8491	4	1	8	60.0	2	0	[]
8495	1	1	8	60.0	2	0	[]
8498	17	1	8	60.0	2	0	[]
8499	4	1	8	60.0	2	0	[]
8500	28	4	8	40.0	0	8	[(3108, 2), (4576, 0), (6663, 2), (7291, 1), (689, 2), (4471, 2), (6659, 0), (1059, 2)]
8503	4	6	8	60.0	2	0	[]
8506	1	1	8	40.0	2	0	[]
8521	2	1	8	60.0	2	0	[]
8525	1	4	8	60.0	2	0	[]
8529	31	4	8	60.0	2	0	[]
8531	4	1	7	60.0	2	0	[]
8537	2	1	8	60.0	2	0	[]
8539	3	2	8	60.0	2	0	[]
8542	3	2	8	60.0	2	0	[]
8549	3	1	2	60.0	2	0	[]
8552	1	1	8	60.0	2	0	[]
8556	8	1	8	60.0	2	3	[(6235, 0), (6710, 0), (2078, 0)]
8560	1	1	8	40.0	2	0	[]
8567	2	1	7	60.0	2	0	[]
8568	1	4	8	100.0	2	0	[]
8571	4	1	8	60.0	2	0	[]
8577	1	4	8	60.0	2	0	[]
8579	3	1	8	60.0	2	0	[]
8582	14	24	32	80.0	2	1	[(6659, 0)]
8584	2	1	8	60.0	2	0	[]
8589	1	16	32	60.0	0	0	[]
8590	4	2	2	60.0	2	0	[]
8592	1	2	9	80.0	2	0	[]
8598	2	1	1	60.0	2	1	[(7504, 2)]
8599	1	1	8	60.0	2	0	[]
8600	1	1	1	60.0	2	0	[]
8601	1	4	8	80.0	2	0	[]
8602	13	1	1	200.0	2	0	[]
8605	6	2	8	60.0	2	0	[]
8610	2	2	8	60.0	2	0	[]
8613	2	1	8	60.0	2	0	[]
8615	1	4	8	60.0	2	0	[]
8616	5	1	2	80.0	2	0	[]
8619	2	6	8	60.0	2	0	[]
8623	1	1	16	60.0	2	0	[]
8628	2	2	8	60.0	2	0	[]
8634	26	2	8	60.0	2	0	[]
8636	3	3	8	60.0	2	0	[]
8640	1	1	8	60.0	2	0	[]
8641	14	6	8	60.0	2	3	[(8284, 0), (1284, 2), (6133, 0)]
8647	4	1	1	60.0	2	0	[]
8648	20	4	8	60.0	2	0	[]
8649	2	1	2	60.0	2	1	[(7590, 2)]
8651	2	1	8	60.0	2	0	[]
8654	1	1	8	60.0	2	0	[]
8656	3	2	8	60.0	2	0	[]
8657	1	1	16	60.0	2	0	[]
8661	2	1	8	60.0	2	0	[]
8665	1	1	3	60.0	2	0	[]
8669	41	4	16	60.0	2	7	[(6695, 0), (2483, 0), (1841, 0), (2501, 0), (2701, 0), (6335, 0), (1404, 0)]
8670	2	1	8	60.0	2	0	[]
8671	7	1	8	60.0	2	0	[]
8679	2	1	1	100.0	2	0	[]
8680	12	1	8	60.0	2	0	[]
8682	2	1	8	60.0	2	0	[]
8686	1	1	1	60.0	2	0	[]
8697	2	1	16	60.0	2	0	[]
8699	1	1	8	60.0	2	0	[]
8701	2	2	8	60.0	2	0	[]
8704	2	4	8	60.0	2	0	[]
8709	5	1	8	60.0	2	0	[]
8713	8	1	4	60.0	2	0	[]
8716	37	5	16	60.0	0	4	[(6025, 0), (737, 2), (5490, 0), (4667, 0)]
8717	44	6	8	60.0	2	0	[]
8719	4	1	7	60.0	2	0	[]
8725	13	1	8	60.0	2	0	[]
8727	1	1	8	60.0	2	0	[]
8731	4	2	8	60.0	2	0	[]
8742	3	1	8	60.0	2	0	[]
8745	2	1	8	60.0	2	0	[]
8747	2	1	8	60.0	2	0	[]
8757	1	1	8	60.0	2	0	[]
8758	2	1	2	40.0	2	0	[]
8768	1	1	6	60.0	2	0	[]
8772	2	1	8	60.0	2	0	[]
8774	25	6	8	60.0	2	1	[(4376, 0)]
8780	2	1	2	60.0	2	0	[]
8781	2	1	8	80.0	2	0	[]
8782	1	1	2	60.0	2	0	[]
8785	1	1	8	60.0	2	0	[]
8788	2	1	8	60.0	2	0	[]
8793	1	1	2	60.0	2	0	[]
8809	2	1	8	60.0	2	0	[]
8811	2	1	8	60.0	2	0	[]
8812	3	1	2	60.0	2	0	[]
8816	59	4	8	60.0	2	4	[(485, 1), (7271, 0), (3904, 2), (6151, 0)]
8817	1	1	8	60.0	2	0	[]
8820	2	4	8	60.0	2	0	[]
8824	3	4	10	60.0	2	1	[(6659, 0)]
8833	1	1	8	60.0	2	0	[]
8839	1	1	8	60.0	2	0	[]
8842	151	2	16	60.0	2	6	[(6659, 0), (7639, 0), (3987, 0), (5958, 1), (5490, 0), (4755, 2)]
8845	2	4	8	60.0	2	0	[]
8846	2	2	8	60.0	2	0	[]
8853	2	1	2	60.0	2	0	[]
8856	3	1	8	60.0	2	0	[]
8866	20	3	8	80.0	2	0	[]
8868	1	3	16	40.0	2	0	[]
8876	1	1	8	60.0	2	0	[]
8888	10	8	16	100.0	2	2	[(2767, 0), (6139, 0)]
8891	1	1	6	60.0	2	0	[]
8895	1	4	8	60.0	2	0	[]
8901	3	1	1	60.0	2	0	[]
8902	1	1	8	60.0	0	1	[(2767, 2)]
8904	24	4	8	60.0	2	1	[(2701, 0)]
8913	1	1	1	60.0	2	0	[]
8915	1	1	8	60.0	2	0	[]
8921	1	1	8	60.0	2	0	[]
8933	2	1	1	60.0	2	0	[]
8943	1	4	8	60.0	2	0	[]
8947	1	1	8	60.0	2	0	[]
8948	2	2	8	60.0	2	0	[]
8949	2	4	8	60.0	2	0	[]
8953	8	1	8	60.0	2	0	[]
8959	2	1	8	60.0	2	1	[(1079, 2)]
8969	1	1	8	60.0	2	0	[]
8973	2	1	8	60.0	2	0	[]
8974	1	1	8	60.0	2	0	[]
8975	2	1	8	80.0	2	0	[]
8977	4	1	8	60.0	2	0	[]
8987	2	1	8	60.0	2	0	[]
8988	1	1	8	60.0	2	0	[]
8993	1	2	8	60.0	2	0	[]
8999	1	1	1	60.0	2	0	[]
9000	1	1	2	60.0	2	0	[]
9003	2	1	8	60.0	2	0	[]
9006	2	1	8	60.0	2	0	[]
9008	1	1	1	40.0	2	0	[]
9010	30	4	8	60.0	2	5	[(5810, 0), (2701, 0), (7426, 0), (2872, 0), (4454, 0)]
9011	9	3	8	60.0	2	0	[]
9013	4	2	8	60.0	2	2	[(1976, 2), (5220, 2)]
9016	4	1	8	60.0	2	0	[]
9018	2	1	2	60.0	2	0	[]
9023	2	1	8	60.0	2	0	[]
9024	1	1	8	60.0	2	1	[(1046, 1)]
9028	2	1	8	60.0	2	0	[]
9034	1	1	8	60.0	2	0	[]
9035	55	3	8	100.0	1	22	[(3565, 1), (4085, 0), (8324, 1), (1476, 2), (3036, 1), (7998, 2), (3795, 1), (4298, 2), (2111, 1), (7993, 2), (341, 2), (5519, 2), (2231, 2), (3008, 2), (5101, 1), (5273, 1), (8669, 1), (6186, 1), (1590, 2), (3555, 2), (1722, 2), (1657, 2)]
9039	2	1	8	60.0	2	0	[]
9044	7	1	8	80.0	2	0	[]
9054	2	1	8	60.0	2	0	[]
9056	1	1	3	60.0	2	0	[]
9059	4	7	3	60.0	2	0	[]
9061	2	4	8	60.0	2	0	[]
9063	1	1	2	60.0	2	0	[]
9065	3	1	8	60.0	2	0	[]
9068	1	4	8	60.0	2	0	[]
9070	3	2	8	60.0	2	0	[]
9072	74	2	8	60.0	2	6	[(8291, 2), (4522, 1), (2767, 2), (2662, 0), (9093, 2), (4996, 1)]
9080	2	1	2	60.0	2	0	[]
9091	7	5	8	60.0	2	0	[]
9092	1	1	8	60.0	2	0	[]
9093	9	1	32	100.0	2	0	[]
9102	1	1	8	60.0	2	0	[]
9107	2	4	8	60.0	2	0	[]
9108	10	1	8	60.0	2	0	[]
9110	7	1	8	60.0	2	0	[]
9120	1	4	8	60.0	2	0	[]
9122	45	3	16	60.0	0	0	[]
9123	4	1	8	60.0	2	0	[]
9131	1	1	3	60.0	2	0	[]
9132	4	1	16	80.0	2	0	[]
9133	8	1	1	60.0	2	0	[]
9145	72	5	10	40.0	0	4	[(6161, 0), (7639, 0), (5490, 0), (8287, 0)]
9148	1	1	7	60.0	2	0	[]
9151	1	1	8	80.0	2	0	[]
9156	25	4	8	60.0	2	8	[(6659, 0), (2565, 0), (3108, 1), (7019, 0), (2767, 2), (8293, 2), (4576, 0), (4754, 2)]
9158	15	2	8	60.0	2	4	[(6474, 0), (7117, 0), (5112, 0), (7401, 0)]
9172	1	1	8	60.0	2	0	[]
9179	2	1	8	60.0	2	0	[]
9181	1	1	8	60.0	2	0	[]
9183	1	1	8	60.0	2	0	[]
9185	2	4	8	60.0	2	0	[]
9186	4	1	8	60.0	2	0	[]
9191	3	1	8	60.0	2	0	[]
9194	4	1	8	60.0	2	0	[]
9207	31	4	16	60.0	2	1	[(6659, 0)]
9208	2	1	8	60.0	2	0	[]
9210	1	1	8	60.0	2	0	[]
9211	2	1	8	60.0	2	0	[]
9216	5	2	8	60.0	2	2	[(7279, 0), (290, 0)]
9222	2	1	7	60.0	2	0	[]
9227	1	4	8	60.0	2	0	[]
9229	1	4	8	60.0	2	0	[]
9230	2	1	1	60.0	2	0	[]
9237	1	1	2	60.0	2	0	[]
9238	1	4	8	60.0	2	0	[]
9248	1	1	8	60.0	2	0	[]
9255	1	1	8	60.0	2	0	[]
9259	5	1	8	60.0	2	1	[(7998, 0)]
9260	2	2	8	60.0	2	0	[]
9261	1	1	8	60.0	2	0	[]
9262	2	1	8	60.0	2	0	[]
9263	1	4	8	60.0	2	0	[]
9275	3	1	8	60.0	2	0	[]
9284	2	1	2	60.0	2	0	[]
9285	5	1	8	60.0	2	1	[(6659, 0)]
9294	1	1	8	60.0	2	0	[]
9296	2	1	6	60.0	2	0	[]
9300	2	4	8	60.0	2	0	[]
9301	2	1	8	60.0	2	0	[]
9306	1	1	8	60.0	2	0	[]
9307	2	6	8	60.0	2	0	[]
9317	2	1	8	60.0	2	0	[]
9318	2	2	4	60.0	2	0	[]
9324	12	1	8	100.0	2	0	[]
9327	3	1	8	60.0	2	0	[]
9333	2	1	8	60.0	2	0	[]
9335	1	5	8	60.0	2	0	[]
9336	8	1	2	80.0	2	0	[]
