app_id	nb_instances	core	memory	disk	intra_value	inter_degree	inter_aff
2	1	1	8	60.0	2	0	[]
24	2	2	8	60.0	2	0	[]
56	5	1	8	60.0	2	0	[]
57	1	4	8	60.0	2	0	[]
74	2	1	9	600.0	2	0	[]
121	5	1	8	60.0	2	0	[]
162	1	1	7	60.0	2	0	[]
168	1	1	8	60.0	2	0	[]
170	2	1	2	60.0	2	0	[]
177	1	1	8	60.0	2	0	[]
178	1	1	8	60.0	2	0	[]
189	1	1	8	60.0	2	0	[]
199	2	1	2	60.0	2	0	[]
215	2	1	8	60.0	2	0	[]
247	1	4	8	60.0	2	0	[]
278	5	1	8	60.0	2	0	[]
317	6	2	8	60.0	2	0	[]
330	2	1	10	40.0	2	0	[]
338	27	3	2	80.0	2	0	[]
394	2	1	8	60.0	2	0	[]
402	3	1	8	60.0	2	0	[]
424	18	2	8	60.0	2	0	[]
465	3	1	8	60.0	2	0	[]
474	2	1	8	60.0	2	0	[]
481	2	1	3	60.0	2	0	[]
493	6	1	8	60.0	2	0	[]
504	1	1	8	60.0	2	0	[]
536	51	2	8	167.0	2	10	[(1031, 0), (1640, 0), (7009, 0), (5106, 0), (3526, 0), (2850, 0), (3654, 0), (5684, 0), (3349, 0), (3292, 2)]
553	1	1	8	60.0	2	0	[]
562	33	2	8	60.0	2	0	[]
613	13	6	8	60.0	2	0	[]
621	1	1	8	60.0	2	0	[]
670	2	1	5	60.0	2	0	[]
703	8	1	8	60.0	2	0	[]
715	4	1	8	60.0	2	0	[]
735	1	1	8	60.0	2	0	[]
741	2	1	8	60.0	2	0	[]
769	12	4	2	100.0	2	0	[]
778	2	1	8	60.0	2	0	[]
785	2	1	1	60.0	2	0	[]
836	3	3	8	60.0	2	0	[]
865	4	3	8	60.0	2	0	[]
882	1	4	8	60.0	2	0	[]
895	14	3	8	60.0	2	1	[(6409, 0)]
912	1	1	2	60.0	2	0	[]
944	1	1	8	60.0	2	0	[]
945	21	1	8	60.0	2	0	[]
990	1	1	7	60.0	2	0	[]
996	2	1	8	60.0	2	0	[]
1031	6	2	2	60.0	2	0	[]
1048	4	1	8	60.0	2	0	[]
1074	1	1	2	60.0	2	0	[]
1084	2	1	8	60.0	2	0	[]
1099	15	1	2	60.0	2	0	[]
1119	3	5	8	100.0	2	0	[]
1133	1	1	8	60.0	2	0	[]
1147	4	1	8	60.0	2	0	[]
1172	3	1	8	60.0	2	0	[]
1173	53	3	8	60.0	2	1	[(2458, 2)]
1184	2	1	2	60.0	2	0	[]
1194	3	1	8	60.0	2	0	[]
1233	4	1	8	60.0	2	0	[]
1249	2	4	8	60.0	2	0	[]
1270	3	1	3	60.0	2	0	[]
1289	1	4	8	60.0	2	0	[]
1354	2	1	8	60.0	2	2	[(5307, 0), (8136, 0)]
1367	17	5	8	60.0	2	1	[(3484, 2)]
1389	8	1	1	60.0	2	0	[]
1471	1	1	8	60.0	2	0	[]
1475	4	3	8	40.0	2	0	[]
1490	1	1	8	60.0	2	0	[]
1519	1	1	8	60.0	2	0	[]
1533	3	1	8	60.0	2	0	[]
1544	8	1	8	60.0	2	0	[]
1550	2	1	8	60.0	2	0	[]
1598	2	1	8	60.0	2	0	[]
1640	13	2	8	60.0	2	0	[]
1677	2	2	8	60.0	2	0	[]
1689	2	1	8	60.0	2	0	[]
1773	11	5	2	60.0	2	0	[]
1795	4	1	2	60.0	2	0	[]
1796	15	4	3	60.0	2	0	[]
1812	1	1	8	60.0	2	0	[]
1826	1	1	16	60.0	2	0	[]
1850	1	2	10	40.0	2	0	[]
1880	2	1	4	60.0	2	0	[]
1901	4	1	8	60.0	2	0	[]
1936	5	6	8	40.0	2	0	[]
1955	18	3	3	300.0	2	0	[]
1960	2	1	8	60.0	2	0	[]
1966	1	4	8	60.0	2	0	[]
1968	2	1	8	60.0	2	0	[]
1978	5	1	8	60.0	2	0	[]
1979	4	2	8	60.0	2	0	[]
1992	1	4	8	60.0	2	0	[]
1999	2	1	2	60.0	2	0	[]
2023	2	2	8	60.0	2	0	[]
2029	55	2	8	60.0	2	0	[]
2091	2	1	8	60.0	2	0	[]
2136	2	2	8	60.0	2	0	[]
2137	1	1	8	60.0	2	0	[]
2140	7	1	8	60.0	2	0	[]
2155	6	4	2	100.0	2	0	[]
2163	2	1	8	60.0	2	0	[]
2187	3	1	8	60.0	2	0	[]
2190	1	1	1	60.0	2	0	[]
2212	2	1	8	60.0	2	0	[]
2213	2	2	8	60.0	2	0	[]
2252	2	3	8	60.0	2	0	[]
2254	2	1	8	80.0	2	0	[]
2257	7	2	8	80.0	2	0	[]
2274	4	2	8	40.0	2	0	[]
2287	1	1	16	80.0	2	0	[]
2304	1	1	2	60.0	2	0	[]
2322	2	1	3	60.0	2	0	[]
2338	3	1	8	60.0	2	0	[]
2350	2	1	8	60.0	2	0	[]
2359	1	1	8	60.0	2	0	[]
2389	1	4	8	60.0	2	0	[]
2426	2	1	8	60.0	2	0	[]
2429	3	1	8	60.0	2	0	[]
2430	3	4	8	60.0	2	0	[]
2446	4	1	8	60.0	2	0	[]
2458	5	1	2	60.0	2	0	[]
2463	5	1	8	60.0	2	0	[]
2486	519	6	8	100.0	2	1	[(2029, 0)]
2582	2	1	2	60.0	2	0	[]
2583	2	1	8	60.0	2	0	[]
2593	29	6	8	60.0	2	9	[(7368, 0), (199, 0), (3337, 0), (7210, 0), (1796, 0), (3349, 0), (7009, 0), (9192, 0), (5684, 0)]
2602	1	1	2	60.0	2	0	[]
2613	8	1	8	60.0	2	0	[]
2619	1	1	2	60.0	2	0	[]
2620	5	5	16	60.0	2	0	[]
2673	2	1	8	60.0	2	0	[]
2687	1	1	8	60.0	2	0	[]
2707	2	4	8	60.0	2	0	[]
2711	1	1	8	60.0	2	0	[]
2724	2	2	8	60.0	2	0	[]
2734	2	1	8	60.0	2	0	[]
2754	4	3	8	60.0	2	0	[]
2771	2	1	8	60.0	2	0	[]
2783	2	1	8	60.0	2	0	[]
2812	1	1	3	60.0	2	0	[]
2821	1	1	8	60.0	2	0	[]
2838	1	1	7	60.0	2	0	[]
2849	4	1	8	60.0	2	0	[]
2850	67	3	8	40.0	2	3	[(3414, 0), (2593, 1), (5260, 0)]
2903	2	1	8	60.0	2	0	[]
2912	3	3	8	60.0	2	0	[]
2926	2	4	8	60.0	2	0	[]
2934	1	1	8	60.0	2	0	[]
2959	2	1	8	60.0	2	0	[]
2967	2	5	8	60.0	2	0	[]
2972	1	1	8	60.0	2	0	[]
2974	2	1	1	60.0	2	0	[]
2986	2	4	8	60.0	2	0	[]
2990	1	1	8	60.0	2	0	[]
3009	24	3	8	60.0	2	1	[(3490, 0)]
3034	2	1	8	60.0	2	0	[]
3035	1	1	3	60.0	2	0	[]
3039	1	11	16	60.0	2	3	[(3414, 1), (7045, 2), (6060, 2)]
3047	5	1	8	60.0	2	0	[]
3172	6	1	16	80.0	2	0	[]
3183	200	12	16	100.0	2	0	[]
3194	2	1	8	60.0	2	0	[]
3199	147	4	8	60.0	2	0	[]
3204	6	1	8	60.0	2	0	[]
3212	3	2	8	60.0	2	0	[]
3215	1	4	8	100.0	2	0	[]
3251	3	1	8	300.0	2	0	[]
3290	82	2	8	60.0	2	0	[]
3292	8	3	8	40.0	2	0	[]
3302	4	6	8	60.0	2	0	[]
3306	6	2	8	60.0	2	0	[]
3337	8	3	2	60.0	2	0	[]
3349	116	12	16	60.0	0	1	[(1640, 0)]
3358	5	1	8	60.0	2	0	[]
3382	3	1	8	60.0	2	0	[]
3412	1	1	8	60.0	2	0	[]
3414	77	12	16	60.0	2	4	[(7045, 2), (2850, 0), (3039, 1), (6060, 2)]
3416	3	1	8	60.0	2	0	[]
3436	1	1	8	60.0	2	0	[]
3446	1	1	8	60.0	2	0	[]
3458	1	2	2	60.0	2	0	[]
3484	5	1	16	60.0	2	0	[]
3490	22	1	8	60.0	2	1	[(6732, 2)]
3498	1	2	8	60.0	2	0	[]
3502	1	1	8	60.0	2	0	[]
3505	4	2	8	60.0	2	0	[]
3523	6	2	8	60.0	2	0	[]
3526	63	6	8	60.0	2	0	[]
3527	2	3	8	60.0	2	0	[]
3567	1	4	8	80.0	2	0	[]
3574	32	9	16	60.0	0	0	[]
3607	2	1	8	60.0	2	0	[]
3654	122	3	8	40.0	1	2	[(6880, 0), (8429, 2)]
3668	3	1	8	60.0	2	0	[]
3689	2	1	8	60.0	2	0	[]
3694	2	1	8	60.0	2	0	[]
3698	1	16	32	200.0	0	0	[]
3705	20	6	8	60.0	2	0	[]
3733	1	2	8	60.0	2	0	[]
3737	2	1	8	60.0	2	0	[]
3739	1	1	1	60.0	2	0	[]
3787	3	1	12	60.0	2	0	[]
3850	2	1	8	60.0	2	0	[]
3851	29	6	8	60.0	2	0	[]
3884	2	1	8	60.0	2	0	[]
3934	1	4	8	167.0	2	0	[]
3936	6	3	8	60.0	2	0	[]
3956	2	1	8	60.0	2	0	[]
3967	1	4	8	60.0	2	0	[]
3971	1	1	8	60.0	2	0	[]
3978	1	2	8	60.0	2	0	[]
4010	1	1	8	60.0	2	0	[]
4017	2	1	4	60.0	2	0	[]
4026	11	3	8	60.0	2	13	[(6935, 1), (8102, 0), (3290, 2), (2613, 1), (4287, 1), (8717, 2), (4860, 1), (3851, 2), (1099, 1), (3523, 0), (3251, 1), (5283, 1), (3484, 1)]
4033	1	1	8	60.0	2	0	[]
4041	6	3	8	40.0	2	0	[]
4049	2	2	8	60.0	2	0	[]
4080	3	1	2	60.0	2	0	[]
4111	2	4	8	60.0	2	0	[]
4112	1	8	16	200.0	2	0	[]
4116	2	1	8	60.0	2	0	[]
4163	1	1	8	60.0	2	0	[]
4188	4	1	8	60.0	2	0	[]
4204	1	4	8	60.0	2	0	[]
4240	5	1	8	60.0	2	0	[]
4244	2	1	8	60.0	2	0	[]
4265	2	4	8	60.0	2	0	[]
4278	1	1	8	60.0	2	0	[]
4285	1	1	8	60.0	2	0	[]
4287	5	22	32	80.0	2	0	[]
4293	1	1	8	60.0	2	0	[]
4308	2	24	48	300.0	2	0	[]
4311	3	1	8	60.0	2	0	[]
4321	5	1	8	60.0	2	0	[]
4352	2	2	8	60.0	2	0	[]
4384	1	1	8	60.0	2	0	[]
4385	4	1	8	60.0	2	0	[]
4410	2	1	8	60.0	2	0	[]
4466	1	1	8	60.0	2	0	[]
4504	2	1	8	60.0	2	0	[]
4512	3	2	8	60.0	2	0	[]
4546	2	4	8	60.0	2	0	[]
4579	4	1	8	60.0	2	0	[]
4599	2	1	8	60.0	2	0	[]
4609	2	1	4	60.0	2	0	[]
4621	2	1	8	60.0	2	0	[]
4675	1	1	16	60.0	2	0	[]
4678	15	6	3	60.0	2	1	[(536, 0)]
4721	3	1	8	60.0	2	0	[]
4732	2	2	8	60.0	2	0	[]
4735	2	1	8	60.0	2	0	[]
4741	7	1	1	60.0	2	1	[(8148, 0)]
4751	2	1	8	60.0	2	0	[]
4760	51	2	8	60.0	2	0	[]
4771	4	2	8	60.0	2	0	[]
4773	3	3	8	60.0	2	0	[]
4775	1	1	1	60.0	2	0	[]
4779	4	1	1	60.0	2	0	[]
4808	6	12	16	100.0	2	0	[]
4811	2	1	8	60.0	2	0	[]
4817	1	1	2	60.0	2	0	[]
4852	1	4	8	60.0	2	0	[]
4860	2	1	8	60.0	2	0	[]
4871	1	1	8	60.0	2	0	[]
4875	2	1	8	60.0	2	0	[]
4893	1	1	8	60.0	2	0	[]
4922	1	1	1	60.0	2	0	[]
4929	4	3	8	60.0	2	0	[]
4931	5	1	8	60.0	2	0	[]
4943	6	36	30	300.0	2	0	[]
4949	2	1	8	60.0	2	0	[]
4955	4	4	8	60.0	2	0	[]
4971	3	4	8	60.0	2	0	[]
5000	2	1	8	60.0	2	0	[]
5015	1	2	8	40.0	2	0	[]
5018	1	1	1	60.0	2	0	[]
5054	10	6	8	60.0	2	0	[]
5068	2	1	8	60.0	2	0	[]
5106	5	3	24	60.0	2	0	[]
5124	2	1	8	60.0	2	0	[]
5125	7	2	2	60.0	2	0	[]
5136	2	4	8	60.0	2	0	[]
5149	2	2	8	60.0	2	0	[]
5162	2	1	8	60.0	2	0	[]
5167	2	1	8	60.0	2	0	[]
5174	1	1	2	60.0	2	0	[]
5196	1	1	8	60.0	2	0	[]
5202	2	4	8	60.0	2	0	[]
5243	1	1	2	60.0	2	0	[]
5260	5	3	8	60.0	2	2	[(2850, 0), (8221, 0)]
5283	21	1	16	60.0	2	0	[]
5307	4	1	8	60.0	2	2	[(1354, 0), (8136, 0)]
5346	9	2	8	60.0	2	0	[]
5352	1	1	6	60.0	2	0	[]
5356	1	16	32	80.0	0	0	[]
5422	1	1	2	60.0	2	0	[]
5446	5	1	8	60.0	2	0	[]
5464	2	3	8	60.0	2	0	[]
5481	6	1	8	60.0	2	1	[(536, 2)]
5487	2	1	2	60.0	2	0	[]
5520	1	1	8	60.0	2	0	[]
5525	3	1	8	60.0	2	0	[]
5564	15	2	8	60.0	2	0	[]
5569	1	4	8	60.0	2	0	[]
5586	1	4	8	60.0	2	0	[]
5674	2	1	2	60.0	2	0	[]
5684	46	3	16	60.0	2	1	[(8221, 0)]
5727	1	4	8	60.0	2	0	[]
5735	1	1	8	40.0	2	0	[]
5749	1	4	8	60.0	2	0	[]
5772	11	2	8	60.0	2	0	[]
5790	1	1	2	60.0	2	0	[]
5825	2	2	8	60.0	2	0	[]
5826	6	1	8	60.0	2	0	[]
5834	5	1	8	60.0	2	0	[]
5844	2	1	8	60.0	2	0	[]
5888	4	1	1	60.0	2	0	[]
5893	1	1	16	60.0	2	0	[]
5894	2	1	8	60.0	2	1	[(5968, 1)]
5904	2	1	7	60.0	2	0	[]
5907	1	1	8	60.0	2	0	[]
5924	2	1	7	60.0	2	0	[]
5927	2	1	2	60.0	2	0	[]
5968	3	1	8	60.0	2	0	[]
5970	3	1	8	60.0	2	0	[]
5981	3	1	8	60.0	2	0	[]
6018	2	1	8	60.0	2	0	[]
6060	1	2	16	60.0	1	3	[(3414, 1), (7045, 2), (3039, 1)]
6105	2	6	8	60.0	2	0	[]
6126	1	1	8	60.0	2	0	[]
6142	1	1	1	60.0	2	0	[]
6143	3	1	8	60.0	2	0	[]
6154	1	4	8	60.0	2	0	[]
6158	2	1	8	60.0	2	0	[]
6202	1	1	8	60.0	2	0	[]
6205	1	1	8	60.0	2	0	[]
6214	1	1	1	60.0	2	0	[]
6217	2	1	8	60.0	2	0	[]
6245	1	1	7	60.0	2	0	[]
6254	1	1	8	60.0	2	0	[]
6260	1	1	1	60.0	2	0	[]
6262	2	1	8	60.0	2	0	[]
6280	3	5	8	60.0	2	0	[]
6282	7	2	8	60.0	2	0	[]
6290	1	1	16	60.0	2	0	[]
6295	14	4	8	40.0	2	1	[(6018, 2)]
6315	1	4	8	60.0	2	0	[]
6333	1	1	8	60.0	2	0	[]
6357	3	1	8	80.0	2	0	[]
6380	3	1	8	60.0	2	0	[]
6392	5	3	8	100.0	2	0	[]
6399	1	1	8	60.0	2	0	[]
6409	10	1	16	60.0	2	0	[]
6426	4	1	8	60.0	2	0	[]
6445	1	1	8	60.0	2	0	[]
6449	1	1	8	60.0	2	0	[]
6454	2	1	5	60.0	2	0	[]
6459	1	1	8	60.0	2	0	[]
6464	2	1	8	60.0	2	0	[]
6467	1	4	8	40.0	0	0	[]
6470	2	2	8	60.0	2	0	[]
6477	14	1	8	100.0	2	0	[]
6499	2	2	8	60.0	2	0	[]
6504	2	2	8	60.0	2	0	[]
6512	1	1	2	60.0	2	0	[]
6547	1	1	8	60.0	2	0	[]
6556	1	1	8	60.0	2	0	[]
6574	1	1	2	60.0	2	0	[]
6576	2	1	4	500.0	2	0	[]
6583	3	1	8	60.0	2	0	[]
6594	1	1	8	60.0	2	0	[]
6638	2	1	8	60.0	2	0	[]
6644	2	1	2	60.0	2	0	[]
6649	1	4	8	60.0	2	0	[]
6661	5	2	8	60.0	2	1	[(2850, 0)]
6666	2	1	4	60.0	2	0	[]
6670	3	1	8	60.0	2	0	[]
6707	3	1	7	60.0	2	0	[]
6727	1	4	8	60.0	2	0	[]
6732	4	1	8	60.0	2	0	[]
6813	1	1	1	60.0	2	0	[]
6849	1	1	8	60.0	2	0	[]
6859	2	1	8	60.0	2	0	[]
6880	75	2	8	40.0	2	0	[]
6895	6	1	8	60.0	2	0	[]
6916	23	2	8	80.0	2	0	[]
6935	12	1	8	100.0	2	0	[]
6963	2	1	4	60.0	2	0	[]
6988	1	1	8	60.0	2	0	[]
7009	7	2	8	60.0	2	0	[]
7045	2	2	16	60.0	2	1	[(6060, 3)]
7060	1	1	8	60.0	2	0	[]
7074	8	1	1	80.0	2	0	[]
7082	1	1	8	60.0	2	0	[]
7095	3	4	8	60.0	2	0	[]
7126	2	1	1	60.0	2	0	[]
7173	1	4	8	60.0	2	0	[]
7175	1	1	1	60.0	2	0	[]
7197	2	1	8	60.0	2	0	[]
7205	1	1	8	60.0	2	0	[]
7210	6	2	8	60.0	2	0	[]
7237	2	1	8	60.0	2	0	[]
7300	1	1	8	60.0	2	0	[]
7308	1	1	2	60.0	2	0	[]
7368	5	2	8	60.0	2	0	[]
7378	1	4	8	60.0	2	0	[]
7478	2	1	8	60.0	2	0	[]
7500	22	1	8	60.0	2	0	[]
7512	2	1	8	60.0	2	0	[]
7520	4	11	16	200.0	2	0	[]
7539	2	1	8	60.0	2	0	[]
7554	4	1	8	60.0	2	0	[]
7574	4	1	8	60.0	2	0	[]
7588	2	2	16	60.0	0	0	[]
7598	1	1	8	60.0	2	0	[]
7622	39	3	8	60.0	2	1	[(6295, 2)]
7623	3	1	8	60.0	2	0	[]
7637	1	1	12	80.0	2	0	[]
7643	6	1	8	60.0	2	0	[]
7655	3	1	8	60.0	2	0	[]
7657	2	4	8	60.0	2	0	[]
7700	67	21	48	300.0	2	0	[]
7808	6	1	8	60.0	2	0	[]
7817	1	1	8	60.0	2	0	[]
7859	1	4	8	60.0	2	0	[]
7870	4	2	8	80.0	2	0	[]
7884	1	1	1	60.0	2	0	[]
7903	1	1	4	60.0	2	0	[]
7934	2	1	8	60.0	2	0	[]
7938	3	4	8	167.0	2	0	[]
7944	2	1	8	100.0	2	0	[]
7978	2	2	1	60.0	2	0	[]
7999	1	1	8	60.0	2	0	[]
8002	10	2	8	60.0	2	0	[]
8018	1	1	8	60.0	2	0	[]
8034	2	1	2	60.0	2	0	[]
8039	1	1	1	60.0	2	0	[]
8059	2	4	8	60.0	2	0	[]
8072	4	1	8	60.0	2	0	[]
8085	6	1	8	60.0	2	0	[]
8096	1	4	8	60.0	2	0	[]
8102	2	1	4	60.0	2	0	[]
8113	4	1	16	100.0	2	0	[]
8120	2	1	8	60.0	2	0	[]
8133	2	2	5	60.0	2	0	[]
8136	1	1	1	60.0	2	2	[(5307, 0), (1354, 0)]
8145	2	6	8	60.0	2	0	[]
8148	23	3	8	60.0	2	0	[]
8165	4	1	4	60.0	2	0	[]
8211	2	1	8	60.0	2	0	[]
8221	34	3	16	100.0	2	0	[]
8266	4	1	8	100.0	2	0	[]
8289	1	4	8	60.0	2	0	[]
8330	1	1	8	60.0	2	0	[]
8342	1	1	8	60.0	2	0	[]
8348	2	1	8	60.0	2	0	[]
8369	2	1	8	60.0	2	0	[]
8371	2	1	8	60.0	2	0	[]
8429	50	1	16	60.0	2	0	[]
8432	2	1	8	60.0	2	0	[]
8443	6	6	7	60.0	2	0	[]
8477	1	1	8	60.0	2	0	[]
8484	8	2	8	60.0	2	0	[]
8516	1	1	1	60.0	2	0	[]
8520	6	2	8	60.0	2	0	[]
8557	1	1	8	60.0	2	0	[]
8559	2	32	128	600.0	2	0	[]
8560	1	1	8	40.0	2	0	[]
8579	3	1	8	60.0	2	0	[]
8584	2	1	8	60.0	2	0	[]
8620	1	16	32	80.0	2	0	[]
8630	2	1	8	60.0	2	0	[]
8638	3	3	8	60.0	2	0	[]
8651	2	1	8	60.0	2	0	[]
8701	2	2	8	60.0	2	0	[]
8717	44	6	8	60.0	2	0	[]
8733	2	1	8	60.0	2	0	[]
8793	1	1	2	60.0	2	0	[]
8797	2	1	8	60.0	2	0	[]
8800	2	1	3	60.0	2	0	[]
8835	1	1	8	60.0	2	0	[]
8855	5	3	8	60.0	2	1	[(338, 2)]
8875	1	1	8	60.0	2	0	[]
8877	1	1	2	60.0	2	0	[]
8912	2	1	8	60.0	2	0	[]
8945	4	1	8	60.0	2	0	[]
9039	2	1	8	60.0	2	0	[]
9054	2	1	8	60.0	2	0	[]
9064	6	1	8	60.0	2	0	[]
9091	7	5	8	60.0	2	0	[]
9141	2	1	8	60.0	2	0	[]
9176	7	1	16	60.0	2	0	[]
9192	7	1	8	60.0	2	0	[]
9267	1	1	1	60.0	2	0	[]
9291	1	4	8	60.0	2	0	[]
9317	2	1	8	60.0	2	0	[]
9323	1	1	1	40.0	2	0	[]
