app_id	nb_instances	core	memory	disk	intra_value	inter_degree	inter_aff
31	1	1	8	60.0	2	0	[]
35	2	1	8	60.0	2	0	[]
36	1	4	8	60.0	2	0	[]
81	2	1	2	60.0	2	0	[]
93	2	4	8	300.0	2	0	[]
125	3	1	8	60.0	2	0	[]
151	2	1	8	60.0	2	0	[]
153	2	1	8	60.0	2	0	[]
171	1	1	8	60.0	2	0	[]
203	1	1	8	60.0	2	0	[]
206	2	4	8	60.0	2	0	[]
224	5	3	8	60.0	2	0	[]
225	2	2	8	60.0	2	0	[]
228	2	1	8	60.0	2	0	[]
257	1	3	8	60.0	2	0	[]
271	3	2	8	60.0	2	0	[]
304	1	1	8	60.0	2	0	[]
346	3	1	8	60.0	2	0	[]
353	2	1	8	60.0	2	0	[]
363	1	1	8	60.0	2	0	[]
383	1	1	8	60.0	2	0	[]
404	2	1	8	60.0	2	0	[]
411	5	1	8	100.0	2	0	[]
423	4	2	8	60.0	2	0	[]
434	1	2	16	60.0	1	0	[]
450	5	1	8	60.0	2	0	[]
485	3	1	8	60.0	2	0	[]
532	1	1	8	60.0	2	0	[]
559	1	1	8	60.0	2	0	[]
570	8	1	8	60.0	2	0	[]
588	2	5	2	60.0	2	0	[]
599	4	3	8	40.0	2	0	[]
620	2	2	4	60.0	2	0	[]
667	2	1	8	60.0	2	0	[]
669	2	1	8	60.0	2	0	[]
690	2	1	8	60.0	2	0	[]
704	61	5	32	60.0	2	1	[(1637, 1)]
750	2	1	8	60.0	2	0	[]
772	1	1	8	60.0	2	0	[]
846	6	2	8	40.0	2	0	[]
891	2	1	8	60.0	2	0	[]
927	1	1	8	60.0	2	0	[]
957	1	1	1	60.0	2	0	[]
979	2	4	8	60.0	2	0	[]
1032	2	1	8	60.0	2	0	[]
1033	4	1	8	60.0	2	1	[(3487, 2)]
1036	4	4	8	300.0	2	0	[]
1038	1	8	16	80.0	2	0	[]
1051	77	5	8	40.0	2	1	[(9127, 0)]
1063	2	1	8	60.0	2	0	[]
1089	2	1	8	60.0	2	0	[]
1094	1	4	8	60.0	2	0	[]
1108	2	1	8	60.0	2	0	[]
1195	98	5	8	60.0	2	0	[]
1199	1	1	8	60.0	2	0	[]
1201	12	6	8	60.0	2	0	[]
1204	2	1	8	60.0	2	0	[]
1217	2	1	6	60.0	2	0	[]
1324	10	6	8	60.0	2	0	[]
1332	1	1	1	60.0	2	0	[]
1334	2	1	8	60.0	2	0	[]
1335	4	1	8	60.0	2	1	[(7255, 0)]
1366	1	1	8	60.0	2	0	[]
1375	3	4	8	60.0	2	0	[]
1400	1	1	8	60.0	2	0	[]
1459	4	2	8	60.0	2	0	[]
1521	1	1	8	167.0	2	0	[]
1532	1	1	16	60.0	2	0	[]
1540	4	1	8	60.0	2	0	[]
1545	2	2	8	60.0	2	0	[]
1564	4	1	2	60.0	2	0	[]
1575	2	1	8	60.0	2	0	[]
1619	1	2	6	60.0	2	0	[]
1628	2	1	2	60.0	2	0	[]
1633	1	1	8	60.0	2	0	[]
1637	137	24	60	60.0	2	1	[(704, 2)]
1645	5	1	8	60.0	2	0	[]
1668	10	2	8	60.0	2	0	[]
1674	2	1	8	60.0	2	0	[]
1699	2	1	8	60.0	2	0	[]
1706	1	4	8	60.0	2	0	[]
1709	1	1	8	60.0	2	0	[]
1714	1	1	7	60.0	2	0	[]
1719	1	1	8	60.0	2	0	[]
1754	2	1	8	60.0	2	0	[]
1758	11	2	2	60.0	2	0	[]
1773	11	5	2	60.0	2	0	[]
1841	4	1	8	60.0	2	0	[]
1847	1	8	8	60.0	2	0	[]
1907	1	1	8	60.0	2	0	[]
1960	2	1	8	60.0	2	0	[]
1992	1	4	8	60.0	2	0	[]
1998	79	12	16	60.0	2	1	[(4736, 2)]
2062	1	1	16	100.0	2	0	[]
2088	2	1	8	60.0	2	0	[]
2171	1	1	8	60.0	2	0	[]
2180	10	1	8	60.0	2	0	[]
2201	2	2	8	60.0	2	0	[]
2245	3	4	8	60.0	2	0	[]
2250	2	1	8	60.0	2	0	[]
2276	1	1	8	60.0	2	0	[]
2296	1	1	8	60.0	2	0	[]
2316	2	1	8	60.0	2	0	[]
2323	1	1	1	60.0	2	0	[]
2339	1	1	8	60.0	2	0	[]
2351	2	4	8	60.0	2	0	[]
2356	6	2	8	60.0	2	0	[]
2377	1	4	8	60.0	2	0	[]
2390	1	1	8	60.0	2	0	[]
2398	1	1	8	60.0	2	0	[]
2405	1	1	8	60.0	2	0	[]
2424	2	1	8	60.0	2	0	[]
2446	4	1	8	60.0	2	0	[]
2457	5	2	8	60.0	2	0	[]
2481	24	12	16	200.0	2	0	[]
2488	42	6	7	60.0	2	9	[(9127, 2), (1195, 1), (2910, 1), (3639, 2), (3199, 1), (4164, 1), (3593, 2), (7441, 2), (5038, 2)]
2529	2	1	8	60.0	2	0	[]
2530	2	12	16	60.0	2	0	[]
2600	12	7	24	150.0	2	0	[]
2633	2	1	8	60.0	2	0	[]
2683	2	1	8	60.0	2	0	[]
2718	2	1	1	600.0	2	0	[]
2759	2	1	8	60.0	2	0	[]
2772	10	12	2	60.0	2	0	[]
2796	1	1	8	60.0	2	0	[]
2805	2	3	13	100.0	2	0	[]
2810	1	2	8	60.0	2	0	[]
2819	4	2	8	60.0	2	0	[]
2860	1	1	8	60.0	2	0	[]
2872	4	1	8	60.0	2	0	[]
2899	5	30	28	300.0	2	0	[]
2910	50	5	8	60.0	2	1	[(7414, 1)]
2942	13	2	8	60.0	2	0	[]
2945	2	1	8	60.0	2	0	[]
2985	1	2	8	40.0	1	0	[]
2989	2	2	8	60.0	2	0	[]
2998	16	2	8	60.0	2	0	[]
3007	4	1	8	60.0	2	0	[]
3037	3	4	8	60.0	2	0	[]
3049	2	2	8	60.0	2	0	[]
3056	1	4	8	60.0	2	0	[]
3059	2	1	8	60.0	2	0	[]
3074	2	1	6	60.0	2	0	[]
3105	13	4	8	40.0	2	0	[]
3158	28	1	8	60.0	2	0	[]
3159	1	1	8	60.0	2	0	[]
3169	126	6	8	60.0	2	1	[(7414, 2)]
3181	1	1	2	100.0	2	0	[]
3186	3	1	8	60.0	2	0	[]
3199	147	4	8	60.0	2	1	[(7414, 2)]
3249	3	1	8	60.0	2	0	[]
3254	2	6	8	60.0	2	0	[]
3300	1	4	8	60.0	2	0	[]
3325	2	2	8	60.0	2	0	[]
3336	8	3	8	60.0	2	0	[]
3397	22	12	16	100.0	2	0	[]
3424	2	1	2	100.0	2	0	[]
3432	1	1	8	60.0	2	0	[]
3449	1	1	16	60.0	0	0	[]
3455	4	3	8	60.0	2	0	[]
3458	1	2	2	60.0	2	0	[]
3459	5	1	8	60.0	2	0	[]
3467	1	1	8	60.0	2	0	[]
3487	196	6	8	60.0	0	3	[(5408, 1), (206, 2), (704, 2)]
3518	1	1	8	60.0	2	0	[]
3519	1	3	8	60.0	2	0	[]
3521	2	12	16	200.0	2	0	[]
3533	1	1	2	60.0	2	0	[]
3536	2	1	8	60.0	2	0	[]
3539	4	1	2	60.0	2	0	[]
3552	1	4	8	60.0	2	0	[]
3564	5	1	8	60.0	2	1	[(2481, 0)]
3584	2	1	8	60.0	2	0	[]
3593	54	4	8	60.0	2	0	[]
3639	6	2	8	60.0	2	0	[]
3673	2	2	8	60.0	2	0	[]
3685	2	1	8	60.0	2	0	[]
3695	2	1	3	60.0	2	0	[]
3701	21	1	8	60.0	2	1	[(3487, 2)]
3716	7	2	16	80.0	2	0	[]
3743	1	4	8	60.0	2	0	[]
3760	1	1	8	60.0	2	0	[]
3773	3	1	8	60.0	2	0	[]
3788	20	2	8	60.0	2	0	[]
3792	2	1	8	80.0	2	0	[]
3798	1	1	8	60.0	2	0	[]
3800	2	1	8	60.0	2	0	[]
3822	1	1	8	60.0	2	0	[]
3826	2	1	8	60.0	2	0	[]
3854	2	1	8	60.0	2	0	[]
3910	1	2	16	60.0	2	0	[]
3921	2	1	8	60.0	2	0	[]
3922	4	4	8	60.0	2	0	[]
3925	1	1	8	60.0	2	0	[]
3968	4	2	8	60.0	2	0	[]
3973	2	4	8	60.0	2	0	[]
3979	19	1	8	60.0	2	0	[]
3998	2	6	8	60.0	2	0	[]
4033	1	1	8	60.0	2	0	[]
4066	2	1	1	60.0	2	0	[]
4106	2	1	8	60.0	2	0	[]
4111	2	4	8	60.0	2	0	[]
4164	4	2	32	80.0	2	0	[]
4188	4	1	8	60.0	2	0	[]
4196	1	4	8	60.0	2	0	[]
4201	2	2	8	60.0	2	0	[]
4202	2	1	7	60.0	2	0	[]
4258	6	2	8	60.0	2	0	[]
4272	2	1	8	60.0	2	0	[]
4316	1	1	8	60.0	2	0	[]
4317	1	1	2	60.0	2	0	[]
4337	21	12	16	60.0	2	0	[]
4347	2	2	8	60.0	2	0	[]
4404	1	4	8	60.0	2	0	[]
4459	12	6	8	60.0	2	0	[]
4480	4	1	8	60.0	2	0	[]
4481	2	1	8	60.0	2	0	[]
4502	2	8	16	60.0	1	0	[]
4511	4	2	8	60.0	2	1	[(1051, 1)]
4516	1	1	8	60.0	2	0	[]
4519	1	1	4	60.0	2	0	[]
4532	2	1	8	60.0	2	0	[]
4538	2	1	8	60.0	2	0	[]
4572	3	1	8	60.0	2	0	[]
4580	4	12	24	60.0	2	0	[]
4583	3	1	8	60.0	2	0	[]
4584	2	1	3	60.0	2	0	[]
4620	1	1	8	60.0	2	0	[]
4631	2	1	8	60.0	2	0	[]
4632	4	7	16	60.0	2	0	[]
4638	2	1	8	60.0	2	0	[]
4658	1	1	8	60.0	2	0	[]
4664	3	1	9	80.0	2	0	[]
4673	1	4	8	60.0	2	0	[]
4678	15	6	3	60.0	2	0	[]
4705	2	1	2	60.0	2	0	[]
4733	1	1	8	60.0	2	0	[]
4735	2	1	8	60.0	2	0	[]
4736	2	1	8	60.0	2	0	[]
4748	4	4	8	60.0	2	0	[]
4778	27	2	8	40.0	2	0	[]
4802	4	1	8	60.0	2	0	[]
4803	2	1	8	60.0	2	0	[]
4807	2	1	1	100.0	2	0	[]
4818	1	2	8	60.0	2	0	[]
4821	6	1	8	60.0	2	0	[]
4856	2	4	8	60.0	2	0	[]
4913	7	2	8	60.0	2	0	[]
4920	2	1	8	60.0	2	0	[]
4923	3	36	48	300.0	2	0	[]
4925	6	2	8	60.0	2	0	[]
4928	2	1	8	60.0	2	0	[]
4932	3	2	8	60.0	2	0	[]
4955	4	4	8	60.0	2	0	[]
4958	2	1	9	80.0	2	0	[]
5004	30	3	8	60.0	2	0	[]
5008	2	1	8	60.0	2	0	[]
5015	1	2	8	40.0	2	0	[]
5038	4	1	8	60.0	2	0	[]
5041	3	1	8	60.0	2	0	[]
5071	9	1	8	60.0	2	0	[]
5098	2	1	8	60.0	2	0	[]
5103	4	1	8	60.0	2	0	[]
5108	1	1	2	60.0	2	0	[]
5130	1	1	1	60.0	2	0	[]
5138	7	3	8	60.0	2	0	[]
5158	1	1	8	60.0	2	0	[]
5165	125	12	16	100.0	2	0	[]
5168	4	1	8	167.0	2	0	[]
5171	1	1	8	60.0	2	0	[]
5175	4	1	8	60.0	2	0	[]
5187	2	1	8	60.0	2	0	[]
5219	2	1	8	60.0	2	0	[]
5256	18	5	8	60.0	2	0	[]
5264	145	12	16	60.0	1	4	[(3487, 0), (9127, 0), (1637, 0), (4736, 1)]
5267	14	4	8	60.0	2	0	[]
5281	1	4	8	60.0	2	0	[]
5285	2	1	7	60.0	2	0	[]
5313	9	1	8	60.0	2	0	[]
5330	2	1	8	60.0	2	0	[]
5345	1	1	8	60.0	2	0	[]
5371	1	1	8	60.0	2	0	[]
5378	7	1	8	80.0	2	0	[]
5399	2	4	8	60.0	2	0	[]
5408	2	1	8	60.0	2	0	[]
5433	1	1	8	60.0	2	0	[]
5436	40	6	8	60.0	2	1	[(3159, 2)]
5442	2	1	8	60.0	2	0	[]
5443	4	1	2	60.0	2	0	[]
5460	1	1	1	60.0	2	0	[]
5467	5	1	8	60.0	2	0	[]
5491	2	1	8	60.0	2	0	[]
5501	2	1	8	60.0	2	0	[]
5506	2	1	8	60.0	2	0	[]
5510	1	1	8	60.0	2	0	[]
5522	25	6	8	60.0	0	1	[(2481, 0)]
5523	8	2	8	60.0	2	0	[]
5544	3	2	8	60.0	2	0	[]
5549	1	1	8	60.0	2	0	[]
5575	1	1	2	60.0	2	0	[]
5599	1	4	8	60.0	2	0	[]
5600	5	2	8	60.0	2	0	[]
5604	2	3	8	60.0	2	0	[]
5661	9	6	8	60.0	2	0	[]
5681	2	1	8	60.0	2	0	[]
5713	1	4	16	80.0	2	0	[]
5723	5	1	75	600.0	2	0	[]
5727	1	4	8	60.0	2	0	[]
5734	6	1	8	60.0	2	0	[]
5755	3	2	8	60.0	2	0	[]
5758	1	4	8	60.0	2	0	[]
5766	5	1	8	60.0	2	0	[]
5773	2	1	8	60.0	2	0	[]
5785	2	1	16	80.0	2	0	[]
5792	5	1	8	60.0	2	0	[]
5817	2	1	8	60.0	2	0	[]
5820	154	6	8	60.0	2	1	[(570, 1)]
5823	2	1	8	60.0	2	0	[]
5828	2	1	8	167.0	2	0	[]
5869	2	1	8	60.0	2	0	[]
5876	37	2	8	60.0	2	0	[]
5885	2	1	8	60.0	2	0	[]
5899	1	2	8	60.0	2	0	[]
5984	11	2	8	60.0	2	0	[]
5985	1	4	8	60.0	2	0	[]
6001	1	1	8	60.0	2	0	[]
6006	2	1	8	60.0	2	0	[]
6013	2	1	8	60.0	2	0	[]
6039	2	1	8	60.0	2	0	[]
6044	1	1	8	60.0	2	0	[]
6065	2	1	2	1000.0	2	0	[]
6073	5	3	8	40.0	2	0	[]
6095	17	3	16	200.0	2	0	[]
6180	7	3	8	60.0	2	0	[]
6187	3	1	8	60.0	2	0	[]
6193	1	1	1	60.0	2	0	[]
6226	10	6	8	60.0	2	0	[]
6228	2	2	8	60.0	2	1	[(4733, 2)]
6234	12	1	8	60.0	2	0	[]
6247	2	1	8	60.0	2	0	[]
6274	2	1	8	60.0	2	0	[]
6289	2	1	8	60.0	2	0	[]
6320	2	3	8	60.0	2	0	[]
6335	6	1	8	60.0	2	0	[]
6357	3	1	8	80.0	2	0	[]
6392	5	3	8	100.0	2	0	[]
6403	1	1	8	60.0	2	0	[]
6416	9	2	8	60.0	2	1	[(704, 1)]
6430	1	1	8	60.0	2	0	[]
6435	1	1	1	60.0	2	0	[]
6445	1	1	8	60.0	2	0	[]
6446	3	1	8	60.0	2	0	[]
6464	2	1	8	60.0	2	0	[]
6468	2	1	8	60.0	2	0	[]
6474	15	6	8	60.0	2	1	[(6811, 1)]
6478	7	2	8	60.0	2	0	[]
6509	1	3	2	60.0	2	0	[]
6524	1	1	8	60.0	2	0	[]
6527	1	2	8	60.0	2	0	[]
6574	1	1	2	60.0	2	0	[]
6577	1	1	8	60.0	2	0	[]
6596	2	2	8	60.0	2	0	[]
6637	1	1	8	60.0	2	0	[]
6678	2	1	6	60.0	2	0	[]
6691	1	1	2	60.0	2	0	[]
6702	1	4	8	60.0	2	0	[]
6704	2	1	8	60.0	2	0	[]
6705	1	1	8	60.0	2	0	[]
6772	1	8	16	60.0	2	0	[]
6809	1	4	8	60.0	2	0	[]
6811	1	1	2	60.0	2	0	[]
6826	2	1	8	60.0	2	0	[]
6833	2	2	8	60.0	2	0	[]
6860	3	1	8	60.0	2	0	[]
6894	2	2	8	60.0	2	0	[]
6899	1	3	8	60.0	2	0	[]
6918	1	1	8	60.0	2	0	[]
6937	1	1	8	60.0	2	0	[]
6946	2	1	5	60.0	2	0	[]
7002	2	1	8	60.0	2	0	[]
7040	1	1	8	60.0	2	0	[]
7047	2	1	8	60.0	2	0	[]
7052	8	4	8	60.0	2	0	[]
7053	1	6	12	100.0	2	0	[]
7058	19	9	16	200.0	2	0	[]
7093	2	1	8	60.0	2	0	[]
7109	4	1	8	60.0	2	0	[]
7110	1	1	8	60.0	2	0	[]
7111	2	4	8	60.0	2	0	[]
7119	2	1	8	60.0	2	0	[]
7174	4	1	8	60.0	2	0	[]
7176	6	1	2	60.0	2	0	[]
7180	1	1	8	60.0	2	0	[]
7184	20	2	16	150.0	2	0	[]
7255	45	12	16	100.0	2	0	[]
7272	2	1	8	60.0	2	0	[]
7283	2	1	8	60.0	2	0	[]
7294	1	1	8	60.0	2	0	[]
7295	2	1	8	60.0	2	0	[]
7313	1	1	1	60.0	2	0	[]
7365	1	2	8	40.0	2	0	[]
7381	2	1	8	60.0	2	0	[]
7414	31	3	8	60.0	2	0	[]
7418	2	1	8	60.0	2	0	[]
7419	2	1	8	60.0	2	0	[]
7441	9	3	8	60.0	2	0	[]
7447	20	4	8	60.0	2	1	[(704, 1)]
7448	23	3	8	40.0	2	0	[]
7515	3	1	16	60.0	1	0	[]
7534	2	1	8	60.0	2	0	[]
7539	2	1	8	60.0	2	0	[]
7551	5	2	8	100.0	2	0	[]
7600	1	5	48	500.0	2	0	[]
7609	1	2	4	60.0	2	0	[]
7638	2	1	8	60.0	2	0	[]
7641	7	3	8	60.0	2	0	[]
7661	1	1	2	60.0	2	0	[]
7667	2	1	5	60.0	2	0	[]
7710	2	1	8	60.0	2	0	[]
7723	2	1	2	60.0	2	0	[]
7759	3	1	8	60.0	2	0	[]
7809	8	1	8	60.0	2	0	[]
7811	3	1	8	60.0	2	0	[]
7818	2	1	8	60.0	2	0	[]
7831	7	1	8	80.0	2	0	[]
7844	3	2	8	60.0	2	0	[]
7872	2	4	8	60.0	2	0	[]
7883	2	1	8	60.0	2	0	[]
7898	1	1	8	60.0	2	0	[]
7901	1	1	6	60.0	2	0	[]
7914	4	1	8	60.0	2	0	[]
7917	2	1	8	60.0	2	0	[]
7918	2	1	8	60.0	2	0	[]
7923	2	4	8	60.0	2	0	[]
7939	6	2	3	100.0	2	0	[]
7950	2	4	8	60.0	2	0	[]
7955	2	1	8	60.0	2	0	[]
7958	2	1	8	60.0	2	0	[]
8010	2	1	8	60.0	2	0	[]
8011	3	1	8	60.0	2	0	[]
8042	1	1	1	60.0	2	0	[]
8060	2	1	8	500.0	2	0	[]
8085	6	1	8	60.0	2	0	[]
8101	8	3	8	60.0	2	0	[]
8108	1	1	8	60.0	2	0	[]
8124	6	6	8	60.0	2	0	[]
8147	2	1	8	60.0	2	0	[]
8148	23	3	8	60.0	2	0	[]
8186	2	1	8	60.0	2	0	[]
8204	1	4	8	60.0	2	0	[]
8211	2	1	8	60.0	2	0	[]
8220	2	1	8	60.0	2	0	[]
8224	1	1	8	60.0	2	0	[]
8233	1	1	8	60.0	2	0	[]
8253	12	2	8	60.0	2	0	[]
8269	1	1	8	60.0	2	0	[]
8310	2	3	8	60.0	2	0	[]
8312	42	4	8	40.0	1	1	[(599, 0)]
8334	1	4	8	60.0	2	0	[]
8369	2	1	8	60.0	2	0	[]
8430	13	1	8	40.0	2	0	[]
8538	3	1	8	60.0	2	0	[]
8560	1	1	8	40.0	2	0	[]
8584	2	1	8	60.0	2	0	[]
8622	15	1	8	60.0	2	0	[]
8626	28	3	16	100.0	2	1	[(3593, 0)]
8635	2	1	8	60.0	2	0	[]
8664	3	1	8	60.0	2	0	[]
8668	3	1	8	60.0	2	0	[]
8710	23	4	8	60.0	2	0	[]
8788	2	1	8	60.0	2	0	[]
8797	2	1	8	60.0	2	0	[]
8799	2	1	8	60.0	2	0	[]
8806	2	1	8	60.0	2	0	[]
8853	2	1	2	60.0	2	0	[]
8877	1	1	2	60.0	2	0	[]
8885	2	1	8	60.0	2	0	[]
8932	1	6	8	60.0	2	0	[]
8935	16	2	8	60.0	2	1	[(7052, 0)]
8940	2	1	8	60.0	2	0	[]
8941	2	2	8	60.0	2	0	[]
8946	6	2	8	60.0	2	0	[]
8953	8	1	8	60.0	2	0	[]
9028	2	1	8	60.0	2	0	[]
9045	1	1	8	60.0	2	0	[]
9050	4	2	128	600.0	2	0	[]
9127	37	2	8	40.0	2	0	[]
9140	4	1	8	60.0	2	0	[]
9178	1	4	8	60.0	2	0	[]
9239	1	2	8	60.0	2	0	[]
9263	1	4	8	60.0	2	0	[]
9267	1	1	1	60.0	2	0	[]
9277	3	1	8	60.0	2	0	[]
9290	2	1	8	60.0	2	0	[]
9292	2	3	16	60.0	2	0	[]
9305	2	1	8	60.0	2	0	[]
9313	1	8	32	80.0	0	0	[]
9318	2	2	4	60.0	2	0	[]
9326	1	4	8	80.0	2	0	[]
9336	8	1	2	80.0	2	0	[]
