app_id	nb_instances	core	memory	disk	intra_value	inter_degree	inter_aff
4	2	1	8	60.0	2	0	[]
6	1	1	7	60.0	2	0	[]
18	6	1	8	60.0	2	0	[]
36	1	4	8	60.0	2	0	[]
75	2	1	8	60.0	2	0	[]
100	10	3	8	60.0	2	0	[]
125	3	1	8	60.0	2	0	[]
126	1	1	3	60.0	2	0	[]
129	2	3	8	60.0	2	0	[]
133	2	1	1	60.0	2	0	[]
209	2	1	8	60.0	2	0	[]
212	1	1	8	60.0	2	0	[]
295	2	1	8	60.0	2	0	[]
322	2	1	8	60.0	2	0	[]
336	2	1	8	60.0	2	0	[]
345	1	1	2	60.0	2	0	[]
357	8	1	8	60.0	2	0	[]
409	2	3	8	60.0	2	0	[]
411	5	1	8	100.0	2	0	[]
417	2	1	8	60.0	2	0	[]
438	2	1	8	60.0	2	0	[]
489	2	1	8	60.0	2	0	[]
504	1	1	8	60.0	2	0	[]
506	2	1	8	60.0	2	0	[]
518	1	1	8	60.0	2	0	[]
543	1	1	8	60.0	2	0	[]
559	1	1	8	60.0	2	0	[]
571	2	1	8	60.0	2	0	[]
605	1	1	8	60.0	2	0	[]
657	1	1	4	60.0	2	0	[]
658	2	2	16	80.0	2	0	[]
660	1	2	8	40.0	0	0	[]
694	1	1	5	60.0	2	0	[]
724	2	1	8	60.0	2	0	[]
744	2	4	8	60.0	2	0	[]
764	2	1	8	60.0	2	0	[]
766	4	3	8	60.0	2	0	[]
772	1	1	8	60.0	2	0	[]
776	3	1	8	60.0	2	0	[]
805	1	1	8	60.0	2	0	[]
827	3	1	8	60.0	2	0	[]
896	1	1	3	200.0	2	0	[]
933	1	1	8	60.0	2	0	[]
966	2	2	16	80.0	2	0	[]
970	4	1	8	60.0	2	0	[]
992	1	4	8	60.0	2	0	[]
1009	11	3	8	60.0	2	0	[]
1049	4	1	8	60.0	2	0	[]
1071	23	2	10	60.0	1	0	[]
1095	1	1	8	60.0	2	0	[]
1101	9	11	16	60.0	2	0	[]
1113	1	32	80	600.0	2	0	[]
1122	7	1	8	40.0	2	0	[]
1138	27	2	8	60.0	2	1	[(409, 0)]
1159	5	1	8	60.0	2	0	[]
1168	2	4	8	60.0	2	0	[]
1189	3	1	8	60.0	2	0	[]
1202	1	1	8	60.0	2	0	[]
1231	1	1	8	60.0	2	0	[]
1239	2	1	8	60.0	2	0	[]
1262	7	1	8	60.0	2	0	[]
1268	2	1	8	60.0	2	0	[]
1304	2	1	2	60.0	2	0	[]
1332	1	1	1	60.0	2	1	[(2895, 1)]
1370	1	4	16	80.0	2	0	[]
1406	1	1	8	60.0	2	0	[]
1414	13	3	8	60.0	2	0	[]
1437	95	6	8	60.0	2	3	[(7905, 1), (5949, 0), (9159, 2)]
1491	4	2	8	60.0	2	0	[]
1522	49	6	8	40.0	2	1	[(571, 2)]
1525	6	4	8	60.0	2	0	[]
1527	2	1	8	60.0	2	0	[]
1595	1	1	8	60.0	2	0	[]
1599	139	3	8	60.0	2	0	[]
1701	1	1	8	60.0	2	0	[]
1705	49	2	8	60.0	2	0	[]
1714	1	1	7	60.0	2	0	[]
1735	4	2	8	60.0	2	0	[]
1749	3	1	2	60.0	2	0	[]
1775	2	1	8	60.0	2	0	[]
1779	3	6	16	60.0	2	0	[]
1794	1	1	8	60.0	2	0	[]
1804	10	2	8	60.0	2	0	[]
1808	2	4	16	80.0	2	0	[]
1809	1	1	8	60.0	2	0	[]
1816	2	1	8	60.0	2	0	[]
1842	2	1	1	60.0	2	0	[]
1849	2	1	3	60.0	2	0	[]
1851	2	1	8	60.0	2	0	[]
1903	2	1	8	60.0	2	0	[]
1915	25	12	16	100.0	2	0	[]
1934	1	1	8	60.0	2	0	[]
2015	2	1	2	60.0	2	0	[]
2062	1	1	16	100.0	2	0	[]
2087	1	1	2	60.0	2	0	[]
2088	2	1	8	60.0	2	0	[]
2095	4	3	8	60.0	2	0	[]
2104	4	1	8	60.0	2	0	[]
2134	5	1	8	60.0	2	0	[]
2163	2	1	8	60.0	2	0	[]
2183	1	1	8	60.0	2	0	[]
2211	3	1	5	60.0	2	0	[]
2225	2	1	2	60.0	2	0	[]
2290	19	6	8	60.0	2	1	[(8848, 0)]
2329	2	1	8	60.0	2	0	[]
2353	64	6	8	40.0	2	0	[]
2360	2	4	8	60.0	2	0	[]
2370	1	4	8	60.0	2	0	[]
2400	1	1	8	60.0	2	0	[]
2405	1	1	8	60.0	2	0	[]
2408	1	16	32	200.0	2	0	[]
2411	1	1	8	60.0	2	0	[]
2413	2	4	8	60.0	2	0	[]
2417	2	4	8	60.0	2	0	[]
2437	4	4	8	60.0	2	0	[]
2450	4	1	8	60.0	2	0	[]
2451	4	1	2	60.0	2	0	[]
2508	8	1	8	60.0	2	0	[]
2513	7	1	8	60.0	2	0	[]
2533	2	1	8	60.0	2	1	[(6814, 0)]
2539	2	1	8	60.0	2	0	[]
2562	2	4	8	60.0	2	0	[]
2616	35	3	8	60.0	2	0	[]
2618	7	1	8	80.0	2	0	[]
2645	1	1	8	60.0	2	0	[]
2646	3	3	8	100.0	2	0	[]
2683	2	1	8	60.0	2	0	[]
2687	1	1	8	60.0	2	0	[]
2732	1	1	8	60.0	2	0	[]
2737	2	2	32	80.0	2	0	[]
2758	1	1	2	60.0	2	0	[]
2763	3	3	8	60.0	2	0	[]
2769	6	2	8	40.0	2	0	[]
2777	4	1	8	60.0	2	0	[]
2804	2	1	8	60.0	2	0	[]
2827	2	1	8	60.0	2	0	[]
2828	4	1	8	60.0	2	0	[]
2847	5	1	8	60.0	2	0	[]
2854	2	1	8	60.0	2	0	[]
2858	1	1	8	60.0	2	0	[]
2876	8	2	8	60.0	2	0	[]
2882	1	4	8	80.0	2	0	[]
2888	2	1	2	60.0	2	0	[]
2895	8	1	8	60.0	2	0	[]
2930	2	1	1	60.0	2	0	[]
2932	2	1	2	60.0	2	0	[]
2948	1	1	1	60.0	2	0	[]
2960	1	4	8	60.0	2	0	[]
3020	1	1	8	60.0	2	0	[]
3029	2	1	8	60.0	2	0	[]
3037	3	4	8	60.0	2	0	[]
3044	2	1	8	60.0	2	0	[]
3063	2	1	8	60.0	2	0	[]
3064	1	2	8	60.0	2	0	[]
3067	2	1	8	60.0	2	0	[]
3071	2	1	8	60.0	2	0	[]
3081	2	1	8	60.0	2	0	[]
3186	3	1	8	60.0	2	0	[]
3236	1	4	16	80.0	2	0	[]
3258	2	1	8	60.0	2	0	[]
3268	1	1	8	60.0	2	0	[]
3269	1	1	8	60.0	2	0	[]
3284	2	6	16	60.0	2	2	[(6185, 3), (4011, 3)]
3285	1	1	2	60.0	2	0	[]
3295	4	2	8	60.0	2	1	[(7602, 2)]
3311	3	1	8	60.0	2	0	[]
3328	5	6	32	200.0	2	0	[]
3361	1	1	8	60.0	2	0	[]
3370	50	6	8	60.0	2	0	[]
3375	3	1	8	60.0	2	0	[]
3382	3	1	8	60.0	2	0	[]
3389	5	3	16	80.0	2	0	[]
3391	4	1	8	60.0	2	0	[]
3399	1	4	8	60.0	2	0	[]
3415	8	2	8	60.0	2	0	[]
3434	2	2	8	60.0	2	0	[]
3441	2	1	8	60.0	2	0	[]
3446	1	1	8	60.0	2	0	[]
3467	1	1	8	60.0	2	0	[]
3510	2	1	8	60.0	2	0	[]
3550	1	1	8	60.0	2	0	[]
3567	1	4	8	80.0	2	0	[]
3577	2	1	3	60.0	2	0	[]
3583	1	4	8	60.0	2	0	[]
3600	2	1	1	60.0	2	0	[]
3607	2	1	8	60.0	2	0	[]
3632	4	1	2	60.0	2	0	[]
3654	122	3	8	40.0	1	1	[(2353, 1)]
3671	2	1	8	60.0	2	0	[]
3706	2	1	8	60.0	2	0	[]
3778	1	4	8	60.0	2	0	[]
3800	2	1	8	60.0	2	0	[]
3840	2	1	8	60.0	2	0	[]
3869	2	1	8	60.0	2	0	[]
3874	5	1	8	60.0	2	0	[]
3878	6	1	8	60.0	2	0	[]
3918	4	3	8	60.0	2	0	[]
3931	2	1	8	60.0	2	0	[]
3933	2	1	8	60.0	2	0	[]
3983	1	4	8	80.0	2	0	[]
4007	25	6	8	60.0	2	1	[(489, 0)]
4011	19	4	32	60.0	2	2	[(3284, 1), (6185, 2)]
4013	7	1	1	60.0	2	0	[]
4023	9	1	2	60.0	2	0	[]
4046	3	6	8	60.0	2	0	[]
4051	1	1	8	40.0	2	0	[]
4065	3	1	8	60.0	2	0	[]
4070	2	1	8	60.0	2	0	[]
4083	18	12	16	100.0	2	0	[]
4211	3	3	8	60.0	2	0	[]
4255	1	1	8	60.0	2	0	[]
4268	9	3	20	200.0	2	0	[]
4284	4	6	8	200.0	2	0	[]
4285	1	1	8	60.0	2	0	[]
4350	3	1	8	60.0	2	0	[]
4362	1	1	8	60.0	2	0	[]
4398	15	6	8	60.0	2	1	[(2930, 2)]
4403	1	1	8	60.0	2	0	[]
4405	10	12	16	60.0	2	0	[]
4439	1	1	8	60.0	2	0	[]
4442	2	1	8	60.0	2	0	[]
4460	2	1	8	60.0	2	0	[]
4474	10	2	16	40.0	0	0	[]
4477	2	1	8	60.0	2	0	[]
4501	2	1	8	60.0	2	0	[]
4503	6	1	8	60.0	2	0	[]
4505	4	1	8	60.0	2	0	[]
4524	4	2	8	60.0	2	0	[]
4525	2	1	3	60.0	2	0	[]
4545	1	1	8	60.0	2	0	[]
4589	1	1	8	60.0	2	0	[]
4614	2	1	5	60.0	2	0	[]
4647	25	6	8	60.0	2	0	[]
4654	4	2	8	60.0	2	0	[]
4663	74	12	2	80.0	2	0	[]
4696	2	1	2	60.0	2	0	[]
4713	2	1	8	60.0	2	0	[]
4720	2	4	8	60.0	2	0	[]
4721	3	1	8	60.0	2	0	[]
4727	2	1	1	60.0	2	0	[]
4742	1	1	1	60.0	2	0	[]
4764	1	4	8	60.0	2	0	[]
4771	4	2	8	60.0	2	0	[]
4823	2	1	8	60.0	2	0	[]
4834	1	4	8	60.0	2	0	[]
4844	2	1	8	60.0	2	0	[]
4849	4	2	8	60.0	2	0	[]
4867	2	1	8	60.0	2	0	[]
4882	20	6	8	60.0	2	0	[]
4888	1	4	8	60.0	2	0	[]
4950	4	1	8	60.0	2	0	[]
4963	6	4	8	60.0	2	0	[]
4976	1	1	2	60.0	2	0	[]
5007	6	1	8	60.0	2	0	[]
5021	1	2	8	60.0	2	0	[]
5035	2	5	8	60.0	2	0	[]
5043	2	1	7	60.0	2	0	[]
5058	1	1	8	60.0	2	0	[]
5082	2	1	8	60.0	2	0	[]
5091	2	1	2	60.0	2	0	[]
5096	3	1	8	60.0	2	0	[]
5114	2	1	8	60.0	2	0	[]
5115	1	1	8	60.0	2	0	[]
5161	3	2	8	60.0	2	0	[]
5165	125	12	16	100.0	2	0	[]
5190	2	1	8	60.0	2	0	[]
5217	28	5	2	200.0	2	0	[]
5241	2	1	8	60.0	2	0	[]
5254	1	8	8	60.0	2	0	[]
5257	2	1	8	60.0	2	0	[]
5270	1	2	8	60.0	2	0	[]
5331	2	1	8	60.0	2	0	[]
5333	2	1	8	60.0	2	0	[]
5351	5	3	8	60.0	2	0	[]
5370	3	1	8	100.0	2	0	[]
5403	1	4	8	60.0	2	0	[]
5416	2	1	1	60.0	2	0	[]
5432	1	1	7	60.0	2	0	[]
5435	5	1	8	60.0	2	0	[]
5472	7	4	8	60.0	2	0	[]
5533	2	1	2	60.0	2	0	[]
5556	16	3	8	60.0	2	0	[]
5558	23	4	16	80.0	2	1	[(2134, 0)]
5562	1	1	8	60.0	2	0	[]
5564	15	2	8	60.0	2	0	[]
5570	9	1	2	100.0	2	0	[]
5604	2	3	8	60.0	2	0	[]
5608	2	1	8	60.0	2	0	[]
5613	1	1	8	60.0	2	0	[]
5627	2	1	8	60.0	2	0	[]
5634	8	2	8	60.0	2	1	[(3510, 0)]
5656	2	1	2	60.0	2	0	[]
5671	2	1	8	60.0	2	0	[]
5675	3	1	8	60.0	2	0	[]
5690	2	1	8	60.0	2	0	[]
5692	2	1	8	60.0	2	0	[]
5716	1	1	8	100.0	2	0	[]
5733	1	1	8	60.0	2	0	[]
5758	1	4	8	60.0	2	0	[]
5764	14	3	8	60.0	2	0	[]
5783	2	1	2	60.0	2	0	[]
5801	1	1	8	60.0	2	0	[]
5830	2	1	8	80.0	2	0	[]
5851	2	1	8	60.0	2	0	[]
5861	3	1	8	60.0	2	0	[]
5865	15	1	8	60.0	2	0	[]
5876	37	2	8	60.0	2	0	[]
5884	2	1	8	60.0	2	0	[]
5894	2	1	8	60.0	2	0	[]
5896	2	1	2	60.0	2	0	[]
5898	3	1	8	60.0	2	0	[]
5917	2	1	8	60.0	2	0	[]
5949	1	1	8	60.0	2	0	[]
5985	1	4	8	60.0	2	0	[]
5993	1	1	8	60.0	2	0	[]
5995	15	10	16	80.0	2	0	[]
6044	1	1	8	60.0	2	0	[]
6078	14	1	8	60.0	2	0	[]
6126	1	1	8	60.0	2	0	[]
6134	4	1	8	60.0	2	0	[]
6176	11	8	16	60.0	2	0	[]
6185	16	5	32	100.0	2	3	[(3284, 1), (7267, 0), (4011, 2)]
6187	3	1	8	60.0	2	0	[]
6196	5	2	8	60.0	2	0	[]
6202	1	1	8	60.0	2	0	[]
6207	1	1	8	60.0	2	0	[]
6249	2	1	5	60.0	2	0	[]
6289	2	1	8	60.0	2	0	[]
6329	2	1	8	60.0	2	0	[]
6331	2	1	8	60.0	2	0	[]
6377	21	2	8	60.0	2	0	[]
6390	1	8	16	60.0	2	0	[]
6400	4	1	8	60.0	2	0	[]
6402	29	3	8	60.0	2	0	[]
6417	2	1	8	60.0	2	0	[]
6423	1	1	8	60.0	2	0	[]
6466	4	6	8	60.0	2	0	[]
6469	2	1	8	60.0	2	0	[]
6486	15	4	8	60.0	2	0	[]
6489	1	1	8	60.0	2	0	[]
6522	1	4	10	60.0	2	0	[]
6528	1	5	8	60.0	2	0	[]
6554	5	2	8	60.0	2	0	[]
6555	2	4	8	80.0	2	0	[]
6575	1	2	8	40.0	2	0	[]
6582	2	1	8	60.0	2	0	[]
6629	3	1	8	60.0	2	0	[]
6652	2	1	5	60.0	2	0	[]
6662	3	2	8	60.0	2	0	[]
6670	3	1	8	60.0	2	0	[]
6706	11	6	8	60.0	2	0	[]
6709	5	1	8	60.0	2	0	[]
6715	13	6	2	60.0	2	0	[]
6735	2	1	8	60.0	2	0	[]
6751	1	1	1	60.0	2	0	[]
6787	3	1	8	60.0	2	0	[]
6814	4	1	5	60.0	2	1	[(2533, 0)]
6845	2	4	8	60.0	2	0	[]
6854	2	2	8	60.0	2	0	[]
6874	5	1	8	60.0	2	0	[]
6882	2	1	1	60.0	2	0	[]
6935	12	1	8	100.0	2	0	[]
6940	20	1	8	80.0	2	0	[]
6941	4	2	8	60.0	2	0	[]
6947	3	1	8	60.0	2	0	[]
6962	2	1	8	60.0	2	0	[]
6975	2	4	8	60.0	2	0	[]
6982	2	1	8	60.0	2	0	[]
6991	25	2	8	100.0	2	0	[]
7042	2	1	8	60.0	2	0	[]
7050	2	1	8	60.0	2	0	[]
7090	3	1	8	60.0	2	0	[]
7109	4	1	8	60.0	2	0	[]
7116	1	1	1	60.0	2	0	[]
7139	1	1	8	60.0	2	0	[]
7267	6	6	8	60.0	2	1	[(2353, 1)]
7268	14	2	16	60.0	2	0	[]
7274	2	1	8	60.0	2	0	[]
7278	4	1	8	60.0	2	0	[]
7290	9	1	4	60.0	2	0	[]
7294	1	1	8	60.0	2	0	[]
7361	1	1	8	60.0	2	0	[]
7363	1	1	8	60.0	2	0	[]
7388	2	1	7	60.0	2	0	[]
7418	2	1	8	60.0	2	0	[]
7422	2	2	8	40.0	2	0	[]
7440	1	4	8	60.0	2	0	[]
7445	4	1	8	60.0	2	0	[]
7471	3	1	8	60.0	2	0	[]
7482	1	4	8	60.0	2	0	[]
7493	2	4	8	60.0	2	0	[]
7503	6	1	8	60.0	2	0	[]
7505	16	2	8	60.0	2	0	[]
7544	1	1	1	60.0	2	0	[]
7578	6	3	8	60.0	2	0	[]
7592	2	1	8	60.0	2	0	[]
7602	4	1	8	60.0	2	0	[]
7609	1	2	4	60.0	2	0	[]
7685	2	1	8	60.0	2	0	[]
7730	2	1	8	60.0	2	0	[]
7732	6	2	8	60.0	2	0	[]
7754	22	1	8	60.0	2	0	[]
7759	3	1	8	60.0	2	0	[]
7774	2	1	8	60.0	2	0	[]
7805	25	2	8	60.0	2	0	[]
7812	2	1	8	60.0	2	0	[]
7827	2	4	8	60.0	2	0	[]
7846	1	1	2	60.0	2	0	[]
7848	1	1	8	60.0	2	0	[]
7867	2	1	7	60.0	2	0	[]
7871	6	2	8	60.0	2	0	[]
7889	429	12	16	60.0	1	1	[(3510, 2)]
7905	6	1	8	60.0	2	0	[]
7925	1	2	8	40.0	2	0	[]
7932	10	1	8	60.0	2	10	[(4503, 0), (2533, 0), (4083, 0), (8950, 0), (5876, 0), (8460, 0), (2618, 0), (8061, 0), (2876, 0), (8548, 0)]
8045	3	1	8	60.0	2	0	[]
8052	7	1	8	60.0	2	0	[]
8061	44	3	16	100.0	2	1	[(3800, 0)]
8085	6	1	8	60.0	2	0	[]
8103	1	1	8	60.0	2	0	[]
8106	36	2	8	60.0	2	3	[(3654, 0), (3370, 0), (4011, 0)]
8107	2	1	8	60.0	2	0	[]
8108	1	1	8	60.0	2	0	[]
8125	2	1	8	60.0	2	0	[]
8177	2	4	8	60.0	2	0	[]
8184	1	1	8	60.0	2	0	[]
8186	2	1	8	60.0	2	0	[]
8195	2	1	8	60.0	2	0	[]
8197	4	1	8	80.0	2	0	[]
8224	1	1	8	60.0	2	0	[]
8229	9	1	8	60.0	2	1	[(5690, 1)]
8233	1	1	8	60.0	2	0	[]
8245	2	1	8	60.0	2	0	[]
8258	5	1	2	60.0	2	0	[]
8305	3	1	8	60.0	2	0	[]
8329	2	1	7	60.0	2	0	[]
8349	7	2	8	60.0	2	0	[]
8370	5	1	8	60.0	2	0	[]
8386	75	2	8	60.0	2	0	[]
8413	4	2	8	60.0	2	0	[]
8414	5	3	8	60.0	2	0	[]
8445	2	1	8	60.0	2	0	[]
8446	4	2	8	60.0	2	0	[]
8460	13	2	8	60.0	2	0	[]
8482	7	3	8	60.0	2	0	[]
8490	2	1	2	60.0	2	0	[]
8496	3	1	8	60.0	2	0	[]
8517	4	1	8	60.0	2	0	[]
8548	2	1	8	60.0	2	0	[]
8566	5	3	8	60.0	2	0	[]
8567	2	1	7	60.0	2	0	[]
8579	3	1	8	60.0	2	0	[]
8580	1	1	8	60.0	2	0	[]
8608	2	1	8	60.0	2	0	[]
8613	2	1	8	60.0	2	0	[]
8659	1	2	8	60.0	2	0	[]
8695	11	1	8	100.0	2	0	[]
8706	1	4	8	60.0	2	0	[]
8713	8	1	4	60.0	2	0	[]
8727	1	1	8	60.0	2	0	[]
8728	2	4	8	80.0	2	0	[]
8751	1	1	8	60.0	2	0	[]
8772	2	1	8	60.0	2	0	[]
8774	25	6	8	60.0	2	0	[]
8809	2	1	8	60.0	2	0	[]
8814	2	1	8	60.0	2	0	[]
8819	8	5	8	60.0	2	0	[]
8833	1	1	8	60.0	2	0	[]
8835	1	1	8	60.0	2	0	[]
8837	8	2	8	60.0	2	0	[]
8848	14	3	16	80.0	2	0	[]
8856	3	1	8	60.0	2	0	[]
8888	10	8	16	100.0	2	0	[]
8906	2	1	8	60.0	2	0	[]
8924	4	1	8	60.0	2	0	[]
8928	4	1	8	60.0	2	0	[]
8936	2	1	8	60.0	2	0	[]
8943	1	4	8	60.0	2	0	[]
8944	4	3	8	60.0	2	0	[]
8950	3	3	8	60.0	2	0	[]
8962	1	1	4	100.0	2	0	[]
8987	2	1	8	60.0	2	1	[(7932, 2)]
9007	1	1	8	60.0	2	0	[]
9038	2	1	5	60.0	2	0	[]
9054	2	1	8	60.0	2	0	[]
9062	1	4	8	60.0	2	0	[]
9088	1	1	8	60.0	2	0	[]
9136	5	1	8	60.0	2	0	[]
9147	1	4	8	60.0	2	0	[]
9151	1	1	8	80.0	2	0	[]
9152	4	1	15	100.0	2	0	[]
9159	7	1	8	60.0	2	0	[]
9168	13	6	8	60.0	2	0	[]
9178	1	4	8	60.0	2	0	[]
9252	5	6	8	60.0	2	0	[]
9273	4	2	8	60.0	2	0	[]
9275	3	1	8	60.0	2	0	[]
9297	25	2	8	60.0	2	0	[]
9307	2	6	8	60.0	2	0	[]
9336	8	1	2	80.0	2	0	[]
