app_id	nb_instances	core	memory	disk	intra_value	inter_degree	inter_aff
57	1	4	8	60.0	2	0	[]
69	4	6	8	60.0	2	0	[]
82	2	1	2	60.0	2	0	[]
93	2	4	8	300.0	2	0	[]
154	1	1	8	60.0	2	0	[]
160	6	1	8	40.0	2	0	[]
170	2	1	2	60.0	2	0	[]
173	4	1	2	60.0	2	0	[]
194	1	1	8	60.0	2	0	[]
199	2	1	2	60.0	2	0	[]
227	5	1	8	60.0	2	0	[]
231	1	8	16	40.0	2	0	[]
237	1	1	8	60.0	2	0	[]
249	1	1	8	60.0	2	0	[]
252	9	1	8	60.0	2	0	[]
261	5	1	8	60.0	2	0	[]
263	2	1	8	60.0	2	0	[]
266	1	8	16	100.0	2	0	[]
285	2	1	8	60.0	2	0	[]
311	3	1	8	60.0	2	0	[]
322	2	1	8	60.0	2	0	[]
368	10	2	8	60.0	2	0	[]
370	3	1	8	60.0	2	0	[]
376	37	2	8	60.0	2	2	[(7275, 2), (7589, 2)]
388	3	1	1	60.0	2	0	[]
400	2	1	8	60.0	2	0	[]
410	2	1	8	60.0	2	0	[]
420	2	2	5	60.0	2	0	[]
429	1	1	1	60.0	2	0	[]
436	2	1	8	60.0	2	0	[]
454	1	4	8	60.0	2	0	[]
455	1	4	8	60.0	2	0	[]
503	2	2	8	60.0	2	0	[]
548	2	2	8	60.0	2	0	[]
557	2	1	8	60.0	2	0	[]
564	2	1	8	60.0	2	0	[]
649	1	1	2	60.0	2	0	[]
652	2	1	8	60.0	2	0	[]
690	2	1	8	60.0	2	0	[]
706	2	4	8	60.0	2	0	[]
710	3	1	8	60.0	2	0	[]
758	2	1	8	60.0	2	0	[]
769	12	4	2	100.0	2	0	[]
778	2	1	8	60.0	2	0	[]
794	1	32	96	300.0	2	0	[]
814	2	4	8	60.0	2	0	[]
822	1	4	8	100.0	2	0	[]
855	1	1	1	60.0	2	0	[]
913	5	1	8	60.0	2	0	[]
922	1	1	8	60.0	2	0	[]
950	2	2	8	60.0	2	0	[]
1003	1	1	8	60.0	2	0	[]
1009	11	3	8	60.0	2	0	[]
1048	4	1	8	60.0	2	0	[]
1064	1	1	8	60.0	2	0	[]
1080	2	1	8	60.0	2	0	[]
1106	1	1	8	60.0	2	0	[]
1110	5	2	8	60.0	2	0	[]
1115	6	1	8	60.0	2	0	[]
1136	1	1	8	60.0	2	0	[]
1146	1	4	8	60.0	2	0	[]
1155	9	3	8	60.0	2	0	[]
1160	12	1	8	60.0	2	0	[]
1165	4	1	2	60.0	2	0	[]
1203	7	1	8	60.0	2	0	[]
1219	1	1	8	60.0	2	0	[]
1227	76	3	8	60.0	2	1	[(9127, 0)]
1230	1	4	8	60.0	2	0	[]
1242	1	1	8	60.0	2	0	[]
1250	1	1	8	60.0	2	0	[]
1262	7	1	8	60.0	2	0	[]
1272	4	1	8	60.0	2	0	[]
1273	2	1	7	60.0	2	0	[]
1286	1	1	8	60.0	2	0	[]
1311	2	1	8	60.0	2	0	[]
1322	4	4	8	60.0	2	0	[]
1333	10	1	8	60.0	2	0	[]
1348	15	3	8	60.0	2	0	[]
1354	2	1	8	60.0	2	2	[(6814, 0), (7262, 0)]
1357	1	1	2	60.0	2	0	[]
1360	34	4	8	60.0	2	1	[(9165, 0)]
1361	7	1	8	60.0	2	0	[]
1369	2	1	8	40.0	2	0	[]
1381	1	2	4	60.0	2	0	[]
1402	4	1	8	60.0	2	0	[]
1421	4	1	8	60.0	2	0	[]
1434	4	1	8	60.0	2	0	[]
1451	1	1	1	60.0	2	0	[]
1472	1	1	8	60.0	2	0	[]
1478	2	1	8	60.0	2	0	[]
1480	20	2	3	60.0	2	2	[(7104, 0), (7012, 2)]
1490	1	1	8	60.0	2	0	[]
1524	8	1	8	100.0	2	0	[]
1541	60	6	8	60.0	2	4	[(6151, 0), (1348, 2), (7659, 1), (6763, 0)]
1557	3	2	8	60.0	2	0	[]
1614	1	2	8	60.0	2	0	[]
1653	2	1	8	60.0	2	0	[]
1674	2	1	8	60.0	2	0	[]
1683	71	5	8	40.0	2	0	[]
1694	2	1	1	60.0	2	0	[]
1748	5	2	16	200.0	2	0	[]
1765	1	1	8	60.0	2	0	[]
1812	1	1	8	60.0	2	0	[]
1813	9	1	8	60.0	2	1	[(1683, 2)]
1867	1	1	6	60.0	2	0	[]
1879	1	36	37	300.0	2	0	[]
1899	6	2	8	60.0	2	0	[]
1906	3	1	8	80.0	2	0	[]
1907	1	1	8	60.0	2	0	[]
1910	1	1	2	60.0	2	0	[]
1922	2	4	8	60.0	2	0	[]
1938	2	1	8	60.0	2	0	[]
1969	3	3	16	60.0	2	0	[]
1976	3	1	8	60.0	2	0	[]
2040	3	1	7	60.0	2	0	[]
2092	1	2	8	60.0	2	0	[]
2119	1	1	2	80.0	2	0	[]
2131	2	1	8	60.0	2	0	[]
2135	2	1	8	60.0	2	0	[]
2155	6	4	2	100.0	2	0	[]
2167	1	1	8	60.0	2	0	[]
2169	1	2	8	60.0	2	0	[]
2177	1	1	2	60.0	2	0	[]
2186	124	6	8	60.0	2	4	[(4338, 2), (4718, 1), (6827, 1), (9127, 2)]
2208	1	1	8	60.0	2	0	[]
2229	3	1	1	60.0	2	0	[]
2240	2	1	8	60.0	2	0	[]
2248	2	1	8	60.0	2	0	[]
2266	2	1	8	60.0	2	0	[]
2271	6	1	8	60.0	2	0	[]
2303	6	1	8	60.0	2	0	[]
2329	2	1	8	60.0	2	0	[]
2330	2	1	8	60.0	2	0	[]
2338	3	1	8	60.0	2	0	[]
2350	2	1	8	60.0	2	0	[]
2354	3	1	1	60.0	2	0	[]
2368	1	4	16	80.0	2	0	[]
2378	1	4	8	60.0	2	0	[]
2382	1	1	8	60.0	2	0	[]
2405	1	1	8	60.0	2	0	[]
2426	2	1	8	60.0	2	0	[]
2441	4	2	8	60.0	2	0	[]
2443	4	1	8	60.0	2	0	[]
2476	7	2	8	60.0	2	0	[]
2487	138	6	8	60.0	2	1	[(7589, 0)]
2499	10	1	8	60.0	2	0	[]
2513	7	1	8	60.0	2	0	[]
2527	2	4	8	60.0	2	0	[]
2546	2	1	1	60.0	2	0	[]
2557	2	1	8	60.0	2	0	[]
2576	2	1	8	60.0	2	0	[]
2584	2	1	8	60.0	2	0	[]
2603	1	1	8	60.0	2	0	[]
2611	3	1	8	60.0	2	0	[]
2651	8	5	8	60.0	2	0	[]
2684	1	1	7	60.0	2	0	[]
2687	1	1	8	60.0	2	0	[]
2690	9	3	8	60.0	2	0	[]
2709	4	3	8	60.0	2	0	[]
2729	2	1	8	60.0	2	0	[]
2753	1	1	8	60.0	2	0	[]
2779	1	1	4	60.0	2	0	[]
2796	1	1	8	60.0	2	0	[]
2838	1	1	7	60.0	2	0	[]
2840	2	1	4	60.0	2	0	[]
2854	2	1	8	60.0	2	0	[]
2877	3	1	1	60.0	2	0	[]
2892	18	1	8	60.0	2	0	[]
2905	2	6	8	60.0	2	0	[]
2921	2	6	8	60.0	2	0	[]
2926	2	4	8	60.0	2	0	[]
2965	2	4	8	60.0	2	0	[]
3015	4	4	8	60.0	2	1	[(2513, 2)]
3029	2	1	8	60.0	2	0	[]
3093	1	1	8	40.0	2	0	[]
3095	15	3	8	60.0	2	0	[]
3098	2	1	7	60.0	2	0	[]
3104	3	2	8	60.0	2	0	[]
3119	2	1	8	60.0	2	0	[]
3122	1	4	8	60.0	2	0	[]
3127	29	1	8	60.0	2	0	[]
3129	1	1	4	60.0	2	0	[]
3139	1	1	8	60.0	2	0	[]
3146	3	1	8	60.0	2	0	[]
3183	200	12	16	100.0	2	0	[]
3227	2	2	8	60.0	2	0	[]
3298	1	4	8	60.0	2	0	[]
3317	1	4	8	60.0	2	0	[]
3363	5	1	8	60.0	2	0	[]
3370	50	6	8	60.0	2	0	[]
3386	2	1	1	60.0	2	0	[]
3482	9	5	16	60.0	0	0	[]
3499	6	1	8	60.0	2	0	[]
3564	5	1	8	60.0	2	0	[]
3582	2	1	2	60.0	2	0	[]
3585	7	2	8	60.0	2	0	[]
3638	1	4	8	60.0	2	0	[]
3641	2	1	8	60.0	2	0	[]
3660	5	1	8	60.0	2	0	[]
3670	2	2	8	60.0	2	0	[]
3671	2	1	8	60.0	2	0	[]
3689	2	1	8	60.0	2	0	[]
3708	1	1	8	100.0	2	0	[]
3732	1	1	2	60.0	2	0	[]
3738	3	1	16	60.0	2	0	[]
3742	1	1	16	60.0	2	0	[]
3772	1	1	8	60.0	2	0	[]
3781	1	1	8	60.0	2	0	[]
3957	2	1	8	60.0	2	1	[(5564, 1)]
3966	2	1	2	60.0	2	0	[]
3973	2	4	8	60.0	2	0	[]
3976	4	1	8	60.0	2	0	[]
3996	1	1	8	60.0	2	0	[]
4006	1	1	1	60.0	2	0	[]
4039	219	11	16	60.0	0	6	[(1227, 0), (3183, 0), (9127, 0), (3127, 0), (3996, 0), (3370, 0)]
4040	1	1	7	60.0	2	0	[]
4060	3	1	8	60.0	2	0	[]
4061	2	1	7	60.0	2	0	[]
4074	1	1	8	60.0	2	0	[]
4111	2	4	8	60.0	2	0	[]
4143	4	12	16	60.0	2	0	[]
4190	23	12	16	60.0	1	0	[]
4196	1	4	8	60.0	2	0	[]
4208	1	1	8	60.0	2	0	[]
4248	2	1	2	60.0	2	0	[]
4297	5	1	8	60.0	2	0	[]
4307	2	1	8	60.0	2	0	[]
4311	3	1	8	60.0	2	0	[]
4325	5	1	8	60.0	2	0	[]
4337	21	12	16	60.0	2	0	[]
4338	8	6	8	60.0	2	0	[]
4370	3	1	8	60.0	2	0	[]
4374	1	4	8	60.0	2	0	[]
4380	1	1	8	60.0	2	0	[]
4397	2	1	5	60.0	2	0	[]
4399	1	1	8	60.0	2	0	[]
4418	7	6	8	60.0	2	0	[]
4420	4	6	8	60.0	2	0	[]
4441	5	1	8	60.0	2	0	[]
4459	12	6	8	60.0	2	0	[]
4481	2	1	8	60.0	2	0	[]
4490	1	4	8	60.0	2	0	[]
4514	14	2	8	60.0	2	0	[]
4563	2	8	16	60.0	0	0	[]
4587	1	4	8	60.0	2	0	[]
4591	8	2	16	100.0	2	0	[]
4633	4	1	8	80.0	2	0	[]
4700	1	1	8	60.0	2	0	[]
4711	3	2	8	60.0	2	0	[]
4718	57	2	8	40.0	2	0	[]
4761	1	1	2	60.0	2	0	[]
4778	27	2	8	40.0	2	0	[]
4780	4	2	8	60.0	2	0	[]
4835	2	1	8	60.0	2	0	[]
4860	2	1	8	60.0	2	0	[]
4880	1	1	8	60.0	2	0	[]
4888	1	4	8	60.0	2	0	[]
4891	2	1	8	60.0	2	0	[]
4900	2	1	7	60.0	2	0	[]
4942	2	1	8	60.0	2	0	[]
4956	2	1	8	60.0	2	0	[]
4988	2	1	8	60.0	2	0	[]
5043	2	1	7	60.0	2	0	[]
5048	2	1	8	60.0	2	0	[]
5057	6	3	16	60.0	2	0	[]
5068	2	1	8	60.0	2	0	[]
5098	2	1	8	60.0	2	0	[]
5104	1	4	8	60.0	2	0	[]
5115	1	1	8	60.0	2	0	[]
5133	2	1	16	150.0	2	0	[]
5134	1	1	1	60.0	2	0	[]
5140	1	1	8	60.0	2	0	[]
5157	1	1	8	60.0	2	0	[]
5159	1	1	8	60.0	2	0	[]
5172	8	1	8	60.0	2	0	[]
5189	4	6	8	60.0	2	0	[]
5196	1	1	8	60.0	2	0	[]
5201	2	1	8	60.0	2	0	[]
5245	3	1	1	60.0	2	0	[]
5251	11	6	8	60.0	2	0	[]
5258	2	1	8	60.0	2	0	[]
5267	14	4	8	60.0	2	1	[(7443, 0)]
5276	3	1	8	300.0	2	0	[]
5285	2	1	7	60.0	2	0	[]
5296	3	1	8	60.0	2	0	[]
5357	1	1	6	60.0	2	0	[]
5438	104	2	8	60.0	2	2	[(1360, 0), (3482, 2)]
5443	4	1	2	60.0	2	0	[]
5465	1	1	8	60.0	2	0	[]
5476	20	5	8	60.0	2	0	[]
5493	9	2	8	60.0	2	0	[]
5508	1	1	2	60.0	2	0	[]
5564	15	2	8	60.0	2	0	[]
5587	2	1	8	60.0	2	0	[]
5592	1	1	1	200.0	2	0	[]
5609	2	4	8	60.0	2	0	[]
5616	2	1	8	60.0	2	0	[]
5634	8	2	8	60.0	2	0	[]
5687	5	1	8	100.0	2	0	[]
5695	3	2	8	60.0	2	0	[]
5723	5	1	75	600.0	2	0	[]
5731	57	6	16	80.0	2	0	[]
5733	1	1	8	60.0	2	0	[]
5759	1	1	2	60.0	2	0	[]
5794	4	1	16	200.0	2	0	[]
5833	2	1	8	60.0	2	0	[]
5846	2	1	8	60.0	2	0	[]
5901	5	1	8	60.0	2	0	[]
5927	2	1	2	60.0	2	0	[]
5936	1	1	3	60.0	2	0	[]
5950	1	1	2	60.0	2	0	[]
5961	6	2	8	60.0	2	0	[]
5969	2	1	6	60.0	2	0	[]
5975	1	4	8	60.0	2	0	[]
5989	2	1	8	60.0	2	0	[]
6003	5	1	8	40.0	2	0	[]
6011	16	2	8	60.0	2	0	[]
6118	2	2	8	60.0	2	0	[]
6135	1	1	8	60.0	2	0	[]
6147	4	3	8	60.0	2	0	[]
6151	28	1	8	60.0	2	0	[]
6158	2	1	8	60.0	2	0	[]
6171	16	1	1	60.0	2	0	[]
6172	10	1	8	60.0	2	1	[(2487, 0)]
6253	2	1	8	60.0	2	0	[]
6261	1	8	16	80.0	2	0	[]
6267	3	2	1	100.0	2	0	[]
6282	7	2	8	60.0	2	0	[]
6283	6	12	2	200.0	2	3	[(2838, 2), (6118, 0), (322, 0)]
6284	1	2	8	60.0	2	0	[]
6289	2	1	8	60.0	2	0	[]
6300	5	6	8	100.0	2	0	[]
6307	2	1	8	60.0	2	0	[]
6311	4	1	8	60.0	2	0	[]
6318	2	1	2	60.0	2	0	[]
6360	2	1	8	60.0	2	0	[]
6369	3	1	8	60.0	2	0	[]
6371	1	1	8	60.0	2	0	[]
6376	1	8	8	60.0	2	0	[]
6418	1	1	8	60.0	2	0	[]
6426	4	1	8	60.0	2	0	[]
6436	2	2	8	60.0	2	0	[]
6460	2	4	8	60.0	2	0	[]
6519	2	1	8	60.0	2	0	[]
6521	3	1	8	60.0	2	0	[]
6533	3	2	2	60.0	2	0	[]
6537	1	1	8	60.0	2	0	[]
6552	1	1	8	60.0	2	0	[]
6558	4	1	8	60.0	2	0	[]
6578	3	4	16	60.0	2	0	[]
6580	2	2	8	60.0	2	0	[]
6616	1	1	8	60.0	2	0	[]
6627	2	2	8	60.0	2	0	[]
6630	1	1	4	60.0	2	0	[]
6652	2	1	5	60.0	2	0	[]
6667	1	1	8	60.0	2	0	[]
6730	2	1	2	60.0	2	0	[]
6731	2	4	8	60.0	2	0	[]
6737	3	1	8	60.0	2	0	[]
6738	1	1	8	40.0	2	0	[]
6763	4	1	6	60.0	2	0	[]
6764	2	3	8	60.0	2	0	[]
6800	2	3	8	60.0	2	0	[]
6814	4	1	5	60.0	2	2	[(7262, 0), (1354, 0)]
6827	21	3	16	60.0	2	0	[]
6880	75	2	8	40.0	2	2	[(4338, 2), (9127, 2)]
6919	1	1	8	60.0	2	0	[]
6937	1	1	8	60.0	2	0	[]
6945	2	1	8	60.0	2	0	[]
6948	1	4	8	60.0	2	0	[]
6963	2	1	4	60.0	2	0	[]
7012	4	3	16	60.0	2	0	[]
7015	2	1	1	60.0	2	0	[]
7030	1	4	8	60.0	2	0	[]
7046	2	1	8	60.0	2	0	[]
7050	2	1	8	60.0	2	0	[]
7060	1	1	8	60.0	2	0	[]
7064	11	5	8	60.0	2	0	[]
7068	2	1	8	60.0	2	0	[]
7069	1	1	2	60.0	2	0	[]
7075	29	2	8	60.0	2	0	[]
7104	2	1	8	60.0	2	0	[]
7115	2	1	2	60.0	2	0	[]
7121	5	2	8	60.0	2	0	[]
7123	2	6	8	60.0	2	0	[]
7175	1	1	1	60.0	2	0	[]
7182	3	1	10	80.0	2	0	[]
7245	1	1	8	60.0	2	0	[]
7250	3	6	8	60.0	2	0	[]
7262	2	1	8	60.0	2	0	[]
7272	2	1	8	60.0	2	0	[]
7275	1	1	5	60.0	2	0	[]
7280	1	1	8	60.0	2	0	[]
7292	2	4	8	60.0	2	0	[]
7356	9	2	7	60.0	2	0	[]
7363	1	1	8	60.0	2	0	[]
7381	2	1	8	60.0	2	0	[]
7405	1	1	1	60.0	2	0	[]
7443	158	6	8	60.0	0	1	[(2186, 0)]
7459	3	1	8	60.0	2	0	[]
7468	3	1	8	60.0	2	0	[]
7497	5	3	8	60.0	2	0	[]
7589	17	6	16	100.0	2	2	[(3183, 1), (9165, 2)]
7594	2	5	16	60.0	2	0	[]
7613	130	2	8	60.0	2	4	[(3095, 0), (4514, 0), (6003, 0), (1683, 0)]
7652	9	2	8	60.0	2	0	[]
7656	2	1	2	60.0	2	0	[]
7659	3	1	8	60.0	2	0	[]
7663	1	1	8	60.0	2	0	[]
7664	1	1	8	60.0	2	0	[]
7668	1	1	8	60.0	2	0	[]
7680	2	2	8	60.0	2	0	[]
7682	1	1	8	60.0	2	0	[]
7692	3	1	8	80.0	2	0	[]
7701	2	1	8	60.0	2	0	[]
7702	1	1	8	60.0	2	0	[]
7713	2	1	8	60.0	2	0	[]
7726	2	1	8	60.0	2	0	[]
7746	1	1	1	60.0	2	0	[]
7806	2	1	6	60.0	2	0	[]
7813	7	4	16	100.0	2	0	[]
7817	1	1	8	60.0	2	0	[]
7833	4	1	8	60.0	2	0	[]
7844	3	2	8	60.0	2	0	[]
7870	4	2	8	80.0	2	0	[]
7878	1	2	8	60.0	2	0	[]
7912	1	1	8	60.0	2	0	[]
7954	1	4	8	80.0	2	0	[]
7956	6	1	8	60.0	2	0	[]
7991	2	1	8	60.0	2	0	[]
8003	3	1	2	60.0	2	0	[]
8011	3	1	8	60.0	2	0	[]
8055	2	2	8	60.0	2	0	[]
8106	36	2	8	60.0	2	2	[(3370, 0), (1683, 1)]
8146	3	1	8	60.0	2	0	[]
8152	5	1	8	60.0	2	0	[]
8158	2	4	8	60.0	2	0	[]
8164	1	1	8	60.0	2	0	[]
8238	12	1	8	60.0	2	1	[(9163, 2)]
8314	2	1	8	60.0	2	0	[]
8329	2	1	7	60.0	2	0	[]
8357	3	1	8	60.0	2	0	[]
8359	1	1	8	60.0	2	0	[]
8361	2	2	16	200.0	2	0	[]
8393	3	1	2	60.0	2	0	[]
8394	2	1	5	60.0	2	0	[]
8395	2	1	8	60.0	2	0	[]
8415	2	1	8	60.0	2	0	[]
8424	2	1	8	60.0	2	0	[]
8443	6	6	7	60.0	2	0	[]
8454	3	2	8	60.0	2	0	[]
8504	2	1	8	60.0	2	0	[]
8508	1	1	8	60.0	2	0	[]
8531	4	1	7	60.0	2	0	[]
8555	3	6	8	60.0	2	0	[]
8617	2	4	8	60.0	2	0	[]
8620	1	16	32	80.0	2	0	[]
8637	2	1	8	60.0	2	0	[]
8670	2	1	8	60.0	2	0	[]
8688	1	1	8	60.0	2	0	[]
8690	2	1	2	60.0	2	0	[]
8700	6	1	8	60.0	2	0	[]
8708	2	2	8	60.0	2	0	[]
8719	4	1	7	60.0	2	0	[]
8740	8	1	8	40.0	2	0	[]
8763	1	1	8	40.0	2	0	[]
8769	1	1	16	60.0	0	0	[]
8770	1	1	7	60.0	2	0	[]
8780	2	1	2	60.0	2	0	[]
8782	1	1	2	60.0	2	0	[]
8790	2	1	8	60.0	2	0	[]
8821	5	1	8	60.0	2	0	[]
8843	3	1	8	60.0	2	0	[]
8859	5	1	8	60.0	2	0	[]
8862	2	1	8	1024.0	2	0	[]
8869	1	6	8	60.0	2	0	[]
8888	10	8	16	100.0	2	0	[]
8900	1	3	16	60.0	1	0	[]
8929	1	1	2	60.0	2	0	[]
8970	2	1	8	60.0	2	0	[]
8975	2	1	8	80.0	2	0	[]
8984	1	1	8	60.0	2	0	[]
9011	9	3	8	60.0	2	0	[]
9018	2	1	2	60.0	2	0	[]
9042	1	1	8	60.0	2	0	[]
9054	2	1	8	60.0	2	0	[]
9083	1	6	8	60.0	2	0	[]
9085	2	2	8	60.0	2	0	[]
9116	1	1	2	60.0	2	0	[]
9122	45	3	16	60.0	0	0	[]
9127	37	2	8	40.0	2	0	[]
9163	86	12	16	200.0	2	1	[(1165, 0)]
9165	62	6	8	60.0	2	2	[(7012, 1), (1360, 0)]
9240	2	1	6	60.0	2	0	[]
9267	1	1	1	60.0	2	0	[]
9274	2	1	8	60.0	2	0	[]
9291	1	4	8	60.0	2	0	[]
9298	3	2	8	60.0	2	0	[]
9330	11	6	8	60.0	2	0	[]
9331	2	2	8	60.0	2	0	[]
