app_id	nb_instances	core	memory	disk	intra_value	inter_degree	inter_aff
31	1	1	8	60.0	2	0	[]
54	3	1	8	60.0	2	0	[]
57	1	4	8	60.0	2	0	[]
79	1	1	8	60.0	2	0	[]
88	5	1	8	60.0	2	0	[]
127	21	2	8	60.0	2	0	[]
129	2	3	8	60.0	2	0	[]
138	1	1	8	60.0	2	0	[]
167	1	4	4	60.0	2	0	[]
184	1	4	8	60.0	2	0	[]
211	3	1	8	60.0	2	0	[]
236	10	3	8	60.0	2	0	[]
242	3	1	5	60.0	2	0	[]
246	1	1	1	60.0	2	0	[]
265	2	1	8	60.0	2	0	[]
275	86	3	8	60.0	2	2	[(7622, 0), (88, 0)]
277	1	1	8	60.0	2	0	[]
285	2	1	8	60.0	2	0	[]
304	1	1	8	60.0	2	0	[]
315	1	1	2	60.0	2	0	[]
332	2	4	2	60.0	2	0	[]
342	2	6	8	60.0	2	0	[]
416	8	2	8	60.0	2	0	[]
430	10	2	8	60.0	2	0	[]
444	3	1	8	60.0	2	0	[]
479	2	1	8	60.0	2	0	[]
490	2	1	8	60.0	2	0	[]
511	2	1	8	60.0	2	0	[]
524	1	1	8	60.0	2	0	[]
537	2	4	8	60.0	2	0	[]
564	2	1	8	60.0	2	0	[]
589	5	2	8	60.0	2	0	[]
601	4	1	8	60.0	2	0	[]
616	9	3	8	60.0	2	0	[]
664	6	1	8	60.0	2	0	[]
693	14	2	8	60.0	2	1	[(3534, 1)]
698	1	1	2	80.0	2	0	[]
712	1	1	1	60.0	2	0	[]
728	8	1	8	60.0	2	0	[]
731	1	1	1	60.0	2	0	[]
775	2	1	8	60.0	2	0	[]
778	2	1	8	60.0	2	0	[]
803	8	3	8	60.0	2	0	[]
817	3	1	8	60.0	2	0	[]
847	2	5	8	60.0	2	0	[]
912	1	1	2	60.0	2	0	[]
950	2	2	8	60.0	2	0	[]
955	2	1	8	60.0	2	0	[]
974	1	1	8	60.0	2	0	[]
981	2	1	8	80.0	2	0	[]
1020	3	1	8	60.0	2	0	[]
1032	2	1	8	60.0	2	0	[]
1059	31	6	8	60.0	2	0	[]
1149	1	1	8	60.0	2	0	[]
1191	2	1	8	60.0	2	0	[]
1195	98	5	8	60.0	2	1	[(3480, 0)]
1227	76	3	8	60.0	2	0	[]
1255	2	1	8	60.0	2	0	[]
1307	2	1	8	60.0	2	0	[]
1320	2	1	8	60.0	2	0	[]
1339	2	1	8	60.0	2	0	[]
1340	1	1	1	60.0	2	0	[]
1388	8	2	8	60.0	2	0	[]
1460	1	1	8	60.0	2	0	[]
1469	3	1	8	60.0	2	0	[]
1486	2	1	8	60.0	2	0	[]
1506	4	2	8	60.0	2	2	[(5307, 0), (7452, 0)]
1514	1	1	1	60.0	2	0	[]
1544	8	1	8	60.0	2	0	[]
1556	1	1	8	60.0	2	0	[]
1557	3	2	8	60.0	2	0	[]
1607	1	1	8	60.0	2	0	[]
1626	1	1	8	60.0	2	0	[]
1630	2	4	8	60.0	2	0	[]
1631	1	1	8	60.0	2	0	[]
1658	2	6	8	60.0	2	0	[]
1665	2	1	8	500.0	2	0	[]
1727	2	6	8	60.0	2	0	[]
1745	1	4	16	80.0	2	0	[]
1751	5	1	8	60.0	2	0	[]
1755	1	1	1	60.0	2	0	[]
1765	1	1	8	60.0	2	0	[]
1770	6	3	8	60.0	2	0	[]
1825	2	4	8	60.0	2	0	[]
1826	1	1	16	60.0	2	0	[]
1885	2	1	8	60.0	2	0	[]
1900	50	1	16	60.0	2	15	[(1059, 0), (5812, 0), (3306, 1), (2890, 0), (275, 1), (3534, 0), (6823, 1), (803, 0), (1195, 0), (7624, 1), (4335, 0), (7733, 0), (9209, 0), (8648, 0), (8708, 1)]
1908	2	1	8	60.0	2	0	[]
1919	20	6	8	60.0	0	1	[(9165, 1)]
1926	1	1	8	60.0	2	0	[]
1927	12	3	2	100.0	2	0	[]
1935	1	1	2	60.0	2	0	[]
1949	17	3	8	60.0	2	0	[]
1970	1	1	8	60.0	2	0	[]
1972	14	12	16	60.0	2	0	[]
1998	79	12	16	60.0	2	0	[]
1999	2	1	2	60.0	2	0	[]
2012	1	1	1	600.0	2	0	[]
2025	1	4	8	60.0	2	0	[]
2068	1	1	8	60.0	2	0	[]
2072	2	1	8	60.0	2	0	[]
2088	2	1	8	60.0	2	0	[]
2148	15	2	8	60.0	2	0	[]
2152	27	1	8	40.0	2	1	[(5607, 0)]
2173	24	2	8	60.0	2	1	[(1949, 0)]
2176	2	1	2	60.0	2	0	[]
2199	5	2	8	60.0	2	0	[]
2216	2	1	16	200.0	2	0	[]
2233	2	1	8	60.0	2	0	[]
2248	2	1	8	60.0	2	0	[]
2271	6	1	8	60.0	2	0	[]
2282	1	4	8	60.0	2	0	[]
2287	1	1	16	80.0	2	0	[]
2288	1	1	8	60.0	2	0	[]
2306	1	1	7	60.0	2	0	[]
2315	2	1	8	60.0	2	0	[]
2333	2	12	16	80.0	2	0	[]
2357	2	1	8	60.0	2	0	[]
2414	2	1	8	60.0	2	0	[]
2449	4	1	8	60.0	2	0	[]
2461	5	1	8	60.0	2	0	[]
2468	6	2	8	60.0	2	0	[]
2490	12	2	8	60.0	2	0	[]
2508	8	1	8	60.0	2	0	[]
2513	7	1	8	60.0	2	0	[]
2517	3	1	8	60.0	2	0	[]
2537	2	1	8	60.0	2	0	[]
2541	2	1	8	60.0	2	0	[]
2552	2	1	8	60.0	2	0	[]
2553	2	4	8	60.0	2	0	[]
2573	2	4	8	60.0	2	0	[]
2590	2	1	8	60.0	2	0	[]
2625	1	1	1	60.0	2	0	[]
2626	1	1	8	60.0	2	0	[]
2635	1	1	8	60.0	2	0	[]
2639	2	2	8	60.0	2	0	[]
2643	6	8	12	60.0	2	0	[]
2687	1	1	8	60.0	2	1	[(4286, 1)]
2695	4	1	32	80.0	2	0	[]
2696	21	6	8	60.0	2	0	[]
2700	27	2	8	60.0	2	3	[(1227, 0), (4041, 2), (4729, 2)]
2702	1	1	8	60.0	2	0	[]
2710	78	6	10	60.0	0	0	[]
2732	1	1	8	60.0	2	0	[]
2736	2	1	2	60.0	2	0	[]
2753	1	1	8	60.0	2	0	[]
2779	1	1	4	60.0	2	0	[]
2821	1	1	8	60.0	2	0	[]
2840	2	1	4	60.0	2	0	[]
2870	2	1	8	60.0	2	0	[]
2890	2	3	8	60.0	2	0	[]
2899	5	30	28	300.0	2	0	[]
2915	2	1	8	60.0	2	0	[]
2924	4	2	8	60.0	2	0	[]
2949	6	5	8	60.0	2	0	[]
2953	2	2	8	60.0	2	0	[]
3014	2	1	8	60.0	2	0	[]
3028	1	4	8	60.0	2	0	[]
3031	2	1	8	40.0	2	0	[]
3040	1	4	8	60.0	2	0	[]
3057	1	1	1	60.0	2	0	[]
3080	3	2	8	60.0	2	0	[]
3084	2	1	8	60.0	2	0	[]
3086	2	2	8	60.0	2	0	[]
3110	2	1	7	60.0	2	0	[]
3137	1	2	7	60.0	2	0	[]
3142	1	1	2	60.0	2	0	[]
3151	2	1	2	60.0	2	0	[]
3152	3	1	8	60.0	2	0	[]
3168	10	2	8	60.0	2	0	[]
3174	1	1	2	100.0	2	0	[]
3181	1	1	2	100.0	2	0	[]
3182	9	6	8	60.0	2	0	[]
3220	14	2	3	60.0	2	0	[]
3227	2	2	8	60.0	2	0	[]
3241	1	16	60	60.0	2	2	[(6097, 2), (8707, 2)]
3283	240	6	8	60.0	2	4	[(3718, 0), (1919, 1), (9336, 0), (8081, 2)]
3290	82	2	8	60.0	2	1	[(8711, 2)]
3293	3	1	8	60.0	2	1	[(9165, 0)]
3299	1	1	2	60.0	2	0	[]
3306	6	2	8	60.0	2	0	[]
3310	1	2	2	60.0	2	0	[]
3326	1	1	8	60.0	2	0	[]
3332	1	1	8	60.0	2	0	[]
3339	3	1	8	60.0	2	0	[]
3392	2	1	2	60.0	2	0	[]
3396	1	1	5	60.0	2	0	[]
3407	2	1	2	60.0	2	0	[]
3417	2	1	1	100.0	2	0	[]
3439	1	1	8	60.0	2	0	[]
3480	20	2	16	60.0	2	0	[]
3487	196	6	8	60.0	0	3	[(5408, 1), (5177, 0), (4474, 0)]
3497	1	1	8	60.0	2	0	[]
3507	2	4	8	60.0	2	1	[(1919, 0)]
3509	2	1	8	60.0	2	0	[]
3522	1	1	1	60.0	2	0	[]
3532	1	1	1	60.0	2	0	[]
3534	34	2	8	60.0	2	0	[]
3538	2	4	8	60.0	2	0	[]
3540	6	2	8	60.0	2	0	[]
3596	2	1	8	60.0	2	0	[]
3600	2	1	1	60.0	2	0	[]
3609	1	4	16	80.0	2	0	[]
3630	2	1	8	60.0	2	0	[]
3644	1	1	8	60.0	2	0	[]
3680	10	2	8	60.0	2	1	[(5362, 0)]
3682	28	3	8	60.0	2	0	[]
3683	4	7	8	60.0	2	0	[]
3699	2	1	2	60.0	2	0	[]
3715	4	3	8	60.0	2	0	[]
3718	15	1	8	60.0	2	0	[]
3746	3	1	8	60.0	2	0	[]
3747	18	1	8	60.0	2	0	[]
3750	11	6	8	60.0	2	0	[]
3772	1	1	8	60.0	2	0	[]
3827	1	1	6	60.0	2	0	[]
3835	2	1	8	60.0	2	0	[]
3838	2	1	8	60.0	2	0	[]
3851	29	6	8	60.0	2	0	[]
3856	2	2	8	60.0	2	0	[]
3857	2	1	8	60.0	2	0	[]
3872	1	24	48	300.0	2	0	[]
3886	47	21	32	200.0	0	1	[(1998, 0)]
3971	1	1	8	60.0	2	0	[]
4000	2	1	2	60.0	2	0	[]
4025	21	3	16	60.0	2	0	[]
4032	3	1	16	60.0	2	0	[]
4039	219	11	16	60.0	0	5	[(3718, 0), (7733, 0), (1227, 0), (3886, 0), (1059, 0)]
4041	6	3	8	40.0	2	0	[]
4064	1	2	2	60.0	2	0	[]
4075	7	2	8	60.0	2	0	[]
4137	1	1	8	60.0	2	0	[]
4140	1	1	8	60.0	2	0	[]
4182	1	1	3	60.0	2	0	[]
4185	1	1	8	60.0	2	0	[]
4204	1	4	8	60.0	2	0	[]
4208	1	1	8	60.0	2	0	[]
4230	1	1	8	60.0	2	0	[]
4244	2	1	8	60.0	2	0	[]
4246	1	4	8	60.0	2	0	[]
4257	3	1	2	60.0	2	0	[]
4259	32	5	8	100.0	2	0	[]
4269	4	4	8	60.0	2	0	[]
4270	3	3	8	60.0	2	0	[]
4286	24	1	8	80.0	2	2	[(8761, 1), (6597, 0)]
4301	8	4	16	80.0	2	0	[]
4304	2	4	8	60.0	2	0	[]
4335	5	5	8	60.0	2	0	[]
4343	1	1	2	60.0	2	0	[]
4375	3	1	8	60.0	2	0	[]
4380	1	1	8	60.0	2	0	[]
4387	2	1	8	60.0	2	0	[]
4399	1	1	8	60.0	2	0	[]
4402	1	1	8	60.0	2	0	[]
4407	1	4	8	40.0	2	0	[]
4420	4	6	8	60.0	2	0	[]
4421	10	2	8	60.0	2	1	[(7468, 1)]
4474	10	2	16	40.0	0	1	[(3487, 0)]
4485	1	1	8	60.0	2	0	[]
4512	3	2	8	60.0	2	0	[]
4528	1	1	8	60.0	2	0	[]
4580	4	12	24	60.0	2	0	[]
4593	2	1	8	60.0	2	0	[]
4601	2	1	8	60.0	2	0	[]
4626	2	3	8	60.0	2	0	[]
4627	4	1	7	60.0	2	0	[]
4637	2	1	8	60.0	2	0	[]
4721	3	1	8	60.0	2	0	[]
4729	14	2	8	60.0	2	0	[]
4775	1	1	1	60.0	2	0	[]
4785	2	2	8	60.0	2	0	[]
4816	2	1	8	60.0	2	0	[]
4837	3	1	3	60.0	2	0	[]
4847	4	6	8	60.0	2	0	[]
4850	1	1	2	60.0	2	0	[]
4883	11	6	8	60.0	2	0	[]
4929	4	3	8	60.0	2	0	[]
4938	9	2	8	60.0	2	0	[]
4944	2	2	8	60.0	2	0	[]
4961	1	1	8	60.0	2	0	[]
5001	5	1	8	80.0	2	1	[(1919, 0)]
5058	1	1	8	60.0	2	0	[]
5114	2	1	8	60.0	2	0	[]
5115	1	1	8	60.0	2	0	[]
5155	3	1	8	100.0	2	0	[]
5172	8	1	8	60.0	2	1	[(2915, 2)]
5177	7	1	8	60.0	2	1	[(6937, 1)]
5232	24	3	8	60.0	2	0	[]
5259	2	4	8	60.0	2	0	[]
5275	16	6	8	60.0	2	0	[]
5292	2	1	8	60.0	2	0	[]
5307	4	1	8	60.0	2	2	[(1506, 0), (7452, 0)]
5308	1	3	8	60.0	2	0	[]
5315	2	1	5	60.0	2	0	[]
5320	1	1	8	60.0	2	0	[]
5326	2	1	2	60.0	2	0	[]
5343	1	4	8	60.0	2	0	[]
5356	1	16	32	80.0	0	0	[]
5362	55	2	8	60.0	2	1	[(7733, 2)]
5408	2	1	8	60.0	2	0	[]
5414	1	1	8	60.0	2	0	[]
5425	1	1	8	60.0	2	0	[]
5491	2	1	8	60.0	2	0	[]
5506	2	1	8	60.0	2	0	[]
5580	2	4	8	60.0	2	0	[]
5584	1	1	8	40.0	2	0	[]
5607	38	2	8	40.0	0	0	[]
5610	2	2	8	60.0	2	0	[]
5618	2	1	8	60.0	2	0	[]
5656	2	1	2	60.0	2	0	[]
5662	2	1	8	60.0	2	0	[]
5667	2	1	8	60.0	2	0	[]
5668	2	1	8	60.0	2	0	[]
5678	2	4	8	60.0	2	0	[]
5706	1	4	16	80.0	2	0	[]
5771	6	2	8	60.0	2	0	[]
5795	2	1	8	60.0	2	0	[]
5804	1	1	4	60.0	2	0	[]
5812	36	6	8	60.0	2	0	[]
5822	2	2	8	200.0	2	0	[]
5828	2	1	8	167.0	2	0	[]
5840	3	1	8	60.0	2	0	[]
5852	1	1	8	60.0	2	0	[]
5865	15	1	8	60.0	2	0	[]
5872	6	1	8	60.0	2	1	[(1919, 0)]
5890	2	1	8	60.0	2	0	[]
5900	26	3	10	40.0	2	0	[]
5927	2	1	2	60.0	2	0	[]
5934	1	3	12	100.0	2	0	[]
5946	2	2	8	60.0	2	0	[]
5964	6	2	8	60.0	2	0	[]
6017	2	1	8	60.0	2	0	[]
6043	1	1	1	60.0	2	0	[]
6051	19	6	8	60.0	2	1	[(275, 0)]
6052	4	1	2	60.0	2	0	[]
6083	1	4	8	60.0	2	0	[]
6097	2	3	32	60.0	2	2	[(3241, 1), (8707, 2)]
6115	9	6	16	60.0	2	0	[]
6136	4	1	8	60.0	2	0	[]
6149	1	1	8	60.0	2	0	[]
6192	2	6	8	60.0	2	0	[]
6197	3	1	8	60.0	2	0	[]
6210	2	2	8	60.0	2	0	[]
6219	1	4	8	60.0	2	0	[]
6239	17	1	8	60.0	2	0	[]
6273	1	1	8	60.0	2	0	[]
6283	6	12	2	200.0	2	0	[]
6303	19	6	8	60.0	2	0	[]
6335	6	1	8	60.0	2	0	[]
6338	2	1	8	60.0	2	0	[]
6349	2	1	4	60.0	2	0	[]
6371	1	1	8	60.0	2	0	[]
6372	2	4	8	60.0	2	0	[]
6428	2	1	8	60.0	2	0	[]
6480	1	1	1	60.0	2	0	[]
6481	5	2	8	60.0	2	0	[]
6486	15	4	8	60.0	2	0	[]
6539	1	8	16	60.0	2	0	[]
6575	1	2	8	40.0	2	0	[]
6597	108	12	8	100.0	2	0	[]
6616	1	1	8	60.0	2	0	[]
6676	1	1	16	150.0	2	0	[]
6699	2	4	8	60.0	2	0	[]
6748	2	1	8	60.0	2	0	[]
6752	1	1	7	40.0	2	0	[]
6790	10	3	8	60.0	2	0	[]
6823	2	1	8	60.0	2	0	[]
6865	1	3	16	60.0	2	0	[]
6890	2	1	8	60.0	2	0	[]
6892	4	1	8	60.0	2	0	[]
6932	1	1	8	60.0	2	0	[]
6937	1	1	8	60.0	2	0	[]
6938	2	1	8	60.0	2	0	[]
6950	1	4	8	60.0	2	0	[]
6957	1	1	4	60.0	2	0	[]
6966	2	1	8	60.0	2	0	[]
7008	2	1	8	60.0	2	0	[]
7046	2	1	8	60.0	2	0	[]
7123	2	6	8	60.0	2	0	[]
7139	1	1	8	60.0	2	0	[]
7164	1	1	8	60.0	2	0	[]
7225	4	4	8	60.0	2	0	[]
7276	2	1	8	60.0	2	0	[]
7361	1	1	8	60.0	2	0	[]
7398	1	1	8	60.0	2	0	[]
7402	5	2	8	60.0	2	0	[]
7408	8	1	8	60.0	2	0	[]
7422	2	2	8	40.0	2	0	[]
7449	2	1	8	60.0	2	0	[]
7452	2	1	8	60.0	2	2	[(5307, 0), (1506, 0)]
7462	1	1	8	60.0	2	0	[]
7468	3	1	8	60.0	2	0	[]
7474	2	1	8	60.0	2	0	[]
7486	225	3	8	60.0	2	0	[]
7489	2	1	8	60.0	2	0	[]
7513	63	5	16	200.0	1	4	[(1919, 0), (7709, 1), (1059, 1), (3715, 2)]
7533	1	2	16	60.0	0	0	[]
7537	1	2	8	60.0	2	0	[]
7551	5	2	8	100.0	2	0	[]
7559	8	1	8	60.0	2	0	[]
7598	1	1	8	60.0	2	0	[]
7622	39	3	8	60.0	2	1	[(3480, 2)]
7624	22	6	8	60.0	2	0	[]
7647	1	1	8	60.0	2	0	[]
7651	17	2	8	500.0	2	2	[(6892, 1), (9249, 1)]
7668	1	1	8	60.0	2	0	[]
7672	2	1	8	60.0	2	0	[]
7699	2	1	8	60.0	2	0	[]
7709	4	2	8	60.0	2	0	[]
7733	401	6	8	60.0	2	0	[]
7740	12	6	8	60.0	2	0	[]
7744	2	1	8	60.0	2	0	[]
7752	2	1	8	60.0	2	0	[]
7756	1	1	6	60.0	2	0	[]
7771	2	1	8	60.0	2	0	[]
7772	10	4	16	60.0	2	2	[(8138, 0), (1059, 0)]
7807	1	1	8	60.0	2	0	[]
7815	2	1	8	60.0	2	0	[]
7816	1	2	8	60.0	2	0	[]
7824	5	1	8	60.0	2	0	[]
7872	2	4	8	60.0	2	0	[]
7894	2	1	8	60.0	2	0	[]
7913	2	4	8	60.0	2	0	[]
7932	10	1	8	60.0	2	8	[(6051, 0), (430, 0), (2953, 0), (7894, 0), (616, 0), (3851, 0), (8100, 0), (8180, 0)]
7951	2	1	8	60.0	2	0	[]
7964	2	6	8	60.0	2	0	[]
8016	1	1	8	60.0	2	0	[]
8081	5	1	8	40.0	2	0	[]
8098	1	1	8	60.0	2	0	[]
8100	5	2	8	60.0	2	0	[]
8102	2	1	4	60.0	2	0	[]
8131	5	2	8	60.0	2	1	[(3682, 0)]
8132	10	5	8	60.0	2	0	[]
8138	100	6	8	60.0	2	0	[]
8174	1	4	8	60.0	2	0	[]
8175	1	1	8	500.0	2	0	[]
8180	3	1	8	60.0	2	0	[]
8182	2	1	1	60.0	2	0	[]
8186	2	1	8	60.0	2	0	[]
8189	1	1	8	60.0	2	0	[]
8204	1	4	8	60.0	2	0	[]
8205	2	1	8	60.0	2	0	[]
8272	2	1	8	60.0	2	0	[]
8286	1	1	1	80.0	2	0	[]
8288	1	1	1	100.0	2	0	[]
8298	1	2	8	60.0	2	0	[]
8305	3	1	8	60.0	2	0	[]
8309	1	4	8	60.0	2	0	[]
8318	1	1	1	60.0	2	0	[]
8325	2	4	8	60.0	2	0	[]
8335	5	1	5	300.0	2	0	[]
8341	3	1	8	60.0	2	0	[]
8375	5	1	8	60.0	2	0	[]
8441	1	4	8	60.0	2	0	[]
8468	1	1	8	60.0	2	0	[]
8484	8	2	8	60.0	2	0	[]
8499	4	1	8	60.0	2	0	[]
8531	4	1	7	60.0	2	0	[]
8648	20	4	8	60.0	2	0	[]
8695	11	1	8	100.0	2	0	[]
8707	1	6	16	60.0	2	2	[(6097, 2), (3241, 2)]
8708	2	2	8	60.0	2	0	[]
8711	6	2	8	60.0	2	0	[]
8732	3	1	8	60.0	2	0	[]
8744	2	1	8	60.0	2	0	[]
8761	3	4	8	60.0	2	0	[]
8762	2	1	2	60.0	2	0	[]
8763	1	1	8	40.0	2	0	[]
8764	1	1	1	60.0	2	0	[]
8795	5	6	8	60.0	2	0	[]
8798	3	2	8	60.0	2	0	[]
8878	2	3	8	60.0	2	0	[]
8880	2	1	8	60.0	2	0	[]
8882	3	1	8	60.0	2	0	[]
8891	1	1	6	60.0	2	0	[]
8930	5	6	16	80.0	2	1	[(1919, 0)]
8939	3	1	8	60.0	2	0	[]
9004	1	4	8	60.0	2	0	[]
9010	30	4	8	60.0	2	1	[(5812, 0)]
9014	28	3	8	60.0	2	1	[(1949, 0)]
9046	4	2	2	60.0	2	0	[]
9056	1	1	3	60.0	2	0	[]
9065	3	1	8	60.0	2	0	[]
9072	74	2	8	60.0	2	0	[]
9073	2	4	8	60.0	2	0	[]
9092	1	1	8	60.0	2	0	[]
9102	1	1	8	60.0	2	0	[]
9116	1	1	2	60.0	2	0	[]
9148	1	1	7	60.0	2	0	[]
9165	62	6	8	60.0	2	2	[(1919, 1), (3293, 0)]
9209	5	6	8	60.0	2	0	[]
9249	5	1	8	60.0	2	0	[]
9250	2	1	8	60.0	2	0	[]
9269	210	4	16	60.0	0	5	[(5320, 0), (3886, 0), (5618, 0), (1998, 0), (693, 0)]
9274	2	1	8	60.0	2	0	[]
9278	2	4	8	60.0	2	0	[]
9296	2	1	6	60.0	2	0	[]
9321	1	4	8	60.0	2	0	[]
9326	1	4	8	80.0	2	0	[]
9336	8	1	2	80.0	2	0	[]
