app_id	nb_instances	core	memory	disk	intra_value	inter_degree	inter_aff
5	18	2	8	60.0	2	0	[]
27	21	3	8	60.0	2	0	[]
111	2	1	8	60.0	2	0	[]
148	2	1	8	60.0	2	0	[]
176	1	1	32	80.0	0	0	[]
219	2	2	8	60.0	2	0	[]
222	5	1	8	60.0	2	0	[]
242	3	1	5	60.0	2	0	[]
244	4	3	8	60.0	2	0	[]
246	1	1	1	60.0	2	0	[]
247	1	4	8	60.0	2	0	[]
301	21	12	16	200.0	2	0	[]
311	3	1	8	60.0	2	0	[]
320	3	1	8	60.0	2	0	[]
340	1	4	8	60.0	2	0	[]
348	2	1	8	60.0	2	0	[]
357	8	1	8	60.0	2	0	[]
361	4	1	8	60.0	2	0	[]
364	2	5	8	60.0	2	0	[]
369	4	2	8	60.0	2	0	[]
392	7	1	4	60.0	2	1	[(5017, 1)]
398	2	1	1	60.0	2	0	[]
432	2	1	8	60.0	2	0	[]
445	4	1	8	60.0	2	0	[]
449	15	3	16	60.0	1	1	[(4825, 1)]
461	1	1	2	80.0	2	3	[(5794, 0), (634, 0), (4774, 0)]
473	77	3	8	40.0	0	2	[(1326, 1), (1062, 1)]
474	2	1	8	60.0	2	0	[]
488	1	16	60	60.0	0	0	[]
494	2	1	2	60.0	2	0	[]
522	2	1	2	60.0	2	0	[]
536	51	2	8	167.0	2	17	[(2166, 0), (7935, 0), (3540, 0), (7772, 0), (7080, 0), (5028, 0), (2850, 0), (7414, 0), (1235, 0), (3788, 0), (2700, 0), (369, 0), (8722, 0), (4825, 0), (6188, 0), (5690, 0), (1443, 0)]
543	1	1	8	60.0	2	0	[]
576	2	1	2	60.0	2	0	[]
599	4	3	8	40.0	2	0	[]
607	2	4	8	60.0	2	0	[]
628	4	1	8	60.0	2	0	[]
634	2	2	8	60.0	2	0	[]
654	2	6	8	60.0	2	0	[]
659	6	1	4	60.0	2	0	[]
668	4	5	8	60.0	2	0	[]
716	3	3	8	100.0	2	0	[]
736	37	4	8	60.0	2	1	[(4825, 2)]
751	1	1	1	60.0	2	0	[]
805	1	1	8	60.0	2	0	[]
819	3	1	8	80.0	2	0	[]
848	2	1	8	60.0	2	0	[]
852	3	2	8	60.0	2	0	[]
863	1	2	8	60.0	2	0	[]
871	2	1	4	60.0	2	0	[]
908	1	1	8	60.0	2	0	[]
913	5	1	8	60.0	2	0	[]
933	1	1	8	60.0	2	0	[]
944	1	1	8	60.0	2	0	[]
992	1	4	8	60.0	2	0	[]
1055	3	2	8	60.0	2	0	[]
1062	1	2	8	60.0	2	1	[(473, 2)]
1084	2	1	8	60.0	2	0	[]
1094	1	4	8	60.0	2	0	[]
1099	15	1	2	60.0	2	0	[]
1103	2	1	8	60.0	2	0	[]
1108	2	1	8	60.0	2	0	[]
1130	1	1	8	60.0	2	0	[]
1136	1	1	8	60.0	2	0	[]
1142	1	4	8	60.0	2	0	[]
1179	1	1	8	60.0	2	0	[]
1193	2	1	8	60.0	2	0	[]
1235	6	2	8	60.0	2	0	[]
1264	1	4	8	60.0	2	0	[]
1265	1	1	8	60.0	2	0	[]
1291	4	1	8	60.0	2	0	[]
1302	2	1	8	60.0	2	0	[]
1304	2	1	2	60.0	2	0	[]
1320	2	1	8	60.0	2	0	[]
1325	2	1	8	60.0	2	0	[]
1326	4	1	8	60.0	2	1	[(473, 0)]
1338	4	1	8	60.0	2	0	[]
1342	3	2	8	60.0	2	0	[]
1370	1	4	16	80.0	2	0	[]
1374	10	1	8	60.0	2	0	[]
1381	1	2	4	60.0	2	0	[]
1397	1	1	8	60.0	2	0	[]
1409	6	1	8	60.0	2	0	[]
1412	6	5	8	60.0	2	0	[]
1413	2	1	8	60.0	2	0	[]
1443	103	6	8	60.0	0	5	[(1326, 2), (473, 0), (7935, 0), (3270, 0), (4825, 0)]
1448	1	1	5	60.0	2	0	[]
1458	3	4	8	60.0	2	0	[]
1462	1	1	8	60.0	2	0	[]
1483	58	4	8	60.0	2	0	[]
1508	3	1	8	60.0	2	0	[]
1561	5	1	8	60.0	2	0	[]
1562	2	1	8	100.0	2	0	[]
1570	2	1	7	60.0	2	0	[]
1573	1	1	1	60.0	2	0	[]
1575	2	1	8	60.0	2	0	[]
1582	1	1	8	60.0	2	0	[]
1596	3	12	16	80.0	2	0	[]
1626	1	1	8	60.0	2	0	[]
1635	52	2	8	60.0	2	0	[]
1649	1	2	8	60.0	2	0	[]
1655	1	4	8	60.0	2	0	[]
1658	2	6	8	60.0	2	0	[]
1674	2	1	8	60.0	2	0	[]
1682	2	1	1	60.0	2	0	[]
1686	2	4	8	60.0	2	0	[]
1698	2	1	1	80.0	2	0	[]
1711	1	1	8	60.0	2	0	[]
1730	4	1	8	60.0	2	0	[]
1750	1	4	16	80.0	2	0	[]
1796	15	4	3	60.0	2	0	[]
1823	1	1	2	60.0	2	0	[]
1827	2	1	8	60.0	2	0	[]
1879	1	36	37	300.0	2	0	[]
1888	2	2	8	60.0	2	0	[]
1899	6	2	8	60.0	2	0	[]
1908	2	1	8	60.0	2	0	[]
1947	2	1	8	60.0	2	0	[]
1948	2	1	8	60.0	2	0	[]
1959	5	2	8	60.0	2	0	[]
1960	2	1	8	60.0	2	0	[]
2016	2	2	8	60.0	2	0	[]
2021	1	1	2	60.0	2	0	[]
2059	2	1	2	60.0	2	0	[]
2146	2	1	8	60.0	2	0	[]
2147	6	1	8	250.0	2	0	[]
2149	1	1	8	60.0	2	0	[]
2166	30	9	2	150.0	2	0	[]
2167	1	1	8	60.0	2	0	[]
2181	1	1	8	60.0	2	0	[]
2192	3	1	16	60.0	2	0	[]
2193	6	1	8	80.0	2	0	[]
2205	2	1	8	60.0	2	0	[]
2209	1	1	1	60.0	2	0	[]
2331	1	1	4	60.0	2	0	[]
2346	1	1	8	60.0	2	0	[]
2349	2	5	16	80.0	2	0	[]
2388	1	4	8	60.0	2	0	[]
2396	1	1	1	60.0	2	0	[]
2406	1	8	16	80.0	2	0	[]
2412	1	1	8	60.0	2	0	[]
2420	2	1	8	60.0	2	0	[]
2421	2	1	6	60.0	2	0	[]
2442	4	1	8	60.0	2	0	[]
2454	5	4	8	100.0	2	0	[]
2457	5	2	8	60.0	2	0	[]
2484	28	1	2	60.0	2	0	[]
2487	138	6	8	60.0	2	0	[]
2496	10	4	8	100.0	2	2	[(2487, 1), (2454, 1)]
2535	2	1	1	60.0	2	0	[]
2549	2	4	8	60.0	2	0	[]
2555	2	1	16	80.0	2	0	[]
2577	2	1	1	60.0	2	0	[]
2612	6	5	8	60.0	2	0	[]
2614	1	1	2	60.0	2	0	[]
2618	7	1	8	80.0	2	0	[]
2648	4	1	8	60.0	2	0	[]
2678	1	1	8	60.0	2	0	[]
2700	27	2	8	60.0	2	1	[(473, 1)]
2703	4	1	8	60.0	2	0	[]
2704	2	1	8	60.0	2	0	[]
2709	4	3	8	60.0	2	0	[]
2711	1	1	8	60.0	2	0	[]
2716	10	1	16	60.0	2	0	[]
2724	2	2	8	60.0	2	0	[]
2739	1	1	60	60.0	2	3	[(8587, 2), (8834, 2), (3270, 2)]
2740	3	1	8	60.0	2	0	[]
2763	3	3	8	60.0	2	0	[]
2765	7	1	8	60.0	2	0	[]
2804	2	1	8	60.0	2	0	[]
2813	4	5	8	60.0	2	0	[]
2850	67	3	8	40.0	2	4	[(4825, 0), (473, 2), (7414, 2), (8077, 2)]
2853	6	2	8	40.0	2	0	[]
2872	4	1	8	60.0	2	0	[]
2918	7	1	8	60.0	2	0	[]
2939	2	1	8	60.0	2	0	[]
2942	13	2	8	60.0	2	0	[]
3004	1	1	8	60.0	2	0	[]
3005	1	4	16	80.0	2	0	[]
3009	24	3	8	60.0	2	0	[]
3033	11	4	8	80.0	2	0	[]
3051	1	1	8	60.0	2	0	[]
3066	13	2	8	100.0	2	0	[]
3120	1	1	8	60.0	2	0	[]
3122	1	4	8	60.0	2	0	[]
3189	5	1	8	60.0	2	0	[]
3192	3	1	14	80.0	2	0	[]
3214	1	1	8	60.0	2	0	[]
3252	47	1	8	60.0	2	1	[(3892, 0)]
3265	2	2	8	60.0	2	0	[]
3268	1	1	8	60.0	2	0	[]
3269	1	1	8	60.0	2	0	[]
3270	5	1	32	60.0	2	3	[(2739, 1), (8587, 2), (8834, 2)]
3318	2	3	8	60.0	2	0	[]
3324	1	6	16	200.0	2	0	[]
3329	2	2	8	60.0	2	0	[]
3397	22	12	16	100.0	2	0	[]
3399	1	4	8	60.0	2	0	[]
3401	16	3	8	60.0	2	0	[]
3411	2	1	2	60.0	2	0	[]
3456	2	2	8	60.0	2	0	[]
3495	2	1	2	60.0	2	0	[]
3506	3	1	8	60.0	2	0	[]
3510	2	1	8	60.0	2	0	[]
3540	6	2	8	60.0	2	0	[]
3565	45	2	8	60.0	2	1	[(7080, 2)]
3584	2	1	8	60.0	2	0	[]
3610	1	4	8	60.0	2	0	[]
3619	4	1	8	60.0	2	0	[]
3624	16	2	8	100.0	2	0	[]
3635	4	1	4	60.0	2	0	[]
3650	1	1	2	60.0	2	0	[]
3703	2	4	8	60.0	2	0	[]
3712	1	1	8	60.0	2	0	[]
3720	8	1	8	60.0	2	0	[]
3780	14	1	8	60.0	2	0	[]
3788	20	2	8	60.0	2	0	[]
3796	1	4	8	60.0	2	0	[]
3840	2	1	8	60.0	2	0	[]
3888	4	1	16	100.0	2	0	[]
3892	4	10	16	200.0	2	1	[(4825, 1)]
3898	2	1	8	60.0	2	0	[]
3917	2	1	8	60.0	2	0	[]
3950	5	1	8	60.0	2	0	[]
3988	10	1	8	60.0	2	0	[]
3998	2	6	8	60.0	2	0	[]
4002	4	2	8	80.0	2	2	[(357, 1), (5512, 1)]
4015	2	1	8	60.0	2	0	[]
4021	1	4	8	60.0	2	0	[]
4034	9	6	8	60.0	2	1	[(3214, 0)]
4076	4	1	8	60.0	2	0	[]
4081	1	1	8	60.0	2	0	[]
4085	84	2	2	60.0	2	2	[(4109, 1), (6117, 1)]
4091	16	2	8	60.0	2	0	[]
4109	6	1	8	100.0	2	0	[]
4111	2	4	8	60.0	2	0	[]
4119	2	4	8	60.0	2	0	[]
4126	1	4	16	80.0	2	0	[]
4129	9	1	16	100.0	2	1	[(2487, 0)]
4130	2	1	8	60.0	2	0	[]
4176	2	1	6	60.0	2	0	[]
4200	1	1	1	60.0	2	0	[]
4206	4	1	8	60.0	2	0	[]
4241	1	2	8	100.0	2	0	[]
4271	2	1	8	60.0	2	0	[]
4287	5	22	32	80.0	2	1	[(4085, 2)]
4294	4	1	5	60.0	2	0	[]
4371	1	1	2	60.0	2	0	[]
4409	2	1	10	180.0	2	0	[]
4438	6	1	8	250.0	2	0	[]
4496	1	1	8	60.0	2	0	[]
4503	6	1	8	60.0	2	0	[]
4507	2	1	2	60.0	2	0	[]
4529	3	1	8	60.0	2	0	[]
4539	1	4	8	60.0	2	0	[]
4562	2	1	3	60.0	2	0	[]
4579	4	1	8	60.0	2	0	[]
4596	2	1	2	60.0	2	0	[]
4621	2	1	8	60.0	2	0	[]
4625	1	1	8	60.0	2	0	[]
4658	1	1	8	60.0	2	0	[]
4678	15	6	3	60.0	2	1	[(536, 0)]
4680	2	1	8	60.0	2	0	[]
4682	2	1	8	60.0	2	0	[]
4695	5	1	8	60.0	2	0	[]
4774	2	1	8	60.0	2	0	[]
4787	2	1	16	60.0	2	0	[]
4806	2	1	8	60.0	2	0	[]
4812	6	2	8	60.0	2	0	[]
4823	2	1	8	60.0	2	0	[]
4825	610	6	8	40.0	0	8	[(8834, 0), (5028, 0), (3988, 0), (2850, 0), (6188, 0), (2765, 0), (1055, 0), (4200, 0)]
4829	1	1	2	60.0	2	0	[]
4838	1	4	8	60.0	2	0	[]
4847	4	6	8	60.0	2	0	[]
4865	1	1	8	60.0	2	0	[]
4866	14	2	8	60.0	2	0	[]
4908	4	2	8	100.0	2	0	[]
4953	31	2	8	60.0	2	0	[]
4967	2	1	8	60.0	2	0	[]
5017	4	4	8	60.0	2	0	[]
5027	2	1	3	60.0	2	0	[]
5028	71	6	16	60.0	2	1	[(4825, 2)]
5042	3	1	8	60.0	2	0	[]
5076	1	1	8	60.0	2	0	[]
5088	1	1	2	60.0	2	0	[]
5150	1	1	8	60.0	2	0	[]
5173	1	1	8	60.0	2	0	[]
5194	2	1	8	60.0	2	0	[]
5230	1	1	8	60.0	2	0	[]
5243	1	1	2	60.0	2	0	[]
5244	18	1	8	60.0	2	0	[]
5247	2	2	8	60.0	2	0	[]
5276	3	1	8	300.0	2	0	[]
5354	1	1	8	60.0	2	0	[]
5361	1	4	8	60.0	2	0	[]
5387	3	1	8	60.0	2	0	[]
5402	1	1	8	60.0	2	0	[]
5429	7	1	16	80.0	2	0	[]
5433	1	1	8	60.0	2	0	[]
5448	1	1	16	100.0	2	0	[]
5450	1	1	6	60.0	2	0	[]
5467	5	1	8	60.0	2	0	[]
5491	2	1	8	60.0	2	0	[]
5500	3	1	8	60.0	2	0	[]
5512	5	1	8	60.0	2	0	[]
5527	2	1	1	60.0	2	0	[]
5535	2	1	8	60.0	2	0	[]
5547	2	1	5	60.0	2	0	[]
5549	1	1	8	60.0	2	0	[]
5588	2	1	8	60.0	2	0	[]
5601	3	1	8	60.0	2	0	[]
5632	3	2	8	60.0	2	0	[]
5633	7	2	8	60.0	2	0	[]
5636	2	2	8	60.0	2	0	[]
5646	2	1	8	60.0	2	0	[]
5650	2	4	8	60.0	2	0	[]
5655	2	2	8	60.0	2	0	[]
5667	2	1	8	60.0	2	0	[]
5674	2	1	2	60.0	2	0	[]
5690	2	1	8	60.0	2	0	[]
5713	1	4	16	80.0	2	0	[]
5721	2	1	6	60.0	2	0	[]
5732	5	1	8	60.0	2	0	[]
5733	1	1	8	60.0	2	0	[]
5742	2	1	2	60.0	2	0	[]
5746	1	1	8	60.0	2	0	[]
5776	1	1	8	60.0	2	0	[]
5786	2	1	8	60.0	2	0	[]
5792	5	1	8	60.0	2	0	[]
5794	4	1	16	200.0	2	0	[]
5803	2	1	8	60.0	2	0	[]
5817	2	1	8	60.0	2	0	[]
5842	2	2	1	60.0	2	0	[]
5859	5	34	2	600.0	2	0	[]
5898	3	1	8	60.0	2	0	[]
5900	26	3	10	40.0	2	0	[]
5952	2	1	8	60.0	2	0	[]
6012	2	4	8	60.0	2	0	[]
6014	1	4	8	60.0	2	0	[]
6027	1	1	16	60.0	2	0	[]
6058	1	1	8	60.0	2	0	[]
6090	2	1	1	60.0	2	0	[]
6092	1	1	8	60.0	2	0	[]
6114	1	1	2	60.0	2	0	[]
6117	72	6	16	80.0	2	0	[]
6123	138	6	8	60.0	2	0	[]
6134	4	1	8	60.0	2	0	[]
6188	27	2	8	40.0	2	1	[(5028, 0)]
6194	1	1	8	60.0	2	0	[]
6200	2	1	1	60.0	2	0	[]
6212	5	1	8	60.0	2	0	[]
6238	2	1	8	60.0	2	0	[]
6249	2	1	5	60.0	2	0	[]
6271	1	1	8	60.0	2	0	[]
6280	3	5	8	60.0	2	0	[]
6296	4	1	8	60.0	2	0	[]
6310	2	1	8	60.0	2	0	[]
6347	4	1	8	60.0	2	0	[]
6358	2	1	2	60.0	2	0	[]
6372	2	4	8	60.0	2	0	[]
6394	1	1	2	60.0	2	0	[]
6405	6	1	8	60.0	2	0	[]
6407	2	1	8	60.0	2	0	[]
6410	2	1	8	60.0	2	0	[]
6414	2	1	8	60.0	2	0	[]
6426	4	1	8	60.0	2	0	[]
6444	3	3	3	60.0	2	0	[]
6445	1	1	8	60.0	2	0	[]
6449	1	1	8	60.0	2	0	[]
6467	1	4	8	40.0	0	0	[]
6478	7	2	8	60.0	2	0	[]
6509	1	3	2	60.0	2	0	[]
6510	4	2	8	60.0	2	0	[]
6591	2	1	16	80.0	2	0	[]
6621	2	1	2	60.0	2	0	[]
6668	1	1	1	60.0	2	0	[]
6699	2	4	8	60.0	2	0	[]
6705	1	1	8	60.0	2	0	[]
6712	1	1	8	60.0	2	0	[]
6727	1	4	8	60.0	2	0	[]
6732	4	1	8	60.0	2	0	[]
6735	2	1	8	60.0	2	0	[]
6758	1	1	2	60.0	2	0	[]
6795	2	1	2	60.0	2	0	[]
6797	1	1	8	60.0	2	0	[]
6798	1	1	8	60.0	2	0	[]
6805	2	1	8	60.0	2	0	[]
6818	9	1	8	60.0	2	0	[]
6834	5	1	8	80.0	2	0	[]
6878	1	1	8	60.0	2	0	[]
6882	2	1	1	60.0	2	0	[]
6959	2	1	8	60.0	2	0	[]
6963	2	1	4	60.0	2	0	[]
6969	1	1	8	60.0	2	0	[]
6973	3	4	8	60.0	2	0	[]
7038	2	3	8	60.0	2	0	[]
7051	1	1	1	60.0	2	0	[]
7061	2	1	8	60.0	2	0	[]
7074	8	1	1	80.0	2	0	[]
7080	26	3	8	60.0	2	0	[]
7113	8	2	8	60.0	2	0	[]
7121	5	2	8	60.0	2	0	[]
7141	1	1	8	60.0	2	0	[]
7185	3	1	8	60.0	2	0	[]
7194	1	4	8	60.0	2	0	[]
7200	1	1	2	60.0	2	0	[]
7202	2	1	8	60.0	2	0	[]
7218	1	2	4	60.0	2	0	[]
7219	4	1	8	60.0	2	0	[]
7258	3	3	8	60.0	2	0	[]
7298	2	1	8	60.0	2	0	[]
7306	1	4	8	60.0	2	0	[]
7317	2	1	1	60.0	2	0	[]
7324	1	1	2	60.0	2	0	[]
7331	4	2	8	60.0	2	0	[]
7352	2	5	8	60.0	2	0	[]
7387	3	1	8	60.0	2	0	[]
7414	31	3	8	60.0	2	0	[]
7475	5	1	8	60.0	2	0	[]
7492	1	1	8	60.0	2	0	[]
7494	2	1	8	60.0	2	0	[]
7508	2	6	6	60.0	2	0	[]
7509	8	1	8	60.0	2	1	[(7516, 2)]
7516	2	1	8	60.0	2	0	[]
7692	3	1	8	80.0	2	0	[]
7700	67	21	48	300.0	2	0	[]
7723	2	1	2	60.0	2	0	[]
7769	1	1	8	60.0	2	0	[]
7772	10	4	16	60.0	2	1	[(4825, 0)]
7777	2	1	16	200.0	2	0	[]
7798	16	3	8	60.0	2	0	[]
7838	1	1	8	60.0	2	0	[]
7840	2	1	8	60.0	2	0	[]
7858	2	2	8	60.0	2	0	[]
7882	2	1	8	100.0	2	0	[]
7914	4	1	8	60.0	2	1	[(5028, 2)]
7935	175	4	16	100.0	2	0	[]
7961	3	1	8	60.0	2	0	[]
7977	2	1	8	60.0	2	0	[]
8059	2	4	8	60.0	2	0	[]
8077	2	1	2	60.0	2	0	[]
8078	1	1	8	60.0	2	0	[]
8121	2	1	8	60.0	2	0	[]
8127	2	1	8	60.0	2	0	[]
8128	4	3	8	60.0	2	0	[]
8148	23	3	8	60.0	2	0	[]
8182	2	1	1	60.0	2	0	[]
8200	1	1	8	60.0	2	0	[]
8206	2	1	8	60.0	2	0	[]
8208	6	1	8	60.0	2	0	[]
8209	8	1	8	60.0	2	0	[]
8264	2	2	8	60.0	2	0	[]
8274	3	1	2	60.0	2	0	[]
8281	6	1	8	60.0	2	0	[]
8364	1	4	8	60.0	2	0	[]
8393	3	1	2	60.0	2	0	[]
8424	2	1	8	60.0	2	0	[]
8431	1	1	8	60.0	2	0	[]
8440	2	1	8	60.0	2	0	[]
8449	1	2	8	60.0	2	0	[]
8463	4	1	8	60.0	2	0	[]
8471	2	1	8	60.0	2	0	[]
8484	8	2	8	60.0	2	0	[]
8518	1	1	8	60.0	2	0	[]
8527	6	1	8	60.0	2	0	[]
8573	1	1	8	60.0	2	0	[]
8581	1	1	8	60.0	2	0	[]
8587	2	8	16	60.0	2	3	[(2739, 2), (8834, 2), (3270, 2)]
8623	1	1	16	60.0	2	0	[]
8630	2	1	8	60.0	2	0	[]
8635	2	1	8	60.0	2	0	[]
8649	2	1	2	60.0	2	0	[]
8673	17	2	8	60.0	2	0	[]
8681	2	1	8	60.0	2	0	[]
8700	6	1	8	60.0	2	0	[]
8722	51	6	16	60.0	0	0	[]
8736	11	2	8	60.0	2	0	[]
8781	2	1	8	80.0	2	0	[]
8794	1	4	8	60.0	2	0	[]
8819	8	5	8	60.0	2	0	[]
8834	8	3	32	100.0	2	3	[(2739, 1), (8587, 2), (3270, 2)]
8836	4	1	8	60.0	2	0	[]
8868	1	3	16	40.0	2	0	[]
8962	1	1	4	100.0	2	0	[]
9012	2	1	8	60.0	2	0	[]
9014	28	3	8	60.0	2	0	[]
9017	33	1	8	60.0	2	0	[]
9039	2	1	8	60.0	2	0	[]
9059	4	7	3	60.0	2	0	[]
9103	2	1	7	60.0	2	0	[]
9109	3	1	8	60.0	2	0	[]
9137	1	1	8	60.0	2	0	[]
9149	5	2	8	60.0	2	0	[]
9186	4	1	8	60.0	2	0	[]
9241	1	1	7	60.0	2	0	[]
9271	1	1	8	60.0	2	0	[]
9293	1	1	3	60.0	2	0	[]
9295	1	4	8	60.0	2	0	[]
9300	2	4	8	60.0	2	0	[]
9309	1	4	8	60.0	2	0	[]
