app_id	nb_instances	core	memory	disk	intra_value	inter_degree	inter_aff
21	4	1	7	60.0	2	0	[]
35	2	1	8	60.0	2	0	[]
41	2	1	1	60.0	2	0	[]
53	6	1	8	60.0	2	0	[]
61	2	1	2	60.0	2	0	[]
80	145	12	16	60.0	2	3	[(4608, 2), (7552, 0), (4630, 2)]
136	1	1	8	60.0	2	0	[]
140	3	6	8	60.0	2	0	[]
148	2	1	8	60.0	2	0	[]
162	1	1	7	60.0	2	0	[]
197	2	2	8	60.0	2	0	[]
215	2	1	8	60.0	2	0	[]
301	21	12	16	200.0	2	0	[]
309	2	1	8	60.0	2	0	[]
369	4	2	8	60.0	2	0	[]
371	5	1	8	60.0	2	0	[]
410	2	1	8	60.0	2	0	[]
442	25	2	8	60.0	2	0	[]
444	3	1	8	60.0	2	0	[]
452	3	3	8	80.0	2	0	[]
468	6	1	8	60.0	2	0	[]
488	1	16	60	60.0	0	0	[]
491	35	1	8	60.0	2	0	[]
523	2	4	8	60.0	2	0	[]
539	2	1	8	60.0	2	0	[]
543	1	1	8	60.0	2	0	[]
552	4	1	8	60.0	2	0	[]
568	3	1	8	60.0	2	0	[]
585	75	3	8	40.0	2	1	[(80, 0)]
590	2	2	8	60.0	2	0	[]
600	1	1	8	60.0	2	0	[]
617	6	2	8	60.0	2	0	[]
621	1	1	8	60.0	2	0	[]
631	1	1	8	60.0	2	0	[]
632	5	1	8	60.0	2	0	[]
667	2	1	8	60.0	2	0	[]
678	1	1	8	60.0	2	0	[]
685	6	1	3	40.0	2	0	[]
689	5	6	8	60.0	2	0	[]
693	14	2	8	60.0	2	0	[]
747	4	2	8	60.0	2	0	[]
749	2	4	8	60.0	2	0	[]
767	6	2	8	40.0	0	0	[]
800	19	1	8	60.0	2	0	[]
828	1	1	8	60.0	2	0	[]
847	2	5	8	60.0	2	0	[]
906	2	1	8	60.0	2	0	[]
932	1	1	8	100.0	2	0	[]
933	1	1	8	60.0	2	0	[]
967	3	1	8	60.0	2	0	[]
974	1	1	8	60.0	2	0	[]
981	2	1	8	80.0	2	0	[]
988	2	1	8	80.0	2	0	[]
1044	6	3	8	60.0	2	1	[(8935, 2)]
1104	2	1	2	60.0	2	1	[(8936, 1)]
1127	5	1	8	60.0	2	0	[]
1192	2	1	8	60.0	2	0	[]
1198	1	2	8	60.0	2	0	[]
1229	12	2	8	60.0	2	0	[]
1270	3	1	3	60.0	2	0	[]
1307	2	1	8	60.0	2	0	[]
1320	2	1	8	60.0	2	0	[]
1354	2	1	8	60.0	2	1	[(7556, 0)]
1360	34	4	8	60.0	2	0	[]
1368	1	1	8	60.0	2	0	[]
1388	8	2	8	60.0	2	0	[]
1421	4	1	8	60.0	2	0	[]
1465	1	4	8	60.0	2	0	[]
1499	2	1	8	60.0	2	0	[]
1520	1	1	5	60.0	2	0	[]
1528	1	4	8	60.0	2	0	[]
1539	2	1	8	60.0	2	0	[]
1546	3	2	8	60.0	2	0	[]
1584	2	1	8	80.0	2	1	[(4895, 0)]
1596	3	12	16	80.0	2	1	[(3602, 2)]
1603	1	2	8	100.0	2	0	[]
1605	2	1	8	60.0	2	0	[]
1610	1	4	8	60.0	2	0	[]
1632	1	4	8	60.0	2	0	[]
1635	52	2	8	60.0	2	0	[]
1641	12	3	8	60.0	2	0	[]
1647	5	2	8	60.0	2	0	[]
1703	21	1	16	60.0	2	1	[(4522, 0)]
1716	2	1	8	60.0	2	0	[]
1745	1	4	16	80.0	2	0	[]
1770	6	3	8	60.0	2	0	[]
1787	2	4	8	60.0	2	0	[]
1791	1	1	8	60.0	2	0	[]
1829	2	1	8	60.0	2	0	[]
1871	4	2	8	60.0	2	0	[]
1874	3	1	8	60.0	2	0	[]
1922	2	4	8	60.0	2	0	[]
1930	2	1	2	60.0	2	0	[]
1958	2	1	8	60.0	2	0	[]
1994	2	2	8	60.0	2	0	[]
2081	1	6	2	60.0	2	0	[]
2126	11	6	8	60.0	2	0	[]
2153	2	1	6	60.0	2	0	[]
2216	2	1	16	200.0	2	0	[]
2223	1	10	8	60.0	2	0	[]
2238	4	3	32	80.0	2	0	[]
2242	4	12	8	60.0	2	0	[]
2276	1	1	8	60.0	2	0	[]
2307	1	1	8	60.0	2	1	[(1770, 0)]
2327	1	1	2	60.0	2	0	[]
2357	2	1	8	60.0	2	0	[]
2388	1	4	8	60.0	2	0	[]
2404	1	2	8	60.0	2	0	[]
2436	4	4	8	60.0	2	0	[]
2448	4	2	8	100.0	2	0	[]
2463	5	1	8	60.0	2	0	[]
2475	6	1	8	60.0	2	0	[]
2541	2	1	8	60.0	2	0	[]
2586	11	2	8	60.0	2	0	[]
2597	2	2	8	60.0	2	0	[]
2600	12	7	24	150.0	2	0	[]
2624	1	1	2	60.0	2	0	[]
2649	19	5	8	60.0	2	2	[(80, 0), (7333, 0)]
2655	2	1	8	60.0	2	0	[]
2679	2	1	3	60.0	2	0	[]
2694	2	1	8	60.0	2	0	[]
2705	2	1	8	60.0	2	0	[]
2728	10	3	8	40.0	2	0	[]
2731	7	36	48	300.0	2	0	[]
2753	1	1	8	60.0	2	0	[]
2755	3	1	8	60.0	2	0	[]
2759	2	1	8	60.0	2	0	[]
2763	3	3	8	60.0	2	0	[]
2821	1	1	8	60.0	2	0	[]
2846	3	1	8	60.0	2	0	[]
2912	3	3	8	60.0	2	0	[]
2913	17	2	8	60.0	2	0	[]
2965	2	4	8	60.0	2	0	[]
2989	2	2	8	60.0	2	0	[]
2994	1	1	8	60.0	2	0	[]
3012	2	1	8	60.0	2	0	[]
3019	7	3	2	60.0	2	0	[]
3024	1	1	4	60.0	2	0	[]
3044	2	1	8	60.0	2	0	[]
3056	1	4	8	60.0	2	0	[]
3067	2	1	8	60.0	2	0	[]
3097	9	3	8	60.0	2	0	[]
3166	2	1	8	60.0	2	0	[]
3172	6	1	16	80.0	2	0	[]
3214	1	1	8	60.0	2	0	[]
3227	2	2	8	60.0	2	0	[]
3234	2	1	8	60.0	2	0	[]
3246	3	1	8	60.0	2	0	[]
3265	2	2	8	60.0	2	0	[]
3267	1	1	16	60.0	2	0	[]
3269	1	1	8	60.0	2	0	[]
3314	12	3	8	60.0	2	0	[]
3318	2	3	8	60.0	2	0	[]
3330	1	1	8	60.0	2	0	[]
3344	35	4	8	60.0	2	0	[]
3382	3	1	8	60.0	2	0	[]
3390	2	2	8	60.0	2	0	[]
3402	2	1	8	60.0	2	0	[]
3420	2	1	8	60.0	2	0	[]
3451	2	1	8	60.0	2	0	[]
3464	9	2	8	40.0	2	0	[]
3479	49	6	8	60.0	2	0	[]
3509	2	1	8	60.0	2	0	[]
3561	1	1	5	80.0	2	0	[]
3569	2	1	8	60.0	2	0	[]
3602	3	1	8	60.0	2	0	[]
3624	16	2	8	100.0	2	0	[]
3659	6	3	8	60.0	2	0	[]
3664	1	1	8	60.0	2	0	[]
3715	4	3	8	60.0	2	0	[]
3719	2	1	8	60.0	2	0	[]
3751	6	1	8	60.0	2	0	[]
3757	1	1	2	60.0	2	0	[]
3764	2	4	8	60.0	2	0	[]
3817	2	1	8	60.0	2	0	[]
3830	3	1	8	60.0	2	0	[]
3861	2	1	2	60.0	2	0	[]
3863	1	1	8	60.0	2	0	[]
3876	4	4	4	60.0	2	0	[]
3894	66	6	10	60.0	2	2	[(2475, 0), (5271, 1)]
3916	3	4	8	60.0	2	0	[]
3933	2	1	8	60.0	2	0	[]
3953	2	1	16	100.0	2	0	[]
3974	2	4	8	60.0	2	0	[]
4062	2	4	8	60.0	2	0	[]
4064	1	2	2	60.0	2	0	[]
4069	1	2	8	60.0	2	0	[]
4082	1	1	8	60.0	2	0	[]
4087	2	1	8	60.0	2	0	[]
4092	1	4	8	60.0	2	0	[]
4104	4	1	8	60.0	2	0	[]
4136	2	1	3	60.0	2	0	[]
4166	1	1	8	60.0	2	0	[]
4179	1	1	8	60.0	2	0	[]
4187	1	1	8	60.0	2	0	[]
4198	6	1	8	60.0	2	0	[]
4203	1	7	60	60.0	0	0	[]
4225	2	1	8	60.0	2	0	[]
4271	2	1	8	60.0	2	0	[]
4282	7	5	32	200.0	2	0	[]
4292	3	1	8	60.0	2	0	[]
4295	2	1	8	60.0	2	0	[]
4297	5	1	8	60.0	2	0	[]
4304	2	4	8	60.0	2	0	[]
4314	1	1	2	60.0	2	0	[]
4358	6	1	8	60.0	2	0	[]
4406	12	1	8	60.0	2	0	[]
4421	10	2	8	60.0	2	0	[]
4425	3	1	8	60.0	2	0	[]
4430	3	1	8	60.0	2	0	[]
4447	1	1	2	60.0	2	0	[]
4460	2	1	8	60.0	2	0	[]
4461	1	4	8	60.0	2	0	[]
4468	4	1	8	60.0	2	0	[]
4491	1	1	2	60.0	2	0	[]
4508	25	1	8	100.0	2	1	[(7333, 1)]
4522	42	12	16	100.0	2	1	[(1703, 0)]
4528	1	1	8	60.0	2	0	[]
4530	27	5	8	100.0	2	0	[]
4603	1	1	8	60.0	2	0	[]
4604	2	1	8	60.0	2	0	[]
4606	4	8	16	200.0	2	0	[]
4608	143	12	32	60.0	2	2	[(80, 2), (4630, 2)]
4621	2	1	8	60.0	2	0	[]
4626	2	3	8	60.0	2	0	[]
4627	4	1	7	60.0	2	0	[]
4628	2	1	8	60.0	2	0	[]
4630	1	3	32	100.0	2	2	[(4608, 2), (80, 2)]
4632	4	7	16	60.0	2	0	[]
4649	19	1	10	60.0	2	0	[]
4679	1	1	6	60.0	2	0	[]
4684	2	1	8	60.0	2	0	[]
4694	4	1	1	60.0	2	0	[]
4724	1	4	8	60.0	2	0	[]
4737	1	1	8	60.0	2	0	[]
4741	7	1	1	60.0	2	3	[(8148, 0), (5921, 0), (8331, 0)]
4749	191	3	8	60.0	2	0	[]
4776	1	1	8	60.0	2	0	[]
4779	4	1	1	60.0	2	0	[]
4793	2	2	8	60.0	2	0	[]
4821	6	1	8	60.0	2	0	[]
4823	2	1	8	60.0	2	0	[]
4868	2	4	8	60.0	2	0	[]
4870	2	1	8	60.0	2	0	[]
4895	2	2	8	60.0	2	0	[]
4899	1	4	8	60.0	2	0	[]
4916	1	1	8	60.0	2	0	[]
4917	2	1	8	60.0	2	0	[]
4922	1	1	1	60.0	2	0	[]
5013	1	1	2	60.0	2	0	[]
5061	3	1	1	60.0	2	0	[]
5092	2	1	8	60.0	2	0	[]
5126	1	4	8	60.0	2	0	[]
5137	1	1	1	60.0	2	0	[]
5158	1	1	8	60.0	2	0	[]
5161	3	2	8	60.0	2	0	[]
5168	4	1	8	167.0	2	0	[]
5188	4	1	8	60.0	2	0	[]
5192	2	1	8	60.0	2	0	[]
5241	2	1	8	60.0	2	0	[]
5246	4	1	8	60.0	2	0	[]
5253	9	1	8	60.0	2	0	[]
5271	21	1	8	60.0	2	0	[]
5303	1	1	8	60.0	2	0	[]
5344	4	2	8	60.0	2	0	[]
5352	1	1	6	60.0	2	0	[]
5356	1	16	32	80.0	0	0	[]
5360	1	1	2	60.0	2	0	[]
5381	2	1	8	60.0	2	0	[]
5394	19	1	8	60.0	2	2	[(9052, 2), (3097, 2)]
5425	1	1	8	60.0	2	0	[]
5440	2	1	2	60.0	2	0	[]
5452	5	1	8	60.0	2	0	[]
5512	5	1	8	60.0	2	0	[]
5530	2	1	8	60.0	2	1	[(3894, 2)]
5538	9	12	16	60.0	2	0	[]
5540	1	1	8	60.0	2	0	[]
5541	27	3	10	40.0	2	1	[(80, 0)]
5547	2	1	5	60.0	2	0	[]
5571	1	1	8	60.0	2	0	[]
5572	1	1	7	60.0	2	0	[]
5591	3	1	8	60.0	2	0	[]
5607	38	2	8	40.0	0	1	[(80, 0)]
5618	2	1	8	60.0	2	0	[]
5630	3	4	8	60.0	2	0	[]
5656	2	1	2	60.0	2	0	[]
5659	1	1	8	60.0	2	0	[]
5660	4	4	8	60.0	2	0	[]
5677	14	3	8	60.0	2	0	[]
5710	2	1	3	60.0	2	0	[]
5748	2	1	8	60.0	2	0	[]
5773	2	1	8	60.0	2	0	[]
5774	1	4	8	60.0	2	0	[]
5799	1	8	16	150.0	2	0	[]
5810	40	4	8	60.0	2	6	[(6015, 0), (6919, 0), (693, 0), (5356, 2), (585, 1), (4522, 2)]
5811	1	1	8	60.0	2	0	[]
5816	1	1	8	60.0	2	0	[]
5894	2	1	8	60.0	2	0	[]
5918	1	2	8	60.0	2	0	[]
5921	14	5	8	60.0	2	0	[]
5928	1	1	16	100.0	2	0	[]
5946	2	2	8	60.0	2	0	[]
5985	1	4	8	60.0	2	0	[]
6015	12	4	8	60.0	2	0	[]
6024	1	1	2	60.0	2	0	[]
6039	2	1	8	60.0	2	0	[]
6043	1	1	1	60.0	2	0	[]
6062	9	2	3	80.0	2	0	[]
6064	2	1	8	60.0	2	0	[]
6070	2	1	8	60.0	2	0	[]
6071	1	1	5	100.0	2	0	[]
6114	1	1	2	60.0	2	0	[]
6153	33	3	8	60.0	2	0	[]
6154	1	4	8	60.0	2	0	[]
6163	5	2	8	60.0	2	0	[]
6165	2	1	4	60.0	2	1	[(5541, 0)]
6215	2	1	8	60.0	2	0	[]
6222	1	4	8	60.0	2	0	[]
6226	10	6	8	60.0	2	0	[]
6253	2	1	8	60.0	2	0	[]
6311	4	1	8	60.0	2	0	[]
6328	1	1	8	60.0	2	0	[]
6333	1	1	8	60.0	2	0	[]
6382	2	2	8	60.0	2	0	[]
6394	1	1	2	60.0	2	0	[]
6397	4	1	8	60.0	2	0	[]
6422	1	1	6	60.0	2	0	[]
6464	2	1	8	60.0	2	0	[]
6467	1	4	8	40.0	0	0	[]
6469	2	1	8	60.0	2	0	[]
6472	4	1	8	60.0	2	0	[]
6479	11	1	2	200.0	2	0	[]
6493	2	1	2	60.0	2	0	[]
6512	1	1	2	60.0	2	0	[]
6516	2	1	8	60.0	2	0	[]
6524	1	1	8	60.0	2	0	[]
6547	1	1	8	60.0	2	0	[]
6555	2	4	8	80.0	2	0	[]
6558	4	1	8	60.0	2	0	[]
6561	5	6	8	60.0	2	1	[(585, 2)]
6565	4	2	8	60.0	2	0	[]
6595	8	2	8	60.0	2	0	[]
6603	1	1	2	60.0	2	0	[]
6633	2	1	8	60.0	2	0	[]
6673	1	1	1	60.0	2	0	[]
6692	28	12	16	100.0	2	0	[]
6696	1	1	8	60.0	2	0	[]
6710	69	6	8	60.0	2	3	[(4895, 0), (7908, 1), (1546, 2)]
6712	1	1	8	60.0	2	0	[]
6717	1	1	8	60.0	2	0	[]
6754	2	1	8	60.0	2	0	[]
6762	6	1	8	60.0	2	0	[]
6773	1	1	7	60.0	2	0	[]
6779	2	1	8	60.0	2	0	[]
6805	2	1	8	60.0	2	0	[]
6813	1	1	1	60.0	2	0	[]
6873	12	2	8	40.0	2	0	[]
6889	2	1	2	60.0	2	0	[]
6894	2	2	8	60.0	2	0	[]
6913	4	6	6	60.0	2	0	[]
6919	1	1	8	60.0	2	0	[]
6935	12	1	8	100.0	2	1	[(693, 2)]
6954	2	1	8	60.0	2	0	[]
6960	2	1	2	60.0	2	0	[]
6964	19	11	2	60.0	2	0	[]
6979	1	1	8	60.0	2	0	[]
6989	2	1	8	60.0	2	0	[]
6995	1	1	4	60.0	2	0	[]
7021	2	1	1	60.0	2	0	[]
7050	2	1	8	60.0	2	0	[]
7085	20	4	2	100.0	2	0	[]
7088	2	1	2	60.0	2	0	[]
7112	3	4	2	60.0	2	0	[]
7114	15	6	8	60.0	2	0	[]
7116	1	1	1	60.0	2	0	[]
7127	2	1	8	60.0	2	0	[]
7130	2	1	2	60.0	2	0	[]
7147	2	1	16	80.0	2	0	[]
7242	2	1	8	60.0	2	0	[]
7257	2	1	8	60.0	2	0	[]
7283	2	1	8	60.0	2	0	[]
7289	5	2	8	60.0	2	0	[]
7302	5	1	8	60.0	2	0	[]
7307	1	1	1	60.0	2	0	[]
7313	1	1	1	60.0	2	0	[]
7333	12	2	8	60.0	2	3	[(4522, 2), (585, 0), (80, 0)]
7339	2	1	1	60.0	2	0	[]
7402	5	2	8	60.0	2	1	[(5394, 2)]
7407	2	1	8	60.0	2	0	[]
7446	5	3	8	60.0	2	7	[(4779, 0), (3314, 0), (5810, 0), (1874, 0), (3569, 0), (1829, 0), (3916, 0)]
7463	3	1	8	60.0	2	0	[]
7490	2	1	8	60.0	2	0	[]
7510	3	1	4	60.0	2	1	[(80, 2)]
7552	2	1	8	60.0	2	0	[]
7556	2	1	8	60.0	2	0	[]
7584	2	2	8	60.0	2	0	[]
7596	5	4	16	150.0	2	0	[]
7646	1	1	8	60.0	2	0	[]
7661	1	1	2	60.0	2	0	[]
7670	2	1	8	60.0	2	0	[]
7703	1	1	8	40.0	0	0	[]
7705	1	1	8	60.0	2	0	[]
7720	2	1	8	60.0	2	0	[]
7742	2	1	8	60.0	2	0	[]
7744	2	1	8	60.0	2	0	[]
7747	10	2	8	60.0	2	0	[]
7761	1	6	8	60.0	2	0	[]
7764	8	2	8	60.0	2	0	[]
7818	2	1	8	60.0	2	0	[]
7831	7	1	8	80.0	2	0	[]
7838	1	1	8	60.0	2	0	[]
7848	1	1	8	60.0	2	0	[]
7870	4	2	8	80.0	2	0	[]
7885	3	1	8	60.0	2	0	[]
7888	1	1	8	60.0	2	0	[]
7898	1	1	8	60.0	2	0	[]
7905	6	1	8	60.0	2	0	[]
7908	2	4	8	60.0	2	0	[]
7984	2	1	2	60.0	2	0	[]
7988	4	1	8	60.0	2	0	[]
7992	4	1	8	60.0	2	0	[]
8009	2	1	8	60.0	2	0	[]
8057	6	3	8	100.0	2	0	[]
8072	4	1	8	60.0	2	0	[]
8080	2	1	8	60.0	2	0	[]
8092	1	4	8	60.0	2	0	[]
8095	5	1	8	60.0	2	0	[]
8105	2	4	8	60.0	2	0	[]
8133	2	2	5	60.0	2	0	[]
8148	23	3	8	60.0	2	0	[]
8182	2	1	1	60.0	2	0	[]
8203	9	2	8	60.0	2	0	[]
8276	11	6	8	100.0	2	0	[]
8315	8	1	8	60.0	2	0	[]
8331	34	2	8	60.0	2	1	[(6692, 0)]
8334	1	4	8	60.0	2	0	[]
8335	5	1	5	300.0	2	0	[]
8338	6	1	2	100.0	2	0	[]
8342	1	1	8	60.0	2	0	[]
8348	2	1	8	60.0	2	0	[]
8359	1	1	8	60.0	2	0	[]
8384	2	1	2	60.0	2	0	[]
8464	2	1	8	60.0	2	0	[]
8465	10	3	8	60.0	2	1	[(80, 2)]
8474	1	4	8	60.0	2	0	[]
8500	28	4	8	40.0	0	2	[(689, 2), (9084, 0)]
8516	1	1	1	60.0	2	0	[]
8521	2	1	8	60.0	2	0	[]
8523	6	5	8	60.0	2	0	[]
8547	3	1	8	60.0	2	0	[]
8548	2	1	8	60.0	2	0	[]
8573	1	1	8	60.0	2	0	[]
8578	1	4	8	60.0	2	0	[]
8591	1	4	10	40.0	2	0	[]
8608	2	1	8	60.0	2	0	[]
8620	1	16	32	80.0	2	0	[]
8635	2	1	8	60.0	2	0	[]
8639	2	1	8	60.0	2	0	[]
8684	13	2	8	60.0	2	0	[]
8685	2	1	8	60.0	2	0	[]
8695	11	1	8	100.0	2	0	[]
8696	2	1	8	60.0	2	0	[]
8714	1	4	8	60.0	2	0	[]
8717	44	6	8	60.0	2	0	[]
8745	2	1	8	60.0	2	0	[]
8766	6	6	8	60.0	2	0	[]
8770	1	1	7	60.0	2	0	[]
8787	14	2	8	80.0	2	0	[]
8794	1	4	8	60.0	2	0	[]
8835	1	1	8	60.0	2	0	[]
8881	1	1	3	60.0	2	0	[]
8885	2	1	8	60.0	2	0	[]
8920	5	1	8	60.0	2	0	[]
8923	3	1	8	60.0	2	0	[]
8925	2	2	8	60.0	2	0	[]
8932	1	6	8	60.0	2	0	[]
8933	2	1	1	60.0	2	0	[]
8935	16	2	8	60.0	2	2	[(3234, 0), (6873, 0)]
8936	2	1	8	60.0	2	1	[(1104, 1)]
8938	2	1	2	60.0	2	0	[]
9013	4	2	8	60.0	2	0	[]
9027	2	2	32	200.0	0	0	[]
9052	152	4	8	60.0	2	1	[(7908, 2)]
9054	2	1	8	60.0	2	0	[]
9075	9	2	8	60.0	2	0	[]
9077	33	4	8	60.0	2	1	[(3019, 1)]
9084	30	6	16	60.0	2	1	[(8500, 0)]
9112	1	4	8	60.0	2	0	[]
9152	4	1	15	100.0	2	0	[]
9159	7	1	8	60.0	2	0	[]
9174	9	2	8	60.0	2	0	[]
9188	33	2	8	60.0	2	0	[]
9196	2	1	8	60.0	2	0	[]
9210	1	1	8	60.0	2	0	[]
9214	2	1	8	60.0	2	1	[(6710, 2)]
9216	5	2	8	60.0	2	0	[]
9230	2	1	1	60.0	2	0	[]
9255	1	1	8	60.0	2	0	[]
9310	2	4	8	60.0	2	0	[]
9321	1	4	8	60.0	2	0	[]
