app_id	nb_instances	core	memory	disk	intra_value	inter_degree	inter_aff
30	4	2	4	1024.0	2	0	[]
31	1	1	8	60.0	2	0	[]
33	1	1	8	60.0	2	0	[]
38	5	1	8	60.0	2	0	[]
39	2	1	8	80.0	2	0	[]
40	3	6	8	60.0	2	0	[]
41	2	1	1	60.0	2	0	[]
48	17	3	8	60.0	2	0	[]
68	1	1	7	60.0	2	0	[]
73	4	1	8	60.0	2	0	[]
75	2	1	8	60.0	2	0	[]
81	2	1	2	60.0	2	0	[]
86	2	1	8	60.0	2	0	[]
90	2	2	8	60.0	2	0	[]
91	2	4	8	60.0	2	0	[]
96	3	1	8	60.0	2	0	[]
128	2	1	8	60.0	2	0	[]
130	1	2	8	40.0	2	0	[]
135	36	3	2	60.0	2	0	[]
137	2	1	2	60.0	2	0	[]
154	1	1	8	60.0	2	0	[]
155	2	1	8	60.0	2	0	[]
201	2	1	8	60.0	2	0	[]
205	1	1	8	60.0	2	0	[]
218	1	1	8	60.0	2	0	[]
227	5	1	8	60.0	2	0	[]
247	1	4	8	60.0	2	0	[]
251	1	1	8	60.0	2	0	[]
267	2	1	8	60.0	2	0	[]
269	6	1	8	60.0	2	0	[]
273	1	16	60	60.0	2	8	[(7045, 2), (4661, 2), (8535, 2), (8347, 2), (3117, 1), (9031, 2), (2688, 2), (7555, 2)]
278	5	1	8	60.0	2	0	[]
281	8	3	8	40.0	2	1	[(7309, 0)]
283	4	3	8	60.0	2	0	[]
287	2	1	8	60.0	2	0	[]
302	8	12	16	100.0	2	0	[]
304	1	1	8	60.0	2	0	[]
312	5	1	8	40.0	2	0	[]
316	2	1	2	60.0	2	0	[]
317	6	2	8	60.0	2	0	[]
326	3	1	7	60.0	2	0	[]
328	2	1	8	60.0	2	0	[]
332	2	4	2	60.0	2	0	[]
347	2	1	8	60.0	2	0	[]
352	1	1	1	60.0	2	0	[]
377	1	1	8	60.0	2	0	[]
415	1	1	2	60.0	2	0	[]
418	5	2	8	60.0	2	0	[]
427	1	6	8	60.0	2	0	[]
435	25	1	8	80.0	2	0	[]
447	3	1	7	60.0	2	1	[(6408, 0)]
457	3	1	8	60.0	2	0	[]
473	77	3	8	40.0	0	1	[(6275, 1)]
479	2	1	8	60.0	2	0	[]
498	2	1	8	60.0	2	0	[]
499	2	1	8	60.0	2	0	[]
531	2	1	8	60.0	2	0	[]
533	15	1	8	60.0	2	2	[(1046, 1), (774, 0)]
553	1	1	8	60.0	2	0	[]
555	6	1	8	60.0	2	0	[]
576	2	1	2	60.0	2	0	[]
580	30	2	8	60.0	2	0	[]
608	5	1	8	60.0	2	0	[]
612	4	5	8	60.0	2	0	[]
637	1	1	32	200.0	0	0	[]
640	4	1	8	60.0	2	0	[]
664	6	1	8	60.0	2	0	[]
674	5	1	8	60.0	2	0	[]
687	4	6	8	60.0	2	0	[]
691	1	1	6	60.0	2	0	[]
698	1	1	2	80.0	2	0	[]
711	2	1	7	60.0	2	0	[]
713	2	1	8	60.0	2	0	[]
716	3	3	8	100.0	2	1	[(4941, 0)]
720	8	1	8	60.0	2	0	[]
729	2	1	8	60.0	2	0	[]
730	3	1	2	60.0	2	0	[]
740	3	1	2	60.0	2	0	[]
746	12	3	8	60.0	2	0	[]
750	2	1	8	60.0	2	0	[]
766	4	3	8	60.0	2	0	[]
774	40	6	8	80.0	2	0	[]
779	3	1	8	60.0	2	0	[]
781	2	3	8	60.0	2	0	[]
782	319	6	8	60.0	2	1	[(6408, 0)]
787	2	1	8	60.0	2	0	[]
808	6	4	8	60.0	2	0	[]
814	2	4	8	60.0	2	0	[]
816	2	1	8	60.0	2	0	[]
823	1	1	2	500.0	2	0	[]
829	7	1	8	60.0	2	0	[]
833	3	1	8	60.0	2	0	[]
844	3	1	8	60.0	2	0	[]
851	5	2	8	60.0	2	1	[(6408, 0)]
852	3	2	8	60.0	2	0	[]
853	10	1	8	60.0	2	0	[]
858	2	1	8	60.0	2	0	[]
879	1	1	8	60.0	2	0	[]
882	1	4	8	60.0	2	0	[]
885	1	1	8	60.0	2	0	[]
889	1	1	8	60.0	2	0	[]
893	1	1	8	60.0	2	0	[]
897	10	6	8	60.0	2	0	[]
899	2	1	8	60.0	2	0	[]
907	1	1	8	60.0	2	0	[]
932	1	1	8	100.0	2	0	[]
943	1	1	8	60.0	2	0	[]
951	1	1	8	60.0	2	0	[]
957	1	1	1	60.0	2	0	[]
960	1	1	2	60.0	2	0	[]
966	2	2	16	80.0	2	0	[]
987	1	1	8	60.0	2	0	[]
988	2	1	8	80.0	2	0	[]
995	13	1	8	60.0	2	1	[(1721, 1)]
996	2	1	8	60.0	2	0	[]
1020	3	1	8	60.0	2	0	[]
1033	4	1	8	60.0	2	0	[]
1038	1	8	16	80.0	2	0	[]
1046	44	4	32	100.0	2	0	[]
1052	1	1	8	60.0	2	0	[]
1075	2	1	5	60.0	2	0	[]
1076	1	1	8	60.0	2	0	[]
1081	1	1	1	60.0	2	0	[]
1087	2	1	2	60.0	2	0	[]
1107	5	2	8	60.0	2	0	[]
1109	2	1	8	60.0	2	0	[]
1125	1	36	30	300.0	2	0	[]
1131	2	1	8	60.0	2	0	[]
1140	1	1	8	60.0	2	0	[]
1153	135	6	8	60.0	2	2	[(8573, 1), (8180, 2)]
1161	2	6	8	60.0	2	0	[]
1165	4	1	2	60.0	2	0	[]
1177	1	1	8	60.0	2	0	[]
1191	2	1	8	60.0	2	0	[]
1198	1	2	8	60.0	2	0	[]
1208	2	1	8	60.0	2	0	[]
1220	2	1	8	60.0	2	0	[]
1223	1	1	8	60.0	2	0	[]
1228	2	1	8	60.0	2	0	[]
1234	2	1	8	60.0	2	0	[]
1240	2	6	8	60.0	2	0	[]
1242	1	1	8	60.0	2	0	[]
1272	4	1	8	60.0	2	0	[]
1282	1	1	1	60.0	2	0	[]
1290	1	1	8	60.0	2	0	[]
1299	1	1	3	60.0	2	0	[]
1319	1	4	8	60.0	2	0	[]
1329	14	1	8	60.0	2	0	[]
1337	1	3	8	60.0	2	0	[]
1347	2	1	1	60.0	2	0	[]
1351	1	2	2	60.0	2	0	[]
1365	8	1	8	60.0	2	0	[]
1379	1	1	8	60.0	2	0	[]
1398	2	1	8	60.0	2	0	[]
1399	2	2	8	60.0	2	0	[]
1411	1	1	16	60.0	2	0	[]
1416	64	10	16	60.0	0	4	[(7309, 2), (7155, 2), (8451, 2), (6056, 1)]
1443	103	6	8	60.0	0	7	[(1416, 0), (3002, 0), (7980, 0), (473, 0), (1727, 0), (1771, 0), (2458, 1)]
1445	1	2	6	60.0	2	0	[]
1459	4	2	8	60.0	2	0	[]
1467	1	4	8	60.0	2	0	[]
1490	1	1	8	60.0	2	0	[]
1502	6	1	8	60.0	2	0	[]
1506	4	2	8	60.0	2	2	[(6007, 0), (7770, 0)]
1526	2	1	8	60.0	2	0	[]
1531	1	1	8	60.0	2	0	[]
1534	2	1	8	40.0	2	0	[]
1543	2	1	8	60.0	2	0	[]
1546	3	2	8	60.0	2	1	[(2752, 2)]
1557	3	2	8	60.0	2	0	[]
1572	2	1	8	60.0	2	0	[]
1578	1	4	8	60.0	2	0	[]
1605	2	1	8	60.0	2	0	[]
1612	2	1	8	60.0	2	0	[]
1613	1	1	2	60.0	2	0	[]
1615	2	1	8	100.0	2	0	[]
1622	1	1	1	60.0	2	0	[]
1631	1	1	8	60.0	2	0	[]
1648	4	1	8	60.0	2	0	[]
1666	1	6	3	60.0	2	0	[]
1669	1	1	8	60.0	2	0	[]
1675	2	2	16	60.0	2	0	[]
1682	2	1	1	60.0	2	0	[]
1705	49	2	8	60.0	2	1	[(6408, 0)]
1721	2	4	8	60.0	2	0	[]
1727	2	6	8	60.0	2	0	[]
1729	7	1	8	60.0	2	0	[]
1734	5	5	8	60.0	2	0	[]
1750	1	4	16	80.0	2	0	[]
1760	7	4	8	60.0	2	0	[]
1761	2	6	8	60.0	2	0	[]
1762	5	5	8	60.0	2	0	[]
1764	2	1	2	60.0	2	0	[]
1771	2	3	8	60.0	2	0	[]
1775	2	1	8	60.0	2	0	[]
1791	1	1	8	60.0	2	0	[]
1799	1	4	8	60.0	2	0	[]
1803	2	1	8	60.0	2	0	[]
1804	10	2	8	60.0	2	0	[]
1828	2	1	8	60.0	2	0	[]
1838	2	1	8	60.0	2	0	[]
1845	2	2	8	60.0	2	0	[]
1879	1	36	37	300.0	2	0	[]
1887	11	1	8	40.0	2	0	[]
1912	2	1	2	60.0	2	0	[]
1918	3	1	1	60.0	2	0	[]
1926	1	1	8	60.0	2	0	[]
1932	2	1	8	60.0	2	0	[]
1940	3	1	8	60.0	2	0	[]
1955	18	3	3	300.0	2	0	[]
1971	3	1	6	60.0	2	0	[]
1980	2	1	8	60.0	2	0	[]
1981	3	1	12	80.0	2	0	[]
1996	1	1	8	60.0	2	0	[]
1999	2	1	2	60.0	2	0	[]
2011	1	8	16	200.0	2	0	[]
2026	2	1	8	60.0	2	0	[]
2040	3	1	7	60.0	2	0	[]
2041	2	1	8	60.0	2	0	[]
2044	2	1	8	60.0	2	0	[]
2048	24	5	8	60.0	2	5	[(6695, 0), (5886, 0), (2501, 0), (3716, 0), (7290, 0)]
2057	3	1	8	60.0	2	0	[]
2060	1	3	8	60.0	2	0	[]
2061	24	2	8	60.0	2	1	[(8347, 2)]
2064	2	4	8	60.0	2	0	[]
2065	2	1	8	60.0	2	0	[]
2071	2	1	8	60.0	2	0	[]
2073	2	3	16	60.0	2	0	[]
2080	1	4	8	60.0	2	0	[]
2091	2	1	8	60.0	2	0	[]
2107	4	1	8	60.0	2	0	[]
2118	1	1	6	60.0	2	0	[]
2120	16	1	8	60.0	2	0	[]
2144	1	1	8	60.0	2	0	[]
2148	15	2	8	60.0	2	1	[(7268, 0)]
2200	6	4	3	60.0	2	0	[]
2216	2	1	16	200.0	2	0	[]
2226	2	1	8	60.0	2	0	[]
2227	2	1	8	60.0	2	0	[]
2228	1	8	16	60.0	2	0	[]
2230	1	1	7	60.0	2	0	[]
2234	5	2	8	60.0	2	0	[]
2257	7	2	8	80.0	2	0	[]
2260	2	1	8	60.0	2	0	[]
2266	2	1	8	60.0	2	0	[]
2279	2	1	8	60.0	2	0	[]
2287	1	1	16	80.0	2	0	[]
2335	1	2	8	40.0	0	0	[]
2353	64	6	8	40.0	2	0	[]
2354	3	1	1	60.0	2	0	[]
2390	1	1	8	60.0	2	0	[]
2395	1	1	7	80.0	2	0	[]
2397	1	1	1	60.0	2	0	[]
2400	1	1	8	60.0	2	0	[]
2417	2	4	8	60.0	2	0	[]
2427	3	1	8	60.0	2	0	[]
2430	3	4	8	60.0	2	0	[]
2436	4	4	8	60.0	2	0	[]
2458	5	1	2	60.0	2	0	[]
2476	7	2	8	60.0	2	0	[]
2485	419	6	8	40.0	2	12	[(7309, 0), (6007, 0), (1705, 0), (4877, 0), (326, 1), (4039, 0), (7198, 0), (3169, 0), (7667, 1), (5864, 0), (782, 0), (7928, 0)]
2489	14	2	8	60.0	2	1	[(7290, 0)]
2501	9	2	8	60.0	2	0	[]
2507	9	4	8	100.0	2	6	[(5511, 0), (2485, 0), (2915, 0), (3169, 0), (6295, 0), (3994, 0)]
2564	2	2	2	60.0	2	0	[]
2571	2	4	8	60.0	2	0	[]
2615	1	1	2	60.0	2	0	[]
2629	3	2	8	60.0	2	0	[]
2653	2	1	8	60.0	2	0	[]
2656	2	1	8	60.0	2	0	[]
2657	26	2	8	60.0	2	0	[]
2671	1	1	6	60.0	2	0	[]
2681	1	4	8	60.0	2	0	[]
2685	5	5	8	60.0	2	0	[]
2687	1	1	8	60.0	2	1	[(2501, 2)]
2688	1	7	32	60.0	2	6	[(7045, 2), (4661, 2), (8347, 2), (3117, 1), (273, 1), (7555, 2)]
2715	2	1	8	60.0	2	0	[]
2718	2	1	1	600.0	2	0	[]
2720	1	1	8	60.0	2	0	[]
2722	1	1	2	60.0	2	0	[]
2730	1	1	8	60.0	2	0	[]
2742	15	4	8	40.0	2	0	[]
2752	1	3	16	60.0	0	0	[]
2755	3	1	8	60.0	2	0	[]
2757	7	2	8	60.0	2	0	[]
2770	8	2	8	60.0	2	0	[]
2774	2	1	3	60.0	2	0	[]
2775	2	1	2	60.0	2	0	[]
2776	1	1	8	60.0	2	0	[]
2783	2	1	8	60.0	2	0	[]
2787	2	1	8	60.0	2	0	[]
2832	1	1	8	60.0	2	0	[]
2845	4	1	8	60.0	2	0	[]
2849	4	1	8	60.0	2	0	[]
2864	2	1	8	60.0	2	0	[]
2878	2	4	8	60.0	2	0	[]
2881	1	1	2	60.0	2	0	[]
2884	2	1	8	60.0	2	0	[]
2886	31	2	2	60.0	2	0	[]
2900	24	2	8	60.0	2	0	[]
2905	2	6	8	60.0	2	0	[]
2911	4	1	8	60.0	2	0	[]
2913	17	2	8	60.0	2	2	[(4585, 2), (5165, 1)]
2915	2	1	8	60.0	2	0	[]
2919	1	1	8	60.0	2	0	[]
2937	3	4	8	60.0	2	0	[]
2941	1	1	8	60.0	2	0	[]
2951	1	1	8	60.0	2	0	[]
2952	5	1	8	60.0	2	0	[]
2962	6	6	2	60.0	2	0	[]
2964	99	4	8	60.0	2	2	[(7126, 1), (473, 2)]
2975	1	1	8	60.0	2	0	[]
2980	10	1	8	60.0	2	0	[]
2988	1	1	8	60.0	2	0	[]
2990	1	1	8	60.0	2	0	[]
2997	2	1	8	60.0	2	0	[]
3002	18	2	8	60.0	2	0	[]
3013	2	1	2	60.0	2	0	[]
3015	4	4	8	60.0	2	0	[]
3038	1	1	8	100.0	2	0	[]
3046	1	4	8	60.0	2	0	[]
3054	9	6	8	60.0	2	1	[(278, 0)]
3058	1	1	1	60.0	2	0	[]
3061	1	1	8	60.0	2	0	[]
3075	2	1	8	60.0	2	0	[]
3084	2	1	8	60.0	2	0	[]
3093	1	1	8	40.0	2	0	[]
3109	1	1	2	60.0	2	0	[]
3117	3	12	16	60.0	2	7	[(7045, 2), (4661, 2), (8347, 2), (9031, 2), (273, 2), (2688, 2), (7555, 2)]
3119	2	1	8	60.0	2	0	[]
3121	6	3	2	60.0	2	0	[]
3130	1	1	2	60.0	2	0	[]
3140	2	1	8	60.0	2	0	[]
3161	2	1	8	60.0	2	0	[]
3165	8	5	8	60.0	2	0	[]
3166	2	1	8	60.0	2	0	[]
3169	126	6	8	60.0	2	3	[(473, 2), (6408, 0), (7155, 0)]
3188	1	1	8	60.0	2	0	[]
3205	2	1	8	60.0	2	0	[]
3225	2	1	8	60.0	2	0	[]
3226	2	1	8	60.0	2	0	[]
3237	1	1	6	180.0	2	0	[]
3248	2	4	8	60.0	2	0	[]
3261	2	1	8	60.0	2	0	[]
3276	3	2	8	60.0	2	0	[]
3280	3	1	8	60.0	2	0	[]
3296	2	1	8	60.0	2	0	[]
3304	2	1	8	60.0	2	0	[]
3313	1	12	8	60.0	2	2	[(9014, 0), (7928, 0)]
3339	3	1	8	60.0	2	0	[]
3348	1	1	8	60.0	2	0	[]
3356	6	6	8	60.0	2	15	[(781, 1), (8907, 1), (8239, 2), (9320, 2), (40, 1), (4368, 2), (6029, 1), (3563, 2), (6007, 2), (3803, 0), (2057, 2), (435, 2), (844, 2), (3840, 1), (3968, 1)]
3363	5	1	8	60.0	2	0	[]
3366	5	1	8	60.0	2	0	[]
3379	3	1	8	60.0	2	0	[]
3381	3	1	8	60.0	2	0	[]
3390	2	2	8	60.0	2	0	[]
3398	3	1	8	60.0	2	0	[]
3400	4	1	8	60.0	2	0	[]
3408	4	2	8	60.0	2	0	[]
3421	1	2	8	60.0	2	0	[]
3424	2	1	2	100.0	2	0	[]
3440	1	1	8	60.0	2	0	[]
3443	2	1	8	60.0	2	0	[]
3471	1	1	2	60.0	2	0	[]
3477	1	1	2	60.0	2	0	[]
3482	9	5	16	60.0	0	0	[]
3518	1	1	8	60.0	2	0	[]
3523	6	2	8	60.0	2	0	[]
3530	3	1	8	60.0	2	0	[]
3538	2	4	8	60.0	2	0	[]
3562	3	1	2	60.0	2	0	[]
3563	2	1	8	60.0	2	0	[]
3569	2	1	8	60.0	2	0	[]
3606	2	2	8	60.0	2	0	[]
3608	8	5	8	60.0	2	0	[]
3610	1	4	8	60.0	2	0	[]
3617	5	2	8	80.0	2	0	[]
3641	2	1	8	60.0	2	0	[]
3645	5	1	8	60.0	2	0	[]
3651	1	1	2	60.0	2	0	[]
3660	5	1	8	60.0	2	0	[]
3663	2	1	8	60.0	2	0	[]
3669	2	3	8	60.0	2	0	[]
3675	3	1	8	60.0	2	0	[]
3684	1	1	8	60.0	2	0	[]
3685	2	1	8	60.0	2	0	[]
3697	1	1	8	60.0	2	0	[]
3708	1	1	8	100.0	2	0	[]
3716	7	2	16	80.0	2	0	[]
3718	15	1	8	60.0	2	0	[]
3723	1	4	8	60.0	2	0	[]
3724	1	4	8	60.0	2	0	[]
3727	2	1	8	60.0	2	0	[]
3728	1	4	8	60.0	2	0	[]
3746	3	1	8	60.0	2	0	[]
3750	11	6	8	60.0	2	0	[]
3754	2	1	8	60.0	2	0	[]
3773	3	1	8	60.0	2	0	[]
3774	8	2	8	60.0	2	0	[]
3784	4	1	8	60.0	2	0	[]
3787	3	1	12	60.0	2	0	[]
3793	4	6	8	60.0	2	0	[]
3803	2	1	1	60.0	2	0	[]
3809	5	1	8	60.0	2	0	[]
3817	2	1	8	60.0	2	0	[]
3837	1	1	8	40.0	2	0	[]
3839	15	2	8	60.0	2	0	[]
3840	2	1	8	60.0	2	0	[]
3857	2	1	8	60.0	2	0	[]
3859	1	7	24	80.0	2	0	[]
3877	1	1	2	60.0	2	0	[]
3917	2	1	8	60.0	2	0	[]
3932	1	1	1	40.0	2	0	[]
3952	35	3	8	60.0	2	1	[(8712, 1)]
3968	4	2	8	60.0	2	0	[]
3979	19	1	8	60.0	2	0	[]
3981	1	4	8	60.0	2	0	[]
3985	3	1	8	60.0	2	0	[]
3988	10	1	8	60.0	2	2	[(8347, 0), (7333, 0)]
3992	4	1	8	60.0	2	0	[]
3994	211	6	8	60.0	2	0	[]
4004	1	10	16	60.0	2	0	[]
4007	25	6	8	60.0	2	3	[(2905, 0), (2964, 0), (7087, 0)]
4009	16	6	8	60.0	2	1	[(5511, 1)]
4034	9	6	8	60.0	2	1	[(2226, 2)]
4035	1	2	4	60.0	2	0	[]
4039	219	11	16	60.0	0	11	[(8489, 0), (3718, 0), (4495, 0), (3169, 0), (8347, 0), (7155, 0), (5063, 0), (7067, 0), (7316, 2), (48, 0), (130, 1)]
4050	5	2	8	60.0	2	0	[]
4052	2	4	8	60.0	2	0	[]
4063	2	1	8	60.0	2	0	[]
4066	2	1	1	60.0	2	0	[]
4084	6	2	8	60.0	2	0	[]
4091	16	2	8	60.0	2	0	[]
4093	1	1	8	60.0	2	0	[]
4098	2	1	2	60.0	2	0	[]
4136	2	1	3	60.0	2	0	[]
4181	2	1	13	80.0	2	0	[]
4200	1	1	1	60.0	2	0	[]
4203	1	7	60	60.0	0	0	[]
4205	6	1	8	60.0	2	0	[]
4207	2	1	8	60.0	2	0	[]
4211	3	3	8	60.0	2	0	[]
4215	2	4	8	60.0	2	0	[]
4244	2	1	8	60.0	2	0	[]
4264	4	1	8	60.0	2	0	[]
4265	2	4	8	60.0	2	0	[]
4276	2	2	8	60.0	2	0	[]
4282	7	5	32	200.0	2	1	[(8451, 0)]
4295	2	1	8	60.0	2	0	[]
4298	2	1	8	60.0	2	0	[]
4307	2	1	8	60.0	2	0	[]
4315	1	1	48	300.0	2	0	[]
4322	3	4	8	60.0	2	0	[]
4329	1	1	8	60.0	2	0	[]
4335	5	5	8	60.0	2	0	[]
4341	2	2	8	60.0	2	0	[]
4343	1	1	2	60.0	2	0	[]
4347	2	2	8	60.0	2	0	[]
4352	2	2	8	60.0	2	0	[]
4358	6	1	8	60.0	2	0	[]
4366	6	2	8	60.0	2	0	[]
4368	2	1	8	60.0	2	0	[]
4371	1	1	2	60.0	2	0	[]
4378	1	1	8	60.0	2	0	[]
4380	1	1	8	60.0	2	0	[]
4381	2	1	8	60.0	2	0	[]
4384	1	1	8	60.0	2	0	[]
4403	1	1	8	60.0	2	0	[]
4423	36	3	16	60.0	2	0	[]
4462	3	1	8	60.0	2	0	[]
4473	1	1	8	60.0	2	0	[]
4475	2	1	1	60.0	2	0	[]
4478	2	1	8	60.0	2	0	[]
4480	4	1	8	60.0	2	0	[]
4483	2	1	8	60.0	2	0	[]
4489	2	2	8	60.0	2	0	[]
4490	1	4	8	60.0	2	0	[]
4495	15	1	2	60.0	2	0	[]
4503	6	1	8	60.0	2	0	[]
4512	3	2	8	60.0	2	1	[(5095, 2)]
4513	3	2	8	60.0	2	0	[]
4521	1	1	8	60.0	2	0	[]
4545	1	1	8	60.0	2	0	[]
4549	2	1	8	60.0	2	1	[(1721, 0)]
4569	1	1	8	60.0	2	0	[]
4575	5	1	8	60.0	2	0	[]
4577	3	2	8	60.0	2	0	[]
4585	1	1	8	60.0	2	0	[]
4587	1	4	8	60.0	2	0	[]
4592	2	1	8	60.0	2	0	[]
4594	2	1	8	60.0	2	0	[]
4601	2	1	8	60.0	2	0	[]
4627	4	1	7	60.0	2	0	[]
4661	15	11	16	60.0	1	7	[(7045, 2), (8535, 2), (8347, 2), (3117, 1), (9031, 2), (273, 2), (2688, 2)]
4669	1	1	8	60.0	2	0	[]
4671	12	2	8	60.0	2	0	[]
4673	1	4	8	60.0	2	0	[]
4677	5	1	6	60.0	2	0	[]
4685	2	4	8	60.0	2	0	[]
4700	1	1	8	60.0	2	0	[]
4702	3	1	8	60.0	2	0	[]
4704	29	2	8	60.0	2	0	[]
4737	1	1	8	60.0	2	0	[]
4778	27	2	8	40.0	2	1	[(2353, 1)]
4790	2	1	8	100.0	2	0	[]
4798	1	1	8	60.0	2	0	[]
4800	3	4	8	60.0	2	0	[]
4811	2	1	8	60.0	2	0	[]
4818	1	2	8	60.0	2	0	[]
4828	2	1	8	60.0	2	0	[]
4833	2	3	8	60.0	2	0	[]
4857	2	2	8	60.0	2	0	[]
4861	1	1	8	60.0	2	0	[]
4863	3	1	8	60.0	2	0	[]
4875	2	1	8	60.0	2	0	[]
4876	1	1	8	60.0	2	0	[]
4877	21	1	8	60.0	2	3	[(5813, 0), (6827, 2), (6408, 0)]
4906	2	1	8	60.0	2	0	[]
4924	1	1	8	60.0	2	0	[]
4932	3	2	8	60.0	2	0	[]
4941	11	6	8	100.0	2	0	[]
4942	2	1	8	60.0	2	0	[]
4950	4	1	8	60.0	2	0	[]
4959	1	4	8	60.0	2	0	[]
4963	6	4	8	60.0	2	0	[]
4968	2	1	8	60.0	2	0	[]
4970	1	1	3	60.0	2	0	[]
4981	1	1	8	60.0	2	0	[]
4992	1	4	8	40.0	2	0	[]
4995	2	1	8	60.0	2	0	[]
5004	30	3	8	60.0	2	2	[(2458, 1), (273, 0)]
5006	1	2	4	60.0	2	0	[]
5012	2	2	8	60.0	2	0	[]
5015	1	2	8	40.0	2	0	[]
5024	2	1	2	100.0	2	0	[]
5057	6	3	16	60.0	2	0	[]
5059	1	1	16	100.0	2	0	[]
5062	1	1	8	60.0	2	0	[]
5063	58	4	5	200.0	2	2	[(6408, 0), (312, 0)]
5076	1	1	8	60.0	2	0	[]
5095	3	1	8	60.0	2	0	[]
5120	1	1	8	60.0	2	0	[]
5121	1	1	2	60.0	2	0	[]
5124	2	1	8	60.0	2	0	[]
5160	2	1	8	60.0	2	0	[]
5165	125	12	16	100.0	2	0	[]
5169	2	1	8	60.0	2	0	[]
5173	1	1	8	60.0	2	0	[]
5187	2	1	8	60.0	2	0	[]
5191	1	4	8	60.0	2	0	[]
5195	1	1	1	100.0	1	0	[]
5200	3	1	8	60.0	2	0	[]
5219	2	1	8	60.0	2	0	[]
5224	3	2	8	60.0	2	0	[]
5225	2	1	8	60.0	2	1	[(1887, 0)]
5226	1	4	8	60.0	2	0	[]
5232	24	3	8	60.0	2	0	[]
5238	3	5	8	60.0	2	0	[]
5240	5	3	8	60.0	2	0	[]
5241	2	1	8	60.0	2	0	[]
5290	1	1	2	60.0	2	0	[]
5331	2	1	8	60.0	2	0	[]
5333	2	1	8	60.0	2	0	[]
5347	3	2	16	60.0	2	0	[]
5361	1	4	8	60.0	2	0	[]
5362	55	2	8	60.0	2	1	[(435, 2)]
5385	5	2	8	60.0	2	0	[]
5400	2	1	8	60.0	2	0	[]
5409	1	1	8	60.0	2	0	[]
5419	1	4	8	60.0	2	0	[]
5425	1	1	8	60.0	2	0	[]
5449	35	6	8	60.0	2	0	[]
5465	1	1	8	60.0	2	0	[]
5483	2	1	2	100.0	2	1	[(6710, 2)]
5511	72	6	8	60.0	2	0	[]
5517	2	2	2	60.0	2	0	[]
5520	1	1	8	60.0	2	0	[]
5547	2	1	5	60.0	2	0	[]
5554	2	1	8	60.0	2	0	[]
5560	6	1	8	60.0	2	0	[]
5564	15	2	8	60.0	2	2	[(8081, 2), (4483, 2)]
5565	11	3	8	60.0	2	0	[]
5574	1	8	16	60.0	2	0	[]
5578	2	4	8	60.0	2	0	[]
5585	20	1	8	60.0	2	0	[]
5586	1	4	8	60.0	2	0	[]
5591	3	1	8	60.0	2	0	[]
5596	1	4	8	60.0	2	0	[]
5599	1	4	8	60.0	2	0	[]
5603	2	1	8	60.0	2	0	[]
5612	1	1	5	60.0	2	0	[]
5619	9	4	2	60.0	2	0	[]
5629	1	1	8	60.0	2	0	[]
5635	3	3	2	60.0	2	0	[]
5637	1	1	2	60.0	2	0	[]
5641	2	1	8	60.0	2	0	[]
5642	2	4	8	60.0	2	0	[]
5651	4	1	8	60.0	2	0	[]
5681	2	1	8	60.0	2	0	[]
5683	2	1	8	60.0	2	0	[]
5697	1	1	7	60.0	2	0	[]
5706	1	4	16	80.0	2	0	[]
5713	1	4	16	80.0	2	0	[]
5752	3	1	2	60.0	2	0	[]
5755	3	2	8	60.0	2	0	[]
5760	1	1	8	60.0	2	0	[]
5796	1	1	8	60.0	2	0	[]
5806	1	1	2	60.0	2	0	[]
5813	2	1	1	60.0	2	0	[]
5814	2	1	8	60.0	2	0	[]
5815	2	1	4	60.0	2	0	[]
5845	1	1	1	60.0	2	0	[]
5862	6	1	8	60.0	2	0	[]
5863	1	1	2	60.0	2	0	[]
5864	69	4	8	60.0	2	3	[(5585, 0), (7658, 1), (2489, 0)]
5871	15	6	8	60.0	2	0	[]
5886	12	6	8	60.0	2	0	[]
5892	1	1	96	300.0	2	0	[]
5902	1	1	8	60.0	2	0	[]
5912	2	1	7	60.0	2	0	[]
5924	2	1	7	60.0	2	0	[]
5943	2	1	1	60.0	2	0	[]
5952	2	1	8	60.0	2	0	[]
5953	3	2	8	60.0	2	0	[]
5959	2	1	8	60.0	2	0	[]
5966	2	1	8	60.0	2	0	[]
5969	2	1	6	60.0	2	0	[]
5975	1	4	8	60.0	2	0	[]
5976	2	3	8	60.0	2	0	[]
5977	1	1	8	60.0	2	0	[]
5978	13	2	8	60.0	2	0	[]
5998	1	1	2	60.0	2	0	[]
6007	20	2	16	80.0	2	1	[(2489, 2)]
6029	2	1	8	60.0	2	0	[]
6045	2	1	8	60.0	2	0	[]
6049	2	1	8	60.0	2	0	[]
6050	6	2	16	80.0	2	0	[]
6056	5	3	8	60.0	2	0	[]
6064	2	1	8	60.0	2	0	[]
6065	2	1	2	1000.0	2	0	[]
6067	17	3	8	60.0	2	0	[]
6069	3	2	8	60.0	2	0	[]
6077	6	4	32	80.0	2	0	[]
6080	2	4	8	100.0	2	0	[]
6088	3	1	8	60.0	2	0	[]
6096	2	1	2	60.0	2	0	[]
6098	2	1	2	60.0	2	0	[]
6101	2	1	8	60.0	2	0	[]
6112	2	1	2	60.0	2	0	[]
6124	2	1	8	60.0	2	0	[]
6160	5	2	8	60.0	2	0	[]
6167	3	1	4	60.0	2	0	[]
6196	5	2	8	60.0	2	0	[]
6203	1	3	8	60.0	2	0	[]
6205	1	1	8	60.0	2	0	[]
6206	1	3	8	60.0	2	0	[]
6209	2	1	8	60.0	2	0	[]
6228	2	2	8	60.0	2	0	[]
6244	1	1	8	60.0	2	0	[]
6253	2	1	8	60.0	2	0	[]
6255	4	1	8	60.0	2	0	[]
6267	3	2	1	100.0	2	0	[]
6268	4	5	8	60.0	2	0	[]
6271	1	1	8	60.0	2	0	[]
6275	2	1	8	200.0	2	0	[]
6284	1	2	8	60.0	2	0	[]
6295	14	4	8	40.0	2	1	[(8347, 0)]
6298	2	1	8	60.0	2	0	[]
6316	2	4	8	60.0	2	0	[]
6330	1	4	8	60.0	2	0	[]
6341	2	2	4	60.0	2	0	[]
6360	2	1	8	60.0	2	0	[]
6374	7	1	8	60.0	2	0	[]
6383	1	4	8	60.0	2	0	[]
6401	1	1	1	60.0	2	0	[]
6408	10	2	16	60.0	2	0	[]
6423	1	1	8	60.0	2	0	[]
6426	4	1	8	60.0	2	0	[]
6435	1	1	1	60.0	2	0	[]
6437	1	1	8	60.0	2	0	[]
6469	2	1	8	60.0	2	0	[]
6471	1	1	8	60.0	2	0	[]
6483	29	1	8	60.0	0	2	[(7770, 0), (328, 2)]
6489	1	1	8	60.0	2	0	[]
6494	3	1	8	60.0	2	0	[]
6502	1	4	8	60.0	2	0	[]
6508	2	2	8	60.0	2	0	[]
6510	4	2	8	60.0	2	0	[]
6516	2	1	8	60.0	2	0	[]
6525	1	1	8	60.0	2	0	[]
6536	1	1	1	60.0	2	0	[]
6538	2	1	8	60.0	2	0	[]
6543	1	4	8	60.0	2	0	[]
6581	1	2	8	60.0	2	1	[(3356, 2)]
6591	2	1	16	80.0	2	0	[]
6592	2	4	8	60.0	2	0	[]
6621	2	1	2	60.0	2	0	[]
6631	2	1	8	60.0	2	0	[]
6638	2	1	8	60.0	2	0	[]
6645	2	1	8	60.0	2	0	[]
6681	4	1	8	60.0	2	0	[]
6695	4	1	8	60.0	2	0	[]
6700	3	1	8	60.0	2	0	[]
6706	11	6	8	60.0	2	0	[]
6708	2	36	48	300.0	2	0	[]
6710	69	6	8	60.0	2	3	[(473, 2), (2752, 0), (1546, 2)]
6739	4	3	8	60.0	2	0	[]
6770	2	2	3	60.0	2	0	[]
6771	11	6	8	60.0	2	0	[]
6775	4	1	2	100.0	2	1	[(5959, 0)]
6791	21	3	8	60.0	2	1	[(9171, 2)]
6796	1	2	7	60.0	2	0	[]
6804	11	6	8	60.0	2	0	[]
6810	5	6	8	60.0	2	0	[]
6811	1	1	2	60.0	2	0	[]
6819	2	1	2	60.0	2	0	[]
6827	21	3	16	60.0	2	0	[]
6835	1	4	8	60.0	2	0	[]
6849	1	1	8	60.0	2	0	[]
6855	2	1	8	60.0	2	0	[]
6859	2	1	8	60.0	2	0	[]
6870	5	1	8	60.0	2	0	[]
6897	1	1	8	60.0	2	0	[]
6899	1	3	8	60.0	2	0	[]
6908	2	1	8	60.0	2	0	[]
6917	2	1	8	60.0	2	0	[]
6932	1	1	8	60.0	2	0	[]
6952	1	1	8	60.0	2	0	[]
6974	2	1	8	60.0	2	0	[]
6978	1	2	8	60.0	2	0	[]
6986	1	1	8	60.0	2	0	[]
6998	1	1	8	60.0	2	0	[]
7010	4	2	8	60.0	2	0	[]
7013	6	6	8	60.0	2	0	[]
7014	20	1	8	60.0	2	0	[]
7031	1	1	1	60.0	2	0	[]
7045	2	2	16	60.0	2	6	[(4661, 3), (8347, 2), (9031, 2), (273, 2), (2688, 2), (7555, 3)]
7051	1	1	1	60.0	2	0	[]
7052	8	4	8	60.0	2	1	[(3226, 0)]
7067	396	12	12	60.0	2	10	[(5063, 0), (2964, 0), (4039, 0), (3169, 0), (7880, 0), (4282, 0), (3994, 0), (4704, 0), (2458, 1), (782, 0)]
7076	8	5	8	60.0	2	0	[]
7084	1	3	16	100.0	2	0	[]
7086	2	1	8	60.0	2	0	[]
7087	25	4	2	200.0	2	0	[]
7104	2	1	8	60.0	2	0	[]
7106	6	2	8	60.0	2	0	[]
7107	2	3	8	60.0	2	0	[]
7108	2	1	8	60.0	2	0	[]
7119	2	1	8	60.0	2	0	[]
7126	2	1	1	60.0	2	0	[]
7129	1	1	2	60.0	2	0	[]
7137	2	4	8	60.0	2	0	[]
7140	2	2	8	60.0	2	0	[]
7141	1	1	8	60.0	2	0	[]
7151	2	1	8	60.0	2	0	[]
7155	43	1	8	40.0	2	1	[(281, 0)]
7156	3	1	1	60.0	2	0	[]
7160	1	1	2	100.0	2	0	[]
7167	1	1	8	60.0	2	0	[]
7168	2	1	8	60.0	2	0	[]
7173	1	4	8	60.0	2	0	[]
7187	1	4	8	60.0	2	0	[]
7198	5	1	6	60.0	2	0	[]
7201	1	1	6	60.0	2	0	[]
7251	2	1	8	60.0	2	0	[]
7267	6	6	8	60.0	2	2	[(8347, 0), (2353, 1)]
7268	14	2	16	60.0	2	0	[]
7274	2	1	8	60.0	2	0	[]
7285	1	1	8	60.0	2	0	[]
7290	9	1	4	60.0	2	0	[]
7295	2	1	8	60.0	2	0	[]
7301	3	1	2	60.0	2	0	[]
7307	1	1	1	60.0	2	0	[]
7309	87	5	8	40.0	0	2	[(2353, 0), (281, 0)]
7313	1	1	1	60.0	2	0	[]
7316	3	1	8	60.0	2	0	[]
7320	1	4	1	60.0	2	0	[]
7324	1	1	2	60.0	2	0	[]
7325	1	8	16	150.0	2	0	[]
7333	12	2	8	60.0	2	6	[(1416, 2), (1046, 0), (7155, 1), (3002, 2), (7980, 0), (7922, 0)]
7339	2	1	1	60.0	2	0	[]
7349	1	1	1	60.0	2	0	[]
7381	2	1	8	60.0	2	0	[]
7399	3	2	2	60.0	2	0	[]
7409	1	1	1	60.0	2	0	[]
7413	5	1	24	150.0	2	0	[]
7416	3	1	8	60.0	2	0	[]
7425	3	1	8	60.0	2	1	[(7126, 1)]
7433	2	1	8	60.0	2	0	[]
7440	1	4	8	60.0	2	0	[]
7455	1	4	8	80.0	2	0	[]
7482	1	4	8	60.0	2	0	[]
7502	4	4	8	60.0	2	0	[]
7510	3	1	4	60.0	2	0	[]
7524	10	3	8	60.0	2	0	[]
7527	1	1	8	60.0	2	0	[]
7540	1	4	8	60.0	2	0	[]
7544	1	1	1	60.0	2	0	[]
7545	4	1	8	60.0	2	0	[]
7553	1	1	1	60.0	2	0	[]
7555	1	6	16	60.0	1	7	[(7045, 2), (8535, 2), (8347, 2), (3117, 1), (9031, 2), (273, 2), (2688, 2)]
7565	1	1	8	60.0	2	0	[]
7580	1	4	8	60.0	2	0	[]
7581	3	1	8	60.0	2	0	[]
7601	3	1	8	60.0	2	0	[]
7606	2	1	16	40.0	2	1	[(6408, 0)]
7629	2	4	16	80.0	2	0	[]
7644	2	2	7	150.0	2	0	[]
7658	6	1	4	60.0	2	0	[]
7667	2	1	5	60.0	2	0	[]
7669	2	1	8	60.0	2	0	[]
7673	3	1	8	60.0	2	0	[]
7680	2	2	8	60.0	2	0	[]
7690	2	1	8	60.0	2	0	[]
7701	2	1	8	60.0	2	0	[]
7719	3	2	8	60.0	2	0	[]
7720	2	1	8	60.0	2	0	[]
7740	12	6	8	60.0	2	1	[(4877, 2)]
7770	4	1	2	60.0	2	0	[]
7782	1	1	8	60.0	2	0	[]
7792	14	2	8	60.0	2	0	[]
7805	25	2	8	60.0	2	0	[]
7824	5	1	8	60.0	2	0	[]
7836	4	2	8	60.0	2	0	[]
7860	1	1	8	40.0	0	0	[]
7862	2	1	8	60.0	2	0	[]
7863	6	1	8	60.0	2	0	[]
7865	1	1	8	60.0	2	0	[]
7871	6	2	8	60.0	2	0	[]
7872	2	4	8	60.0	2	0	[]
7876	1	12	8	60.0	2	0	[]
7880	49	6	8	60.0	2	0	[]
7894	2	1	8	60.0	2	0	[]
7896	1	1	2	60.0	2	0	[]
7903	1	1	4	60.0	2	0	[]
7916	10	1	8	60.0	2	1	[(5813, 2)]
7918	2	1	8	60.0	2	0	[]
7922	2	1	2	60.0	2	0	[]
7928	90	2	8	60.0	2	1	[(2458, 1)]
7939	6	2	3	100.0	2	0	[]
7972	2	2	8	60.0	2	0	[]
7980	55	5	16	60.0	0	3	[(8115, 0), (2353, 1), (6408, 0)]
8009	2	1	8	60.0	2	0	[]
8012	1	1	1	60.0	2	0	[]
8020	1	3	8	60.0	2	0	[]
8027	2	4	8	60.0	2	0	[]
8040	2	1	8	60.0	2	0	[]
8044	1	4	8	60.0	2	0	[]
8050	1	1	1	60.0	2	0	[]
8052	7	1	8	60.0	2	0	[]
8058	2	1	2	60.0	2	0	[]
8081	5	1	8	40.0	2	1	[(7980, 2)]
8082	1	1	1	60.0	2	0	[]
8110	2	1	8	100.0	2	0	[]
8111	2	1	8	60.0	2	0	[]
8114	3	1	8	60.0	2	0	[]
8115	16	2	8	40.0	2	1	[(8412, 0)]
8122	10	1	2	60.0	2	0	[]
8138	100	6	8	60.0	2	3	[(1416, 1), (3569, 0), (6408, 0)]
8148	23	3	8	60.0	2	0	[]
8150	2	4	8	60.0	2	0	[]
8156	2	2	16	100.0	2	0	[]
8165	4	1	4	60.0	2	0	[]
8171	5	3	24	60.0	2	0	[]
8174	1	4	8	60.0	2	0	[]
8178	1	2	8	40.0	0	0	[]
8180	3	1	8	60.0	2	0	[]
8185	3	1	8	60.0	2	0	[]
8198	4	2	8	60.0	2	0	[]
8199	16	2	2	40.0	2	0	[]
8200	1	1	8	60.0	2	0	[]
8224	1	1	8	60.0	2	0	[]
8232	1	1	4	60.0	2	0	[]
8233	1	1	8	60.0	2	0	[]
8235	3	1	8	60.0	2	0	[]
8239	2	1	8	60.0	2	0	[]
8249	1	1	36	60.0	2	0	[]
8257	2	1	8	60.0	2	0	[]
8277	2	4	8	60.0	2	0	[]
8304	2	1	3	200.0	2	0	[]
8314	2	1	8	60.0	2	0	[]
8332	2	1	3	60.0	2	0	[]
8335	5	1	5	300.0	2	0	[]
8339	4	6	8	60.0	2	0	[]
8342	1	1	8	60.0	2	0	[]
8347	24	12	32	100.0	2	11	[(7045, 2), (4661, 2), (473, 0), (3117, 1), (9031, 2), (273, 1), (2688, 2), (1546, 0), (2353, 2), (312, 0), (7555, 2)]
8353	4	1	3	60.0	2	0	[]
8354	2	1	5	60.0	2	0	[]
8355	1	1	8	60.0	2	0	[]
8358	1	1	8	60.0	2	0	[]
8362	2	2	8	60.0	2	0	[]
8369	2	1	8	60.0	2	0	[]
8373	1	2	8	60.0	2	0	[]
8388	2	1	8	60.0	2	0	[]
8393	3	1	2	60.0	2	0	[]
8397	2	1	8	60.0	2	0	[]
8403	2	4	8	60.0	2	0	[]
8412	31	3	8	60.0	2	1	[(8451, 0)]
8415	2	1	8	60.0	2	0	[]
8439	33	36	48	300.0	2	0	[]
8451	6	2	8	60.0	2	0	[]
8458	1	1	8	60.0	2	0	[]
8472	2	4	8	60.0	2	0	[]
8477	1	1	8	60.0	2	0	[]
8482	7	3	8	60.0	2	0	[]
8489	51	3	8	60.0	2	4	[(473, 0), (8347, 1), (4941, 2), (782, 0)]
8494	3	1	8	60.0	2	0	[]
8527	6	1	8	60.0	2	0	[]
8533	1	1	8	60.0	2	0	[]
8534	2	1	8	60.0	2	0	[]
8535	1	1	16	60.0	1	7	[(4661, 2), (8347, 1), (3117, 1), (9031, 1), (273, 2), (2688, 1), (7555, 2)]
8541	3	2	8	60.0	2	0	[]
8545	4	1	8	60.0	2	0	[]
8550	1	1	8	60.0	2	0	[]
8552	1	1	8	60.0	2	0	[]
8558	11	2	8	60.0	2	0	[]
8573	1	1	8	60.0	2	0	[]
8582	14	24	32	80.0	2	0	[]
8589	1	16	32	60.0	0	0	[]
8590	4	2	2	60.0	2	0	[]
8598	2	1	1	60.0	2	1	[(7416, 1)]
8605	6	2	8	60.0	2	0	[]
8614	1	8	16	200.0	2	0	[]
8623	1	1	16	60.0	2	0	[]
8644	2	4	8	60.0	2	0	[]
8681	2	1	8	60.0	2	1	[(135, 1)]
8691	2	4	8	60.0	2	0	[]
8703	2	3	8	60.0	2	0	[]
8712	4	1	8	60.0	2	0	[]
8718	1	1	8	60.0	2	0	[]
8735	16	1	8	60.0	2	1	[(269, 2)]
8737	2	1	8	60.0	2	0	[]
8740	8	1	8	40.0	2	0	[]
8750	2	1	8	60.0	2	0	[]
8779	1	1	8	60.0	2	0	[]
8813	1	4	2	60.0	2	0	[]
8819	8	5	8	60.0	2	0	[]
8838	1	1	1	60.0	2	0	[]
8839	1	1	8	60.0	2	0	[]
8849	23	3	8	60.0	2	1	[(8412, 2)]
8868	1	3	16	40.0	2	0	[]
8871	8	1	8	60.0	2	0	[]
8879	1	1	8	60.0	2	0	[]
8882	3	1	8	60.0	2	0	[]
8892	1	1	8	60.0	2	0	[]
8898	16	4	8	60.0	2	2	[(5063, 0), (2755, 2)]
8899	1	1	6	60.0	2	0	[]
8904	24	4	8	60.0	2	0	[]
8907	4	2	8	60.0	2	0	[]
8911	4	2	8	60.0	2	1	[(5095, 1)]
8914	2	1	8	60.0	2	0	[]
8915	1	1	8	60.0	2	0	[]
8929	1	1	2	60.0	2	0	[]
8956	2	1	8	60.0	2	0	[]
8964	2	1	8	60.0	2	0	[]
8970	2	1	8	60.0	2	0	[]
8972	5	6	8	60.0	2	0	[]
8985	2	1	8	60.0	2	0	[]
8997	4	2	8	60.0	2	0	[]
9014	28	3	8	60.0	2	1	[(5226, 1)]
9015	2	1	11	200.0	2	0	[]
9016	4	1	8	60.0	2	0	[]
9020	2	1	8	60.0	2	0	[]
9024	1	1	8	60.0	2	1	[(1046, 1)]
9026	2	1	8	60.0	2	0	[]
9031	1	3	32	60.0	2	6	[(7045, 2), (4661, 2), (8347, 2), (3117, 1), (273, 1), (7555, 2)]
9034	1	1	8	60.0	2	0	[]
9063	1	1	2	60.0	2	0	[]
9064	6	1	8	60.0	2	0	[]
9068	1	4	8	60.0	2	0	[]
9075	9	2	8	60.0	2	1	[(7980, 0)]
9076	1	1	8	60.0	2	0	[]
9085	2	2	8	60.0	2	0	[]
9091	7	5	8	60.0	2	0	[]
9115	1	1	3	60.0	2	0	[]
9124	1	1	1	60.0	2	0	[]
9135	1	2	3	60.0	2	0	[]
9137	1	1	8	60.0	2	0	[]
9140	4	1	8	60.0	2	0	[]
9142	2	1	8	60.0	2	0	[]
9156	25	4	8	60.0	2	2	[(48, 1), (4941, 1)]
9166	9	1	2	60.0	2	0	[]
9170	1	1	8	60.0	2	0	[]
9171	1	1	2	60.0	2	0	[]
9173	4	1	2	60.0	2	1	[(6739, 2)]
9184	1	1	4	60.0	2	0	[]
9203	2	1	8	60.0	2	0	[]
9204	6	1	8	60.0	2	0	[]
9210	1	1	8	60.0	2	0	[]
9223	2	1	8	60.0	2	0	[]
9233	3	4	8	60.0	2	0	[]
9248	1	1	8	60.0	2	0	[]
9249	5	1	8	60.0	2	0	[]
9269	210	4	16	60.0	0	3	[(2353, 0), (8347, 0), (312, 0)]
9273	4	2	8	60.0	2	0	[]
9295	1	4	8	60.0	2	0	[]
9320	3	1	8	60.0	2	0	[]
9325	2	1	8	60.0	2	0	[]
9330	11	6	8	60.0	2	0	[]
