app_id	nb_instances	core	memory	disk	intra_value	inter_degree	inter_aff
1	1	1	8	60.0	2	0	[]
20	4	6	8	60.0	2	0	[]
30	4	2	4	1024.0	2	0	[]
45	1	1	8	60.0	2	0	[]
65	7	1	8	60.0	2	0	[]
82	2	1	2	60.0	2	0	[]
86	2	1	8	60.0	2	1	[(4386, 2)]
93	2	4	8	300.0	2	0	[]
94	1	1	1	60.0	2	0	[]
100	10	3	8	60.0	2	0	[]
119	1	2	2	60.0	2	0	[]
125	3	1	8	60.0	2	0	[]
143	33	2	8	60.0	2	0	[]
152	1	1	8	60.0	2	0	[]
155	2	1	8	60.0	2	0	[]
191	7	1	2	60.0	2	0	[]
214	1	1	8	60.0	2	0	[]
216	3	1	8	60.0	2	0	[]
226	10	4	8	60.0	2	16	[(3464, 0), (143, 0), (1425, 0), (1227, 0), (3657, 0), (392, 0), (8931, 0), (5541, 0), (3994, 0), (7058, 0), (9138, 0), (7217, 0), (4231, 0), (4169, 0), (1055, 0), (4325, 0)]
230	2	1	8	60.0	2	0	[]
231	1	8	16	40.0	2	0	[]
242	3	1	5	60.0	2	0	[]
249	1	1	8	60.0	2	0	[]
253	2	1	2	60.0	2	0	[]
258	1	1	8	40.0	2	0	[]
280	2	1	8	60.0	2	0	[]
284	2	1	1	60.0	2	0	[]
295	2	1	8	60.0	2	0	[]
301	21	12	16	200.0	2	0	[]
306	4	1	8	60.0	2	0	[]
321	6	1	8	60.0	2	0	[]
333	1	1	8	60.0	2	0	[]
335	2	1	1	60.0	2	0	[]
342	2	6	8	60.0	2	0	[]
350	7	3	8	60.0	2	0	[]
360	11	1	8	60.0	2	1	[(4762, 2)]
369	4	2	8	60.0	2	0	[]
372	1	1	8	60.0	2	0	[]
381	1	1	8	60.0	2	0	[]
383	1	1	8	60.0	2	0	[]
386	5	1	8	80.0	2	0	[]
387	2	4	8	60.0	2	0	[]
391	4	1	8	60.0	2	0	[]
392	7	1	4	60.0	2	1	[(5017, 1)]
400	2	1	8	60.0	2	0	[]
405	1	1	1	60.0	2	0	[]
409	2	3	8	60.0	2	0	[]
415	1	1	2	60.0	2	0	[]
419	5	1	8	60.0	2	0	[]
431	2	1	8	60.0	2	0	[]
444	3	1	8	60.0	2	0	[]
449	15	3	16	60.0	1	0	[]
453	2	1	4	60.0	2	0	[]
469	2	1	2	200.0	2	0	[]
470	1	1	1	60.0	2	0	[]
472	2	1	8	60.0	2	0	[]
479	2	1	8	60.0	2	0	[]
495	1	4	8	60.0	2	0	[]
507	3	2	8	60.0	2	0	[]
518	1	1	8	60.0	2	0	[]
536	51	2	8	167.0	2	33	[(1051, 0), (1447, 0), (7058, 0), (3464, 0), (7522, 0), (1425, 0), (3540, 0), (3612, 0), (4373, 0), (1235, 0), (1788, 0), (4169, 0), (8931, 0), (3048, 0), (9207, 0), (3178, 0), (369, 0), (7217, 0), (8722, 0), (1259, 0), (3127, 0), (5995, 0), (143, 0), (3994, 0), (5336, 0), (1227, 0), (4231, 0), (7843, 0), (3292, 2), (8223, 1), (2767, 0), (9138, 0), (5470, 0)]
540	3	1	8	60.0	2	0	[]
543	1	1	8	60.0	2	0	[]
565	43	24	32	200.0	2	0	[]
580	30	2	8	60.0	2	1	[(4988, 2)]
584	2	1	8	60.0	2	0	[]
602	3	1	8	60.0	2	0	[]
605	1	1	8	60.0	2	0	[]
607	2	4	8	60.0	2	0	[]
610	2	1	8	60.0	2	0	[]
619	2	1	8	60.0	2	0	[]
625	5	2	8	60.0	2	0	[]
631	1	1	8	60.0	2	0	[]
638	13	3	8	60.0	2	0	[]
647	2	3	2	60.0	2	0	[]
651	2	1	8	60.0	2	0	[]
655	26	1	8	40.0	2	0	[]
663	2	2	4	60.0	2	0	[]
703	8	1	8	60.0	2	0	[]
709	3	4	8	60.0	2	1	[(5022, 0)]
712	1	1	1	60.0	2	0	[]
715	4	1	8	60.0	2	0	[]
720	8	1	8	60.0	2	0	[]
721	1	1	8	60.0	2	0	[]
722	1	1	2	60.0	2	0	[]
723	1	1	2	60.0	2	0	[]
740	3	1	2	60.0	2	0	[]
750	2	1	8	60.0	2	0	[]
754	2	1	8	60.0	2	0	[]
758	2	1	8	60.0	2	0	[]
764	2	1	8	60.0	2	0	[]
784	1	1	8	40.0	2	0	[]
808	6	4	8	60.0	2	0	[]
816	2	1	8	60.0	2	0	[]
823	1	1	2	500.0	2	0	[]
830	2	1	8	60.0	2	0	[]
842	1	1	1	60.0	2	0	[]
843	1	4	8	60.0	2	0	[]
849	2	1	8	60.0	2	0	[]
850	3	1	8	60.0	2	0	[]
862	2	1	8	60.0	2	0	[]
866	2	1	8	60.0	2	0	[]
872	1	1	8	60.0	2	0	[]
883	13	6	8	60.0	2	0	[]
917	2	2	8	60.0	2	0	[]
926	4	3	8	60.0	2	0	[]
928	3	1	8	60.0	2	0	[]
932	1	1	8	100.0	2	0	[]
948	1	1	8	60.0	2	0	[]
969	2	1	8	60.0	2	0	[]
979	2	4	8	60.0	2	0	[]
985	2	1	4	60.0	2	0	[]
993	1	1	8	60.0	2	0	[]
994	5	1	7	60.0	2	0	[]
1015	2	1	8	60.0	2	0	[]
1021	3	1	8	60.0	2	1	[(5022, 0)]
1023	2	1	15	80.0	2	0	[]
1033	4	1	8	60.0	2	0	[]
1046	44	4	32	100.0	2	0	[]
1051	77	5	8	40.0	2	1	[(4231, 0)]
1055	3	2	8	60.0	2	0	[]
1069	2	1	8	60.0	2	0	[]
1076	1	1	8	60.0	2	0	[]
1091	12	6	8	60.0	2	1	[(415, 1)]
1098	2	1	8	60.0	2	0	[]
1110	5	2	8	60.0	2	0	[]
1133	1	1	8	60.0	2	0	[]
1136	1	1	8	60.0	2	0	[]
1139	2	1	7	60.0	2	0	[]
1144	32	4	8	60.0	2	0	[]
1155	9	3	8	60.0	2	0	[]
1158	2	1	8	60.0	2	0	[]
1162	2	1	8	60.0	2	0	[]
1172	3	1	8	60.0	2	0	[]
1176	4	1	2	60.0	2	0	[]
1186	1	1	5	60.0	2	0	[]
1188	2	2	8	60.0	2	0	[]
1191	2	1	8	60.0	2	0	[]
1194	3	1	8	60.0	2	0	[]
1198	1	2	8	60.0	2	0	[]
1208	2	1	8	60.0	2	0	[]
1214	2	1	8	60.0	2	0	[]
1216	5	1	8	60.0	2	0	[]
1223	1	1	8	60.0	2	0	[]
1227	76	3	8	60.0	2	1	[(8223, 2)]
1228	2	1	8	60.0	2	0	[]
1235	6	2	8	60.0	2	0	[]
1246	1	1	8	60.0	2	0	[]
1257	2	1	1	60.0	2	0	[]
1258	24	3	8	60.0	2	1	[(3994, 0)]
1259	21	4	8	60.0	2	0	[]
1266	1	1	1	60.0	2	0	[]
1277	1	1	8	60.0	2	0	[]
1286	1	1	8	60.0	2	0	[]
1292	4	1	5	60.0	2	0	[]
1306	1	4	8	60.0	2	0	[]
1313	1	1	8	60.0	2	0	[]
1329	14	1	8	60.0	2	0	[]
1338	4	1	8	60.0	2	0	[]
1343	40	6	8	60.0	2	1	[(1046, 2)]
1361	7	1	8	60.0	2	0	[]
1362	7	6	16	80.0	2	0	[]
1366	1	1	8	60.0	2	0	[]
1387	2	1	3	60.0	2	0	[]
1400	1	1	8	60.0	2	0	[]
1404	1	1	26	300.0	2	0	[]
1423	2	1	1	60.0	2	0	[]
1425	39	7	16	200.0	2	0	[]
1440	2	1	8	60.0	2	0	[]
1447	33	1	8	60.0	2	0	[]
1453	1	1	5	60.0	2	0	[]
1474	1	1	6	60.0	2	0	[]
1477	1	1	8	60.0	2	0	[]
1487	2	1	1	60.0	2	0	[]
1501	1	1	2	60.0	2	0	[]
1508	3	1	8	60.0	2	0	[]
1519	1	1	8	60.0	2	0	[]
1528	1	4	8	60.0	2	0	[]
1529	4	1	8	60.0	2	0	[]
1538	2	1	8	60.0	2	0	[]
1540	4	1	8	60.0	2	0	[]
1562	2	1	8	100.0	2	0	[]
1577	1	4	8	60.0	2	0	[]
1591	1	1	8	60.0	2	0	[]
1603	1	2	8	100.0	2	0	[]
1604	2	1	8	60.0	2	0	[]
1611	1	1	6	60.0	2	0	[]
1615	2	1	8	100.0	2	0	[]
1617	1	4	8	60.0	2	0	[]
1626	1	1	8	60.0	2	0	[]
1627	2	1	8	60.0	2	0	[]
1633	1	1	8	60.0	2	0	[]
1639	100	2	8	60.0	2	9	[(5557, 2), (2551, 0), (2856, 2), (3582, 2), (4656, 0), (1338, 0), (4652, 2), (5220, 0), (4996, 2)]
1652	7	3	8	60.0	2	0	[]
1669	1	1	8	60.0	2	0	[]
1674	2	1	8	60.0	2	0	[]
1682	2	1	1	60.0	2	0	[]
1685	1	1	1	60.0	2	0	[]
1692	1	1	8	60.0	2	0	[]
1695	2	6	8	60.0	2	0	[]
1706	1	4	8	60.0	2	0	[]
1719	1	1	8	60.0	2	0	[]
1726	3	1	8	60.0	2	0	[]
1727	2	6	8	60.0	2	0	[]
1754	2	1	8	60.0	2	0	[]
1762	5	5	8	60.0	2	1	[(4996, 1)]
1775	2	1	8	60.0	2	0	[]
1788	7	6	16	80.0	2	1	[(8716, 1)]
1816	2	1	8	60.0	2	0	[]
1833	3	2	8	60.0	2	0	[]
1841	4	1	8	60.0	2	0	[]
1855	47	3	16	80.0	2	1	[(8223, 2)]
1856	2	1	8	60.0	2	0	[]
1870	1	1	16	100.0	2	0	[]
1878	6	1	8	60.0	2	0	[]
1892	2	1	8	60.0	2	0	[]
1900	50	1	16	60.0	2	23	[(2788, 1), (3384, 1), (2612, 0), (4373, 0), (7472, 0), (7364, 1), (4385, 0), (3158, 1), (3843, 0), (8313, 0), (7624, 1), (536, 0), (2319, 0), (1487, 0), (8490, 0), (580, 0), (5796, 2), (8434, 0), (9243, 1), (2767, 0), (3479, 0), (7504, 0), (8816, 1)]
1903	2	1	8	60.0	2	0	[]
1907	1	1	8	60.0	2	0	[]
1909	2	1	1	60.0	2	0	[]
1933	1	4	16	60.0	2	0	[]
1948	2	1	8	60.0	2	0	[]
1954	1	1	16	60.0	1	0	[]
1968	2	1	8	60.0	2	0	[]
2000	31	6	16	80.0	2	8	[(2982, 2), (5482, 0), (8676, 0), (2773, 0), (5220, 0), (3001, 1), (4996, 2), (6043, 0)]
2002	2	1	8	60.0	2	0	[]
2003	1	1	1	60.0	2	0	[]
2030	4	1	8	60.0	2	0	[]
2035	2	1	8	60.0	2	0	[]
2038	1	1	8	60.0	2	0	[]
2056	1	1	8	60.0	2	0	[]
2060	1	3	8	60.0	2	0	[]
2061	24	2	8	60.0	2	0	[]
2062	1	1	16	100.0	2	0	[]
2069	1	1	1	60.0	2	0	[]
2071	2	1	8	60.0	2	0	[]
2074	2	1	2	60.0	2	0	[]
2087	1	1	2	60.0	2	0	[]
2104	4	1	8	60.0	2	0	[]
2107	4	1	8	60.0	2	0	[]
2108	4	4	8	80.0	2	0	[]
2116	2	4	8	60.0	2	0	[]
2125	12	6	8	60.0	2	0	[]
2134	5	1	8	60.0	2	0	[]
2135	2	1	8	60.0	2	0	[]
2155	6	4	2	100.0	2	0	[]
2159	1	1	16	80.0	2	0	[]
2163	2	1	8	60.0	2	0	[]
2199	5	2	8	60.0	2	0	[]
2217	4	3	8	60.0	2	0	[]
2222	1	5	8	60.0	2	0	[]
2223	1	10	8	60.0	2	0	[]
2230	1	1	7	60.0	2	0	[]
2243	2	1	8	60.0	2	0	[]
2264	2	1	8	60.0	2	0	[]
2279	2	1	8	60.0	2	0	[]
2313	1	1	8	60.0	2	0	[]
2319	50	1	8	60.0	2	1	[(9303, 1)]
2343	2	1	8	60.0	2	0	[]
2345	4	4	8	60.0	2	0	[]
2348	1	1	2	60.0	2	0	[]
2359	1	1	8	60.0	2	0	[]
2362	1	1	2	60.0	2	0	[]
2364	1	2	8	60.0	2	0	[]
2376	1	1	7	60.0	2	0	[]
2386	1	1	8	60.0	2	0	[]
2391	1	1	16	60.0	2	0	[]
2392	1	4	8	60.0	2	0	[]
2403	1	4	8	60.0	2	0	[]
2414	2	1	8	60.0	2	0	[]
2416	2	1	8	60.0	2	0	[]
2419	2	1	8	60.0	2	0	[]
2426	2	1	8	60.0	2	0	[]
2427	3	1	8	60.0	2	0	[]
2433	4	6	8	60.0	2	0	[]
2472	6	1	8	60.0	2	0	[]
2473	6	1	8	60.0	2	0	[]
2479	17	4	1	100.0	2	0	[]
2482	24	2	8	60.0	2	1	[(5022, 1)]
2495	10	4	8	60.0	2	0	[]
2503	9	1	2	60.0	2	0	[]
2507	9	4	8	100.0	2	8	[(2568, 0), (6520, 0), (8722, 0), (2479, 0), (2414, 2), (2866, 1), (3994, 0), (5995, 0)]
2516	3	3	8	60.0	2	0	[]
2523	2	2	8	60.0	2	0	[]
2529	2	1	8	60.0	2	0	[]
2547	2	4	8	60.0	2	0	[]
2551	2	1	8	60.0	2	0	[]
2562	2	4	8	60.0	2	0	[]
2568	2	1	1	60.0	2	3	[(3994, 0), (7394, 0), (2507, 0)]
2572	2	1	8	60.0	2	0	[]
2587	6	3	8	60.0	2	1	[(4858, 1)]
2594	2	1	7	60.0	2	0	[]
2599	4	1	8	60.0	2	0	[]
2601	2	1	8	60.0	2	0	[]
2607	4	2	8	60.0	2	0	[]
2612	6	5	8	60.0	2	0	[]
2627	4	1	2	60.0	2	0	[]
2630	5	2	8	60.0	2	0	[]
2652	1	1	8	60.0	2	0	[]
2661	2	4	8	60.0	2	0	[]
2674	2	1	8	60.0	2	0	[]
2680	11	2	8	60.0	2	0	[]
2724	2	2	8	60.0	2	0	[]
2738	2	1	8	60.0	2	0	[]
2739	1	1	60	60.0	2	5	[(5080, 1), (6097, 2), (7045, 2), (7217, 2), (9031, 2)]
2753	1	1	8	60.0	2	0	[]
2761	9	1	8	60.0	2	0	[]
2767	275	6	8	60.0	2	0	[]
2773	2	1	8	60.0	2	0	[]
2783	2	1	8	60.0	2	0	[]
2788	11	1	10	180.0	2	7	[(1833, 0), (1948, 0), (4925, 0), (1172, 0), (242, 0), (5883, 0), (7165, 0)]
2796	1	1	8	60.0	2	0	[]
2804	2	1	8	60.0	2	0	[]
2806	2	1	8	60.0	2	0	[]
2809	2	2	8	60.0	2	0	[]
2827	2	1	8	60.0	2	0	[]
2834	1	4	16	100.0	2	0	[]
2836	1	1	6	60.0	2	0	[]
2847	5	1	8	60.0	2	0	[]
2854	2	1	8	60.0	2	0	[]
2856	4	1	8	60.0	2	0	[]
2859	2	2	16	60.0	2	0	[]
2862	2	1	8	60.0	2	0	[]
2866	2	1	8	60.0	2	0	[]
2874	98	3	3	60.0	2	1	[(655, 0)]
2885	1	1	8	60.0	2	0	[]
2891	1	1	8	60.0	2	0	[]
2902	2	1	7	60.0	2	0	[]
2918	7	1	8	60.0	2	0	[]
2925	2	1	2	60.0	2	0	[]
2926	2	4	8	60.0	2	0	[]
2929	2	1	8	60.0	2	0	[]
2963	2	6	16	80.0	2	0	[]
2982	2	2	8	60.0	2	0	[]
3001	14	1	8	60.0	2	0	[]
3046	1	4	8	60.0	2	0	[]
3048	62	12	16	80.0	2	1	[(6123, 0)]
3050	4	1	8	60.0	2	0	[]
3057	1	1	1	60.0	2	0	[]
3060	2	1	8	60.0	2	0	[]
3080	3	2	8	60.0	2	0	[]
3089	2	2	16	80.0	2	0	[]
3092	2	1	8	60.0	2	0	[]
3097	9	3	8	60.0	2	0	[]
3100	1	1	8	60.0	2	0	[]
3123	2	1	1	60.0	2	0	[]
3124	3	4	7	60.0	2	0	[]
3127	29	1	8	60.0	2	1	[(2163, 0)]
3150	1	1	8	60.0	2	0	[]
3158	28	1	8	60.0	2	0	[]
3164	25	1	8	60.0	2	0	[]
3172	6	1	16	80.0	2	0	[]
3175	1	2	16	60.0	2	0	[]
3178	2	1	12	60.0	2	0	[]
3202	1	4	8	60.0	2	0	[]
3221	2	1	6	60.0	2	0	[]
3228	37	4	8	60.0	2	15	[(1015, 0), (5883, 0), (7992, 0), (1046, 1), (4287, 0), (3989, 1), (6281, 0), (3919, 0), (8233, 0), (8938, 2), (8819, 0), (6540, 0), (5017, 0), (8889, 2), (4996, 1)]
3230	1	1	4	200.0	2	0	[]
3236	1	4	16	80.0	2	0	[]
3254	2	6	8	60.0	2	0	[]
3277	2	1	8	60.0	2	0	[]
3292	8	3	8	40.0	2	0	[]
3320	1	1	2	200.0	2	0	[]
3330	1	1	8	60.0	2	0	[]
3331	1	5	16	60.0	2	0	[]
3365	1	1	1	60.0	2	0	[]
3368	3	9	60	60.0	2	5	[(5080, 1), (6097, 2), (7045, 2), (7217, 2), (9031, 2)]
3380	1	12	16	200.0	2	0	[]
3384	2	1	6	60.0	2	0	[]
3385	6	3	8	60.0	2	0	[]
3428	5	1	8	60.0	2	0	[]
3441	2	1	8	60.0	2	0	[]
3442	2	3	8	60.0	2	0	[]
3464	9	2	8	40.0	2	0	[]
3466	2	1	8	60.0	2	0	[]
3477	1	1	2	60.0	2	0	[]
3479	49	6	8	60.0	2	0	[]
3484	5	1	16	60.0	2	0	[]
3496	1	1	4	60.0	2	0	[]
3504	1	1	5	60.0	2	0	[]
3507	2	4	8	60.0	2	0	[]
3513	5	2	8	60.0	2	1	[(1051, 1)]
3528	1	1	8	60.0	2	0	[]
3540	6	2	8	60.0	2	1	[(7634, 2)]
3553	3	1	1	60.0	2	0	[]
3563	2	1	8	60.0	2	0	[]
3565	45	2	8	60.0	2	7	[(1615, 1), (5044, 2), (647, 1), (479, 2), (9131, 1), (5022, 0), (8170, 2)]
3577	2	1	3	60.0	2	0	[]
3579	1	2	8	60.0	2	0	[]
3582	2	1	2	60.0	2	0	[]
3584	2	1	8	60.0	2	0	[]
3600	2	1	1	60.0	2	0	[]
3602	3	1	8	60.0	2	0	[]
3607	2	1	8	60.0	2	0	[]
3612	13	1	13	60.0	2	0	[]
3631	14	3	8	60.0	2	4	[(5658, 0), (2902, 1), (1023, 0), (6258, 2)]
3657	103	6	16	60.0	1	4	[(7217, 0), (2061, 0), (1425, 0), (8223, 1)]
3682	28	3	8	60.0	2	1	[(5883, 0)]
3703	2	4	8	60.0	2	0	[]
3711	2	3	3	60.0	2	0	[]
3716	7	2	16	80.0	2	0	[]
3718	15	1	8	60.0	2	0	[]
3730	2	1	8	60.0	2	0	[]
3737	2	1	8	60.0	2	0	[]
3751	6	1	8	60.0	2	0	[]
3770	8	1	8	60.0	2	0	[]
3773	3	1	8	60.0	2	0	[]
3796	1	4	8	60.0	2	0	[]
3819	2	1	8	60.0	2	0	[]
3843	3	1	8	80.0	2	0	[]
3855	6	1	8	60.0	2	0	[]
3878	6	1	8	60.0	2	0	[]
3894	66	6	10	60.0	2	5	[(1110, 0), (8860, 0), (8723, 0), (5883, 0), (20, 0)]
3919	2	1	8	60.0	2	0	[]
3931	2	1	8	60.0	2	0	[]
3932	1	1	1	40.0	2	0	[]
3941	1	1	2	60.0	2	0	[]
3948	8	1	8	60.0	2	0	[]
3971	1	1	8	60.0	2	0	[]
3989	1	1	8	60.0	2	0	[]
3992	4	1	8	60.0	2	0	[]
3994	211	6	8	60.0	2	1	[(7516, 1)]
4003	2	1	5	60.0	2	0	[]
4006	1	1	1	60.0	2	0	[]
4010	1	1	8	60.0	2	0	[]
4030	1	1	1	60.0	2	0	[]
4034	9	6	8	60.0	2	2	[(7843, 2), (1091, 1)]
4044	1	5	16	60.0	2	0	[]
4047	1	32	128	600.0	2	0	[]
4051	1	1	8	40.0	2	0	[]
4071	26	2	8	60.0	2	1	[(6520, 0)]
4079	1	1	7	60.0	2	0	[]
4080	3	1	2	60.0	2	0	[]
4090	2	1	24	500.0	2	0	[]
4102	6	2	8	60.0	2	0	[]
4103	1	1	8	60.0	2	0	[]
4111	2	4	8	60.0	2	0	[]
4123	1	4	8	60.0	2	0	[]
4136	2	1	3	60.0	2	0	[]
4148	1	1	8	60.0	2	0	[]
4159	2	1	8	60.0	2	0	[]
4169	82	4	10	40.0	2	3	[(4231, 0), (3292, 0), (4325, 2)]
4171	3	1	8	60.0	2	0	[]
4185	1	1	8	60.0	2	0	[]
4188	4	1	8	60.0	2	0	[]
4206	4	1	8	60.0	2	0	[]
4208	1	1	8	60.0	2	0	[]
4218	10	6	8	60.0	2	0	[]
4220	1	1	8	60.0	2	0	[]
4222	3	2	8	60.0	2	0	[]
4231	31	6	8	60.0	0	2	[(1051, 0), (226, 0)]
4264	4	1	8	60.0	2	0	[]
4281	1	4	8	60.0	2	0	[]
4285	1	1	8	60.0	2	0	[]
4287	5	22	32	80.0	2	0	[]
4307	2	1	8	60.0	2	0	[]
4308	2	24	48	300.0	2	0	[]
4311	3	1	8	60.0	2	0	[]
4321	5	1	8	60.0	2	0	[]
4325	5	1	8	60.0	2	0	[]
4340	2	6	8	60.0	2	0	[]
4344	1	1	8	60.0	2	0	[]
4373	6	12	16	60.0	2	0	[]
4385	4	1	8	60.0	2	0	[]
4386	69	2	8	60.0	2	5	[(7217, 1), (8223, 1), (4311, 2), (5384, 2), (7165, 2)]
4387	2	1	8	60.0	2	0	[]
4397	2	1	5	60.0	2	0	[]
4418	7	6	8	60.0	2	0	[]
4437	1	1	1	80.0	2	0	[]
4451	2	6	8	60.0	2	1	[(5731, 0)]
4455	3	1	8	60.0	2	0	[]
4463	25	5	32	200.0	2	0	[]
4476	1	1	1	60.0	2	0	[]
4478	2	1	8	60.0	2	0	[]
4487	2	2	48	300.0	2	0	[]
4496	1	1	8	60.0	2	0	[]
4500	2	1	1	60.0	2	0	[]
4506	1	4	8	60.0	2	0	[]
4527	2	1	16	80.0	2	0	[]
4536	12	3	8	100.0	2	0	[]
4560	1	1	8	60.0	2	0	[]
4562	2	1	3	60.0	2	0	[]
4574	3	6	8	60.0	2	0	[]
4575	5	1	8	60.0	2	0	[]
4580	4	12	24	60.0	2	0	[]
4590	1	1	8	60.0	2	0	[]
4594	2	1	8	60.0	2	0	[]
4597	1	1	7	60.0	2	0	[]
4623	3	1	8	60.0	2	0	[]
4643	1	1	8	60.0	2	0	[]
4645	1	4	8	60.0	2	0	[]
4649	19	1	10	60.0	2	0	[]
4652	4	1	8	60.0	2	0	[]
4656	8	1	6	60.0	2	1	[(3894, 0)]
4662	2	1	8	60.0	2	0	[]
4675	1	1	16	60.0	2	0	[]
4681	2	1	1	60.0	2	0	[]
4687	1	1	8	60.0	2	0	[]
4690	3	1	8	60.0	2	1	[(4923, 2)]
4707	1	1	8	60.0	2	0	[]
4717	3	1	8	60.0	2	0	[]
4722	1	1	8	60.0	2	0	[]
4740	1	1	8	60.0	2	0	[]
4745	1	1	8	60.0	2	1	[(5022, 2)]
4755	1	1	3	60.0	2	0	[]
4758	6	6	16	60.0	2	0	[]
4761	1	1	2	60.0	2	0	[]
4762	26	2	8	60.0	2	19	[(1051, 0), (5336, 0), (8722, 0), (1227, 0), (7368, 0), (5614, 0), (1235, 0), (3124, 0), (2345, 0), (8931, 0), (7634, 1), (8716, 0), (3994, 0), (6907, 0), (6520, 0), (8223, 0), (2767, 0), (4169, 0), (1021, 0)]
4768	1	1	2	60.0	2	0	[]
4790	2	1	8	100.0	2	0	[]
4804	2	1	8	60.0	2	0	[]
4805	1	4	8	60.0	2	0	[]
4821	6	1	8	60.0	2	0	[]
4828	2	1	8	60.0	2	0	[]
4830	4	1	8	60.0	2	0	[]
4847	4	6	8	60.0	2	0	[]
4858	11	12	2	60.0	2	2	[(2630, 0), (2587, 0)]
4867	2	1	8	60.0	2	0	[]
4880	1	1	8	60.0	2	0	[]
4898	2	1	8	60.0	2	0	[]
4900	2	1	7	60.0	2	0	[]
4901	4	1	8	60.0	2	0	[]
4907	3	1	8	60.0	2	0	[]
4917	2	1	8	60.0	2	0	[]
4923	3	36	48	300.0	2	0	[]
4925	6	2	8	60.0	2	0	[]
4932	3	2	8	60.0	2	0	[]
4938	9	2	8	60.0	2	0	[]
4948	3	4	8	60.0	2	0	[]
4979	2	1	8	60.0	2	0	[]
4988	2	1	8	60.0	2	0	[]
4996	100	6	16	100.0	2	1	[(5375, 0)]
5002	2	1	8	60.0	2	0	[]
5012	2	2	8	60.0	2	0	[]
5017	4	4	8	60.0	2	0	[]
5022	282	12	16	60.0	0	5	[(7071, 1), (2856, 1), (8817, 2), (1892, 1), (1021, 0)]
5036	1	1	1	60.0	2	0	[]
5044	1	1	1	60.0	2	0	[]
5047	7	2	8	60.0	2	0	[]
5048	2	1	8	60.0	2	0	[]
5058	1	1	8	60.0	2	0	[]
5059	1	1	16	100.0	2	0	[]
5073	2	1	2	60.0	2	0	[]
5075	1	1	2	60.0	2	0	[]
5080	1	8	16	60.0	2	6	[(3368, 2), (6097, 3), (2739, 2), (7045, 2), (7217, 2), (9031, 3)]
5112	30	6	8	40.0	2	0	[]
5136	2	4	8	60.0	2	0	[]
5137	1	1	1	60.0	2	0	[]
5142	1	1	8	60.0	2	0	[]
5147	2	1	8	60.0	2	0	[]
5159	1	1	8	60.0	2	0	[]
5162	2	1	8	60.0	2	0	[]
5198	1	1	8	60.0	2	0	[]
5200	3	1	8	60.0	2	0	[]
5215	1	1	2	60.0	2	0	[]
5217	28	5	2	200.0	2	0	[]
5219	2	1	8	60.0	2	0	[]
5220	72	3	8	60.0	2	1	[(6500, 1)]
5230	1	1	8	60.0	2	0	[]
5240	5	3	8	60.0	2	0	[]
5252	2	2	8	60.0	2	0	[]
5259	2	4	8	60.0	2	0	[]
5263	2	1	8	60.0	2	0	[]
5270	1	2	8	60.0	2	0	[]
5276	3	1	8	300.0	2	0	[]
5281	1	4	8	60.0	2	0	[]
5288	6	1	8	60.0	2	0	[]
5297	2	1	3	60.0	2	0	[]
5304	1	4	8	60.0	2	0	[]
5326	2	1	2	60.0	2	0	[]
5336	19	1	8	60.0	2	0	[]
5343	1	4	8	60.0	2	0	[]
5358	2	1	8	60.0	2	0	[]
5364	4	1	8	60.0	2	0	[]
5375	85	6	8	60.0	2	1	[(2551, 2)]
5384	4	1	8	60.0	2	0	[]
5388	16	1	16	60.0	2	1	[(7467, 2)]
5393	1	1	8	60.0	2	0	[]
5400	2	1	8	60.0	2	0	[]
5402	1	1	8	60.0	2	0	[]
5403	1	4	8	60.0	2	0	[]
5410	1	1	8	60.0	2	0	[]
5415	2	1	8	40.0	2	0	[]
5421	4	1	8	60.0	2	0	[]
5428	1	1	8	60.0	2	0	[]
5439	4	1	8	60.0	2	0	[]
5460	1	1	1	60.0	2	0	[]
5470	11	1	8	60.0	2	0	[]
5473	2	1	8	60.0	2	0	[]
5482	2	1	8	60.0	2	0	[]
5485	2	1	7	60.0	2	0	[]
5492	1	1	1	60.0	2	1	[(5731, 0)]
5506	2	1	8	60.0	2	0	[]
5517	2	2	2	60.0	2	0	[]
5541	27	3	10	40.0	2	3	[(7394, 0), (8931, 0), (7217, 0)]
5546	8	1	8	60.0	2	0	[]
5548	29	4	8	60.0	2	0	[]
5552	3	1	8	60.0	2	0	[]
5557	2	2	8	60.0	2	1	[(8936, 2)]
5576	6	1	8	60.0	2	0	[]
5582	3	1	8	60.0	2	0	[]
5595	1	1	8	60.0	2	0	[]
5603	2	1	8	60.0	2	0	[]
5609	2	4	8	60.0	2	0	[]
5614	19	2	8	60.0	2	1	[(7291, 2)]
5617	2	1	8	60.0	2	0	[]
5621	1	1	8	40.0	2	0	[]
5632	3	2	8	60.0	2	0	[]
5639	5	6	8	60.0	2	0	[]
5640	2	1	8	60.0	2	0	[]
5652	2	1	8	60.0	2	0	[]
5658	2	1	8	60.0	2	0	[]
5668	2	1	8	60.0	2	0	[]
5683	2	1	8	60.0	2	0	[]
5694	1	1	8	60.0	2	0	[]
5697	1	1	7	60.0	2	0	[]
5698	8	12	2	60.0	2	0	[]
5703	1	1	2	60.0	2	0	[]
5711	1	4	8	60.0	2	0	[]
5727	1	4	8	60.0	2	0	[]
5731	57	6	16	80.0	2	0	[]
5751	5	1	8	60.0	2	0	[]
5756	2	6	8	60.0	2	0	[]
5770	1	1	3	60.0	2	0	[]
5774	1	4	8	60.0	2	0	[]
5788	2	1	8	60.0	2	0	[]
5796	1	1	8	60.0	2	0	[]
5801	1	1	8	60.0	2	0	[]
5802	1	1	8	60.0	2	0	[]
5841	2	1	8	60.0	2	0	[]
5852	1	1	8	60.0	2	0	[]
5861	3	1	8	60.0	2	0	[]
5877	3	1	8	60.0	2	0	[]
5883	23	5	8	60.0	2	2	[(5557, 1), (8936, 2)]
5885	2	1	8	60.0	2	0	[]
5889	18	6	8	60.0	2	22	[(1051, 0), (7058, 0), (3464, 0), (9303, 0), (7467, 0), (5614, 0), (1227, 0), (8716, 0), (8931, 0), (5541, 0), (5217, 0), (1259, 0), (3127, 0), (143, 0), (1425, 2), (3994, 0), (9207, 0), (6232, 0), (8223, 0), (191, 0), (2767, 0), (4169, 0)]
5890	2	1	8	60.0	2	0	[]
5891	1	4	8	60.0	2	0	[]
5908	3	1	8	60.0	2	0	[]
5932	2	1	8	60.0	2	0	[]
5945	1	1	1	60.0	2	0	[]
5972	3	1	8	60.0	2	0	[]
5978	13	2	8	60.0	2	0	[]
5979	1	1	8	60.0	2	0	[]
5987	1	2	8	60.0	2	0	[]
5995	15	10	16	80.0	2	0	[]
6006	2	1	8	60.0	2	0	[]
6020	31	2	16	60.0	2	5	[(3711, 0), (7770, 0), (3612, 2), (321, 0), (5022, 0)]
6039	2	1	8	60.0	2	0	[]
6043	1	1	1	60.0	2	0	[]
6045	2	1	8	60.0	2	0	[]
6050	6	2	16	80.0	2	0	[]
6052	4	1	2	60.0	2	0	[]
6058	1	1	8	60.0	2	0	[]
6087	1	4	8	60.0	2	0	[]
6090	2	1	1	60.0	2	0	[]
6092	1	1	8	60.0	2	0	[]
6097	2	3	32	60.0	2	5	[(3368, 1), (5080, 1), (2739, 1), (7045, 2), (7217, 2)]
6106	6	5	8	60.0	2	1	[(5022, 2)]
6119	2	1	8	60.0	2	0	[]
6122	40	6	8	60.0	2	0	[]
6123	138	6	8	60.0	2	9	[(9093, 2), (1423, 0), (6919, 0), (1362, 0), (3089, 2), (7268, 0), (2627, 1), (3048, 0), (9207, 0)]
6131	1	2	8	60.0	2	0	[]
6135	1	1	8	60.0	2	0	[]
6136	4	1	8	60.0	2	0	[]
6150	5	1	8	60.0	2	0	[]
6158	2	1	8	60.0	2	0	[]
6159	1	4	8	60.0	2	0	[]
6183	2	1	8	60.0	2	0	[]
6204	1	1	8	60.0	2	0	[]
6219	1	4	8	60.0	2	0	[]
6231	4	4	8	60.0	2	0	[]
6232	45	6	8	40.0	2	3	[(2627, 1), (7437, 2), (5614, 2)]
6247	2	1	8	60.0	2	0	[]
6257	2	1	8	60.0	2	0	[]
6258	10	1	8	60.0	2	1	[(3565, 0)]
6261	1	8	16	80.0	2	0	[]
6281	2	1	1	60.0	2	0	[]
6283	6	12	2	200.0	2	0	[]
6287	1	1	8	60.0	2	0	[]
6314	1	1	2	60.0	2	0	[]
6316	2	4	8	60.0	2	0	[]
6320	2	3	8	60.0	2	0	[]
6341	2	2	4	60.0	2	0	[]
6352	16	4	16	80.0	2	0	[]
6361	2	1	2	60.0	2	0	[]
6362	1	1	8	60.0	2	0	[]
6379	1	1	1	60.0	2	0	[]
6399	1	1	8	60.0	2	0	[]
6423	1	1	8	60.0	2	0	[]
6426	4	1	8	60.0	2	0	[]
6433	1	4	8	80.0	2	0	[]
6441	1	1	8	60.0	2	0	[]
6456	2	1	8	60.0	2	0	[]
6460	2	4	8	60.0	2	0	[]
6467	1	4	8	40.0	0	0	[]
6472	4	1	8	60.0	2	1	[(4996, 2)]
6486	15	4	8	60.0	2	0	[]
6490	3	1	8	60.0	3	0	[]
6500	2	1	8	60.0	2	0	[]
6509	1	3	2	60.0	2	2	[(3428, 1), (3994, 0)]
6516	2	1	8	60.0	2	0	[]
6519	2	1	8	60.0	2	0	[]
6520	36	3	8	40.0	2	4	[(8692, 1), (7368, 2), (536, 0), (849, 2)]
6535	1	4	8	60.0	2	0	[]
6540	2	1	8	60.0	2	0	[]
6547	1	1	8	60.0	2	0	[]
6561	5	6	8	60.0	2	0	[]
6569	1	1	8	60.0	2	0	[]
6572	1	1	8	60.0	2	0	[]
6581	1	2	8	60.0	2	0	[]
6582	2	1	8	60.0	2	0	[]
6587	3	2	8	60.0	2	0	[]
6588	1	1	8	60.0	2	0	[]
6602	2	1	2	60.0	2	0	[]
6604	2	2	8	60.0	2	0	[]
6624	2	1	8	60.0	2	0	[]
6642	1	1	8	60.0	2	0	[]
6656	6	2	8	60.0	2	0	[]
6660	2	1	8	60.0	2	0	[]
6672	1	1	8	60.0	2	0	[]
6681	4	1	8	60.0	2	0	[]
6701	1	1	2	60.0	2	0	[]
6704	2	1	8	60.0	2	0	[]
6729	13	2	8	60.0	2	0	[]
6755	2	1	8	60.0	2	0	[]
6768	4	1	8	60.0	2	0	[]
6769	2	1	3	60.0	2	0	[]
6781	1	4	8	60.0	2	0	[]
6790	10	3	8	60.0	2	0	[]
6794	5	2	8	60.0	2	0	[]
6796	1	2	7	60.0	2	0	[]
6807	1	1	8	60.0	2	0	[]
6810	5	6	8	60.0	2	0	[]
6833	2	2	8	60.0	2	0	[]
6876	1	1	1	60.0	2	0	[]
6885	2	1	4	60.0	2	0	[]
6886	2	1	8	60.0	2	0	[]
6907	17	1	8	60.0	2	0	[]
6919	1	1	8	60.0	2	0	[]
6921	5	2	8	60.0	2	0	[]
6930	4	1	13	80.0	2	0	[]
6945	2	1	8	60.0	2	0	[]
6968	1	1	8	60.0	2	0	[]
6977	1	1	8	60.0	2	0	[]
6980	1	1	2	60.0	2	0	[]
6997	2	1	2	60.0	2	0	[]
7008	2	1	8	60.0	2	0	[]
7018	2	1	8	60.0	2	0	[]
7022	1	1	8	60.0	2	0	[]
7029	2	1	8	60.0	2	0	[]
7032	4	1	1	60.0	2	0	[]
7037	3	2	16	200.0	2	0	[]
7045	2	2	16	60.0	2	4	[(3368, 2), (6097, 2), (9031, 2), (2739, 2)]
7058	19	9	16	200.0	2	0	[]
7060	1	1	8	60.0	2	0	[]
7071	16	2	8	60.0	2	0	[]
7076	8	5	8	60.0	2	0	[]
7083	1	1	8	60.0	2	0	[]
7089	1	1	2	60.0	2	0	[]
7097	1	1	8	60.0	2	0	[]
7108	2	1	8	60.0	2	0	[]
7134	2	2	8	60.0	2	0	[]
7142	2	1	5	60.0	2	0	[]
7161	1	1	2	60.0	2	0	[]
7165	6	1	1	60.0	2	0	[]
7175	1	1	1	60.0	2	0	[]
7177	2	1	1	60.0	2	0	[]
7193	1	4	8	300.0	2	0	[]
7194	1	4	8	60.0	2	0	[]
7217	85	12	16	60.0	2	7	[(3368, 2), (6097, 2), (8716, 0), (9031, 2), (3657, 0), (1055, 0), (2739, 2)]
7226	2	1	8	60.0	2	0	[]
7257	2	1	8	60.0	2	0	[]
7268	14	2	16	60.0	2	0	[]
7271	3	1	2	60.0	2	0	[]
7284	1	4	8	60.0	2	0	[]
7291	8	6	8	60.0	2	0	[]
7313	1	1	1	60.0	2	0	[]
7315	6	2	8	60.0	2	0	[]
7356	9	2	7	60.0	2	0	[]
7358	1	4	8	60.0	2	0	[]
7363	1	1	8	60.0	2	0	[]
7364	3	1	8	80.0	2	0	[]
7368	5	2	8	60.0	2	0	[]
7375	2	1	3	60.0	2	0	[]
7394	251	3	8	60.0	2	7	[(5541, 0), (3384, 1), (8722, 0), (2767, 2), (8223, 0), (8931, 0), (9207, 0)]
7398	1	1	8	60.0	2	0	[]
7417	2	4	8	60.0	2	0	[]
7419	2	1	8	60.0	2	0	[]
7433	2	1	8	60.0	2	0	[]
7437	7	1	8	60.0	2	0	[]
7440	1	4	8	60.0	2	0	[]
7450	1	1	1	60.0	2	0	[]
7451	1	4	8	60.0	2	0	[]
7458	4	6	2	60.0	2	0	[]
7467	6	1	8	60.0	2	0	[]
7472	2	1	8	60.0	2	0	[]
7473	3	1	8	60.0	2	0	[]
7474	2	1	8	60.0	2	0	[]
7479	2	6	8	60.0	2	0	[]
7490	2	1	8	60.0	2	0	[]
7493	2	4	8	60.0	2	0	[]
7500	22	1	8	60.0	2	1	[(2627, 1)]
7504	17	4	8	60.0	2	1	[(4996, 1)]
7516	2	1	8	60.0	2	0	[]
7520	4	11	16	200.0	2	0	[]
7521	5	1	8	60.0	2	0	[]
7522	11	3	8	60.0	2	0	[]
7527	1	1	8	60.0	2	0	[]
7529	2	1	8	60.0	2	0	[]
7557	2	1	8	60.0	2	0	[]
7571	5	9	16	150.0	2	0	[]
7582	1	1	8	60.0	2	0	[]
7586	5	1	8	80.0	2	0	[]
7608	1	1	8	60.0	2	0	[]
7615	2	2	8	60.0	2	0	[]
7624	22	6	8	60.0	2	1	[(2767, 2)]
7629	2	4	16	80.0	2	0	[]
7634	2	3	5	60.0	2	0	[]
7647	1	1	8	60.0	2	0	[]
7656	2	1	2	60.0	2	0	[]
7663	1	1	8	60.0	2	0	[]
7676	2	1	8	60.0	2	0	[]
7685	2	1	8	60.0	2	0	[]
7691	2	1	6	60.0	2	0	[]
7698	2	1	8	60.0	2	0	[]
7700	67	21	48	300.0	2	0	[]
7703	1	1	8	40.0	0	0	[]
7713	2	1	8	60.0	2	0	[]
7727	4	6	8	60.0	2	0	[]
7742	2	1	8	60.0	2	0	[]
7749	2	1	8	60.0	2	0	[]
7758	7	1	8	60.0	2	0	[]
7764	8	2	8	60.0	2	0	[]
7770	4	1	2	60.0	2	0	[]
7786	2	4	8	60.0	2	0	[]
7799	2	2	8	60.0	2	2	[(5220, 2), (5557, 2)]
7803	2	2	8	60.0	2	0	[]
7819	1	1	2	60.0	2	0	[]
7822	9	6	16	80.0	2	0	[]
7826	2	1	8	60.0	2	0	[]
7835	1	1	8	60.0	2	0	[]
7842	3	2	8	60.0	2	0	[]
7843	1	1	8	60.0	2	0	[]
7848	1	1	8	60.0	2	0	[]
7864	8	1	8	60.0	2	0	[]
7867	2	1	7	60.0	2	0	[]
7868	3	1	8	60.0	2	0	[]
7890	3	2	8	60.0	2	0	[]
7898	1	1	8	60.0	2	0	[]
7901	1	1	6	60.0	2	0	[]
7920	2	1	8	60.0	2	0	[]
7922	2	1	2	60.0	2	0	[]
7924	4	1	6	60.0	2	0	[]
7932	10	1	8	60.0	2	14	[(602, 0), (2874, 0), (1144, 0), (2217, 0), (2313, 0), (5609, 0), (1343, 0), (3894, 0), (8700, 0), (4071, 0), (5220, 0), (5552, 0), (2773, 0), (1674, 0)]
7933	1	1	8	60.0	2	0	[]
7944	2	1	8	100.0	2	0	[]
7957	13	5	8	60.0	2	0	[]
7961	3	1	8	60.0	2	0	[]
7971	2	1	16	80.0	2	0	[]
7992	4	1	8	60.0	2	0	[]
8003	3	1	2	60.0	2	0	[]
8010	2	1	8	60.0	2	0	[]
8015	2	1	8	60.0	2	0	[]
8023	3	2	8	60.0	2	0	[]
8054	1	1	8	60.0	2	0	[]
8108	1	1	8	60.0	2	0	[]
8118	2	1	8	60.0	2	0	[]
8123	2	1	8	60.0	2	0	[]
8126	26	2	8	60.0	2	0	[]
8128	4	3	8	60.0	2	0	[]
8131	5	2	8	60.0	2	1	[(3682, 0)]
8138	100	6	8	60.0	2	3	[(8716, 0), (8223, 1), (3048, 0)]
8170	4	1	8	60.0	2	0	[]
8174	1	4	8	60.0	2	0	[]
8183	1	1	8	60.0	2	0	[]
8192	1	3	3	60.0	2	0	[]
8205	2	1	8	60.0	2	0	[]
8215	6	2	8	60.0	2	0	[]
8223	130	24	32	80.0	0	0	[]
8230	1	1	8	60.0	2	0	[]
8233	1	1	8	60.0	2	0	[]
8242	8	5	8	60.0	2	0	[]
8245	2	1	8	60.0	2	0	[]
8248	3	1	8	60.0	2	1	[(4996, 2)]
8249	1	1	36	60.0	2	0	[]
8262	2	1	8	60.0	2	0	[]
8273	11	1	2	60.0	2	0	[]
8289	1	4	8	60.0	2	0	[]
8298	1	2	8	60.0	2	0	[]
8307	1	1	16	60.0	2	0	[]
8313	10	1	8	60.0	2	1	[(8131, 0)]
8319	2	1	8	60.0	2	1	[(2125, 2)]
8320	1	3	8	60.0	2	0	[]
8341	3	1	8	60.0	2	0	[]
8344	2	1	8	60.0	2	0	[]
8346	2	2	8	60.0	2	0	[]
8363	7	1	8	60.0	2	0	[]
8364	1	4	8	60.0	2	0	[]
8366	4	1	16	60.0	2	0	[]
8383	2	1	8	60.0	2	0	[]
8387	1	1	1	60.0	2	0	[]
8394	2	1	5	60.0	2	0	[]
8396	3	1	8	60.0	2	0	[]
8408	4	1	8	60.0	2	0	[]
8414	5	3	8	60.0	2	0	[]
8416	2	48	43	300.0	2	0	[]
8417	14	1	8	60.0	2	0	[]
8434	14	5	8	60.0	2	0	[]
8447	1	1	8	60.0	2	0	[]
8465	10	3	8	60.0	2	0	[]
8469	2	1	2	60.0	2	0	[]
8487	2	1	8	60.0	2	0	[]
8490	2	1	2	60.0	2	0	[]
8495	1	1	8	60.0	2	0	[]
8497	1	1	8	60.0	2	0	[]
8507	4	5	8	60.0	2	0	[]
8514	2	1	7	60.0	2	0	[]
8525	1	4	8	60.0	2	0	[]
8529	31	4	8	60.0	2	1	[(2134, 0)]
8536	8	6	8	60.0	2	0	[]
8541	3	2	8	60.0	2	0	[]
8555	3	6	8	60.0	2	0	[]
8560	1	1	8	40.0	2	0	[]
8572	1	1	8	60.0	2	0	[]
8579	3	1	8	60.0	2	0	[]
8599	1	1	8	60.0	2	0	[]
8603	1	1	8	60.0	2	0	[]
8612	2	1	8	60.0	2	0	[]
8650	1	1	1	60.0	2	0	[]
8674	1	2	16	40.0	2	0	[]
8676	2	1	8	60.0	2	0	[]
8692	2	1	16	80.0	2	0	[]
8700	6	1	8	60.0	2	0	[]
8713	8	1	4	60.0	2	0	[]
8716	37	5	16	60.0	0	2	[(655, 0), (7217, 0)]
8720	2	1	8	60.0	2	0	[]
8722	51	6	16	60.0	0	4	[(8223, 0), (7394, 0), (8931, 0), (5022, 0)]
8723	14	1	6	100.0	2	0	[]
8730	4	1	3	60.0	2	0	[]
8737	2	1	8	60.0	2	0	[]
8749	4	1	8	60.0	2	0	[]
8766	6	6	8	60.0	2	0	[]
8794	1	4	8	60.0	2	0	[]
8802	2	4	8	60.0	2	0	[]
8809	2	1	8	60.0	2	0	[]
8811	2	1	8	60.0	2	0	[]
8816	59	4	8	60.0	2	3	[(4652, 2), (7271, 0), (4451, 1)]
8817	1	1	8	60.0	2	1	[(5022, 1)]
8819	8	5	8	60.0	2	0	[]
8831	1	1	8	60.0	2	0	[]
8848	14	3	16	80.0	2	1	[(5022, 1)]
8860	4	1	1	60.0	2	0	[]
8865	1	1	1	80.0	2	0	[]
8889	2	1	8	60.0	2	0	[]
8903	2	1	7	60.0	2	0	[]
8908	2	1	8	60.0	2	0	[]
8909	2	1	2	60.0	2	0	[]
8924	4	1	8	60.0	2	0	[]
8927	1	1	8	60.0	2	0	[]
8931	56	3	8	40.0	2	4	[(8722, 0), (5541, 0), (7394, 0), (8223, 1)]
8933	2	1	1	60.0	2	0	[]
8936	2	1	8	60.0	2	1	[(5557, 2)]
8938	2	1	2	60.0	2	0	[]
8949	2	4	8	60.0	2	0	[]
8956	2	1	8	60.0	2	0	[]
9011	9	3	8	60.0	2	0	[]
9020	2	1	8	60.0	2	0	[]
9031	1	3	32	60.0	2	5	[(3368, 1), (5080, 1), (2739, 1), (7045, 2), (7217, 2)]
9038	2	1	5	60.0	2	0	[]
9077	33	4	8	60.0	2	2	[(2767, 2), (8223, 1)]
9093	9	1	32	100.0	2	0	[]
9102	1	1	8	60.0	2	0	[]
9113	3	1	8	60.0	2	0	[]
9122	45	3	16	60.0	0	0	[]
9126	1	4	8	60.0	2	0	[]
9131	1	1	3	60.0	2	0	[]
9133	8	1	1	60.0	2	0	[]
9138	72	6	8	60.0	2	0	[]
9141	2	1	8	60.0	2	0	[]
9144	1	1	1	60.0	2	0	[]
9153	2	1	8	60.0	2	0	[]
9169	1	1	8	60.0	2	0	[]
9172	1	1	8	60.0	2	0	[]
9203	2	1	8	60.0	2	0	[]
9207	31	4	16	60.0	2	0	[]
9213	2	1	8	60.0	2	0	[]
9230	2	1	1	60.0	2	0	[]
9231	3	1	8	60.0	2	0	[]
9243	6	1	8	60.0	2	0	[]
9244	3	1	8	60.0	2	0	[]
9252	5	6	8	60.0	2	1	[(8273, 0)]
9258	2	1	8	60.0	2	0	[]
9261	1	1	8	60.0	2	0	[]
9266	2	1	8	60.0	2	0	[]
9278	2	4	8	60.0	2	0	[]
9293	1	1	3	60.0	2	0	[]
9303	14	3	8	200.0	2	0	[]
9311	2	1	2	60.0	2	0	[]
9326	1	4	8	80.0	2	0	[]
