app_id	nb_instances	core	memory	disk	intra_value	inter_degree	inter_aff
11	1	1	6	60.0	2	0	[]
22	78	10	16	60.0	2	3	[(9084, 0), (615, 0), (6408, 0)]
45	1	1	8	60.0	2	0	[]
49	4	1	8	60.0	2	0	[]
56	5	1	8	60.0	2	0	[]
61	2	1	2	60.0	2	0	[]
68	1	1	7	60.0	2	0	[]
74	2	1	9	600.0	2	0	[]
85	3	6	8	60.0	2	0	[]
91	2	4	8	60.0	2	0	[]
92	105	6	8	60.0	2	1	[(5449, 0)]
111	2	1	8	60.0	2	0	[]
117	1	4	4	60.0	2	0	[]
118	3	1	8	60.0	2	2	[(3349, 2), (6155, 2)]
122	36	2	8	40.0	2	0	[]
124	1	1	8	60.0	2	0	[]
127	21	2	8	60.0	2	0	[]
138	1	1	8	60.0	2	0	[]
151	2	1	8	60.0	2	0	[]
159	3	2	8	60.0	2	0	[]
174	2	2	8	60.0	2	0	[]
181	1	1	1	60.0	2	0	[]
184	1	4	8	60.0	2	0	[]
190	4	3	8	60.0	2	0	[]
192	3	1	2	60.0	2	0	[]
211	3	1	8	60.0	2	0	[]
212	1	1	8	60.0	2	0	[]
216	3	1	8	60.0	2	0	[]
217	3	1	8	60.0	2	0	[]
235	4	12	8	60.0	2	0	[]
236	10	3	8	60.0	2	0	[]
240	1	4	8	60.0	2	0	[]
259	3	1	8	60.0	2	0	[]
286	18	2	16	60.0	2	1	[(6538, 1)]
291	1	1	8	60.0	2	0	[]
306	4	1	8	60.0	2	0	[]
307	11	1	8	60.0	2	1	[(6911, 0)]
318	6	1	8	60.0	2	0	[]
319	1	1	8	60.0	2	0	[]
322	2	1	8	60.0	2	0	[]
324	1	1	8	60.0	2	0	[]
344	17	2	8	60.0	2	0	[]
358	12	6	8	60.0	2	0	[]
432	2	1	8	60.0	2	0	[]
438	2	1	8	60.0	2	0	[]
444	3	1	8	60.0	2	0	[]
480	3	3	8	60.0	2	0	[]
488	1	16	60	60.0	0	0	[]
498	2	1	8	60.0	2	0	[]
500	3	2	16	200.0	2	0	[]
511	2	1	8	60.0	2	0	[]
515	5	1	8	60.0	2	0	[]
516	17	2	8	60.0	2	0	[]
539	2	1	8	60.0	2	0	[]
551	16	3	8	100.0	2	0	[]
559	1	1	8	60.0	2	0	[]
572	18	2	8	100.0	2	0	[]
576	2	1	2	60.0	2	0	[]
583	2	4	16	80.0	2	0	[]
588	2	5	2	60.0	2	0	[]
610	2	1	8	60.0	2	0	[]
615	14	2	8	60.0	2	0	[]
632	5	1	8	60.0	2	0	[]
639	2	1	8	60.0	2	0	[]
653	2	1	8	60.0	2	0	[]
662	2	1	8	60.0	2	0	[]
681	3	1	8	60.0	2	0	[]
688	36	6	8	100.0	2	2	[(6406, 0), (1153, 0)]
700	2	1	2	60.0	2	0	[]
710	3	1	8	60.0	2	0	[]
736	37	4	8	60.0	2	0	[]
739	2	2	16	80.0	2	0	[]
740	3	1	2	60.0	2	0	[]
763	3	1	8	60.0	2	0	[]
768	6	2	8	60.0	2	0	[]
781	2	3	8	60.0	2	0	[]
786	2	1	8	60.0	2	0	[]
797	3	1	8	60.0	2	0	[]
810	9	2	8	40.0	2	0	[]
814	2	4	8	60.0	2	0	[]
821	2	1	3	60.0	2	0	[]
836	3	3	8	60.0	2	0	[]
841	1	1	2	60.0	2	0	[]
850	3	1	8	60.0	2	0	[]
856	1	1	7	60.0	2	0	[]
860	2	1	8	60.0	2	0	[]
873	3	2	8	60.0	2	0	[]
874	1	1	8	60.0	2	0	[]
877	5	1	8	60.0	2	0	[]
892	1	1	8	60.0	2	0	[]
893	1	1	8	60.0	2	0	[]
906	2	1	8	60.0	2	0	[]
912	1	1	2	60.0	2	0	[]
921	6	2	8	60.0	2	0	[]
939	1	2	8	40.0	1	0	[]
941	4	5	16	180.0	2	0	[]
957	1	1	1	60.0	2	0	[]
966	2	2	16	80.0	2	0	[]
985	2	1	4	60.0	2	0	[]
1001	3	1	8	60.0	2	0	[]
1003	1	1	8	60.0	2	0	[]
1013	7	1	8	60.0	2	0	[]
1016	6	2	8	60.0	2	0	[]
1018	2	1	1	60.0	2	0	[]
1021	3	1	8	60.0	2	1	[(6911, 0)]
1035	1	1	7	60.0	2	0	[]
1057	4	1	8	60.0	2	0	[]
1079	1	1	1	60.0	2	0	[]
1081	1	1	1	60.0	2	0	[]
1102	2	1	8	60.0	2	0	[]
1116	2	4	8	80.0	2	0	[]
1132	1	4	8	60.0	2	0	[]
1138	27	2	8	60.0	2	0	[]
1148	5	2	8	60.0	2	0	[]
1153	135	6	8	60.0	2	3	[(8862, 1), (3277, 1), (5840, 1)]
1154	12	2	16	60.0	2	1	[(810, 0)]
1155	9	3	8	60.0	2	0	[]
1161	2	6	8	60.0	2	0	[]
1169	4	2	8	60.0	2	0	[]
1176	4	1	2	60.0	2	0	[]
1181	1	1	8	60.0	2	0	[]
1182	5	2	8	60.0	2	0	[]
1194	3	1	8	60.0	2	0	[]
1197	6	2	8	60.0	2	0	[]
1208	2	1	8	60.0	2	1	[(3806, 2)]
1218	2	1	8	60.0	2	0	[]
1228	2	1	8	60.0	2	0	[]
1231	1	1	8	60.0	2	0	[]
1239	2	1	8	60.0	2	0	[]
1247	4	1	8	60.0	2	0	[]
1248	63	12	8	100.0	2	0	[]
1250	1	1	8	60.0	2	0	[]
1255	2	1	8	60.0	2	1	[(6152, 0)]
1260	2	1	15	200.0	2	0	[]
1262	7	1	8	60.0	2	1	[(1449, 0)]
1273	2	1	7	60.0	2	0	[]
1278	6	1	8	60.0	2	0	[]
1282	1	1	1	60.0	2	0	[]
1284	2	1	8	60.0	2	0	[]
1305	5	1	8	60.0	2	0	[]
1306	1	4	8	60.0	2	0	[]
1312	6	2	8	60.0	2	1	[(6346, 1)]
1316	1	5	8	60.0	2	0	[]
1321	3	1	8	60.0	2	0	[]
1346	3	1	8	60.0	2	0	[]
1349	8	1	16	60.0	2	0	[]
1351	1	2	2	60.0	2	0	[]
1354	2	1	8	60.0	2	5	[(3711, 0), (1506, 0), (7262, 0), (7893, 0), (6020, 0)]
1385	2	3	8	60.0	2	0	[]
1388	8	2	8	60.0	2	0	[]
1392	3	1	16	80.0	2	0	[]
1404	1	1	26	300.0	2	0	[]
1412	6	5	8	60.0	2	0	[]
1414	13	3	8	60.0	2	1	[(3987, 1)]
1415	2	1	8	60.0	2	0	[]
1420	2	1	32	100.0	2	0	[]
1443	103	6	8	60.0	0	2	[(4517, 0), (8758, 2)]
1449	10	1	8	60.0	2	0	[]
1462	1	1	8	60.0	2	0	[]
1476	2	1	8	60.0	2	0	[]
1485	8	3	8	60.0	2	0	[]
1492	1	4	8	60.0	2	0	[]
1506	4	2	8	60.0	2	5	[(3711, 0), (7262, 0), (1354, 0), (7893, 0), (6020, 0)]
1508	3	1	8	60.0	2	0	[]
1521	1	1	8	167.0	2	0	[]
1525	6	4	8	60.0	2	0	[]
1553	1	1	1	60.0	2	0	[]
1555	2	1	8	60.0	2	0	[]
1557	3	2	8	60.0	2	0	[]
1574	2	1	7	60.0	2	0	[]
1581	1	1	1	60.0	2	0	[]
1585	1	4	8	60.0	2	0	[]
1621	2	1	8	60.0	2	0	[]
1625	2	1	8	60.0	2	0	[]
1651	2	1	8	60.0	2	0	[]
1665	2	1	8	500.0	2	0	[]
1667	1	1	8	60.0	2	0	[]
1673	8	4	8	60.0	2	0	[]
1683	71	5	8	40.0	2	2	[(3904, 2), (6408, 0)]
1686	2	4	8	60.0	2	0	[]
1687	2	1	8	60.0	2	0	[]
1692	1	1	8	60.0	2	0	[]
1702	1	1	8	60.0	2	0	[]
1705	49	2	8	60.0	2	4	[(5536, 2), (8733, 0), (22, 2), (6408, 0)]
1719	1	1	8	60.0	2	0	[]
1725	3	1	8	60.0	2	0	[]
1735	4	2	8	60.0	2	0	[]
1744	15	3	8	60.0	2	0	[]
1757	6	2	16	80.0	2	0	[]
1765	1	1	8	60.0	2	0	[]
1773	11	5	2	60.0	2	0	[]
1775	2	1	8	60.0	2	0	[]
1779	3	6	16	60.0	2	0	[]
1780	2	1	8	60.0	2	0	[]
1792	1	4	8	60.0	2	0	[]
1804	10	2	8	60.0	2	0	[]
1805	7	2	8	60.0	2	0	[]
1809	1	1	8	60.0	2	0	[]
1810	6	1	7	60.0	2	0	[]
1815	2	1	8	60.0	2	0	[]
1823	1	1	2	60.0	2	0	[]
1842	2	1	1	60.0	2	0	[]
1852	2	1	2	60.0	2	0	[]
1876	2	1	8	80.0	2	0	[]
1889	12	1	8	60.0	2	0	[]
1891	2	1	8	60.0	2	2	[(8966, 4), (6490, 4)]
1893	3	1	8	60.0	2	0	[]
1908	2	1	8	60.0	2	0	[]
1933	1	4	16	60.0	2	0	[]
1958	2	1	8	60.0	2	0	[]
1960	2	1	8	60.0	2	0	[]
1962	10	1	8	60.0	2	0	[]
1967	2	4	16	80.0	2	0	[]
1968	2	1	8	60.0	2	0	[]
1985	1	2	8	60.0	2	0	[]
1989	1	4	8	60.0	2	0	[]
1991	2	1	3	60.0	2	0	[]
1994	2	2	8	60.0	2	0	[]
2007	6	2	8	60.0	2	0	[]
2017	2	1	8	60.0	2	0	[]
2026	2	1	8	60.0	2	0	[]
2037	5	4	8	60.0	2	0	[]
2045	2	1	8	60.0	2	0	[]
2052	1	1	2	60.0	2	0	[]
2063	2	1	8	60.0	2	0	[]
2073	2	3	16	60.0	2	0	[]
2076	3	1	8	60.0	2	0	[]
2077	4	1	8	60.0	2	0	[]
2112	11	2	8	60.0	2	0	[]
2115	1	1	8	60.0	2	0	[]
2119	1	1	2	80.0	2	0	[]
2121	1	1	2	60.0	2	0	[]
2130	3	1	8	60.0	2	0	[]
2144	1	1	8	60.0	2	0	[]
2147	6	1	8	250.0	2	0	[]
2151	1	1	8	60.0	2	0	[]
2173	24	2	8	60.0	2	1	[(8683, 2)]
2198	1	1	2	60.0	2	0	[]
2243	2	1	8	60.0	2	0	[]
2251	5	2	8	60.0	2	0	[]
2256	3	1	8	60.0	2	0	[]
2266	2	1	8	60.0	2	0	[]
2297	2	4	8	60.0	2	0	[]
2300	6	2	8	60.0	2	0	[]
2309	6	1	8	40.0	2	0	[]
2320	1	4	8	60.0	2	0	[]
2328	1	2	24	200.0	0	0	[]
2329	2	1	8	60.0	2	0	[]
2344	2	1	8	60.0	2	0	[]
2351	2	4	8	60.0	2	0	[]
2356	6	2	8	60.0	2	0	[]
2360	2	4	8	60.0	2	0	[]
2361	1	1	1	60.0	2	0	[]
2362	1	1	2	60.0	2	0	[]
2363	2	1	8	60.0	2	0	[]
2368	1	4	16	80.0	2	0	[]
2385	1	1	8	60.0	2	0	[]
2388	1	4	8	60.0	2	0	[]
2397	1	1	1	60.0	2	0	[]
2401	1	4	8	60.0	2	0	[]
2404	1	2	8	60.0	2	0	[]
2410	1	4	8	60.0	2	0	[]
2424	2	1	8	60.0	2	0	[]
2430	3	4	8	60.0	2	0	[]
2437	4	4	8	60.0	2	0	[]
2454	5	4	8	100.0	2	0	[]
2455	5	6	8	60.0	2	0	[]
2470	6	4	8	60.0	2	0	[]
2472	6	1	8	60.0	2	0	[]
2474	6	12	16	100.0	2	0	[]
2490	12	2	8	60.0	2	0	[]
2496	10	4	8	100.0	2	6	[(9325, 0), (4980, 0), (1016, 1), (2742, 1), (941, 1), (2454, 1)]
2502	9	6	8	60.0	2	0	[]
2504	9	1	2	60.0	2	0	[]
2511	7	1	8	60.0	2	0	[]
2512	7	1	8	60.0	2	0	[]
2525	2	1	8	60.0	2	0	[]
2564	2	2	2	60.0	2	0	[]
2601	2	1	8	60.0	2	0	[]
2606	2	2	2	60.0	2	0	[]
2619	1	1	2	60.0	2	0	[]
2624	1	1	2	60.0	2	0	[]
2631	1	1	8	60.0	2	0	[]
2632	2	1	7	60.0	2	0	[]
2650	3	2	8	60.0	2	0	[]
2652	1	1	8	60.0	2	0	[]
2653	2	1	8	60.0	2	0	[]
2670	2	1	2	60.0	2	0	[]
2699	1	2	8	80.0	2	0	[]
2720	1	1	8	60.0	2	0	[]
2737	2	2	32	80.0	2	0	[]
2742	15	4	8	40.0	2	1	[(4231, 0)]
2745	46	12	16	80.0	2	3	[(8695, 0), (6911, 0), (688, 0)]
2757	7	2	8	60.0	2	0	[]
2762	1	1	8	60.0	2	0	[]
2774	2	1	3	60.0	2	0	[]
2776	1	1	8	60.0	2	0	[]
2793	1	1	8	40.0	2	0	[]
2796	1	1	8	60.0	2	0	[]
2803	1	4	8	60.0	2	0	[]
2807	2	1	1	60.0	2	0	[]
2845	4	1	8	60.0	2	0	[]
2848	1	1	8	60.0	2	0	[]
2859	2	2	16	60.0	2	0	[]
2873	2	1	8	60.0	2	0	[]
2887	18	3	16	200.0	2	0	[]
2899	5	30	28	300.0	2	0	[]
2909	2	1	8	60.0	2	0	[]
2918	7	1	8	60.0	2	0	[]
2934	1	1	8	60.0	2	0	[]
2941	1	1	8	60.0	2	0	[]
2942	13	2	8	60.0	2	0	[]
2950	1	1	3	60.0	2	0	[]
2952	5	1	8	60.0	2	0	[]
2957	70	6	8	60.0	0	0	[]
2970	14	6	16	100.0	0	21	[(6905, 0), (6622, 0), (9269, 0), (6095, 0), (3089, 0), (7792, 0), (122, 0), (286, 0), (768, 0), (3788, 0), (6408, 0), (9077, 0), (22, 0), (6201, 0), (6400, 0), (3349, 0), (688, 0), (2957, 0), (4423, 0), (8324, 0), (1443, 0)]
2981	2	1	8	60.0	2	0	[]
2985	1	2	8	40.0	1	0	[]
2988	1	1	8	60.0	2	0	[]
2990	1	1	8	60.0	2	0	[]
3024	1	1	4	60.0	2	0	[]
3025	1	1	8	60.0	2	0	[]
3029	2	1	8	60.0	2	0	[]
3031	2	1	8	40.0	2	0	[]
3038	1	1	8	100.0	2	0	[]
3039	1	11	16	60.0	2	6	[(3367, 2), (7217, 2), (4520, 2), (8834, 2), (6034, 2), (5905, 2)]
3040	1	4	8	60.0	2	0	[]
3046	1	4	8	60.0	2	0	[]
3070	19	5	2	100.0	0	0	[]
3078	4	1	8	60.0	2	0	[]
3089	2	2	16	80.0	2	1	[(3321, 0)]
3095	15	3	8	60.0	2	0	[]
3120	1	1	8	60.0	2	0	[]
3128	2	1	8	60.0	2	0	[]
3137	1	2	7	60.0	2	0	[]
3148	2	1	8	60.0	2	0	[]
3155	2	1	8	60.0	2	0	[]
3156	2	1	8	60.0	2	0	[]
3162	17	1	2	60.0	2	0	[]
3163	2	1	8	60.0	2	0	[]
3172	6	1	16	80.0	2	0	[]
3177	2	1	8	80.0	2	0	[]
3194	2	1	8	60.0	2	0	[]
3225	2	1	8	60.0	2	0	[]
3226	2	1	8	60.0	2	0	[]
3233	3	1	8	60.0	2	0	[]
3239	4	1	8	60.0	2	0	[]
3242	2	2	8	60.0	2	0	[]
3243	2	1	8	60.0	2	0	[]
3265	2	2	8	60.0	2	0	[]
3277	2	1	8	60.0	2	0	[]
3282	1	1	1	60.0	2	0	[]
3300	1	4	8	60.0	2	0	[]
3303	35	5	8	60.0	2	0	[]
3318	2	3	8	60.0	2	0	[]
3321	150	12	16	60.0	2	10	[(3367, 2), (7217, 2), (3987, 0), (4520, 2), (3089, 0), (122, 0), (8834, 2), (6034, 2), (5905, 2), (1683, 0)]
3349	116	12	16	60.0	0	3	[(1705, 0), (6153, 0), (5905, 0)]
3365	1	1	1	60.0	2	0	[]
3367	2	1	32	60.0	2	7	[(7217, 2), (4520, 2), (8834, 2), (6034, 2), (3321, 1), (5905, 2), (3039, 1)]
3383	4	4	6	60.0	2	0	[]
3390	2	2	8	60.0	2	0	[]
3397	22	12	16	100.0	2	0	[]
3421	1	2	8	60.0	2	0	[]
3428	5	1	8	60.0	2	0	[]
3432	1	1	8	60.0	2	0	[]
3443	2	1	8	60.0	2	0	[]
3448	2	1	8	40.0	2	0	[]
3459	5	1	8	60.0	2	0	[]
3479	49	6	8	60.0	2	0	[]
3482	9	5	16	60.0	0	0	[]
3483	2	1	8	60.0	2	0	[]
3489	2	1	8	60.0	2	0	[]
3494	132	7	16	150.0	2	0	[]
3497	1	1	8	60.0	2	0	[]
3507	2	4	8	60.0	2	0	[]
3510	2	1	8	60.0	2	0	[]
3511	8	6	8	40.0	2	0	[]
3519	1	3	8	60.0	2	0	[]
3522	1	1	1	60.0	2	0	[]
3529	1	1	8	60.0	2	0	[]
3532	1	1	1	60.0	2	0	[]
3539	4	1	2	60.0	2	0	[]
3542	46	3	8	60.0	2	0	[]
3556	4	1	8	60.0	2	0	[]
3560	4	1	8	60.0	2	0	[]
3562	3	1	2	60.0	2	0	[]
3570	12	5	8	60.0	2	1	[(3349, 0)]
3571	10	6	16	200.0	2	0	[]
3572	4	2	8	60.0	2	0	[]
3577	2	1	3	60.0	2	0	[]
3579	1	2	8	60.0	2	0	[]
3594	2	1	1	60.0	2	0	[]
3603	4	1	8	60.0	2	0	[]
3613	1	4	8	60.0	2	0	[]
3615	2	1	8	60.0	2	0	[]
3619	4	1	8	60.0	2	0	[]
3631	14	3	8	60.0	2	3	[(1278, 0), (5658, 0), (4927, 0)]
3642	1	1	8	60.0	2	0	[]
3663	2	1	8	60.0	2	0	[]
3669	2	3	8	60.0	2	0	[]
3677	1	5	8	60.0	2	2	[(8806, 0), (4161, 0)]
3681	1	1	8	60.0	2	0	[]
3711	2	3	3	60.0	2	0	[]
3716	7	2	16	80.0	2	0	[]
3725	1	1	8	80.0	2	0	[]
3737	2	1	8	60.0	2	0	[]
3775	1	8	16	80.0	2	0	[]
3779	3	2	8	60.0	2	0	[]
3780	14	1	8	60.0	2	1	[(7369, 0)]
3781	1	1	8	60.0	2	0	[]
3782	1	1	1	60.0	2	0	[]
3788	20	2	8	60.0	2	1	[(3321, 2)]
3798	1	1	8	60.0	2	0	[]
3806	27	6	8	60.0	2	1	[(3128, 2)]
3807	3	1	2	60.0	2	1	[(2957, 1)]
3809	5	1	8	60.0	2	0	[]
3832	1	1	8	60.0	2	0	[]
3868	2	1	8	60.0	2	0	[]
3893	3	1	5	60.0	2	0	[]
3904	3	1	8	60.0	2	1	[(7636, 0)]
3905	21	1	8	60.0	2	0	[]
3910	1	2	16	60.0	2	0	[]
3920	4	1	8	60.0	2	0	[]
3931	2	1	8	60.0	2	0	[]
3932	1	1	1	40.0	2	0	[]
3961	1	4	8	60.0	2	0	[]
3987	26	2	8	40.0	0	2	[(122, 0), (3482, 2)]
3991	2	1	3	60.0	2	0	[]
3998	2	6	8	60.0	2	0	[]
4000	2	1	2	60.0	2	0	[]
4016	2	1	8	60.0	2	0	[]
4019	1	1	3	60.0	2	0	[]
4023	9	1	2	60.0	2	0	[]
4029	8	2	8	60.0	2	0	[]
4044	1	5	16	60.0	2	0	[]
4057	2	4	8	60.0	2	0	[]
4069	1	2	8	60.0	2	0	[]
4081	1	1	8	60.0	2	0	[]
4084	6	2	8	60.0	2	0	[]
4104	4	1	8	60.0	2	0	[]
4111	2	4	8	60.0	2	0	[]
4145	1	1	1	60.0	2	0	[]
4155	5	1	8	60.0	2	0	[]
4159	2	1	8	60.0	2	0	[]
4161	65	1	8	60.0	2	4	[(7686, 0), (7368, 0), (7217, 1), (5440, 0)]
4167	1	1	4	60.0	2	0	[]
4173	2	2	8	60.0	2	0	[]
4176	2	1	6	60.0	2	0	[]
4177	2	3	8	60.0	2	0	[]
4179	1	1	8	60.0	2	0	[]
4180	1	1	2	60.0	2	0	[]
4183	4	4	8	80.0	2	0	[]
4189	2	2	8	60.0	2	0	[]
4198	6	1	8	60.0	2	0	[]
4199	2	1	8	60.0	2	0	[]
4211	3	3	8	60.0	2	0	[]
4219	2	1	8	60.0	2	0	[]
4231	31	6	8	60.0	0	3	[(7039, 0), (4517, 0), (2742, 0)]
4234	13	6	8	60.0	2	0	[]
4248	2	1	2	60.0	2	0	[]
4249	4	1	8	60.0	2	0	[]
4287	5	22	32	80.0	2	0	[]
4292	3	1	8	60.0	2	0	[]
4297	5	1	8	60.0	2	0	[]
4301	8	4	16	80.0	2	0	[]
4314	1	1	2	60.0	2	0	[]
4315	1	1	48	300.0	2	0	[]
4317	1	1	2	60.0	2	0	[]
4320	2	1	8	60.0	2	0	[]
4328	1	4	8	60.0	2	0	[]
4329	1	1	8	60.0	2	0	[]
4334	1	4	8	60.0	2	0	[]
4339	2	1	8	60.0	2	0	[]
4348	2	1	8	60.0	2	0	[]
4379	32	2	8	60.0	2	0	[]
4415	2	1	8	60.0	2	0	[]
4423	36	3	16	60.0	2	0	[]
4436	2	2	8	60.0	2	0	[]
4441	5	1	8	60.0	2	0	[]
4457	3	1	8	60.0	2	0	[]
4459	12	6	8	60.0	2	0	[]
4483	2	1	8	60.0	2	0	[]
4488	2	1	2	60.0	2	0	[]
4499	37	1	8	60.0	2	0	[]
4501	2	1	8	60.0	2	0	[]
4503	6	1	8	60.0	2	0	[]
4517	54	6	8	40.0	2	4	[(1388, 1), (3459, 2), (6408, 0), (9146, 2)]
4519	1	1	4	60.0	2	0	[]
4520	1	1	16	60.0	2	3	[(3367, 2), (8834, 2), (5905, 2)]
4525	2	1	3	60.0	2	0	[]
4545	1	1	8	60.0	2	0	[]
4546	2	4	8	60.0	2	0	[]
4557	2	1	8	60.0	2	0	[]
4586	1	1	7	60.0	2	0	[]
4602	1	1	8	60.0	2	0	[]
4605	2	1	8	60.0	2	0	[]
4612	1	1	8	60.0	2	0	[]
4619	10	1	8	60.0	2	0	[]
4627	4	1	7	60.0	2	0	[]
4636	2	1	8	60.0	2	0	[]
4638	2	1	8	60.0	2	0	[]
4673	1	4	8	60.0	2	0	[]
4690	3	1	8	60.0	2	0	[]
4691	1	12	16	100.0	2	0	[]
4697	2	2	8	60.0	2	0	[]
4700	1	1	8	60.0	2	0	[]
4708	33	2	8	100.0	2	3	[(2887, 0), (5905, 0), (8819, 2)]
4712	2	1	3	60.0	2	0	[]
4721	3	1	8	60.0	2	0	[]
4734	6	3	8	40.0	2	0	[]
4735	2	1	8	60.0	2	0	[]
4736	2	1	8	60.0	2	0	[]
4755	1	1	3	60.0	2	0	[]
4757	1	2	3	60.0	2	0	[]
4791	3	1	8	60.0	2	0	[]
4844	2	1	8	60.0	2	0	[]
4848	1	4	8	60.0	2	0	[]
4857	2	2	8	60.0	2	0	[]
4869	9	3	8	80.0	2	0	[]
4871	1	1	8	60.0	2	0	[]
4873	8	1	2	60.0	2	0	[]
4882	20	6	8	60.0	2	1	[(4179, 1)]
4888	1	4	8	60.0	2	0	[]
4890	2	1	8	60.0	2	0	[]
4897	2	1	2	60.0	2	0	[]
4899	1	4	8	60.0	2	0	[]
4924	1	1	8	60.0	2	0	[]
4927	2	4	8	60.0	2	0	[]
4933	7	2	8	60.0	2	0	[]
4949	2	1	8	60.0	2	0	[]
4980	17	2	8	60.0	2	0	[]
4991	1	4	8	60.0	2	0	[]
5001	5	1	8	80.0	2	0	[]
5004	30	3	8	60.0	2	4	[(7217, 0), (6911, 0), (3987, 0), (6020, 0)]
5007	6	1	8	60.0	2	0	[]
5008	2	1	8	60.0	2	0	[]
5014	2	1	8	60.0	2	0	[]
5016	8	2	8	60.0	2	0	[]
5017	4	4	8	60.0	2	0	[]
5027	2	1	3	60.0	2	0	[]
5031	2	1	8	60.0	2	0	[]
5035	2	5	8	60.0	2	0	[]
5050	1	1	1	60.0	2	0	[]
5069	2	1	8	60.0	2	0	[]
5079	2	4	8	60.0	2	0	[]
5085	3	2	8	60.0	2	0	[]
5091	2	1	2	60.0	2	0	[]
5092	2	1	8	60.0	2	0	[]
5094	1	1	8	60.0	2	0	[]
5114	2	1	8	60.0	2	0	[]
5115	1	1	8	60.0	2	0	[]
5121	1	1	2	60.0	2	0	[]
5128	1	1	7	60.0	2	0	[]
5158	1	1	8	60.0	2	0	[]
5160	2	1	8	60.0	2	0	[]
5163	1	1	8	60.0	2	0	[]
5168	4	1	8	167.0	2	0	[]
5178	1	1	8	60.0	2	0	[]
5182	1	4	8	60.0	2	0	[]
5196	1	1	8	60.0	2	0	[]
5213	4	1	8	100.0	2	0	[]
5275	16	6	8	60.0	2	0	[]
5323	2	1	8	60.0	2	0	[]
5324	1	4	8	60.0	2	0	[]
5349	3	1	8	60.0	2	0	[]
5350	2	1	8	60.0	2	0	[]
5354	1	1	8	60.0	2	0	[]
5369	2	2	8	200.0	2	0	[]
5381	2	1	8	60.0	2	0	[]
5402	1	1	8	60.0	2	0	[]
5404	2	4	8	60.0	2	0	[]
5406	13	4	8	80.0	2	0	[]
5414	1	1	8	60.0	2	0	[]
5433	1	1	8	60.0	2	0	[]
5440	2	1	2	60.0	2	0	[]
5449	35	6	8	60.0	2	0	[]
5452	5	1	8	60.0	2	0	[]
5460	1	1	1	60.0	2	0	[]
5464	2	3	8	60.0	2	0	[]
5468	6	6	2	60.0	2	0	[]
5473	2	1	8	60.0	2	0	[]
5495	1	1	3	60.0	2	0	[]
5500	3	1	8	60.0	2	0	[]
5512	5	1	8	60.0	2	0	[]
5513	2	1	8	60.0	2	0	[]
5516	3	1	8	60.0	2	0	[]
5533	2	1	2	60.0	2	0	[]
5536	6	1	16	60.0	2	0	[]
5545	2	1	8	60.0	2	0	[]
5557	2	2	8	60.0	2	2	[(5163, 2), (8936, 2)]
5570	9	1	2	100.0	2	0	[]
5589	4	1	16	100.0	2	0	[]
5600	5	2	8	60.0	2	0	[]
5610	2	2	8	60.0	2	0	[]
5612	1	1	5	60.0	2	0	[]
5622	2	4	4	60.0	2	0	[]
5625	1	4	8	60.0	2	0	[]
5628	5	10	8	100.0	2	0	[]
5632	3	2	8	60.0	2	0	[]
5634	8	2	8	60.0	2	1	[(3510, 0)]
5638	2	1	2	60.0	2	0	[]
5647	2	1	8	60.0	2	0	[]
5652	2	1	8	60.0	2	0	[]
5658	2	1	8	60.0	2	0	[]
5664	1	4	8	60.0	2	0	[]
5703	1	1	2	60.0	2	0	[]
5712	2	1	8	60.0	2	0	[]
5713	1	4	16	80.0	2	0	[]
5721	2	1	6	60.0	2	0	[]
5723	5	1	75	600.0	2	0	[]
5734	6	1	8	60.0	2	0	[]
5745	3	1	2	60.0	2	0	[]
5757	1	2	2	60.0	2	0	[]
5758	1	4	8	60.0	2	0	[]
5770	1	1	3	60.0	2	0	[]
5779	3	1	8	60.0	2	1	[(3349, 2)]
5787	1	1	8	60.0	2	0	[]
5791	2	1	8	60.0	2	0	[]
5792	5	1	8	60.0	2	0	[]
5813	2	1	1	60.0	2	0	[]
5820	154	6	8	60.0	2	0	[]
5828	2	1	8	167.0	2	0	[]
5840	3	1	8	60.0	2	0	[]
5846	2	1	8	60.0	2	0	[]
5848	2	1	6	60.0	2	0	[]
5850	1	1	1	60.0	2	0	[]
5857	2	1	6	60.0	2	0	[]
5859	5	34	2	600.0	2	0	[]
5871	15	6	8	60.0	2	0	[]
5896	2	1	2	60.0	2	0	[]
5900	26	3	10	40.0	2	0	[]
5905	149	12	32	100.0	2	11	[(2887, 0), (6622, 0), (4520, 2), (6034, 2), (3321, 1), (1154, 0), (3367, 2), (122, 0), (8626, 0), (3039, 1), (7217, 2)]
5906	2	1	8	60.0	2	0	[]
5913	2	1	8	60.0	2	0	[]
5936	1	1	3	60.0	2	0	[]
5940	3	1	8	60.0	2	0	[]
5942	9	6	8	60.0	2	5	[(8485, 0), (5350, 0), (2745, 0), (7636, 0), (7217, 0)]
5946	2	2	8	60.0	2	0	[]
5965	2	3	8	60.0	2	0	[]
5966	2	1	8	60.0	2	0	[]
5975	1	4	8	60.0	2	0	[]
5977	1	1	8	60.0	2	0	[]
5978	13	2	8	60.0	2	0	[]
5979	1	1	8	60.0	2	0	[]
5988	2	1	6	60.0	2	0	[]
5996	4	1	8	60.0	2	0	[]
6015	12	4	8	60.0	2	0	[]
6020	31	2	16	60.0	2	9	[(3711, 0), (1506, 0), (7262, 0), (5757, 1), (1354, 0), (7050, 1), (7251, 1), (7893, 0), (4873, 1)]
6034	1	2	16	60.0	2	3	[(3367, 2), (8834, 2), (5905, 2)]
6039	2	1	8	60.0	2	0	[]
6042	2	2	8	60.0	2	0	[]
6046	2	1	8	60.0	2	0	[]
6072	4	1	8	60.0	2	0	[]
6092	1	1	8	60.0	2	0	[]
6095	17	3	16	200.0	2	0	[]
6117	72	6	16	80.0	2	0	[]
6123	138	6	8	60.0	2	7	[(3095, 2), (1153, 0), (5942, 2), (3089, 2), (8758, 1), (5589, 2), (5905, 0)]
6138	1	1	8	60.0	2	0	[]
6144	1	1	1	60.0	2	0	[]
6152	7	1	8	60.0	2	0	[]
6153	33	3	8	60.0	2	0	[]
6155	6	2	8	60.0	2	0	[]
6163	5	2	8	60.0	2	0	[]
6179	4	1	8	60.0	2	0	[]
6180	7	3	8	60.0	2	0	[]
6189	2	1	8	60.0	2	0	[]
6201	6	1	8	60.0	2	0	[]
6203	1	3	8	60.0	2	0	[]
6218	4	1	16	200.0	2	0	[]
6234	12	1	8	60.0	2	0	[]
6264	2	1	8	60.0	2	0	[]
6270	3	6	8	60.0	2	2	[(7639, 2), (5905, 1)]
6278	3	1	8	60.0	2	0	[]
6312	5	1	8	60.0	2	0	[]
6315	1	4	8	60.0	2	0	[]
6323	2	1	3	60.0	2	0	[]
6335	6	1	8	60.0	2	0	[]
6346	1	2	8	60.0	2	0	[]
6356	1	1	8	60.0	2	0	[]
6365	7	1	8	60.0	2	0	[]
6371	1	1	8	60.0	2	0	[]
6398	6	4	8	60.0	2	0	[]
6400	4	1	8	60.0	2	0	[]
6406	17	1	8	80.0	2	10	[(2887, 0), (6622, 0), (9269, 0), (2742, 0), (5085, 0), (5905, 0), (22, 0), (7639, 0), (688, 0), (8115, 0)]
6408	10	2	16	60.0	2	0	[]
6415	3	1	8	60.0	2	0	[]
6428	2	1	8	60.0	2	0	[]
6432	4	1	8	60.0	2	0	[]
6437	1	1	8	60.0	2	0	[]
6448	2	1	8	60.0	2	0	[]
6478	7	2	8	60.0	2	0	[]
6490	3	1	8	60.0	3	1	[(1891, 3)]
6508	2	2	8	60.0	2	2	[(6874, 0), (216, 0)]
6509	1	3	2	60.0	2	1	[(3428, 1)]
6521	3	1	8	60.0	2	0	[]
6527	1	2	8	60.0	2	0	[]
6529	1	1	8	60.0	2	0	[]
6538	2	1	8	60.0	2	0	[]
6559	2	5	8	60.0	2	0	[]
6561	5	6	8	60.0	2	0	[]
6568	31	5	8	60.0	0	1	[(6911, 1)]
6572	1	1	8	60.0	2	0	[]
6575	1	2	8	40.0	2	0	[]
6590	7	8	16	80.0	2	0	[]
6596	2	2	8	60.0	2	0	[]
6607	1	1	8	60.0	2	0	[]
6613	2	1	8	60.0	2	0	[]
6622	13	3	8	60.0	2	0	[]
6633	2	1	8	60.0	2	0	[]
6642	1	1	8	60.0	2	0	[]
6664	3	2	8	60.0	2	0	[]
6672	1	1	8	60.0	2	0	[]
6676	1	1	16	150.0	2	0	[]
6701	1	1	2	60.0	2	0	[]
6704	2	1	8	60.0	2	0	[]
6731	2	4	8	60.0	2	0	[]
6738	1	1	8	40.0	2	0	[]
6739	4	3	8	60.0	2	0	[]
6747	1	1	8	40.0	2	0	[]
6757	3	1	8	60.0	2	0	[]
6766	2	1	8	60.0	2	0	[]
6768	4	1	8	60.0	2	0	[]
6776	2	1	2	60.0	2	0	[]
6779	2	1	8	60.0	2	0	[]
6781	1	4	8	60.0	2	0	[]
6794	5	2	8	60.0	2	0	[]
6809	1	4	8	60.0	2	0	[]
6816	2	1	8	60.0	2	0	[]
6819	2	1	2	60.0	2	0	[]
6820	6	2	32	80.0	2	0	[]
6822	2	1	8	60.0	2	0	[]
6852	2	1	8	60.0	2	0	[]
6862	1	1	2	60.0	2	0	[]
6864	1	1	8	60.0	2	0	[]
6870	5	1	8	60.0	2	0	[]
6874	5	1	8	60.0	2	0	[]
6879	1	1	8	60.0	2	0	[]
6905	2	2	16	60.0	2	0	[]
6911	275	6	8	60.0	2	3	[(7792, 0), (1021, 0), (7599, 0)]
6941	4	2	8	60.0	2	0	[]
6954	2	1	8	60.0	2	0	[]
6955	1	1	1	60.0	2	0	[]
6958	6	1	8	60.0	2	0	[]
6961	2	6	8	60.0	2	0	[]
6965	12	1	16	80.0	2	0	[]
6984	18	1	8	60.0	2	1	[(6911, 2)]
6987	2	12	32	200.0	2	0	[]
6995	1	1	4	60.0	2	0	[]
6996	2	4	8	60.0	2	0	[]
7004	2	2	8	60.0	2	0	[]
7021	2	1	1	60.0	2	0	[]
7039	16	1	8	60.0	2	0	[]
7043	2	1	8	60.0	2	0	[]
7050	2	1	8	60.0	2	0	[]
7052	8	4	8	60.0	2	2	[(4897, 2), (3226, 0)]
7065	9	5	8	60.0	2	0	[]
7069	1	1	2	60.0	2	0	[]
7083	1	1	8	60.0	2	0	[]
7110	1	1	8	60.0	2	0	[]
7134	2	2	8	60.0	2	0	[]
7156	3	1	1	60.0	2	0	[]
7160	1	1	2	100.0	2	0	[]
7167	1	1	8	60.0	2	0	[]
7171	2	1	8	60.0	2	0	[]
7176	6	1	2	60.0	2	0	[]
7178	15	1	2	60.0	2	0	[]
7179	2	1	8	60.0	2	0	[]
7193	1	4	8	300.0	2	0	[]
7217	85	12	16	60.0	2	5	[(3367, 2), (8535, 0), (122, 0), (8834, 2), (5905, 2)]
7235	1	4	8	60.0	2	0	[]
7239	2	1	8	60.0	2	0	[]
7242	2	1	8	60.0	2	0	[]
7243	2	2	8	60.0	2	0	[]
7244	1	1	1	60.0	2	0	[]
7251	2	1	8	60.0	2	0	[]
7256	11	4	8	60.0	2	0	[]
7262	2	1	8	60.0	2	0	[]
7295	2	1	8	60.0	2	0	[]
7315	6	2	8	60.0	2	0	[]
7328	1	1	8	60.0	2	0	[]
7354	4	1	8	60.0	2	0	[]
7355	14	6	8	60.0	2	0	[]
7357	2	1	8	60.0	2	0	[]
7362	2	2	8	60.0	2	0	[]
7368	5	2	8	60.0	2	1	[(7686, 0)]
7369	54	6	8	60.0	2	2	[(3321, 2), (2504, 2)]
7372	4	1	9	80.0	2	0	[]
7376	4	1	8	60.0	2	0	[]
7416	3	1	8	60.0	2	0	[]
7425	3	1	8	60.0	2	0	[]
7444	3	3	8	60.0	2	0	[]
7446	5	3	8	60.0	2	8	[(1278, 1), (1449, 0), (7683, 0), (8819, 0), (4231, 0), (2601, 0), (8529, 0), (8634, 0)]
7478	2	1	8	60.0	2	0	[]
7480	5	4	8	60.0	2	0	[]
7506	7	1	8	60.0	2	0	[]
7509	8	1	8	60.0	2	0	[]
7518	26	3	8	60.0	2	0	[]
7521	5	1	8	60.0	2	0	[]
7524	10	3	8	60.0	2	0	[]
7531	7	7	16	80.0	2	0	[]
7536	1	1	8	60.0	2	0	[]
7544	1	1	1	60.0	2	0	[]
7547	1	1	8	60.0	2	0	[]
7548	2	1	8	60.0	2	0	[]
7550	1	1	8	60.0	2	0	[]
7551	5	2	8	100.0	2	0	[]
7554	4	1	8	60.0	2	0	[]
7584	2	2	8	60.0	2	0	[]
7590	2	3	8	60.0	2	0	[]
7596	5	4	16	150.0	2	0	[]
7599	52	5	16	100.0	2	1	[(3479, 0)]
7606	2	1	16	40.0	2	1	[(6408, 0)]
7634	2	3	5	60.0	2	0	[]
7635	2	2	8	60.0	2	0	[]
7636	2	1	8	60.0	2	0	[]
7639	22	2	8	40.0	0	2	[(3321, 2), (5905, 2)]
7675	1	4	8	60.0	2	0	[]
7683	16	12	16	100.0	2	0	[]
7686	2	1	8	60.0	2	1	[(7368, 0)]
7689	3	1	8	60.0	2	0	[]
7697	3	2	8	60.0	2	0	[]
7703	1	1	8	40.0	0	0	[]
7722	1	1	16	100.0	2	0	[]
7728	1	1	8	60.0	2	0	[]
7730	2	1	8	60.0	2	0	[]
7732	6	2	8	60.0	2	0	[]
7735	8	2	8	60.0	2	0	[]
7754	22	1	8	60.0	2	0	[]
7774	2	1	8	60.0	2	0	[]
7779	1	4	8	60.0	2	0	[]
7780	2	5	8	60.0	2	0	[]
7792	14	2	8	60.0	2	0	[]
7796	10	2	8	60.0	2	1	[(7368, 1)]
7816	1	2	8	60.0	2	0	[]
7819	1	1	2	60.0	2	0	[]
7829	2	1	8	60.0	2	0	[]
7832	3	2	8	60.0	2	0	[]
7839	2	4	8	60.0	2	0	[]
7840	2	1	8	60.0	2	0	[]
7845	6	1	8	60.0	2	0	[]
7850	2	1	2	60.0	2	0	[]
7866	3	1	8	60.0	2	0	[]
7878	1	2	8	60.0	2	0	[]
7888	1	1	8	60.0	2	0	[]
7890	3	2	8	60.0	2	0	[]
7893	1	2	8	60.0	2	5	[(3711, 0), (1506, 0), (7262, 0), (1354, 0), (6020, 0)]
7897	1	1	1	80.0	2	0	[]
7903	1	1	4	60.0	2	0	[]
7906	1	1	8	60.0	2	0	[]
7917	2	1	8	60.0	2	0	[]
7929	1	1	8	60.0	2	0	[]
7936	2	1	8	60.0	2	1	[(3904, 2)]
7938	3	4	8	167.0	2	0	[]
7940	4	1	8	60.0	2	0	[]
7944	2	1	8	100.0	2	0	[]
7958	2	1	8	60.0	2	0	[]
7960	15	1	8	60.0	2	1	[(6911, 0)]
7982	2	1	8	60.0	2	0	[]
7994	1	1	8	60.0	2	0	[]
8020	1	3	8	60.0	2	0	[]
8033	4	2	8	60.0	2	0	[]
8048	2	1	8	60.0	2	0	[]
8067	1	1	8	60.0	2	0	[]
8076	4	2	16	100.0	2	0	[]
8079	1	2	8	60.0	2	0	[]
8085	6	1	8	60.0	2	0	[]
8089	2	1	2	60.0	2	0	[]
8109	3	1	8	60.0	2	0	[]
8115	16	2	8	40.0	2	0	[]
8126	26	2	8	60.0	2	0	[]
8154	1	1	8	60.0	2	0	[]
8182	2	1	1	60.0	2	0	[]
8185	3	1	8	60.0	2	0	[]
8189	1	1	8	60.0	2	0	[]
8196	2	1	8	60.0	2	0	[]
8202	1	2	8	60.0	2	0	[]
8212	1	6	8	60.0	2	0	[]
8214	1	4	8	60.0	2	0	[]
8228	4	1	8	60.0	2	0	[]
8237	4	2	8	60.0	2	0	[]
8244	1	8	8	60.0	2	0	[]
8256	1	1	7	60.0	2	0	[]
8293	25	1	16	60.0	2	0	[]
8297	5	1	8	60.0	2	0	[]
8324	44	8	16	100.0	2	1	[(1705, 0)]
8332	2	1	3	60.0	2	0	[]
8334	1	4	8	60.0	2	0	[]
8349	7	2	8	60.0	2	0	[]
8364	1	4	8	60.0	2	0	[]
8370	5	1	8	60.0	2	0	[]
8377	2	1	8	60.0	2	0	[]
8406	2	1	8	60.0	2	0	[]
8427	2	1	6	60.0	2	0	[]
8437	1	1	8	60.0	2	0	[]
8439	33	36	48	300.0	2	0	[]
8450	1	1	2	60.0	2	0	[]
8455	2	1	8	60.0	2	0	[]
8461	1	8	16	100.0	2	0	[]
8463	4	1	8	60.0	2	0	[]
8466	2	2	8	60.0	2	0	[]
8474	1	4	8	60.0	2	0	[]
8485	4	1	8	40.0	2	0	[]
8494	3	1	8	60.0	2	0	[]
8501	1	1	8	60.0	2	0	[]
8520	6	2	8	60.0	2	0	[]
8522	4	2	8	60.0	2	0	[]
8529	31	4	8	60.0	2	0	[]
8535	1	1	16	60.0	1	5	[(3367, 1), (8834, 1), (3321, 1), (5905, 1), (3039, 1)]
8570	1	4	8	60.0	2	0	[]
8572	1	1	8	60.0	2	0	[]
8581	1	1	8	60.0	2	0	[]
8597	1	1	8	60.0	2	0	[]
8617	2	4	8	60.0	2	0	[]
8621	1	1	8	60.0	2	1	[(8370, 0)]
8626	28	3	16	100.0	2	1	[(5905, 0)]
8634	26	2	8	60.0	2	0	[]
8639	2	1	8	60.0	2	0	[]
8640	1	1	8	60.0	2	0	[]
8644	2	4	8	60.0	2	0	[]
8683	8	3	8	60.0	2	0	[]
8695	11	1	8	100.0	2	0	[]
8706	1	4	8	60.0	2	0	[]
8715	1	1	8	60.0	2	0	[]
8726	4	1	8	200.0	2	0	[]
8732	3	1	8	60.0	2	0	[]
8733	2	1	8	60.0	2	0	[]
8743	1	4	8	60.0	2	0	[]
8745	2	1	8	60.0	2	0	[]
8746	2	1	1	60.0	2	0	[]
8748	2	1	8	60.0	2	0	[]
8751	1	1	8	60.0	2	0	[]
8756	1	1	8	40.0	2	0	[]
8758	2	1	2	40.0	2	0	[]
8759	2	1	8	60.0	2	1	[(2512, 0)]
8761	3	4	8	60.0	2	0	[]
8780	2	1	2	60.0	2	0	[]
8798	3	2	8	60.0	2	0	[]
8806	2	1	8	60.0	2	0	[]
8807	1	4	16	80.0	2	0	[]
8819	8	5	8	60.0	2	0	[]
8821	5	1	8	60.0	2	0	[]
8833	1	1	8	60.0	2	0	[]
8834	8	3	32	100.0	2	7	[(3367, 2), (7217, 2), (4520, 2), (8115, 0), (6034, 2), (3321, 1), (3039, 1)]
8852	24	6	8	60.0	2	0	[]
8859	5	1	8	60.0	2	0	[]
8862	2	1	8	1024.0	2	0	[]
8866	20	3	8	80.0	2	0	[]
8872	6	1	8	60.0	2	0	[]
8878	2	3	8	60.0	2	0	[]
8889	2	1	8	60.0	2	0	[]
8892	1	1	8	60.0	2	0	[]
8901	3	1	1	60.0	2	0	[]
8907	4	2	8	60.0	2	0	[]
8914	2	1	8	60.0	2	0	[]
8919	1	1	1	60.0	2	0	[]
8921	1	1	8	60.0	2	0	[]
8922	6	2	8	60.0	2	0	[]
8927	1	1	8	60.0	2	0	[]
8934	2	1	8	60.0	2	0	[]
8935	16	2	8	60.0	2	5	[(7052, 0), (5942, 0), (1525, 0), (2504, 0), (8324, 0)]
8936	2	1	8	60.0	2	2	[(5557, 2), (5163, 1)]
8965	2	1	8	60.0	2	0	[]
8966	2	1	8	60.0	3	1	[(1891, 3)]
8990	3	1	2	60.0	2	0	[]
8995	17	2	8	60.0	2	0	[]
9007	1	1	8	60.0	2	0	[]
9015	2	1	11	200.0	2	0	[]
9016	4	1	8	60.0	2	0	[]
9019	1	1	8	60.0	2	0	[]
9023	2	1	8	60.0	2	0	[]
9032	4	2	8	60.0	2	0	[]
9054	2	1	8	60.0	2	0	[]
9057	3	2	8	60.0	2	0	[]
9063	1	1	2	60.0	2	0	[]
9077	33	4	8	60.0	2	0	[]
9080	2	1	2	60.0	2	0	[]
9083	1	6	8	60.0	2	0	[]
9084	30	6	16	60.0	2	0	[]
9098	2	1	8	60.0	2	0	[]
9121	2	1	2	60.0	2	0	[]
9123	4	1	8	60.0	2	0	[]
9133	8	1	1	60.0	2	0	[]
9140	4	1	8	60.0	2	0	[]
9146	2	3	16	60.0	0	0	[]
9149	5	2	8	60.0	2	0	[]
9168	13	6	8	60.0	2	0	[]
9184	1	1	4	60.0	2	0	[]
9185	2	4	8	60.0	2	0	[]
9203	2	1	8	60.0	2	0	[]
9213	2	1	8	60.0	2	0	[]
9223	2	1	8	60.0	2	0	[]
9241	1	1	7	60.0	2	0	[]
9245	1	1	8	60.0	2	0	[]
9252	5	6	8	60.0	2	0	[]
9269	210	4	16	60.0	0	4	[(7639, 0), (7217, 0), (22, 0), (8834, 0)]
9285	5	1	8	60.0	2	0	[]
9309	1	4	8	60.0	2	0	[]
9316	2	1	2	60.0	2	0	[]
9320	3	1	8	60.0	2	0	[]
9325	2	1	8	60.0	2	0	[]
