app_id	nb_instances	core	memory	disk	intra_value	inter_degree	inter_aff
3	4	1	8	60.0	2	0	[]
5	18	2	8	60.0	2	1	[(8873, 2)]
7	1	1	8	60.0	2	0	[]
14	3	1	8	60.0	2	0	[]
17	2	1	8	60.0	2	0	[]
19	5	1	5	60.0	2	0	[]
48	17	3	8	60.0	2	0	[]
56	5	1	8	60.0	2	0	[]
58	1	1	8	60.0	2	0	[]
62	2	1	8	60.0	2	0	[]
63	4	1	8	60.0	2	0	[]
66	3	4	8	60.0	2	0	[]
82	2	1	2	60.0	2	0	[]
90	2	2	8	60.0	2	0	[]
106	1	10	8	60.0	2	0	[]
121	5	1	8	60.0	2	0	[]
136	1	1	8	60.0	2	0	[]
162	1	1	7	60.0	2	0	[]
164	3	1	8	60.0	2	0	[]
183	9	3	8	80.0	2	0	[]
186	2	1	8	60.0	2	0	[]
189	1	1	8	60.0	2	0	[]
196	2	1	2	60.0	2	0	[]
203	1	1	8	60.0	2	0	[]
205	1	1	8	60.0	2	0	[]
214	1	1	8	60.0	2	0	[]
226	10	4	8	60.0	2	8	[(2089, 0), (4048, 0), (6564, 0), (8931, 0), (7338, 0), (7498, 0), (6381, 0), (9086, 0)]
239	1	1	8	60.0	2	0	[]
240	1	4	8	60.0	2	0	[]
242	3	1	5	60.0	2	0	[]
249	1	1	8	60.0	2	0	[]
255	38	5	16	60.0	1	9	[(4608, 1), (9031, 1), (1606, 1), (6381, 2), (4014, 1), (6564, 1), (704, 1), (3270, 1), (4048, 1)]
268	3	4	8	60.0	2	0	[]
271	3	2	8	60.0	2	1	[(798, 0)]
279	7	1	7	60.0	2	0	[]
302	8	12	16	100.0	2	0	[]
303	5	1	8	60.0	2	0	[]
306	4	1	8	60.0	2	1	[(798, 0)]
311	3	1	8	60.0	2	0	[]
339	2	4	8	60.0	2	0	[]
343	2	6	8	60.0	2	0	[]
347	2	1	8	60.0	2	0	[]
348	2	1	8	60.0	2	0	[]
352	1	1	1	60.0	2	0	[]
368	10	2	8	60.0	2	0	[]
371	5	1	8	60.0	2	0	[]
380	2	1	8	60.0	2	0	[]
381	1	1	8	60.0	2	0	[]
396	4	1	8	60.0	2	0	[]
397	5	1	8	60.0	2	0	[]
408	1	4	8	80.0	2	0	[]
430	10	2	8	60.0	2	0	[]
433	1	1	8	60.0	2	0	[]
434	1	2	16	60.0	1	0	[]
440	4	2	8	60.0	2	0	[]
478	2	1	8	60.0	2	0	[]
484	5	1	8	60.0	2	0	[]
492	2	1	8	60.0	2	0	[]
494	2	1	2	60.0	2	1	[(798, 0)]
499	2	1	8	60.0	2	0	[]
511	2	1	8	60.0	2	0	[]
525	1	3	8	60.0	2	0	[]
531	2	1	8	60.0	2	0	[]
533	15	1	8	60.0	2	0	[]
536	51	2	8	167.0	2	20	[(1447, 0), (4274, 0), (6325, 0), (9100, 0), (8684, 0), (8931, 0), (9049, 0), (772, 0), (1067, 0), (5313, 0), (5778, 0), (7738, 0), (1746, 0), (3349, 0), (1059, 0), (2089, 0), (4864, 0), (3802, 0), (5470, 0), (1464, 0)]
537	2	4	8	60.0	2	0	[]
554	2	1	2	60.0	2	0	[]
574	2	1	8	60.0	2	0	[]
584	2	1	8	60.0	2	0	[]
588	2	5	2	60.0	2	0	[]
593	1	1	8	60.0	2	0	[]
601	4	1	8	60.0	2	0	[]
609	1	1	8	60.0	2	0	[]
613	13	6	8	60.0	2	1	[(614, 2)]
614	53	3	8	60.0	2	3	[(2701, 0), (2872, 0), (6414, 0)]
622	1	1	8	60.0	2	0	[]
630	2	1	3	60.0	2	0	[]
665	1	4	8	60.0	2	0	[]
673	1	1	8	60.0	2	0	[]
702	58	3	8	40.0	2	4	[(8370, 0), (704, 2), (48, 2), (798, 0)]
704	61	5	32	60.0	2	5	[(2964, 2), (6381, 2), (971, 2), (4014, 2), (4048, 2)]
707	7	1	8	60.0	2	0	[]
712	1	1	1	60.0	2	0	[]
717	1	2	8	60.0	2	0	[]
732	7	1	2	60.0	2	0	[]
735	1	1	8	60.0	2	0	[]
745	2	1	8	80.0	2	0	[]
748	2	1	1	60.0	2	0	[]
750	2	1	8	60.0	2	0	[]
758	2	1	8	60.0	2	0	[]
772	1	1	8	60.0	2	0	[]
775	2	1	8	60.0	2	0	[]
781	2	3	8	60.0	2	0	[]
798	226	6	8	60.0	0	66	[(873, 0), (306, 0), (9209, 0), (8986, 0), (3344, 0), (8261, 0), (2326, 0), (9268, 0), (7338, 0), (4162, 0), (9017, 0), (3137, 0), (3146, 0), (271, 0), (2089, 0), (8536, 0), (2892, 0), (6375, 0), (7071, 0), (6402, 0), (3066, 0), (1119, 0), (3349, 0), (2120, 0), (3563, 0), (8684, 0), (8735, 0), (8551, 0), (7826, 2), (6145, 0), (4762, 0), (2918, 0), (702, 0), (6568, 0), (1203, 0), (2031, 0), (7091, 0), (6264, 0), (5309, 0), (4543, 0), (5751, 0), (3603, 0), (9086, 0), (1884, 0), (6715, 0), (3722, 0), (5971, 0), (7467, 0), (7738, 0), (8582, 0), (3534, 0), (3228, 0), (2904, 0), (2192, 0), (6210, 0), (1639, 0), (857, 0), (2242, 0), (6872, 0), (494, 0), (8708, 0), (6117, 0), (7250, 0), (3682, 0), (7439, 0), (3183, 0)]
804	5	4	8	60.0	2	0	[]
808	6	4	8	60.0	2	0	[]
813	1	1	8	60.0	2	0	[]
821	2	1	3	60.0	2	0	[]
825	1	4	8	60.0	2	0	[]
832	6	1	8	60.0	2	1	[(7338, 0)]
833	3	1	8	60.0	2	0	[]
857	7	6	8	60.0	2	1	[(798, 0)]
858	2	1	8	60.0	2	0	[]
861	3	6	8	60.0	2	0	[]
862	2	1	8	60.0	2	0	[]
873	3	2	8	60.0	2	1	[(798, 0)]
908	1	1	8	60.0	2	0	[]
911	1	1	2	60.0	2	0	[]
914	2	1	2	60.0	2	0	[]
924	4	1	8	60.0	2	0	[]
935	2	1	1	60.0	2	0	[]
950	2	2	8	60.0	2	0	[]
966	2	2	16	80.0	2	0	[]
971	7	2	8	60.0	2	0	[]
997	2	2	8	60.0	2	0	[]
998	10	4	8	60.0	2	0	[]
1001	3	1	8	60.0	2	0	[]
1004	3	1	8	60.0	2	0	[]
1007	1	1	1	60.0	2	0	[]
1021	3	1	8	60.0	2	0	[]
1030	1	2	8	60.0	2	0	[]
1032	2	1	8	60.0	2	0	[]
1053	1	1	2	60.0	2	0	[]
1059	31	6	8	60.0	2	0	[]
1066	30	3	8	60.0	2	0	[]
1067	50	4	8	40.0	2	0	[]
1081	1	1	1	60.0	2	0	[]
1082	1	1	8	60.0	2	0	[]
1083	5	2	8	60.0	2	0	[]
1088	1	4	8	60.0	2	0	[]
1096	15	2	8	60.0	2	0	[]
1110	5	2	8	60.0	2	0	[]
1119	3	5	8	100.0	2	1	[(798, 0)]
1121	2	4	8	60.0	2	0	[]
1127	5	1	8	60.0	2	0	[]
1136	1	1	8	60.0	2	0	[]
1139	2	1	7	60.0	2	0	[]
1143	3	1	7	60.0	2	0	[]
1150	4	6	8	60.0	2	0	[]
1151	1	2	8	60.0	2	1	[(2206, 1)]
1173	53	3	8	60.0	2	1	[(6381, 2)]
1183	1	4	8	60.0	2	0	[]
1184	2	1	2	60.0	2	0	[]
1199	1	1	8	60.0	2	0	[]
1203	7	1	8	60.0	2	1	[(798, 0)]
1207	3	1	8	100.0	2	0	[]
1210	1	1	8	60.0	2	0	[]
1245	1	1	8	60.0	2	0	[]
1254	1	4	8	60.0	2	0	[]
1257	2	1	1	60.0	2	0	[]
1269	1	1	8	60.0	2	0	[]
1279	4	3	8	60.0	2	0	[]
1280	2	1	8	60.0	2	0	[]
1302	2	1	8	60.0	2	0	[]
1311	2	1	8	60.0	2	0	[]
1325	2	1	8	60.0	2	0	[]
1332	1	1	1	60.0	2	0	[]
1338	4	1	8	60.0	2	0	[]
1339	2	1	8	60.0	2	0	[]
1382	5	4	8	60.0	2	0	[]
1385	2	3	8	60.0	2	0	[]
1392	3	1	16	80.0	2	0	[]
1404	1	1	26	300.0	2	0	[]
1411	1	1	16	60.0	2	0	[]
1416	64	10	16	60.0	0	4	[(3355, 2), (4608, 2), (6564, 2), (8312, 2)]
1442	1	1	8	60.0	2	0	[]
1447	33	1	8	60.0	2	1	[(5618, 0)]
1464	8	1	8	40.0	2	0	[]
1497	10	2	8	60.0	2	0	[]
1500	2	1	8	60.0	2	0	[]
1506	4	2	8	60.0	2	3	[(6814, 0), (2644, 0), (5661, 0)]
1544	8	1	8	60.0	2	0	[]
1547	4	1	8	60.0	2	0	[]
1552	1	4	8	60.0	2	0	[]
1555	2	1	8	60.0	2	0	[]
1571	1	1	1	60.0	2	0	[]
1605	2	1	8	60.0	2	0	[]
1606	2	2	32	60.0	2	3	[(6381, 2), (4014, 2), (4048, 2)]
1619	1	2	6	60.0	2	0	[]
1633	1	1	8	60.0	2	0	[]
1639	100	2	8	60.0	2	15	[(707, 2), (6568, 2), (5353, 1), (6839, 1), (303, 1), (7055, 0), (3000, 1), (7508, 2), (9049, 0), (4170, 0), (4921, 1), (1338, 0), (7091, 0), (798, 0), (4244, 2)]
1654	7	16	32	200.0	2	0	[]
1655	1	4	8	60.0	2	0	[]
1660	1	4	8	60.0	2	0	[]
1674	2	1	8	60.0	2	0	[]
1682	2	1	1	60.0	2	0	[]
1695	2	6	8	60.0	2	0	[]
1701	1	1	8	60.0	2	0	[]
1707	2	1	8	60.0	2	0	[]
1714	1	1	7	60.0	2	0	[]
1726	3	1	8	60.0	2	0	[]
1729	7	1	8	60.0	2	0	[]
1734	5	5	8	60.0	2	0	[]
1746	13	2	8	60.0	2	0	[]
1749	3	1	2	60.0	2	0	[]
1771	2	3	8	60.0	2	0	[]
1780	2	1	8	60.0	2	0	[]
1782	14	2	16	60.0	2	0	[]
1783	2	1	8	60.0	2	0	[]
1837	6	1	3	60.0	2	0	[]
1838	2	1	8	60.0	2	0	[]
1847	1	8	8	60.0	2	0	[]
1855	47	3	16	80.0	2	0	[]
1868	3	1	8	60.0	2	0	[]
1872	4	2	8	60.0	2	0	[]
1884	212	10	16	100.0	2	1	[(798, 0)]
1899	6	2	8	60.0	2	0	[]
1906	3	1	8	80.0	2	0	[]
1911	2	5	8	60.0	2	0	[]
1920	1	1	2	60.0	2	0	[]
1928	1	1	8	60.0	2	0	[]
1940	3	1	8	60.0	2	0	[]
1946	3	3	4	200.0	2	0	[]
1951	1	1	2	60.0	2	0	[]
1957	3	1	8	60.0	2	0	[]
1959	5	2	8	60.0	2	0	[]
1980	2	1	8	60.0	2	0	[]
1984	4	1	4	60.0	2	0	[]
1985	1	2	8	60.0	2	0	[]
1988	2	1	8	60.0	2	0	[]
1994	2	2	8	60.0	2	0	[]
2002	2	1	8	60.0	2	0	[]
2004	2	1	8	60.0	2	0	[]
2008	1	1	8	60.0	2	0	[]
2010	2	1	2	60.0	2	0	[]
2012	1	1	1	600.0	2	0	[]
2013	2	1	8	60.0	2	0	[]
2023	2	2	8	60.0	2	0	[]
2031	2	1	8	60.0	2	1	[(798, 0)]
2070	5	4	16	200.0	2	0	[]
2081	1	6	2	60.0	2	0	[]
2089	50	6	8	60.0	1	1	[(798, 0)]
2090	40	3	8	60.0	2	0	[]
2091	2	1	8	60.0	2	0	[]
2101	1	1	48	300.0	2	0	[]
2111	9	2	8	60.0	2	1	[(4170, 0)]
2120	16	1	8	60.0	2	1	[(798, 0)]
2121	1	1	2	60.0	2	0	[]
2133	3	1	8	60.0	2	0	[]
2163	2	1	8	60.0	2	0	[]
2192	3	1	16	60.0	2	1	[(798, 0)]
2199	5	2	8	60.0	2	0	[]
2206	6	3	8	60.0	2	0	[]
2207	3	1	7	60.0	2	0	[]
2210	1	1	8	60.0	2	0	[]
2214	2	1	8	60.0	2	0	[]
2215	3	1	8	60.0	2	0	[]
2226	2	1	8	60.0	2	0	[]
2236	2	4	8	60.0	2	0	[]
2240	2	1	8	60.0	2	0	[]
2241	3	1	8	60.0	2	0	[]
2242	4	12	8	60.0	2	1	[(798, 0)]
2262	1	1	5	60.0	2	0	[]
2281	2	1	8	60.0	2	0	[]
2301	2	1	8	60.0	2	0	[]
2304	1	1	2	60.0	2	0	[]
2320	1	4	8	60.0	2	0	[]
2326	1	1	2	60.0	2	1	[(798, 0)]
2327	1	1	2	60.0	2	0	[]
2341	4	1	8	60.0	2	0	[]
2346	1	1	8	60.0	2	0	[]
2353	64	6	8	40.0	2	0	[]
2355	1	1	8	60.0	2	0	[]
2359	1	1	8	60.0	2	0	[]
2370	1	4	8	60.0	2	0	[]
2377	1	4	8	60.0	2	0	[]
2403	1	4	8	60.0	2	0	[]
2414	2	1	8	60.0	2	0	[]
2436	4	4	8	60.0	2	1	[(775, 1)]
2440	4	1	8	60.0	2	0	[]
2454	5	4	8	100.0	2	0	[]
2455	5	6	8	60.0	2	0	[]
2494	10	1	8	60.0	2	0	[]
2519	3	4	8	60.0	2	0	[]
2523	2	2	8	60.0	2	0	[]
2525	2	1	8	60.0	2	0	[]
2547	2	4	8	60.0	2	0	[]
2560	2	1	8	60.0	2	0	[]
2572	2	1	8	60.0	2	0	[]
2592	3	1	8	60.0	2	0	[]
2601	2	1	8	60.0	2	0	[]
2604	1	1	8	60.0	2	0	[]
2607	4	2	8	60.0	2	0	[]
2608	2	4	8	100.0	2	0	[]
2615	1	1	2	60.0	2	0	[]
2622	5	1	8	60.0	2	0	[]
2623	2	1	2	60.0	2	0	[]
2637	1	1	1	60.0	2	0	[]
2638	1	1	8	60.0	2	0	[]
2642	1	1	8	60.0	2	0	[]
2644	3	2	8	60.0	2	3	[(6814, 0), (1506, 0), (5661, 0)]
2647	2	3	8	60.0	2	0	[]
2687	1	1	8	60.0	2	0	[]
2701	27	4	7	60.0	2	0	[]
2712	2	1	8	60.0	2	0	[]
2718	2	1	1	600.0	2	0	[]
2720	1	1	8	60.0	2	0	[]
2759	2	1	8	60.0	2	0	[]
2772	10	12	2	60.0	2	0	[]
2787	2	1	8	60.0	2	0	[]
2788	11	1	10	180.0	2	4	[(2798, 0), (121, 0), (8352, 0), (242, 0)]
2790	2	1	8	60.0	2	0	[]
2791	1	1	16	60.0	2	0	[]
2795	1	4	8	60.0	2	0	[]
2798	5	3	8	60.0	2	0	[]
2802	2	1	8	60.0	2	0	[]
2804	2	1	8	60.0	2	0	[]
2806	2	1	8	60.0	2	0	[]
2809	2	2	8	60.0	2	0	[]
2810	1	2	8	60.0	2	0	[]
2818	2	2	8	60.0	2	0	[]
2842	2	1	8	60.0	2	0	[]
2866	2	1	8	60.0	2	0	[]
2872	4	1	8	60.0	2	0	[]
2886	31	2	2	60.0	2	0	[]
2892	18	1	8	60.0	2	1	[(798, 0)]
2894	1	1	1	60.0	2	0	[]
2897	1	1	8	60.0	2	0	[]
2899	5	30	28	300.0	2	0	[]
2904	108	5	8	100.0	0	7	[(6644, 1), (7497, 1), (3043, 1), (303, 2), (798, 0), (5129, 1), (7487, 2)]
2908	1	1	8	60.0	2	0	[]
2914	3	4	8	60.0	2	0	[]
2918	7	1	8	60.0	2	1	[(798, 0)]
2931	1	3	8	60.0	0	0	[]
2944	2	2	8	60.0	0	0	[]
2950	1	1	3	60.0	2	0	[]
2964	99	4	8	60.0	2	5	[(7679, 2), (7624, 2), (704, 1), (4048, 2), (6381, 0)]
2965	2	4	8	60.0	2	0	[]
2969	3	1	8	60.0	2	0	[]
2982	2	2	8	60.0	2	0	[]
2986	2	4	8	60.0	2	0	[]
2993	1	2	8	60.0	2	0	[]
3000	4	2	8	60.0	2	0	[]
3003	2	1	8	60.0	2	0	[]
3025	1	1	8	60.0	2	0	[]
3043	1	2	8	60.0	2	0	[]
3051	1	1	8	60.0	2	0	[]
3066	13	2	8	100.0	2	1	[(798, 0)]
3072	1	1	8	60.0	2	0	[]
3076	5	1	2	60.0	2	1	[(1911, 2)]
3086	2	2	8	60.0	2	0	[]
3099	1	1	8	60.0	2	0	[]
3116	2	4	16	80.0	2	0	[]
3119	2	1	8	60.0	2	0	[]
3128	2	1	8	60.0	2	0	[]
3137	1	2	7	60.0	2	1	[(798, 0)]
3138	1	4	8	60.0	2	0	[]
3142	1	1	2	60.0	2	0	[]
3146	3	1	8	60.0	2	1	[(4147, 2)]
3158	28	1	8	60.0	2	0	[]
3162	17	1	2	60.0	2	0	[]
3163	2	1	8	60.0	2	0	[]
3170	3	1	8	60.0	2	0	[]
3172	6	1	16	80.0	2	0	[]
3175	1	2	16	60.0	2	0	[]
3180	3	1	8	60.0	2	0	[]
3183	200	12	16	100.0	2	3	[(5567, 0), (798, 0), (5278, 0)]
3186	3	1	8	60.0	2	0	[]
3187	5	1	8	60.0	2	0	[]
3191	12	1	6	60.0	2	0	[]
3192	3	1	14	80.0	2	0	[]
3228	37	4	8	60.0	2	15	[(4937, 0), (3740, 2), (7, 2), (614, 0), (303, 2), (6163, 0), (7146, 1), (3989, 1), (798, 0), (1442, 1), (4815, 0), (6867, 2), (9195, 1), (3588, 2), (8208, 2)]
3235	11	2	8	60.0	2	0	[]
3257	1	1	5	60.0	2	0	[]
3260	15	4	8	60.0	2	0	[]
3261	2	1	8	60.0	2	0	[]
3266	1	1	1	60.0	2	0	[]
3270	5	1	32	60.0	2	3	[(6381, 2), (4014, 2), (4048, 2)]
3282	1	1	1	60.0	2	0	[]
3302	4	6	8	60.0	2	0	[]
3304	2	1	8	60.0	2	0	[]
3316	2	1	8	60.0	2	0	[]
3319	3	1	8	60.0	2	0	[]
3331	1	5	16	60.0	2	0	[]
3337	8	3	2	60.0	2	0	[]
3344	35	4	8	60.0	2	3	[(4234, 0), (798, 0), (7917, 2)]
3348	1	1	8	60.0	2	0	[]
3349	116	12	16	60.0	0	7	[(9049, 0), (4608, 0), (2353, 0), (3995, 0), (8979, 0), (7738, 0), (798, 0)]
3355	75	12	16	60.0	1	1	[(8979, 0)]
3358	5	1	8	60.0	2	0	[]
3383	4	4	6	60.0	2	0	[]
3393	1	1	1	60.0	2	0	[]
3394	2	1	8	60.0	2	0	[]
3398	3	1	8	60.0	2	0	[]
3405	3	1	8	60.0	2	0	[]
3419	1	1	4	60.0	2	0	[]
3443	2	1	8	60.0	2	0	[]
3444	2	1	2	60.0	2	0	[]
3471	1	1	2	60.0	2	0	[]
3474	5	6	8	60.0	2	1	[(9176, 2)]
3483	2	1	8	60.0	2	0	[]
3508	1	4	16	40.0	2	0	[]
3521	2	12	16	200.0	2	0	[]
3530	3	1	8	60.0	2	0	[]
3534	34	2	8	60.0	2	1	[(798, 0)]
3535	1	4	8	60.0	2	0	[]
3554	4	1	8	60.0	2	0	[]
3563	2	1	8	60.0	2	1	[(798, 0)]
3567	1	4	8	80.0	2	0	[]
3568	2	4	8	60.0	2	0	[]
3573	2	1	8	60.0	2	0	[]
3574	32	9	16	60.0	0	0	[]
3577	2	1	3	60.0	2	0	[]
3588	9	1	16	80.0	2	2	[(3228, 2), (5682, 2)]
3603	4	1	8	60.0	2	1	[(798, 0)]
3604	19	5	8	60.0	2	0	[]
3625	1	1	1	60.0	2	0	[]
3635	4	1	4	60.0	2	0	[]
3645	5	1	8	60.0	2	0	[]
3649	4	4	8	60.0	2	0	[]
3662	1	4	8	60.0	2	0	[]
3670	2	2	8	60.0	2	0	[]
3676	2	1	7	60.0	2	2	[(7200, 1), (4318, 1)]
3682	28	3	8	60.0	2	2	[(9195, 1), (798, 0)]
3687	1	1	6	60.0	2	0	[]
3690	1	4	8	60.0	2	0	[]
3713	2	3	8	60.0	2	0	[]
3722	9	5	16	60.0	2	1	[(798, 0)]
3724	1	4	8	60.0	2	0	[]
3736	2	1	8	60.0	2	0	[]
3739	1	1	1	60.0	2	0	[]
3740	2	1	8	60.0	2	0	[]
3753	2	1	8	60.0	2	0	[]
3760	1	1	8	60.0	2	0	[]
3777	1	1	1	60.0	2	0	[]
3778	1	4	8	60.0	2	0	[]
3781	1	1	8	60.0	2	0	[]
3802	178	6	16	100.0	2	0	[]
3804	3	1	8	60.0	2	0	[]
3805	9	2	8	40.0	2	1	[(2353, 1)]
3811	1	1	2	60.0	2	0	[]
3816	5	2	8	60.0	2	0	[]
3817	2	1	8	60.0	2	0	[]
3829	3	1	8	60.0	2	0	[]
3836	6	2	8	60.0	2	0	[]
3850	2	1	8	60.0	2	0	[]
3875	10	2	8	60.0	2	0	[]
3877	1	1	2	60.0	2	0	[]
3888	4	1	16	100.0	2	0	[]
3893	3	1	5	60.0	2	0	[]
3895	6	4	8	60.0	2	0	[]
3906	27	2	8	60.0	2	0	[]
3915	2	4	8	60.0	2	0	[]
3924	1	1	2	60.0	2	0	[]
3947	2	1	1	60.0	2	0	[]
3958	2	1	1	60.0	2	0	[]
3962	1	1	1	60.0	2	0	[]
3985	3	1	8	60.0	2	0	[]
3989	1	1	8	60.0	2	0	[]
3991	2	1	3	60.0	2	0	[]
3995	14	1	8	100.0	2	0	[]
4001	4	2	8	60.0	2	0	[]
4010	1	1	8	60.0	2	0	[]
4014	1	2	32	100.0	2	6	[(4608, 2), (9031, 2), (1606, 2), (6381, 2), (704, 2), (3270, 2)]
4025	21	3	16	60.0	2	0	[]
4027	3	1	8	60.0	2	0	[]
4048	36	12	32	100.0	2	9	[(3270, 2), (4608, 2), (1771, 0), (255, 0), (6381, 2), (3574, 0), (1606, 2), (9031, 2), (704, 2)]
4051	1	1	8	40.0	2	0	[]
4056	1	4	8	60.0	2	0	[]
4064	1	2	2	60.0	2	0	[]
4074	1	1	8	60.0	2	0	[]
4081	1	1	8	60.0	2	0	[]
4091	16	2	8	60.0	2	0	[]
4099	1	1	1	60.0	2	0	[]
4103	1	1	8	60.0	2	0	[]
4108	6	2	8	60.0	2	0	[]
4110	1	1	8	60.0	2	0	[]
4111	2	4	8	60.0	2	0	[]
4120	2	1	8	60.0	2	0	[]
4124	1	1	8	60.0	2	0	[]
4147	10	6	8	60.0	2	0	[]
4149	1	8	16	100.0	1	0	[]
4162	4	1	8	60.0	2	1	[(798, 0)]
4170	43	2	8	60.0	2	0	[]
4180	1	1	2	60.0	2	0	[]
4192	2	1	8	60.0	2	0	[]
4213	2	1	8	60.0	2	0	[]
4214	2	1	2	60.0	2	0	[]
4232	1	1	3	60.0	2	0	[]
4233	1	1	2	60.0	2	0	[]
4234	13	6	8	60.0	2	0	[]
4236	2	1	4	60.0	2	0	[]
4244	2	1	8	60.0	2	0	[]
4251	1	1	8	60.0	2	0	[]
4258	6	2	8	60.0	2	0	[]
4261	4	2	8	60.0	2	0	[]
4263	3	3	8	60.0	2	0	[]
4274	2	1	8	60.0	2	0	[]
4282	7	5	32	200.0	2	0	[]
4288	2	4	8	60.0	2	0	[]
4298	2	1	8	60.0	2	0	[]
4318	2	1	4	60.0	2	2	[(3676, 2), (7200, 2)]
4331	2	1	2	60.0	2	0	[]
4348	2	1	8	60.0	2	0	[]
4350	3	1	8	60.0	2	0	[]
4352	2	2	8	60.0	2	0	[]
4354	2	2	4	60.0	2	0	[]
4356	1	1	8	60.0	2	0	[]
4387	2	1	8	60.0	2	0	[]
4388	2	2	8	100.0	2	0	[]
4404	1	4	8	60.0	2	0	[]
4410	2	1	8	60.0	2	0	[]
4411	2	1	8	60.0	2	0	[]
4437	1	1	1	80.0	2	0	[]
4440	5	6	8	60.0	2	0	[]
4474	10	2	16	40.0	0	1	[(8716, 0)]
4484	1	1	1	60.0	2	0	[]
4497	1	1	2	60.0	2	0	[]
4506	1	4	8	60.0	2	0	[]
4543	44	10	16	60.0	2	2	[(484, 1), (798, 0)]
4553	1	1	8	60.0	2	0	[]
4561	1	1	2	60.0	2	0	[]
4571	2	1	8	60.0	2	0	[]
4596	2	1	2	60.0	2	0	[]
4598	2	4	8	60.0	2	0	[]
4608	143	12	32	60.0	2	6	[(255, 0), (1416, 0), (6381, 0), (4014, 2), (4048, 2), (2353, 0)]
4610	2	1	8	60.0	2	0	[]
4625	1	1	8	60.0	2	0	[]
4635	13	1	8	60.0	2	0	[]
4636	2	1	8	60.0	2	0	[]
4641	1	1	2	60.0	2	0	[]
4649	19	1	10	60.0	2	0	[]
4671	12	2	8	60.0	2	0	[]
4672	1	3	8	60.0	2	0	[]
4683	2	1	8	60.0	2	0	[]
4696	2	1	2	60.0	2	0	[]
4700	1	1	8	60.0	2	0	[]
4724	1	4	8	60.0	2	0	[]
4728	5	1	8	60.0	2	1	[(6439, 0)]
4744	1	1	8	60.0	2	0	[]
4752	2	1	8	60.0	2	0	[]
4762	26	2	8	60.0	2	19	[(2886, 0), (4025, 0), (2810, 0), (4048, 0), (4608, 0), (3349, 0), (8711, 0), (8931, 0), (798, 0), (4864, 0), (8716, 0), (7498, 0), (6381, 0), (1067, 0), (5497, 0), (3574, 0), (3802, 0), (832, 0), (1021, 0)]
4763	3	1	8	60.0	2	0	[]
4785	2	2	8	60.0	2	0	[]
4793	2	2	8	60.0	2	0	[]
4794	1	1	2	60.0	2	0	[]
4800	3	4	8	60.0	2	0	[]
4811	2	1	8	60.0	2	0	[]
4815	44	1	8	60.0	2	1	[(7468, 2)]
4821	6	1	8	60.0	2	0	[]
4849	4	2	8	60.0	2	0	[]
4850	1	1	2	60.0	2	0	[]
4861	1	1	8	60.0	2	0	[]
4864	28	4	8	60.0	2	0	[]
4893	1	1	8	60.0	2	0	[]
4921	2	1	8	60.0	2	0	[]
4922	1	1	1	60.0	2	0	[]
4935	2	1	8	60.0	2	0	[]
4937	1	1	2	60.0	2	0	[]
4959	1	4	8	60.0	2	0	[]
4963	6	4	8	60.0	2	0	[]
4985	1	1	3	60.0	2	0	[]
4987	2	4	8	60.0	2	0	[]
4999	4	1	4	60.0	2	0	[]
5000	2	1	8	60.0	2	0	[]
5019	2	1	8	60.0	2	0	[]
5027	2	1	3	60.0	2	0	[]
5029	1	1	1	60.0	2	0	[]
5032	2	1	8	60.0	2	0	[]
5051	3	2	8	60.0	2	0	[]
5072	2	1	8	60.0	2	0	[]
5084	1	1	8	60.0	2	0	[]
5129	1	1	8	60.0	2	0	[]
5132	16	1	8	60.0	2	0	[]
5141	2	1	8	60.0	2	0	[]
5152	1	4	8	60.0	2	0	[]
5158	1	1	8	60.0	2	0	[]
5160	2	1	8	60.0	2	0	[]
5190	2	1	8	60.0	2	0	[]
5193	2	1	8	60.0	2	0	[]
5230	1	1	8	60.0	2	0	[]
5249	2	2	8	60.0	2	0	[]
5252	2	2	8	60.0	2	0	[]
5254	1	8	8	60.0	2	0	[]
5255	3	2	28	500.0	2	0	[]
5270	1	2	8	60.0	2	0	[]
5278	2	1	8	60.0	2	0	[]
5289	6	1	8	60.0	2	0	[]
5294	2	1	8	60.0	2	0	[]
5308	1	3	8	60.0	2	0	[]
5309	4	1	8	60.0	2	1	[(798, 0)]
5313	9	1	8	60.0	2	0	[]
5319	1	4	8	60.0	2	0	[]
5342	2	2	8	60.0	2	0	[]
5353	2	1	8	60.0	2	0	[]
5358	2	1	8	60.0	2	0	[]
5359	1	1	8	60.0	2	0	[]
5374	5	6	8	60.0	2	0	[]
5380	1	4	8	60.0	2	0	[]
5393	1	1	8	60.0	2	0	[]
5404	2	4	8	60.0	2	0	[]
5414	1	1	8	60.0	2	0	[]
5419	1	4	8	60.0	2	0	[]
5422	1	1	2	60.0	2	0	[]
5430	2	1	8	60.0	2	0	[]
5432	1	1	7	60.0	2	0	[]
5439	4	1	8	60.0	2	0	[]
5468	6	6	2	60.0	2	0	[]
5470	11	1	8	60.0	2	0	[]
5472	7	4	8	60.0	2	0	[]
5478	2	1	8	60.0	2	0	[]
5497	5	1	8	60.0	2	0	[]
5503	2	3	8	60.0	2	0	[]
5516	3	1	8	60.0	2	0	[]
5517	2	2	2	60.0	2	0	[]
5521	2	1	8	60.0	2	0	[]
5547	2	1	5	60.0	2	0	[]
5548	29	4	8	60.0	2	0	[]
5567	2	2	8	60.0	2	0	[]
5569	1	4	8	60.0	2	0	[]
5578	2	4	8	60.0	2	0	[]
5579	5	1	3	60.0	2	0	[]
5586	1	4	8	60.0	2	0	[]
5609	2	4	8	60.0	2	0	[]
5618	2	1	8	60.0	2	0	[]
5624	2	1	8	60.0	2	0	[]
5629	1	1	8	60.0	2	0	[]
5651	4	1	8	60.0	2	0	[]
5653	2	1	8	60.0	2	0	[]
5656	2	1	2	60.0	2	0	[]
5660	4	4	8	60.0	2	0	[]
5661	9	6	8	60.0	2	1	[(1059, 2)]
5664	1	4	8	60.0	2	0	[]
5667	2	1	8	60.0	2	0	[]
5672	2	1	2	60.0	2	0	[]
5682	2	1	8	60.0	2	0	[]
5683	2	1	8	60.0	2	0	[]
5686	3	6	8	60.0	2	0	[]
5713	1	4	16	80.0	2	0	[]
5728	1	4	8	60.0	2	0	[]
5751	5	1	8	60.0	2	1	[(798, 0)]
5763	2	1	2	60.0	2	0	[]
5764	14	3	8	60.0	2	0	[]
5766	5	1	8	60.0	2	0	[]
5773	2	1	8	60.0	2	0	[]
5775	1	1	3	60.0	2	0	[]
5778	2	2	8	60.0	2	0	[]
5785	2	1	16	80.0	2	0	[]
5791	2	1	8	60.0	2	0	[]
5796	1	1	8	60.0	2	0	[]
5799	1	8	16	150.0	2	0	[]
5804	1	1	4	60.0	2	0	[]
5806	1	1	2	60.0	2	0	[]
5813	2	1	1	60.0	2	0	[]
5816	1	1	8	60.0	2	0	[]
5817	2	1	8	60.0	2	0	[]
5827	1	1	2	60.0	2	0	[]
5858	2	2	8	60.0	2	0	[]
5859	5	34	2	600.0	2	0	[]
5863	1	1	2	60.0	2	0	[]
5880	2	1	8	60.0	2	0	[]
5894	2	1	8	60.0	2	0	[]
5910	4	3	8	60.0	2	0	[]
5924	2	1	7	60.0	2	0	[]
5933	3	1	8	60.0	2	0	[]
5953	3	2	8	60.0	2	0	[]
5970	3	1	8	60.0	2	0	[]
5971	34	6	8	60.0	2	2	[(833, 1), (798, 0)]
5973	1	1	3	60.0	2	0	[]
5974	2	1	8	60.0	2	0	[]
6012	2	4	8	60.0	2	0	[]
6016	2	1	8	60.0	2	0	[]
6017	2	1	8	60.0	2	0	[]
6029	2	1	8	60.0	2	0	[]
6048	4	1	8	60.0	2	0	[]
6070	2	1	8	60.0	2	0	[]
6078	14	1	8	60.0	2	0	[]
6080	2	4	8	100.0	2	0	[]
6085	9	1	8	60.0	2	0	[]
6096	2	1	2	60.0	2	0	[]
6108	8	3	8	60.0	2	1	[(775, 1)]
6113	2	1	6	60.0	2	0	[]
6117	72	6	16	80.0	2	1	[(798, 0)]
6143	3	1	8	60.0	2	0	[]
6145	10	5	8	60.0	2	1	[(798, 0)]
6150	5	1	8	60.0	2	0	[]
6157	1	1	8	60.0	2	0	[]
6163	5	2	8	60.0	2	0	[]
6179	4	1	8	60.0	2	1	[(1059, 2)]
6210	2	2	8	60.0	2	1	[(798, 0)]
6212	5	1	8	60.0	2	0	[]
6222	1	4	8	60.0	2	0	[]
6233	1	1	4	60.0	2	0	[]
6247	2	1	8	60.0	2	0	[]
6257	2	1	8	60.0	2	0	[]
6264	2	1	8	60.0	2	1	[(798, 0)]
6282	7	2	8	60.0	2	0	[]
6286	1	1	8	60.0	2	0	[]
6300	5	6	8	100.0	2	0	[]
6305	4	1	8	60.0	2	0	[]
6325	8	2	8	60.0	2	0	[]
6332	6	1	8	60.0	2	0	[]
6337	2	2	8	60.0	2	0	[]
6339	1	8	16	200.0	2	0	[]
6347	4	1	8	60.0	2	0	[]
6353	2	1	8	60.0	2	0	[]
6364	5	1	8	60.0	2	0	[]
6375	10	3	8	100.0	2	1	[(798, 0)]
6381	282	12	16	60.0	1	10	[(226, 0), (3270, 2), (4048, 2), (4608, 2), (255, 2), (8822, 0), (1606, 2), (9031, 2), (4014, 2), (704, 2)]
6395	1	1	8	60.0	2	0	[]
6402	29	3	8	60.0	2	5	[(1884, 2), (6339, 1), (303, 1), (798, 0), (6381, 0)]
6411	2	1	8	60.0	2	0	[]
6414	2	1	8	60.0	2	0	[]
6434	5	1	8	60.0	2	0	[]
6438	1	1	8	60.0	2	0	[]
6439	6	3	8	60.0	2	0	[]
6440	2	1	8	60.0	2	0	[]
6473	2	1	16	100.0	2	0	[]
6476	1	1	8	60.0	2	0	[]
6487	1	1	8	60.0	2	0	[]
6496	3	1	8	60.0	2	0	[]
6502	1	4	8	60.0	2	0	[]
6532	5	2	8	40.0	0	1	[(1059, 2)]
6536	1	1	1	60.0	2	0	[]
6551	1	1	2	60.0	2	0	[]
6561	5	6	8	60.0	2	0	[]
6564	43	4	8	40.0	0	5	[(255, 0), (4048, 0), (6715, 2), (7338, 0), (2353, 1)]
6568	31	5	8	60.0	0	5	[(8716, 2), (3604, 1), (106, 0), (7904, 2), (798, 0)]
6569	1	1	8	60.0	2	0	[]
6599	2	2	8	60.0	2	0	[]
6623	2	2	8	60.0	2	0	[]
6644	2	1	2	60.0	2	0	[]
6652	2	1	5	60.0	2	0	[]
6681	4	1	8	60.0	2	0	[]
6715	13	6	2	60.0	2	1	[(798, 0)]
6751	1	1	1	60.0	2	0	[]
6752	1	1	7	40.0	2	0	[]
6768	4	1	8	60.0	2	0	[]
6779	2	1	8	60.0	2	0	[]
6780	1	4	8	60.0	2	0	[]
6786	2	1	6	60.0	2	0	[]
6794	5	2	8	60.0	2	0	[]
6802	1	1	8	60.0	2	0	[]
6812	1	1	8	60.0	2	0	[]
6814	4	1	5	60.0	2	3	[(1506, 0), (2644, 0), (5661, 0)]
6821	2	1	2	60.0	2	0	[]
6824	2	2	8	60.0	2	0	[]
6839	9	4	16	60.0	1	0	[]
6842	4	1	8	60.0	2	0	[]
6843	7	1	8	60.0	2	1	[(5813, 1)]
6846	5	1	8	60.0	2	0	[]
6861	2	1	2	60.0	2	0	[]
6867	3	1	8	60.0	2	0	[]
6872	1	1	7	60.0	2	1	[(798, 0)]
6891	1	1	8	60.0	2	0	[]
6906	1	1	2	60.0	2	0	[]
6925	1	1	7	60.0	2	0	[]
6931	1	1	8	60.0	2	0	[]
6937	1	1	8	60.0	2	0	[]
6941	4	2	8	60.0	2	0	[]
6989	2	1	8	60.0	2	0	[]
6990	1	4	8	80.0	2	0	[]
6993	3	1	8	60.0	2	0	[]
7018	2	1	8	60.0	2	0	[]
7038	2	3	8	60.0	2	0	[]
7052	8	4	8	60.0	2	0	[]
7055	16	12	12	60.0	2	0	[]
7062	4	1	8	60.0	2	0	[]
7068	2	1	8	60.0	2	0	[]
7071	16	2	8	60.0	2	1	[(798, 0)]
7083	1	1	8	60.0	2	0	[]
7091	10	2	8	60.0	2	1	[(798, 0)]
7105	1	1	8	60.0	2	0	[]
7118	4	1	8	60.0	2	0	[]
7120	3	1	8	60.0	2	0	[]
7127	2	1	8	60.0	2	0	[]
7146	8	1	8	60.0	2	0	[]
7148	1	1	8	60.0	2	0	[]
7160	1	1	2	100.0	2	0	[]
7162	1	1	16	80.0	2	0	[]
7163	6	1	8	60.0	2	0	[]
7174	4	1	8	60.0	2	0	[]
7175	1	1	1	60.0	2	0	[]
7177	2	1	1	60.0	2	0	[]
7197	2	1	8	60.0	2	0	[]
7200	1	1	2	60.0	2	0	[]
7201	1	1	6	60.0	2	0	[]
7203	1	1	8	60.0	2	0	[]
7210	6	2	8	60.0	2	0	[]
7219	4	1	8	60.0	2	0	[]
7220	1	4	8	60.0	2	0	[]
7234	2	1	8	60.0	2	0	[]
7240	1	1	2	60.0	2	0	[]
7246	5	1	1	60.0	2	0	[]
7250	3	6	8	60.0	2	1	[(798, 0)]
7265	2	1	8	60.0	2	0	[]
7272	2	1	8	60.0	2	0	[]
7273	2	1	16	60.0	2	0	[]
7292	2	4	8	60.0	2	0	[]
7335	1	2	8	60.0	2	0	[]
7338	120	6	8	60.0	0	3	[(2353, 0), (798, 0), (5651, 0)]
7344	2	1	8	60.0	2	0	[]
7364	3	1	8	80.0	2	0	[]
7372	4	1	9	80.0	2	0	[]
7383	2	1	8	60.0	2	0	[]
7385	4	1	8	60.0	2	0	[]
7388	2	1	7	60.0	2	0	[]
7407	2	1	8	60.0	2	0	[]
7412	1	1	4	60.0	2	0	[]
7419	2	1	8	60.0	2	0	[]
7424	1	1	8	60.0	2	0	[]
7425	3	1	8	60.0	2	0	[]
7436	4	6	8	60.0	2	0	[]
7439	3	1	8	60.0	2	1	[(798, 0)]
7467	6	1	8	60.0	2	1	[(798, 0)]
7468	3	1	8	60.0	2	0	[]
7474	2	1	8	60.0	2	0	[]
7487	1	1	2	60.0	2	0	[]
7497	5	3	8	60.0	2	0	[]
7498	9	10	32	80.0	2	0	[]
7508	2	6	6	60.0	2	0	[]
7512	2	1	8	60.0	2	0	[]
7527	1	1	8	60.0	2	0	[]
7529	2	1	8	60.0	2	0	[]
7537	1	2	8	60.0	2	0	[]
7554	4	1	8	60.0	2	0	[]
7571	5	9	16	150.0	2	0	[]
7591	4	1	8	60.0	2	0	[]
7596	5	4	16	150.0	2	0	[]
7607	2	1	8	60.0	2	0	[]
7611	1	11	128	600.0	2	0	[]
7624	22	6	8	60.0	2	1	[(7958, 1)]
7625	2	1	6	60.0	2	0	[]
7629	2	4	16	80.0	2	0	[]
7652	9	2	8	60.0	2	1	[(4793, 1)]
7653	1	4	8	60.0	2	0	[]
7672	2	1	8	60.0	2	1	[(19, 2)]
7679	4	3	8	60.0	2	0	[]
7680	2	2	8	60.0	2	0	[]
7684	2	1	8	60.0	2	0	[]
7689	3	1	8	60.0	2	0	[]
7695	2	2	8	60.0	2	0	[]
7698	2	1	8	60.0	2	0	[]
7715	1	1	8	60.0	2	0	[]
7717	1	4	8	60.0	2	0	[]
7719	3	2	8	60.0	2	0	[]
7725	2	1	8	60.0	2	0	[]
7726	2	1	8	60.0	2	0	[]
7738	5	3	8	60.0	2	1	[(798, 0)]
7752	2	1	8	60.0	2	0	[]
7760	1	3	10	40.0	2	0	[]
7788	1	1	8	60.0	2	0	[]
7796	10	2	8	60.0	2	1	[(8692, 2)]
7798	16	3	8	60.0	2	0	[]
7810	2	4	8	60.0	2	0	[]
7822	9	6	16	80.0	2	0	[]
7826	2	1	8	60.0	2	0	[]
7829	2	1	8	60.0	2	0	[]
7832	3	2	8	60.0	2	0	[]
7833	4	1	8	60.0	2	0	[]
7841	2	1	8	60.0	2	0	[]
7883	2	1	8	60.0	2	0	[]
7884	1	1	1	60.0	2	0	[]
7891	3	1	8	100.0	2	0	[]
7898	1	1	8	60.0	2	0	[]
7899	4	1	8	60.0	2	0	[]
7904	2	1	8	60.0	2	0	[]
7906	1	1	8	60.0	2	0	[]
7907	2	2	8	60.0	2	0	[]
7916	10	1	8	60.0	2	3	[(6925, 1), (5813, 2), (6496, 1)]
7917	2	1	8	60.0	2	0	[]
7937	1	4	8	80.0	2	0	[]
7950	2	4	8	60.0	2	0	[]
7958	2	1	8	60.0	2	0	[]
7965	2	1	8	60.0	2	0	[]
7966	2	1	2	60.0	2	0	[]
7977	2	1	8	60.0	2	0	[]
8003	3	1	2	60.0	2	0	[]
8026	2	1	8	60.0	2	0	[]
8033	4	2	8	60.0	2	2	[(704, 2), (1059, 2)]
8038	3	3	8	60.0	2	0	[]
8039	1	1	1	60.0	2	0	[]
8049	3	1	1	60.0	2	0	[]
8062	1	1	8	60.0	2	0	[]
8066	1	2	8	60.0	2	0	[]
8071	1	1	2	60.0	2	0	[]
8075	3	1	8	60.0	2	0	[]
8099	4	1	8	60.0	2	0	[]
8109	3	1	8	60.0	2	0	[]
8125	2	1	8	60.0	2	0	[]
8132	10	5	8	60.0	2	0	[]
8149	4	1	4	60.0	2	0	[]
8150	2	4	8	60.0	2	0	[]
8161	2	1	8	60.0	2	0	[]
8165	4	1	4	60.0	2	0	[]
8203	9	2	8	60.0	2	0	[]
8208	6	1	8	60.0	2	0	[]
8215	6	2	8	60.0	2	0	[]
8242	8	5	8	60.0	2	0	[]
8253	12	2	8	60.0	2	0	[]
8255	2	1	8	60.0	2	0	[]
8260	6	6	8	100.0	2	0	[]
8261	7	1	8	40.0	2	1	[(798, 0)]
8286	1	1	1	80.0	2	0	[]
8300	6	3	8	60.0	2	0	[]
8310	2	3	8	60.0	2	0	[]
8312	42	4	8	40.0	1	0	[]
8315	8	1	8	60.0	2	0	[]
8322	2	1	8	60.0	2	0	[]
8330	1	1	8	60.0	2	0	[]
8337	3	2	8	60.0	2	0	[]
8342	1	1	8	60.0	2	0	[]
8352	2	1	6	60.0	2	0	[]
8364	1	4	8	60.0	2	0	[]
8370	5	1	8	60.0	2	0	[]
8379	4	2	8	60.0	2	0	[]
8400	1	1	7	60.0	2	0	[]
8401	1	1	8	60.0	2	0	[]
8403	2	4	8	60.0	2	0	[]
8409	1	1	8	60.0	2	0	[]
8420	2	1	8	60.0	2	0	[]
8430	13	1	8	40.0	2	0	[]
8438	5	3	8	60.0	2	0	[]
8453	9	1	8	60.0	2	0	[]
8458	1	1	8	60.0	2	0	[]
8460	13	2	8	60.0	2	0	[]
8501	1	1	8	60.0	2	0	[]
8512	2	2	8	60.0	2	0	[]
8518	1	1	8	60.0	2	0	[]
8521	2	1	8	60.0	2	0	[]
8528	5	5	8	60.0	2	0	[]
8536	8	6	8	60.0	2	2	[(1121, 0), (798, 0)]
8551	16	2	8	60.0	2	2	[(798, 0), (3146, 2)]
8558	11	2	8	60.0	2	0	[]
8568	1	4	8	100.0	2	0	[]
8582	14	24	32	80.0	2	1	[(798, 0)]
8596	2	1	8	60.0	2	0	[]
8598	2	1	1	60.0	2	1	[(6337, 2)]
8599	1	1	8	60.0	2	0	[]
8630	2	1	8	60.0	2	0	[]
8633	2	1	2	60.0	2	0	[]
8646	5	4	8	60.0	2	0	[]
8663	4	2	8	60.0	2	0	[]
8671	7	1	8	60.0	2	0	[]
8677	2	3	8	60.0	2	0	[]
8684	13	2	8	60.0	2	1	[(798, 0)]
8685	2	1	8	60.0	2	0	[]
8692	2	1	16	80.0	2	0	[]
8705	3	2	8	60.0	2	0	[]
8706	1	4	8	60.0	2	0	[]
8708	2	2	8	60.0	2	1	[(798, 0)]
8711	6	2	8	60.0	2	0	[]
8714	1	4	8	60.0	2	0	[]
8716	37	5	16	60.0	0	3	[(8822, 0), (4474, 0), (2353, 1)]
8735	16	1	8	60.0	2	1	[(798, 0)]
8745	2	1	8	60.0	2	0	[]
8788	2	1	8	60.0	2	0	[]
8822	57	3	16	60.0	2	2	[(2163, 0), (5778, 0)]
8825	1	1	8	60.0	2	0	[]
8827	2	1	8	60.0	2	0	[]
8833	1	1	8	60.0	2	0	[]
8841	2	1	6	60.0	2	0	[]
8854	2	1	8	60.0	2	0	[]
8864	2	1	8	60.0	2	0	[]
8865	1	1	1	80.0	2	0	[]
8872	6	1	8	60.0	2	0	[]
8873	2	4	8	60.0	2	0	[]
8885	2	1	8	60.0	2	0	[]
8909	2	1	2	60.0	2	0	[]
8921	1	1	8	60.0	2	0	[]
8931	56	3	8	40.0	2	0	[]
8935	16	2	8	60.0	2	4	[(7052, 0), (7055, 0), (2090, 0), (4671, 0)]
8950	3	3	8	60.0	2	0	[]
8969	1	1	8	60.0	2	0	[]
8978	2	1	8	60.0	2	0	[]
8979	40	3	8	60.0	2	1	[(7679, 2)]
8986	16	1	8	60.0	2	1	[(798, 0)]
8993	1	2	8	60.0	2	0	[]
9005	2	1	8	60.0	2	0	[]
9017	33	1	8	60.0	2	1	[(798, 0)]
9029	3	1	8	60.0	2	0	[]
9031	1	3	32	60.0	2	3	[(6381, 2), (4014, 2), (4048, 2)]
9049	99	2	8	60.0	2	0	[]
9057	3	2	8	60.0	2	0	[]
9062	1	4	8	60.0	2	0	[]
9082	1	4	8	60.0	2	0	[]
9086	23	3	8	60.0	2	2	[(8931, 0), (798, 0)]
9088	1	1	8	60.0	2	0	[]
9100	8	2	2	60.0	2	5	[(712, 0), (3604, 0), (6715, 0), (8684, 0), (5766, 0)]
9117	1	4	8	60.0	2	0	[]
9134	2	1	8	60.0	2	0	[]
9144	1	1	1	60.0	2	0	[]
9155	1	1	8	60.0	2	0	[]
9157	5	2	8	60.0	2	0	[]
9164	1	1	8	60.0	2	0	[]
9167	2	1	8	60.0	2	0	[]
9176	7	1	16	60.0	2	0	[]
9180	5	2	8	60.0	2	0	[]
9185	2	4	8	60.0	2	0	[]
9195	2	1	2	60.0	2	0	[]
9208	2	1	8	60.0	2	0	[]
9209	5	6	8	60.0	2	1	[(798, 0)]
9213	2	1	8	60.0	2	0	[]
9218	2	1	3	60.0	2	0	[]
9252	5	6	8	60.0	2	0	[]
9255	1	1	8	60.0	2	0	[]
9268	5	1	8	60.0	2	1	[(798, 0)]
9309	1	4	8	60.0	2	0	[]
9322	2	1	1	60.0	2	0	[]
9327	3	1	8	60.0	2	0	[]
