app_id	nb_instances	core	memory	disk	intra_value	inter_degree	inter_aff
9	1	1	2	60.0	2	0	[]
34	12	1	8	60.0	2	0	[]
44	2	1	8	60.0	2	0	[]
48	17	3	8	60.0	2	0	[]
59	1	1	8	60.0	2	0	[]
62	2	1	8	60.0	2	0	[]
66	3	4	8	60.0	2	0	[]
67	21	1	8	60.0	2	0	[]
74	2	1	9	600.0	2	0	[]
78	2	1	8	60.0	2	0	[]
83	2	2	2	60.0	2	0	[]
87	4	1	8	60.0	2	0	[]
100	10	3	8	60.0	2	0	[]
133	2	1	1	60.0	2	0	[]
154	1	1	8	60.0	2	0	[]
174	2	2	8	60.0	2	0	[]
195	3	1	2	60.0	2	0	[]
204	1	1	2	60.0	2	0	[]
209	2	1	8	60.0	2	0	[]
213	4	1	8	60.0	2	0	[]
214	1	1	8	60.0	2	0	[]
219	2	2	8	60.0	2	0	[]
228	2	1	8	60.0	2	0	[]
237	1	1	8	60.0	2	0	[]
242	3	1	5	60.0	2	0	[]
246	1	1	1	60.0	2	0	[]
248	8	8	16	500.0	2	1	[(1388, 1)]
271	3	2	8	60.0	2	0	[]
276	1	5	8	60.0	3	0	[]
279	7	1	7	60.0	2	0	[]
295	2	1	8	60.0	2	0	[]
299	2	1	2	60.0	2	0	[]
309	2	1	8	60.0	2	0	[]
310	71	2	8	60.0	2	5	[(7447, 2), (3211, 2), (4702, 0), (7087, 2), (6558, 1)]
313	3	1	6	60.0	2	0	[]
323	2	2	8	60.0	2	0	[]
325	3	1	2	60.0	2	0	[]
329	1	1	1	60.0	2	0	[]
331	1	1	8	60.0	2	0	[]
339	2	4	8	60.0	2	0	[]
350	7	3	8	60.0	2	0	[]
363	1	1	8	60.0	2	0	[]
366	1	1	8	60.0	2	0	[]
380	2	1	8	60.0	2	0	[]
384	1	1	8	60.0	2	0	[]
397	5	1	8	60.0	2	0	[]
416	8	2	8	60.0	2	0	[]
427	1	6	8	60.0	2	0	[]
462	1	2	32	80.0	2	0	[]
473	77	3	8	40.0	0	0	[]
477	1	1	8	60.0	2	0	[]
479	2	1	8	60.0	2	0	[]
480	3	3	8	60.0	2	0	[]
485	3	1	8	60.0	2	0	[]
502	2	1	8	60.0	2	0	[]
516	17	2	8	60.0	2	0	[]
524	1	1	8	60.0	2	0	[]
527	2	2	8	60.0	2	0	[]
542	1	1	8	60.0	2	0	[]
544	22	6	8	60.0	2	0	[]
547	2	1	6	60.0	2	0	[]
550	2	1	16	40.0	2	0	[]
564	2	1	8	60.0	2	0	[]
566	2	1	8	60.0	2	0	[]
574	2	1	8	60.0	2	0	[]
583	2	4	16	80.0	2	0	[]
590	2	2	8	60.0	2	0	[]
621	1	1	8	60.0	2	0	[]
628	4	1	8	60.0	2	0	[]
631	1	1	8	60.0	2	0	[]
647	2	3	2	60.0	2	0	[]
655	26	1	8	40.0	2	1	[(2353, 1)]
658	2	2	16	80.0	2	0	[]
661	3	1	8	60.0	2	0	[]
689	5	6	8	60.0	2	0	[]
709	3	4	8	60.0	2	0	[]
720	8	1	8	60.0	2	0	[]
731	1	1	1	60.0	2	0	[]
743	1	4	8	60.0	2	0	[]
750	2	1	8	60.0	2	0	[]
757	3	2	8	60.0	2	1	[(473, 1)]
768	6	2	8	60.0	2	1	[(4706, 0)]
790	3	2	16	60.0	2	0	[]
793	15	2	2	60.0	2	0	[]
807	6	1	8	60.0	2	0	[]
810	9	2	8	40.0	2	0	[]
820	2	1	8	60.0	2	0	[]
829	7	1	8	60.0	2	0	[]
833	3	1	8	60.0	2	0	[]
838	5	1	8	60.0	2	0	[]
848	2	1	8	60.0	2	0	[]
852	3	2	8	60.0	2	0	[]
856	1	1	7	60.0	2	0	[]
868	2	1	8	60.0	2	0	[]
869	2	6	8	60.0	2	0	[]
872	1	1	8	60.0	2	0	[]
874	1	1	8	60.0	2	0	[]
899	2	1	8	60.0	2	0	[]
902	3	1	8	60.0	2	0	[]
912	1	1	2	60.0	2	0	[]
918	3	1	8	60.0	2	0	[]
924	4	1	8	60.0	2	0	[]
929	2	1	8	60.0	2	0	[]
951	1	1	8	60.0	2	0	[]
955	2	1	8	60.0	2	0	[]
957	1	1	1	60.0	2	0	[]
978	5	1	16	80.0	2	0	[]
984	2	2	8	60.0	2	0	[]
995	13	1	8	60.0	2	0	[]
997	2	2	8	60.0	2	0	[]
1004	3	1	8	60.0	2	0	[]
1021	3	1	8	60.0	2	0	[]
1026	12	4	8	60.0	2	1	[(6133, 0)]
1028	1	1	1	60.0	2	0	[]
1035	1	1	7	60.0	2	0	[]
1036	4	4	8	300.0	2	0	[]
1053	1	1	2	60.0	2	0	[]
1078	2	1	8	60.0	2	0	[]
1090	4	1	2	60.0	2	0	[]
1093	3	1	8	60.0	2	0	[]
1110	5	2	8	60.0	2	0	[]
1119	3	5	8	100.0	2	0	[]
1123	76	2	8	60.0	2	22	[(7768, 0), (2910, 1), (4595, 0), (4495, 0), (3845, 2), (48, 1), (4551, 1), (5441, 0), (1388, 0), (8736, 0), (3604, 1), (5127, 0), (6139, 1), (8139, 0), (4243, 1), (473, 2), (1328, 1), (4706, 1), (7716, 1), (4939, 0), (8324, 1), (1238, 1)]
1138	27	2	8	60.0	2	0	[]
1146	1	4	8	60.0	2	0	[]
1159	5	1	8	60.0	2	0	[]
1171	1	1	8	60.0	2	0	[]
1179	1	1	8	60.0	2	0	[]
1214	2	1	8	60.0	2	0	[]
1225	1	4	8	60.0	2	0	[]
1229	12	2	8	60.0	2	2	[(5905, 0), (4039, 0)]
1232	3	1	8	60.0	2	0	[]
1235	6	2	8	60.0	2	0	[]
1238	19	2	8	60.0	2	2	[(8138, 2), (473, 2)]
1242	1	1	8	60.0	2	0	[]
1247	4	1	8	60.0	2	0	[]
1263	20	4	8	60.0	2	0	[]
1285	7	5	8	60.0	2	0	[]
1295	2	1	8	60.0	2	0	[]
1305	5	1	8	60.0	2	0	[]
1310	151	5	8	60.0	2	5	[(3343, 2), (473, 1), (1328, 1), (2917, 0), (3595, 0)]
1311	2	1	8	60.0	2	0	[]
1328	130	12	16	60.0	2	4	[(7716, 2), (6097, 2), (5905, 2), (2353, 1)]
1334	2	1	8	60.0	2	0	[]
1339	2	1	8	60.0	2	0	[]
1346	3	1	8	60.0	2	1	[(689, 2)]
1349	8	1	16	60.0	2	0	[]
1353	1	1	1	60.0	2	0	[]
1355	1	1	8	60.0	2	0	[]
1358	3	6	8	60.0	2	0	[]
1360	34	4	8	60.0	2	3	[(1026, 0), (8641, 0), (9250, 0)]
1371	1	1	8	60.0	2	0	[]
1381	1	2	4	60.0	2	0	[]
1382	5	4	8	60.0	2	0	[]
1388	8	2	8	60.0	2	0	[]
1395	3	2	8	60.0	2	0	[]
1410	2	1	8	60.0	2	0	[]
1414	13	3	8	60.0	2	0	[]
1418	2	1	8	60.0	2	0	[]
1428	2	1	8	60.0	2	0	[]
1435	3	1	8	60.0	2	0	[]
1451	1	1	1	60.0	2	0	[]
1459	4	2	8	60.0	2	0	[]
1483	58	4	8	60.0	2	2	[(4706, 0), (955, 0)]
1515	25	4	8	60.0	2	5	[(7328, 0), (3487, 1), (3107, 2), (2459, 2), (2904, 0)]
1521	1	1	8	167.0	2	0	[]
1532	1	1	16	60.0	2	0	[]
1551	2	1	6	60.0	2	0	[]
1552	1	4	8	60.0	2	0	[]
1558	2	1	6	60.0	2	0	[]
1570	2	1	7	60.0	2	0	[]
1587	21	8	32	60.0	0	1	[(1021, 0)]
1608	1	1	8	60.0	2	0	[]
1609	2	2	8	60.0	2	0	[]
1623	2	1	2	60.0	2	0	[]
1625	2	1	8	60.0	2	0	[]
1627	2	1	8	60.0	2	0	[]
1639	100	2	8	60.0	2	7	[(2551, 0), (8290, 2), (4611, 1), (5825, 0), (7631, 2), (8095, 2), (2139, 1)]
1648	4	1	8	60.0	2	0	[]
1667	1	1	8	60.0	2	0	[]
1676	4	6	8	60.0	2	0	[]
1678	1	1	8	100.0	2	0	[]
1680	1	1	8	60.0	2	0	[]
1683	71	5	8	40.0	2	0	[]
1697	2	1	8	60.0	2	0	[]
1710	6	2	8	60.0	2	0	[]
1724	4	1	8	60.0	2	0	[]
1725	3	1	8	60.0	2	0	[]
1743	2	1	8	60.0	2	0	[]
1744	15	3	8	60.0	2	0	[]
1754	2	1	8	60.0	2	0	[]
1759	2	1	8	60.0	2	1	[(2917, 0)]
1762	5	5	8	60.0	2	0	[]
1803	2	1	8	60.0	2	0	[]
1805	7	2	8	60.0	2	0	[]
1810	6	1	7	60.0	2	0	[]
1828	2	1	8	60.0	2	0	[]
1829	2	1	8	60.0	2	0	[]
1830	2	1	8	60.0	2	0	[]
1832	3	1	16	80.0	2	0	[]
1862	2	1	8	60.0	2	0	[]
1870	1	1	16	100.0	2	0	[]
1875	3	1	8	60.0	2	0	[]
1893	3	1	8	60.0	2	0	[]
1895	3	4	8	60.0	2	0	[]
1898	4	2	8	60.0	2	0	[]
1920	1	1	2	60.0	2	0	[]
1932	2	1	8	60.0	2	0	[]
1934	1	1	8	60.0	2	0	[]
1935	1	1	2	60.0	2	0	[]
1937	2	5	8	60.0	2	0	[]
1951	1	1	2	60.0	2	0	[]
1992	1	4	8	60.0	2	0	[]
2003	1	1	1	60.0	2	0	[]
2024	2	1	8	60.0	2	0	[]
2026	2	1	8	60.0	2	0	[]
2032	1	2	8	60.0	2	0	[]
2051	2	1	1	60.0	2	0	[]
2054	12	5	8	60.0	2	0	[]
2076	3	1	8	60.0	2	0	[]
2094	4	1	8	100.0	2	0	[]
2095	4	3	8	60.0	2	0	[]
2097	1	1	8	60.0	2	0	[]
2099	1	1	3	60.0	2	0	[]
2112	11	2	8	60.0	2	0	[]
2113	2	1	8	60.0	2	0	[]
2139	5	1	8	60.0	2	0	[]
2145	11	1	2	60.0	2	1	[(924, 0)]
2146	2	1	8	60.0	2	0	[]
2158	2	1	8	60.0	2	0	[]
2165	2	1	8	60.0	2	0	[]
2179	1	1	8	60.0	2	0	[]
2181	1	1	8	60.0	2	0	[]
2182	1	1	8	60.0	2	0	[]
2192	3	1	16	60.0	2	0	[]
2197	5	2	6	60.0	2	0	[]
2203	1	1	8	60.0	2	0	[]
2214	2	1	8	60.0	2	0	[]
2229	3	1	1	60.0	2	0	[]
2239	2	4	8	60.0	2	0	[]
2241	3	1	8	60.0	2	0	[]
2242	4	12	8	60.0	2	0	[]
2270	2	3	8	60.0	2	0	[]
2306	1	1	7	60.0	2	0	[]
2321	2	3	8	60.0	2	0	[]
2341	4	1	8	60.0	2	0	[]
2343	2	1	8	60.0	2	0	[]
2353	64	6	8	40.0	2	0	[]
2360	2	4	8	60.0	2	0	[]
2363	2	1	8	60.0	2	0	[]
2375	1	4	16	80.0	2	0	[]
2381	1	1	8	60.0	2	0	[]
2389	1	4	8	60.0	2	0	[]
2394	1	1	8	60.0	2	0	[]
2419	2	1	8	60.0	2	0	[]
2427	3	1	8	60.0	2	0	[]
2430	3	4	8	60.0	2	0	[]
2435	4	1	1	60.0	2	0	[]
2439	4	1	8	60.0	2	0	[]
2445	4	1	8	60.0	2	0	[]
2458	5	1	2	60.0	2	0	[]
2459	5	2	8	60.0	2	0	[]
2467	6	2	8	60.0	2	0	[]
2475	6	1	8	60.0	2	0	[]
2477	7	12	16	60.0	2	0	[]
2509	8	1	8	60.0	2	0	[]
2514	3	1	16	80.0	2	0	[]
2517	3	1	8	60.0	2	0	[]
2550	2	1	2	60.0	2	0	[]
2551	2	1	8	60.0	2	0	[]
2561	2	1	16	80.0	2	0	[]
2566	2	2	8	60.0	2	0	[]
2567	2	4	8	60.0	2	2	[(5101, 0), (2761, 0)]
2574	2	1	8	60.0	2	0	[]
2578	2	2	8	60.0	2	0	[]
2581	2	1	4	60.0	2	0	[]
2582	2	1	2	60.0	2	0	[]
2605	1	1	8	60.0	2	0	[]
2606	2	2	2	60.0	2	0	[]
2612	6	5	8	60.0	2	0	[]
2619	1	1	2	60.0	2	0	[]
2625	1	1	1	60.0	2	0	[]
2628	5	2	8	60.0	2	0	[]
2635	1	1	8	60.0	2	0	[]
2638	1	1	8	60.0	2	0	[]
2646	3	3	8	100.0	2	0	[]
2673	2	1	8	60.0	2	0	[]
2687	1	1	8	60.0	2	0	[]
2702	1	1	8	60.0	2	0	[]
2708	2	1	8	60.0	2	0	[]
2711	1	1	8	60.0	2	0	[]
2715	2	1	8	60.0	2	0	[]
2718	2	1	1	600.0	2	0	[]
2726	2	2	8	60.0	2	0	[]
2729	2	1	8	60.0	2	0	[]
2731	7	36	48	300.0	2	0	[]
2741	4	1	8	60.0	2	0	[]
2742	15	4	8	40.0	2	1	[(4231, 0)]
2755	3	1	8	60.0	2	0	[]
2761	9	1	8	60.0	2	0	[]
2762	1	1	8	60.0	2	0	[]
2764	2	6	8	60.0	2	0	[]
2791	1	1	16	60.0	2	0	[]
2793	1	1	8	40.0	2	0	[]
2802	2	1	8	60.0	2	0	[]
2849	4	1	8	60.0	2	0	[]
2857	1	11	16	100.0	2	0	[]
2865	1	1	8	60.0	2	0	[]
2890	2	3	8	60.0	2	0	[]
2904	108	5	8	100.0	0	6	[(6764, 2), (8329, 2), (2917, 0), (2475, 2), (8296, 1), (4601, 2)]
2910	50	5	8	60.0	2	1	[(5905, 1)]
2917	3	6	8	60.0	2	0	[]
2918	7	1	8	60.0	2	0	[]
2921	2	6	8	60.0	2	0	[]
2949	6	5	8	60.0	2	1	[(4289, 0)]
2954	5	5	8	60.0	2	1	[(5905, 2)]
3003	2	1	8	60.0	2	0	[]
3010	10	1	8	60.0	2	0	[]
3012	2	1	8	60.0	2	0	[]
3014	2	1	8	60.0	2	0	[]
3027	6	1	2	60.0	2	0	[]
3059	2	1	8	60.0	2	0	[]
3063	2	1	8	60.0	2	0	[]
3067	2	1	8	60.0	2	0	[]
3087	18	1	8	60.0	2	0	[]
3091	40	5	8	60.0	2	1	[(3831, 2)]
3107	12	2	8	60.0	2	1	[(1683, 2)]
3117	3	12	16	60.0	2	6	[(7716, 2), (6097, 2), (7045, 2), (1328, 2), (5905, 2), (8707, 2)]
3178	2	1	12	60.0	2	0	[]
3192	3	1	14	80.0	2	0	[]
3196	1	1	8	60.0	2	0	[]
3203	8	3	8	60.0	2	0	[]
3211	4	3	8	60.0	2	0	[]
3213	162	4	8	60.0	2	13	[(1710, 2), (868, 0), (1676, 2), (7877, 2), (6807, 2), (6010, 0), (3676, 1), (3644, 2), (2917, 0), (6566, 1), (1625, 0), (1744, 1), (7895, 0)]
3243	2	1	8	60.0	2	0	[]
3262	2	1	1	60.0	2	0	[]
3266	1	1	1	60.0	2	0	[]
3275	2	6	8	60.0	2	0	[]
3305	2	1	3	60.0	2	0	[]
3319	3	1	8	60.0	2	0	[]
3326	1	1	8	60.0	2	0	[]
3331	1	5	16	60.0	2	0	[]
3332	1	1	8	60.0	2	0	[]
3343	135	7	16	60.0	0	3	[(3873, 0), (5823, 1), (2917, 0)]
3348	1	1	8	60.0	2	0	[]
3351	4	2	8	60.0	2	0	[]
3360	3	1	8	60.0	2	0	[]
3364	1	1	1	60.0	2	0	[]
3386	2	1	1	60.0	2	0	[]
3418	1	1	7	60.0	2	0	[]
3419	1	1	4	60.0	2	0	[]
3421	1	2	8	60.0	2	0	[]
3436	1	1	8	60.0	2	0	[]
3445	3	1	8	60.0	2	0	[]
3448	2	1	8	40.0	2	0	[]
3455	4	3	8	60.0	2	1	[(8138, 0)]
3468	4	1	1	60.0	2	0	[]
3473	4	1	8	60.0	2	0	[]
3474	5	6	8	60.0	2	0	[]
3477	1	1	2	60.0	2	0	[]
3485	3	1	2	60.0	2	0	[]
3487	196	6	8	60.0	0	4	[(2353, 1), (5177, 0), (3845, 2), (810, 0)]
3489	2	1	8	60.0	2	0	[]
3506	3	1	8	60.0	2	0	[]
3508	1	4	16	40.0	2	0	[]
3509	2	1	8	60.0	2	0	[]
3515	3	1	8	60.0	2	0	[]
3519	1	3	8	60.0	2	0	[]
3529	1	1	8	60.0	2	0	[]
3544	4	1	2	100.0	2	0	[]
3568	2	4	8	60.0	2	0	[]
3570	12	5	8	60.0	2	0	[]
3589	2	1	8	60.0	2	0	[]
3590	150	3	8	60.0	2	4	[(1388, 0), (473, 0), (2353, 0), (4511, 0)]
3591	2	1	8	60.0	2	0	[]
3595	47	11	16	60.0	0	0	[]
3604	19	5	8	60.0	2	0	[]
3609	1	4	16	80.0	2	0	[]
3627	4	1	8	60.0	2	0	[]
3628	55	2	8	60.0	2	1	[(6622, 1)]
3632	4	1	2	60.0	2	0	[]
3644	1	1	8	60.0	2	0	[]
3663	2	1	8	60.0	2	0	[]
3668	3	1	8	60.0	2	0	[]
3676	2	1	7	60.0	2	0	[]
3687	1	1	6	60.0	2	0	[]
3690	1	4	8	60.0	2	0	[]
3701	21	1	8	60.0	2	1	[(3487, 2)]
3704	7	1	8	60.0	2	0	[]
3755	2	1	8	60.0	2	0	[]
3758	2	4	8	60.0	2	0	[]
3766	2	1	2	60.0	2	0	[]
3773	3	1	8	60.0	2	0	[]
3774	8	2	8	60.0	2	0	[]
3778	1	4	8	60.0	2	0	[]
3786	4	2	8	60.0	2	0	[]
3788	20	2	8	60.0	2	0	[]
3795	2	1	2	60.0	2	0	[]
3798	1	1	8	60.0	2	0	[]
3800	2	1	8	60.0	2	0	[]
3804	3	1	8	60.0	2	0	[]
3809	5	1	8	60.0	2	0	[]
3829	3	1	8	60.0	2	0	[]
3831	2	1	8	60.0	2	0	[]
3832	1	1	8	60.0	2	0	[]
3839	15	2	8	60.0	2	0	[]
3841	2	4	8	60.0	2	0	[]
3845	20	2	16	60.0	2	1	[(473, 2)]
3848	1	24	48	300.0	2	0	[]
3853	2	1	8	60.0	2	0	[]
3873	13	2	8	40.0	2	2	[(3343, 0), (7634, 1)]
3875	10	2	8	60.0	2	0	[]
3883	1	1	8	60.0	2	0	[]
3897	1	1	1	60.0	2	0	[]
3900	1	1	8	60.0	2	0	[]
3909	2	1	8	60.0	2	0	[]
3912	9	2	8	60.0	2	0	[]
3913	2	1	8	60.0	2	0	[]
3935	1	4	8	60.0	2	0	[]
3948	8	1	8	60.0	2	0	[]
3952	35	3	8	60.0	2	3	[(1759, 1), (6474, 2), (2917, 0)]
3979	19	1	8	60.0	2	0	[]
3980	2	4	8	60.0	2	0	[]
3983	1	4	8	80.0	2	0	[]
3984	6	1	8	60.0	2	0	[]
3995	14	1	8	100.0	2	0	[]
3999	16	2	8	60.0	2	0	[]
4001	4	2	8	60.0	2	0	[]
4006	1	1	1	60.0	2	0	[]
4009	16	6	8	60.0	2	1	[(1639, 2)]
4012	5	4	8	60.0	2	0	[]
4021	1	4	8	60.0	2	0	[]
4030	1	1	1	60.0	2	0	[]
4039	219	11	16	60.0	0	8	[(8333, 0), (4595, 0), (4495, 0), (3595, 0), (4797, 0), (3213, 0), (5085, 1), (48, 0)]
4049	2	2	8	60.0	2	0	[]
4058	22	3	8	60.0	2	1	[(2551, 1)]
4071	26	2	8	60.0	2	1	[(310, 0)]
4091	16	2	8	60.0	2	0	[]
4116	2	1	8	60.0	2	0	[]
4119	2	4	8	60.0	2	0	[]
4123	1	4	8	60.0	2	0	[]
4132	2	1	8	60.0	2	0	[]
4134	2	1	8	60.0	2	0	[]
4151	1	4	8	60.0	2	0	[]
4155	5	1	8	60.0	2	0	[]
4157	2	1	6	60.0	2	0	[]
4163	1	1	8	60.0	2	0	[]
4176	2	1	6	60.0	2	0	[]
4178	2	1	1	60.0	2	0	[]
4184	1	1	8	60.0	2	0	[]
4188	4	1	8	60.0	2	0	[]
4189	2	2	8	60.0	2	0	[]
4190	23	12	16	60.0	1	1	[(5905, 0)]
4200	1	1	1	60.0	2	0	[]
4208	1	1	8	60.0	2	0	[]
4215	2	4	8	60.0	2	0	[]
4230	1	1	8	60.0	2	0	[]
4231	31	6	8	60.0	0	3	[(7039, 0), (2578, 1), (2742, 0)]
4232	1	1	3	60.0	2	0	[]
4233	1	1	2	60.0	2	0	[]
4242	2	1	2	60.0	2	0	[]
4243	15	1	8	60.0	2	0	[]
4246	1	4	8	60.0	2	0	[]
4250	2	1	8	60.0	2	0	[]
4281	1	4	8	60.0	2	0	[]
4282	7	5	32	200.0	2	0	[]
4289	41	3	8	60.0	2	6	[(7811, 0), (1725, 1), (2467, 0), (4155, 1), (7801, 0), (6942, 0)]
4295	2	1	8	60.0	2	0	[]
4325	5	1	8	60.0	2	0	[]
4326	1	1	8	60.0	2	0	[]
4329	1	1	8	60.0	2	0	[]
4333	2	1	5	80.0	2	0	[]
4400	4	2	8	60.0	2	0	[]
4415	2	1	8	60.0	2	0	[]
4424	3	2	8	40.0	2	0	[]
4438	6	1	8	250.0	2	0	[]
4441	5	1	8	60.0	2	0	[]
4456	7	1	8	60.0	2	2	[(4601, 1), (2467, 0)]
4466	1	1	8	60.0	2	0	[]
4482	1	1	8	60.0	2	0	[]
4495	15	1	2	60.0	2	0	[]
4499	37	1	8	60.0	2	0	[]
4511	4	2	8	60.0	2	1	[(473, 1)]
4519	1	1	4	60.0	2	0	[]
4523	1	1	16	100.0	2	0	[]
4528	1	1	8	60.0	2	0	[]
4541	2	3	8	60.0	2	0	[]
4547	1	1	8	60.0	2	0	[]
4551	29	2	8	40.0	2	0	[]
4555	2	1	8	60.0	2	0	[]
4577	3	2	8	60.0	2	0	[]
4580	4	12	24	60.0	2	0	[]
4584	2	1	3	60.0	2	0	[]
4589	1	1	8	60.0	2	0	[]
4595	27	4	8	60.0	2	0	[]
4596	2	1	2	60.0	2	0	[]
4597	1	1	7	60.0	2	0	[]
4599	2	1	8	60.0	2	0	[]
4601	2	1	8	60.0	2	0	[]
4606	4	8	16	200.0	2	0	[]
4609	2	1	4	60.0	2	0	[]
4611	2	1	1	60.0	2	0	[]
4660	1	4	8	60.0	2	0	[]
4679	1	1	6	60.0	2	0	[]
4682	2	1	8	60.0	2	0	[]
4687	1	1	8	60.0	2	0	[]
4690	3	1	8	60.0	2	0	[]
4692	14	1	8	60.0	2	1	[(8369, 0)]
4702	3	1	8	60.0	2	0	[]
4706	40	3	8	80.0	2	0	[]
4714	1	1	8	60.0	2	0	[]
4724	1	4	8	60.0	2	0	[]
4752	2	1	8	60.0	2	0	[]
4755	1	1	3	60.0	2	0	[]
4758	6	6	16	60.0	2	0	[]
4771	4	2	8	60.0	2	0	[]
4780	4	2	8	60.0	2	0	[]
4797	11	2	8	40.0	2	1	[(4039, 0)]
4817	1	1	2	60.0	2	0	[]
4849	4	2	8	60.0	2	0	[]
4850	1	1	2	60.0	2	0	[]
4854	5	6	8	60.0	2	0	[]
4859	2	1	8	60.0	2	1	[(2458, 2)]
4861	1	1	8	60.0	2	0	[]
4884	1	1	8	60.0	2	0	[]
4893	1	1	8	60.0	2	0	[]
4897	2	1	2	60.0	2	0	[]
4912	3	1	8	60.0	2	0	[]
4939	18	4	2	100.0	2	0	[]
4971	3	4	8	60.0	2	0	[]
4974	4	1	2	60.0	2	0	[]
4976	1	1	2	60.0	2	0	[]
4980	17	2	8	60.0	2	1	[(3628, 0)]
5002	2	1	8	60.0	2	0	[]
5004	30	3	8	60.0	2	2	[(2458, 1), (1830, 0)]
5019	2	1	8	60.0	2	0	[]
5030	2	1	8	60.0	2	0	[]
5041	3	1	8	60.0	2	0	[]
5044	1	1	1	60.0	2	0	[]
5051	3	2	8	60.0	2	0	[]
5056	1	2	32	60.0	0	0	[]
5058	1	1	8	60.0	2	0	[]
5068	2	1	8	60.0	2	0	[]
5070	2	3	8	60.0	2	0	[]
5085	3	2	8	60.0	2	0	[]
5099	2	1	8	60.0	2	0	[]
5101	20	6	8	200.0	2	1	[(7801, 0)]
5127	21	4	16	60.0	2	1	[(8400, 0)]
5151	1	1	8	60.0	2	0	[]
5154	2	1	8	60.0	2	0	[]
5177	7	1	8	60.0	2	1	[(2726, 0)]
5193	2	1	8	60.0	2	1	[(6474, 2)]
5207	2	1	8	60.0	2	0	[]
5221	1	1	8	60.0	2	0	[]
5228	7	2	8	60.0	2	0	[]
5244	18	1	8	60.0	2	0	[]
5251	11	6	8	60.0	2	0	[]
5257	2	1	8	60.0	2	0	[]
5263	2	1	8	60.0	2	0	[]
5267	14	4	8	60.0	2	0	[]
5295	20	2	8	60.0	2	0	[]
5308	1	3	8	60.0	2	0	[]
5325	1	1	8	60.0	2	0	[]
5341	4	1	8	60.0	2	0	[]
5377	2	4	8	60.0	2	0	[]
5394	19	1	8	60.0	2	3	[(6474, 2), (1683, 1), (4071, 2)]
5396	1	1	8	60.0	2	0	[]
5407	1	1	8	60.0	2	0	[]
5432	1	1	7	60.0	2	0	[]
5441	24	2	8	40.0	2	1	[(1123, 2)]
5446	5	1	8	60.0	2	0	[]
5451	2	2	8	60.0	2	0	[]
5463	6	1	8	60.0	2	0	[]
5476	20	5	8	60.0	2	0	[]
5516	3	1	8	60.0	2	0	[]
5521	2	1	8	60.0	2	0	[]
5534	2	1	1	60.0	2	0	[]
5539	2	1	3	60.0	2	0	[]
5584	1	1	8	40.0	2	0	[]
5590	9	1	1	60.0	2	0	[]
5629	1	1	8	60.0	2	0	[]
5639	5	6	8	60.0	2	0	[]
5648	2	1	5	60.0	2	0	[]
5651	4	1	8	60.0	2	0	[]
5652	2	1	8	60.0	2	0	[]
5658	2	1	8	60.0	2	0	[]
5659	1	1	8	60.0	2	0	[]
5660	4	4	8	60.0	2	0	[]
5668	2	1	8	60.0	2	0	[]
5670	2	1	8	60.0	2	0	[]
5671	2	1	8	60.0	2	0	[]
5706	1	4	16	80.0	2	0	[]
5712	2	1	8	60.0	2	0	[]
5716	1	1	8	100.0	2	0	[]
5727	1	4	8	60.0	2	0	[]
5734	6	1	8	60.0	2	0	[]
5736	2	1	11	80.0	2	0	[]
5749	1	4	8	60.0	2	0	[]
5756	2	6	8	60.0	2	0	[]
5759	1	1	2	60.0	2	0	[]
5779	3	1	8	60.0	2	0	[]
5782	1	1	8	60.0	2	0	[]
5799	1	8	16	150.0	2	0	[]
5806	1	1	2	60.0	2	0	[]
5812	36	6	8	60.0	2	1	[(3196, 1)]
5818	2	1	8	60.0	2	0	[]
5823	2	1	8	60.0	2	0	[]
5825	2	2	8	60.0	2	0	[]
5830	2	1	8	80.0	2	0	[]
5837	2	1	8	60.0	2	0	[]
5838	1	1	1	60.0	2	0	[]
5848	2	1	6	60.0	2	0	[]
5851	2	1	8	60.0	2	0	[]
5874	1	1	8	60.0	2	0	[]
5892	1	1	96	300.0	2	0	[]
5896	2	1	2	60.0	2	1	[(1515, 0)]
5901	5	1	8	60.0	2	0	[]
5905	149	12	32	100.0	2	9	[(6622, 0), (1328, 0), (3117, 1), (7210, 0), (2353, 2), (8707, 2), (7716, 2), (6097, 2), (7045, 2)]
5916	2	4	8	100.0	2	0	[]
5927	2	1	2	60.0	2	0	[]
5933	3	1	8	60.0	2	0	[]
5948	2	1	2	60.0	2	0	[]
5967	2	1	8	60.0	2	0	[]
5981	3	1	8	60.0	2	1	[(1026, 0)]
5989	2	1	8	60.0	2	0	[]
5995	15	10	16	80.0	2	0	[]
5998	1	1	2	60.0	2	0	[]
6000	1	4	8	60.0	2	0	[]
6002	1	1	8	60.0	2	0	[]
6003	5	1	8	40.0	2	0	[]
6004	1	1	1	60.0	2	0	[]
6010	1	3	8	60.0	2	0	[]
6016	2	1	8	60.0	2	0	[]
6029	2	1	8	60.0	2	0	[]
6037	2	1	2	60.0	2	0	[]
6058	1	1	8	60.0	2	0	[]
6085	9	1	8	60.0	2	0	[]
6090	2	1	1	60.0	2	0	[]
6094	2	1	8	60.0	2	0	[]
6097	2	3	32	60.0	2	5	[(7045, 2), (1328, 2), (3117, 1), (5905, 2), (8707, 2)]
6123	138	6	8	60.0	2	4	[(7447, 0), (3831, 1), (1171, 2), (5905, 0)]
6131	1	2	8	60.0	2	0	[]
6133	3	1	8	60.0	2	0	[]
6139	40	12	16	100.0	0	1	[(3595, 0)]
6161	9	1	8	40.0	2	0	[]
6163	5	2	8	60.0	2	0	[]
6176	11	8	16	60.0	2	0	[]
6183	2	1	8	60.0	2	0	[]
6190	3	1	2	60.0	2	0	[]
6192	2	6	8	60.0	2	0	[]
6207	1	1	8	60.0	2	0	[]
6216	1	1	6	60.0	2	0	[]
6222	1	4	8	60.0	2	0	[]
6241	2	3	8	60.0	2	0	[]
6253	2	1	8	60.0	2	0	[]
6258	10	1	8	60.0	2	1	[(1418, 1)]
6264	2	1	8	60.0	2	0	[]
6286	1	1	8	60.0	2	0	[]
6289	2	1	8	60.0	2	0	[]
6290	1	1	16	60.0	2	0	[]
6299	1	1	2	60.0	2	0	[]
6304	10	2	8	60.0	0	1	[(7039, 0)]
6321	9	1	8	60.0	2	0	[]
6323	2	1	3	60.0	2	0	[]
6331	2	1	8	60.0	2	0	[]
6339	1	8	16	200.0	2	0	[]
6351	2	1	1	60.0	2	0	[]
6353	2	1	8	60.0	2	0	[]
6358	2	1	2	60.0	2	0	[]
6360	2	1	8	60.0	2	0	[]
6369	3	1	8	60.0	2	0	[]
6378	2	1	8	60.0	2	0	[]
6386	1	1	8	60.0	2	0	[]
6395	1	1	8	60.0	2	0	[]
6397	4	1	8	60.0	2	0	[]
6403	1	1	8	60.0	2	0	[]
6443	2	1	8	40.0	2	0	[]
6449	1	1	8	60.0	2	0	[]
6470	2	2	8	60.0	2	0	[]
6474	15	6	8	60.0	2	1	[(4859, 0)]
6480	1	1	1	60.0	2	0	[]
6488	2	4	8	60.0	2	0	[]
6490	3	1	8	60.0	3	0	[]
6502	1	4	8	60.0	2	0	[]
6504	2	2	8	60.0	2	0	[]
6511	4	1	2	60.0	2	0	[]
6515	3	1	3	60.0	2	0	[]
6529	1	1	8	60.0	2	0	[]
6543	1	4	8	60.0	2	0	[]
6558	4	1	8	60.0	2	0	[]
6559	2	5	8	60.0	2	0	[]
6566	1	1	1	60.0	2	0	[]
6575	1	2	8	40.0	2	0	[]
6622	13	3	8	60.0	2	0	[]
6653	2	1	8	60.0	2	0	[]
6656	6	2	8	60.0	2	0	[]
6660	2	1	8	60.0	2	0	[]
6671	1	1	2	60.0	2	0	[]
6684	2	1	8	60.0	2	0	[]
6690	2	4	16	80.0	2	0	[]
6692	28	12	16	100.0	2	0	[]
6705	1	1	8	60.0	2	0	[]
6708	2	36	48	300.0	2	0	[]
6712	1	1	8	60.0	2	0	[]
6725	28	6	8	100.0	2	0	[]
6731	2	4	8	60.0	2	0	[]
6764	2	3	8	60.0	2	0	[]
6771	11	6	8	60.0	2	0	[]
6772	1	8	16	60.0	2	0	[]
6776	2	1	2	60.0	2	0	[]
6803	2	4	8	60.0	2	1	[(310, 2)]
6804	11	6	8	60.0	2	0	[]
6807	1	1	8	60.0	2	0	[]
6813	1	1	1	60.0	2	0	[]
6836	1	4	8	60.0	2	0	[]
6837	5	1	8	60.0	2	0	[]
6844	2	1	2	60.0	2	0	[]
6846	5	1	8	60.0	2	0	[]
6854	2	2	8	60.0	2	0	[]
6878	1	1	8	60.0	2	0	[]
6882	2	1	1	60.0	2	0	[]
6889	2	1	2	60.0	2	0	[]
6931	1	1	8	60.0	2	0	[]
6942	7	1	8	60.0	2	0	[]
6945	2	1	8	60.0	2	0	[]
6947	3	1	8	60.0	2	0	[]
6962	2	1	8	60.0	2	0	[]
6974	2	1	8	60.0	2	0	[]
6982	2	1	8	60.0	2	0	[]
7016	3	1	8	60.0	2	0	[]
7031	1	1	1	60.0	2	0	[]
7038	2	3	8	60.0	2	0	[]
7039	16	1	8	60.0	2	1	[(6304, 0)]
7040	1	1	8	60.0	2	0	[]
7044	2	1	8	60.0	2	0	[]
7045	2	2	16	60.0	2	3	[(7716, 2), (6097, 2), (5905, 2)]
7050	2	1	8	60.0	2	0	[]
7056	1	1	8	60.0	2	0	[]
7075	29	2	8	60.0	2	1	[(3604, 2)]
7078	2	4	8	60.0	2	0	[]
7087	25	4	2	200.0	2	5	[(7484, 0), (310, 1), (5652, 1), (6731, 2), (7959, 2)]
7099	1	1	8	60.0	2	0	[]
7107	2	3	8	60.0	2	0	[]
7112	3	4	2	60.0	2	0	[]
7120	3	1	8	60.0	2	0	[]
7144	4	1	8	60.0	2	0	[]
7158	7	2	8	60.0	2	1	[(4596, 1)]
7160	1	1	2	100.0	2	0	[]
7165	6	1	1	60.0	2	0	[]
7175	1	1	1	60.0	2	0	[]
7180	1	1	8	60.0	2	0	[]
7186	1	1	1	60.0	2	0	[]
7203	1	1	8	60.0	2	0	[]
7210	6	2	8	60.0	2	0	[]
7215	2	4	8	60.0	2	0	[]
7224	1	4	8	60.0	2	0	[]
7225	4	4	8	60.0	2	0	[]
7228	1	1	8	60.0	2	0	[]
7240	1	1	2	60.0	2	0	[]
7243	2	2	8	60.0	2	0	[]
7283	2	1	8	60.0	2	0	[]
7300	1	1	8	60.0	2	0	[]
7301	3	1	2	60.0	2	0	[]
7320	1	4	1	60.0	2	0	[]
7328	1	1	8	60.0	2	0	[]
7330	3	1	8	60.0	2	0	[]
7332	6	1	1	80.0	2	0	[]
7356	9	2	7	60.0	2	0	[]
7365	1	2	8	40.0	2	0	[]
7371	2	1	2	60.0	2	0	[]
7378	1	4	8	60.0	2	0	[]
7386	5	1	8	60.0	2	0	[]
7401	23	3	8	60.0	2	5	[(6474, 0), (1683, 0), (5394, 0), (7658, 2), (9158, 0)]
7410	13	2	2	60.0	2	0	[]
7413	5	1	24	150.0	2	0	[]
7416	3	1	8	60.0	2	0	[]
7428	2	1	8	60.0	2	0	[]
7440	1	4	8	60.0	2	0	[]
7447	20	4	8	60.0	2	0	[]
7469	3	1	8	60.0	2	0	[]
7470	1	1	8	40.0	2	0	[]
7471	3	1	8	60.0	2	0	[]
7484	4	4	8	60.0	2	0	[]
7499	1	4	8	60.0	2	0	[]
7514	2	1	8	60.0	2	0	[]
7515	3	1	16	60.0	1	0	[]
7533	1	2	16	60.0	0	0	[]
7544	1	1	1	60.0	2	0	[]
7545	4	1	8	60.0	2	0	[]
7550	1	1	8	60.0	2	0	[]
7563	18	3	8	60.0	2	1	[(2517, 1)]
7565	1	1	8	60.0	2	0	[]
7573	1	1	8	60.0	2	0	[]
7589	17	6	16	100.0	2	1	[(6692, 0)]
7596	5	4	16	150.0	2	1	[(4058, 0)]
7617	2	1	8	60.0	2	0	[]
7631	1	1	8	60.0	2	0	[]
7632	2	1	2	60.0	2	0	[]
7633	1	1	8	60.0	2	0	[]
7634	2	3	5	60.0	2	0	[]
7646	1	1	8	60.0	2	0	[]
7650	1	4	8	60.0	2	0	[]
7654	1	1	1	60.0	2	0	[]
7658	6	1	4	60.0	2	1	[(1810, 1)]
7659	3	1	8	60.0	2	0	[]
7667	2	1	5	60.0	2	0	[]
7672	2	1	8	60.0	2	0	[]
7676	2	1	8	60.0	2	0	[]
7681	1	1	8	60.0	2	0	[]
7688	2	1	8	60.0	2	0	[]
7695	2	2	8	60.0	2	0	[]
7697	3	2	8	60.0	2	0	[]
7711	2	1	1	60.0	2	0	[]
7716	4	3	32	60.0	2	5	[(7045, 2), (1328, 2), (3117, 1), (5905, 2), (8707, 2)]
7724	6	2	8	60.0	2	0	[]
7742	2	1	8	60.0	2	0	[]
7745	2	1	8	60.0	2	0	[]
7750	1	1	8	167.0	2	0	[]
7751	1	1	8	60.0	2	0	[]
7757	2	1	8	60.0	2	0	[]
7759	3	1	8	60.0	2	0	[]
7767	2	1	1	60.0	2	0	[]
7768	7	4	8	60.0	2	0	[]
7775	2	1	8	60.0	2	0	[]
7789	2	1	8	60.0	2	0	[]
7793	6	1	8	60.0	2	0	[]
7801	1	1	8	60.0	2	0	[]
7802	20	6	8	150.0	2	0	[]
7809	8	1	8	60.0	2	0	[]
7811	3	1	8	60.0	2	0	[]
7818	2	1	8	60.0	2	0	[]
7821	1	1	8	60.0	2	0	[]
7845	6	1	8	60.0	2	0	[]
7848	1	1	8	60.0	2	0	[]
7865	1	1	8	60.0	2	0	[]
7875	2	4	8	60.0	2	0	[]
7877	3	1	8	60.0	2	0	[]
7881	2	1	8	60.0	2	0	[]
7894	2	1	8	60.0	2	0	[]
7895	2	2	2	60.0	2	0	[]
7901	1	1	6	60.0	2	0	[]
7904	2	1	8	60.0	2	0	[]
7915	2	1	8	60.0	2	0	[]
7917	2	1	8	60.0	2	0	[]
7921	2	2	8	60.0	2	0	[]
7953	1	1	8	60.0	2	0	[]
7959	7	6	8	60.0	2	2	[(2708, 0), (2949, 0)]
7961	3	1	8	60.0	2	0	[]
7978	2	2	1	60.0	2	0	[]
7994	1	1	8	60.0	2	0	[]
8001	1	1	6	60.0	2	0	[]
8007	2	4	8	60.0	2	0	[]
8011	3	1	8	60.0	2	0	[]
8014	10	1	8	60.0	2	5	[(9254, 0), (3343, 0), (397, 0), (4071, 1), (4441, 2)]
8025	1	1	1	60.0	2	0	[]
8027	2	4	8	60.0	2	0	[]
8029	1	1	3	60.0	2	0	[]
8043	2	1	6	60.0	2	0	[]
8055	2	2	8	60.0	2	0	[]
8062	1	1	8	60.0	2	0	[]
8080	2	1	8	60.0	2	0	[]
8089	2	1	2	60.0	2	0	[]
8095	5	1	8	60.0	2	0	[]
8106	36	2	8	60.0	2	2	[(1388, 0), (1683, 1)]
8109	3	1	8	60.0	2	0	[]
8111	2	1	8	60.0	2	0	[]
8115	16	2	8	40.0	2	1	[(655, 0)]
8121	2	1	8	60.0	2	0	[]
8129	10	6	8	60.0	2	0	[]
8132	10	5	8	60.0	2	0	[]
8133	2	2	5	60.0	2	0	[]
8138	100	6	8	60.0	2	2	[(3831, 2), (3455, 2)]
8139	28	6	8	60.0	2	0	[]
8154	1	1	8	60.0	2	0	[]
8173	2	1	3	60.0	2	0	[]
8197	4	1	8	80.0	2	0	[]
8203	9	2	8	60.0	2	1	[(4702, 0)]
8208	6	1	8	60.0	2	0	[]
8210	2	1	8	60.0	2	0	[]
8242	8	5	8	60.0	2	0	[]
8263	3	1	8	60.0	2	0	[]
8264	2	2	8	60.0	2	0	[]
8290	2	1	8	60.0	2	0	[]
8291	32	2	8	60.0	2	0	[]
8296	2	1	8	60.0	2	0	[]
8301	3	12	16	200.0	2	0	[]
8302	1	1	2	60.0	2	0	[]
8306	2	1	8	60.0	2	0	[]
8324	44	8	16	100.0	2	0	[]
8329	2	1	7	60.0	2	0	[]
8331	34	2	8	60.0	2	2	[(6339, 2), (6692, 0)]
8332	2	1	3	60.0	2	0	[]
8333	10	2	16	80.0	2	1	[(4039, 0)]
8337	3	2	8	60.0	2	0	[]
8349	7	2	8	60.0	2	0	[]
8353	4	1	3	60.0	2	0	[]
8360	25	3	8	60.0	2	0	[]
8369	2	1	8	60.0	2	0	[]
8377	2	1	8	60.0	2	0	[]
8396	3	1	8	60.0	2	0	[]
8400	1	1	7	60.0	2	0	[]
8404	1	1	8	60.0	2	0	[]
8416	2	48	43	300.0	2	0	[]
8424	2	1	8	60.0	2	0	[]
8427	2	1	6	60.0	2	0	[]
8431	1	1	8	60.0	2	0	[]
8436	3	1	8	80.0	2	0	[]
8444	3	1	8	60.0	2	0	[]
8452	2	1	8	60.0	2	0	[]
8453	9	1	8	60.0	2	0	[]
8458	1	1	8	60.0	2	0	[]
8469	2	1	2	60.0	2	0	[]
8474	1	4	8	60.0	2	0	[]
8484	8	2	8	60.0	2	0	[]
8497	1	1	8	60.0	2	0	[]
8501	1	1	8	60.0	2	0	[]
8508	1	1	8	60.0	2	0	[]
8525	1	4	8	60.0	2	0	[]
8526	2	1	8	60.0	2	0	[]
8559	2	32	128	600.0	2	0	[]
8572	1	1	8	60.0	2	0	[]
8577	1	4	8	60.0	2	0	[]
8582	14	24	32	80.0	2	0	[]
8585	2	1	4	60.0	2	0	[]
8598	2	1	1	60.0	2	1	[(7416, 1)]
8610	2	2	8	60.0	2	0	[]
8614	1	8	16	200.0	2	0	[]
8628	2	2	8	60.0	2	0	[]
8641	14	6	8	60.0	2	1	[(6133, 0)]
8649	2	1	2	60.0	2	0	[]
8654	1	1	8	60.0	2	0	[]
8693	1	1	2	60.0	2	0	[]
8705	3	2	8	60.0	2	0	[]
8707	1	6	16	60.0	2	3	[(7716, 2), (6097, 2), (5905, 2)]
8735	16	1	8	60.0	2	3	[(8291, 1), (1229, 2), (5394, 2)]
8736	11	2	8	60.0	2	0	[]
8745	2	1	8	60.0	2	0	[]
8746	2	1	1	60.0	2	0	[]
8747	2	1	8	60.0	2	0	[]
8765	8	1	8	60.0	2	0	[]
8769	1	1	16	60.0	0	0	[]
8773	8	2	8	60.0	2	1	[(6692, 2)]
8775	2	1	8	60.0	2	0	[]
8785	1	1	8	60.0	2	0	[]
8790	2	1	8	60.0	2	0	[]
8794	1	4	8	60.0	2	0	[]
8797	2	1	8	60.0	2	0	[]
8805	34	5	8	100.0	2	3	[(1395, 0), (4599, 0), (8109, 0)]
8821	5	1	8	60.0	2	0	[]
8823	1	1	8	60.0	2	0	[]
8872	6	1	8	60.0	2	0	[]
8874	1	1	1	60.0	2	0	[]
8878	2	3	8	60.0	2	0	[]
8884	5	2	8	100.0	2	0	[]
8894	4	3	8	60.0	2	0	[]
8903	2	1	7	60.0	2	0	[]
8915	1	1	8	60.0	2	0	[]
8928	4	1	8	60.0	2	0	[]
8929	1	1	2	60.0	2	0	[]
8946	6	2	8	60.0	2	0	[]
8949	2	4	8	60.0	2	0	[]
8963	1	1	1	60.0	2	0	[]
8971	8	1	2	60.0	2	0	[]
8980	2	1	8	60.0	2	0	[]
8982	2	1	8	60.0	2	0	[]
8983	2	4	8	60.0	2	0	[]
8987	2	1	8	60.0	2	0	[]
8999	1	1	1	60.0	2	0	[]
9002	5	2	8	60.0	2	1	[(3343, 2)]
9018	2	1	2	60.0	2	0	[]
9020	2	1	8	60.0	2	0	[]
9027	2	2	32	200.0	0	0	[]
9059	4	7	3	60.0	2	0	[]
9060	2	4	8	60.0	2	0	[]
9097	2	1	8	60.0	2	0	[]
9124	1	1	1	60.0	2	0	[]
9134	2	1	8	60.0	2	0	[]
9146	2	3	16	60.0	0	0	[]
9158	15	2	8	60.0	2	3	[(6474, 0), (1683, 0), (7401, 0)]
9160	2	1	8	60.0	2	0	[]
9162	8	1	8	60.0	2	0	[]
9168	13	6	8	60.0	2	0	[]
9189	1	1	8	60.0	2	0	[]
9192	7	1	8	60.0	2	0	[]
9203	2	1	8	60.0	2	0	[]
9222	2	1	7	60.0	2	0	[]
9250	2	1	8	60.0	2	0	[]
9254	1	1	2	60.0	2	0	[]
9257	4	2	8	60.0	2	0	[]
9267	1	1	1	60.0	2	0	[]
9268	5	1	8	60.0	2	2	[(1830, 0), (5734, 0)]
9270	2	1	8	60.0	2	0	[]
9275	3	1	8	60.0	2	0	[]
9292	2	3	16	60.0	2	0	[]
9296	2	1	6	60.0	2	0	[]
9304	2	1	8	60.0	2	0	[]
9312	2	1	3	60.0	2	0	[]
9323	1	1	1	40.0	2	0	[]
9325	2	1	8	60.0	2	0	[]
9329	3	2	8	60.0	2	0	[]
