app_id	nb_instances	core	memory	disk	intra_value	inter_degree	inter_aff
2	1	1	8	60.0	2	0	[]
10	1	4	8	60.0	2	0	[]
23	2	1	8	60.0	2	0	[]
27	21	3	8	60.0	2	1	[(6659, 0)]
31	1	1	8	60.0	2	0	[]
40	3	6	8	60.0	2	0	[]
74	2	1	9	600.0	2	0	[]
85	3	6	8	60.0	2	0	[]
99	1	1	8	60.0	2	0	[]
112	2	1	2	60.0	2	0	[]
124	1	1	8	60.0	2	0	[]
130	1	2	8	40.0	2	0	[]
139	2	1	6	60.0	2	0	[]
148	2	1	8	60.0	2	0	[]
161	1	1	8	60.0	2	0	[]
185	6	2	8	60.0	2	0	[]
187	5	2	8	60.0	2	0	[]
200	1	4	8	60.0	2	0	[]
229	2	1	3	60.0	2	0	[]
236	10	3	8	60.0	2	0	[]
248	8	8	16	500.0	2	2	[(1388, 1), (705, 1)]
259	3	1	8	60.0	2	0	[]
275	86	3	8	60.0	2	4	[(4015, 1), (5848, 2), (2819, 1), (1742, 2)]
290	103	3	8	60.0	2	1	[(6659, 0)]
295	2	1	8	60.0	2	0	[]
314	1	6	8	60.0	2	0	[]
323	2	2	8	60.0	2	0	[]
342	2	6	8	60.0	2	0	[]
345	1	1	2	60.0	2	0	[]
354	6	1	8	60.0	2	1	[(6659, 0)]
372	1	1	8	60.0	2	0	[]
376	37	2	8	60.0	2	0	[]
389	3	1	8	60.0	2	0	[]
394	2	1	8	60.0	2	0	[]
399	2	1	8	60.0	2	0	[]
416	8	2	8	60.0	2	0	[]
420	2	2	5	60.0	2	0	[]
424	18	2	8	60.0	2	0	[]
427	1	6	8	60.0	2	0	[]
444	3	1	8	60.0	2	0	[]
466	1	6	8	60.0	2	0	[]
484	5	1	8	60.0	2	0	[]
492	2	1	8	60.0	2	0	[]
506	2	1	8	60.0	2	0	[]
515	5	1	8	60.0	2	0	[]
516	17	2	8	60.0	2	0	[]
528	2	1	8	60.0	2	0	[]
532	1	1	8	60.0	2	0	[]
534	2	1	8	60.0	2	0	[]
539	2	1	8	60.0	2	0	[]
541	35	2	8	40.0	2	2	[(7597, 1), (6408, 0)]
552	4	1	8	60.0	2	0	[]
569	4	1	8	60.0	2	0	[]
602	3	1	8	60.0	2	0	[]
628	4	1	8	60.0	2	0	[]
630	2	1	3	60.0	2	0	[]
631	1	1	8	60.0	2	0	[]
644	1	2	8	60.0	2	0	[]
671	2	4	8	60.0	2	0	[]
686	1	4	8	60.0	2	0	[]
700	2	1	2	60.0	2	0	[]
701	41	4	16	60.0	2	6	[(4833, 1), (9308, 2), (4105, 0), (4682, 0), (4015, 0), (3660, 0)]
705	1	1	8	60.0	2	0	[]
707	7	1	8	60.0	2	0	[]
711	2	1	7	60.0	2	0	[]
712	1	1	1	60.0	2	0	[]
715	4	1	8	60.0	2	0	[]
725	25	1	8	60.0	2	3	[(2917, 0), (8433, 0), (8435, 0)]
736	37	4	8	60.0	2	0	[]
739	2	2	16	80.0	2	0	[]
743	1	4	8	60.0	2	0	[]
761	1	4	8	80.0	2	0	[]
776	3	1	8	60.0	2	0	[]
819	3	1	8	80.0	2	0	[]
830	2	1	8	60.0	2	0	[]
833	3	1	8	60.0	2	0	[]
848	2	1	8	60.0	2	0	[]
849	2	1	8	60.0	2	0	[]
884	1	4	8	60.0	2	0	[]
886	2	2	8	60.0	2	0	[]
887	6	1	8	60.0	2	0	[]
889	1	1	8	60.0	2	0	[]
896	1	1	3	200.0	2	0	[]
905	2	1	8	60.0	2	0	[]
920	4	2	8	200.0	2	2	[(3327, 2), (7889, 1)]
933	1	1	8	60.0	2	0	[]
940	20	3	8	60.0	2	0	[]
950	2	2	8	60.0	2	0	[]
952	41	3	8	40.0	2	0	[]
999	2	1	8	60.0	2	0	[]
1001	3	1	8	60.0	2	0	[]
1005	2	1	8	60.0	2	0	[]
1013	7	1	8	60.0	2	0	[]
1017	4	1	9	60.0	2	0	[]
1033	4	1	8	60.0	2	0	[]
1049	4	1	8	60.0	2	0	[]
1064	1	1	8	60.0	2	0	[]
1087	2	1	2	60.0	2	0	[]
1098	2	1	8	60.0	2	0	[]
1110	5	2	8	60.0	2	0	[]
1112	2	1	8	60.0	2	0	[]
1121	2	4	8	60.0	2	1	[(2917, 0)]
1123	76	2	8	60.0	2	26	[(7067, 1), (290, 0), (8293, 1), (5217, 1), (3845, 2), (1227, 1), (5441, 0), (1388, 0), (8583, 1), (3604, 1), (2745, 0), (3327, 1), (1855, 1), (5047, 0), (8194, 0), (1425, 0), (1328, 1), (6408, 0), (7889, 1), (7155, 1), (4042, 1), (2984, 1), (4552, 0), (8069, 0), (3077, 1), (1443, 1)]
1151	1	2	8	60.0	2	0	[]
1158	2	1	8	60.0	2	1	[(6659, 0)]
1180	2	1	8	60.0	2	0	[]
1183	1	4	8	60.0	2	0	[]
1196	3	1	8	100.0	2	0	[]
1217	2	1	6	60.0	2	0	[]
1218	2	1	8	60.0	2	0	[]
1224	12	3	8	60.0	2	1	[(8194, 0)]
1227	76	3	8	60.0	2	2	[(7980, 0), (6659, 0)]
1232	3	1	8	60.0	2	0	[]
1241	3	1	8	60.0	2	0	[]
1243	39	6	8	60.0	2	1	[(2917, 0)]
1263	20	4	8	60.0	2	0	[]
1264	1	4	8	60.0	2	0	[]
1268	2	1	8	60.0	2	0	[]
1273	2	1	7	60.0	2	0	[]
1275	3	6	8	60.0	2	0	[]
1288	16	2	8	60.0	2	0	[]
1315	2	1	2	60.0	2	0	[]
1328	130	12	16	60.0	2	7	[(6659, 0), (8347, 2), (8312, 0), (4048, 2), (4630, 2), (2353, 1), (6060, 3)]
1332	1	1	1	60.0	2	0	[]
1345	3	1	8	60.0	2	0	[]
1346	3	1	8	60.0	2	0	[]
1354	2	1	8	60.0	2	1	[(2138, 0)]
1355	1	1	8	60.0	2	0	[]
1372	9	2	12	80.0	2	2	[(8642, 1), (1742, 2)]
1376	2	4	8	60.0	2	0	[]
1379	1	1	8	60.0	2	0	[]
1388	8	2	8	60.0	2	0	[]
1390	1	1	8	60.0	2	0	[]
1392	3	1	16	80.0	2	0	[]
1411	1	1	16	60.0	2	0	[]
1413	2	1	8	60.0	2	0	[]
1414	13	3	8	60.0	2	0	[]
1420	2	1	32	100.0	2	0	[]
1423	2	1	1	60.0	2	0	[]
1425	39	7	16	200.0	2	1	[(6659, 0)]
1435	3	1	8	60.0	2	0	[]
1437	95	6	8	60.0	2	8	[(5844, 2), (3670, 0), (628, 0), (2300, 0), (6639, 2), (3223, 0), (5386, 0), (6444, 0)]
1443	103	6	8	60.0	0	3	[(6659, 0), (7980, 0), (4576, 0)]
1445	1	2	6	60.0	2	0	[]
1476	2	1	8	60.0	2	0	[]
1477	1	1	8	60.0	2	0	[]
1484	2	1	8	60.0	2	0	[]
1486	2	1	8	60.0	2	0	[]
1492	1	4	8	60.0	2	0	[]
1499	2	1	8	60.0	2	0	[]
1505	2	1	8	60.0	2	0	[]
1512	1	1	4	60.0	2	0	[]
1517	1	1	8	60.0	2	0	[]
1521	1	1	8	167.0	2	0	[]
1526	2	1	8	60.0	2	0	[]
1541	60	6	8	60.0	2	10	[(5779, 1), (7900, 0), (275, 1), (3972, 2), (4552, 2), (7879, 0), (3555, 2), (6763, 0), (776, 2), (6725, 1)]
1543	2	1	8	60.0	2	0	[]
1552	1	4	8	60.0	2	0	[]
1570	2	1	7	60.0	2	0	[]
1573	1	1	1	60.0	2	0	[]
1575	2	1	8	60.0	2	0	[]
1601	1	2	16	60.0	2	0	[]
1616	5	1	8	60.0	2	0	[]
1623	2	1	2	60.0	2	0	[]
1626	1	1	8	60.0	2	0	[]
1634	5	6	8	60.0	2	0	[]
1638	4	1	8	60.0	2	0	[]
1640	13	2	8	60.0	2	0	[]
1662	23	3	8	60.0	2	0	[]
1672	1	4	8	60.0	2	1	[(6659, 0)]
1677	2	2	8	60.0	2	0	[]
1680	1	1	8	60.0	2	0	[]
1681	1	1	8	60.0	2	0	[]
1684	2	1	8	60.0	2	0	[]
1686	2	4	8	60.0	2	0	[]
1694	2	1	1	60.0	2	0	[]
1698	2	1	1	80.0	2	0	[]
1707	2	1	8	60.0	2	0	[]
1711	1	1	8	60.0	2	0	[]
1714	1	1	7	60.0	2	0	[]
1718	2	2	8	60.0	2	0	[]
1735	4	2	8	60.0	2	0	[]
1736	4	1	8	60.0	2	1	[(6659, 0)]
1742	11	1	8	60.0	2	1	[(7889, 1)]
1745	1	4	16	80.0	2	0	[]
1757	6	2	16	80.0	2	0	[]
1763	1	2	8	60.0	2	0	[]
1774	2	1	8	60.0	2	0	[]
1777	26	12	2	60.0	2	1	[(6659, 0)]
1782	14	2	16	60.0	2	0	[]
1784	22	1	8	60.0	2	0	[]
1787	2	4	8	60.0	2	0	[]
1810	6	1	7	60.0	2	0	[]
1827	2	1	8	60.0	2	0	[]
1838	2	1	8	60.0	2	0	[]
1840	3	1	8	60.0	2	0	[]
1855	47	3	16	80.0	2	1	[(6659, 0)]
1872	4	2	8	60.0	2	0	[]
1874	3	1	8	60.0	2	0	[]
1918	3	1	1	60.0	2	0	[]
1923	2	1	2	60.0	2	0	[]
1926	1	1	8	60.0	2	0	[]
1929	7	4	16	60.0	2	0	[]
1935	1	1	2	60.0	2	0	[]
1937	2	5	8	60.0	2	0	[]
1974	1	2	16	60.0	2	0	[]
1983	5	2	2	60.0	2	0	[]
2010	2	1	2	60.0	2	0	[]
2034	10	2	8	60.0	2	1	[(4522, 2)]
2038	1	1	8	60.0	2	0	[]
2057	3	1	8	60.0	2	0	[]
2068	1	1	8	60.0	2	0	[]
2081	1	6	2	60.0	2	0	[]
2097	1	1	8	60.0	2	0	[]
2103	2	1	8	60.0	2	0	[]
2105	1	1	8	60.0	2	0	[]
2110	2	1	8	60.0	2	0	[]
2117	2	2	8	60.0	2	0	[]
2135	2	1	8	60.0	2	0	[]
2138	4	1	8	60.0	2	1	[(1354, 0)]
2147	6	1	8	250.0	2	0	[]
2149	1	1	8	60.0	2	0	[]
2154	1	1	2	60.0	2	0	[]
2155	6	4	2	100.0	2	0	[]
2158	2	1	8	60.0	2	0	[]
2162	2	1	8	60.0	2	0	[]
2174	2	1	8	60.0	2	0	[]
2180	10	1	8	60.0	2	0	[]
2192	3	1	16	60.0	2	0	[]
2196	2	1	4	60.0	2	0	[]
2212	2	1	8	60.0	2	0	[]
2228	1	8	16	60.0	2	0	[]
2236	2	4	8	60.0	2	0	[]
2243	2	1	8	60.0	2	0	[]
2249	1	1	8	60.0	2	0	[]
2251	5	2	8	60.0	2	0	[]
2268	2	1	8	60.0	2	0	[]
2300	6	2	8	60.0	2	0	[]
2307	1	1	8	60.0	2	5	[(2068, 0), (6847, 0), (5149, 0), (5545, 0), (6711, 0)]
2313	1	1	8	60.0	2	0	[]
2315	2	1	8	60.0	2	0	[]
2331	1	1	4	60.0	2	0	[]
2353	64	6	8	40.0	2	1	[(6659, 0)]
2357	2	1	8	60.0	2	0	[]
2366	1	4	8	60.0	2	0	[]
2385	1	1	8	60.0	2	0	[]
2387	1	1	8	60.0	2	0	[]
2388	1	4	8	60.0	2	0	[]
2400	1	1	8	60.0	2	0	[]
2412	1	1	8	60.0	2	0	[]
2413	2	4	8	60.0	2	0	[]
2415	2	1	8	60.0	2	0	[]
2419	2	1	8	60.0	2	0	[]
2424	2	1	8	60.0	2	0	[]
2431	3	4	8	60.0	2	0	[]
2436	4	4	8	60.0	2	0	[]
2440	4	1	8	60.0	2	0	[]
2456	5	4	8	60.0	2	0	[]
2475	6	1	8	60.0	2	0	[]
2478	16	1	8	60.0	2	2	[(484, 0), (4847, 0)]
2529	2	1	8	60.0	2	0	[]
2545	2	1	8	60.0	2	0	[]
2554	2	1	8	60.0	2	0	[]
2557	2	1	8	60.0	2	0	[]
2559	2	1	8	60.0	2	0	[]
2565	2	4	16	80.0	2	0	[]
2566	2	2	8	60.0	2	0	[]
2572	2	1	8	60.0	2	0	[]
2580	2	1	2	60.0	2	0	[]
2589	3	1	8	60.0	2	0	[]
2629	3	2	8	60.0	2	0	[]
2649	19	5	8	60.0	2	0	[]
2650	3	2	8	60.0	2	0	[]
2683	2	1	8	60.0	2	0	[]
2686	2	1	2	60.0	2	0	[]
2687	1	1	8	60.0	2	0	[]
2691	1	1	8	60.0	2	0	[]
2704	2	1	8	60.0	2	0	[]
2710	78	6	10	60.0	0	2	[(8241, 1), (905, 0)]
2727	1	1	8	60.0	2	0	[]
2745	46	12	16	80.0	2	3	[(6911, 0), (3077, 0), (1855, 0)]
2756	1	4	8	60.0	2	0	[]
2759	2	1	8	60.0	2	0	[]
2762	1	1	8	60.0	2	0	[]
2764	2	6	8	60.0	2	0	[]
2779	1	1	4	60.0	2	0	[]
2787	2	1	8	60.0	2	0	[]
2789	1	2	8	80.0	2	0	[]
2790	2	1	8	60.0	2	0	[]
2797	2	1	8	60.0	2	0	[]
2798	5	3	8	60.0	2	0	[]
2799	2	1	8	60.0	2	0	[]
2819	4	2	8	60.0	2	0	[]
2837	1	1	8	60.0	0	0	[]
2842	2	1	8	60.0	2	0	[]
2858	1	1	8	60.0	2	0	[]
2868	1	1	8	60.0	2	0	[]
2869	1	1	8	200.0	2	0	[]
2881	1	1	2	60.0	2	0	[]
2883	4	1	8	60.0	2	0	[]
2885	1	1	8	60.0	2	0	[]
2904	108	5	8	100.0	0	9	[(5553, 1), (6644, 1), (3043, 1), (2917, 0), (2475, 2), (8435, 0), (7943, 2), (5568, 2), (8761, 1)]
2915	2	1	8	60.0	2	0	[]
2917	3	6	8	60.0	2	0	[]
2921	2	6	8	60.0	2	0	[]
2924	4	2	8	60.0	2	0	[]
2929	2	1	8	60.0	2	0	[]
2933	1	3	8	60.0	2	0	[]
2950	1	1	3	60.0	2	0	[]
2951	1	1	8	60.0	2	0	[]
2962	6	6	2	60.0	2	0	[]
2965	2	4	8	60.0	2	0	[]
2980	10	1	8	60.0	2	0	[]
2984	20	5	8	60.0	2	0	[]
2992	1	1	2	60.0	2	0	[]
3043	1	2	8	60.0	2	0	[]
3050	4	1	8	60.0	2	0	[]
3053	4	1	8	60.0	2	0	[]
3077	130	6	8	60.0	2	3	[(6659, 0), (3845, 1), (1435, 0)]
3088	24	3	8	60.0	2	0	[]
3099	1	1	8	60.0	2	0	[]
3111	2	1	8	60.0	2	0	[]
3114	2	1	8	60.0	2	0	[]
3121	6	3	2	60.0	2	0	[]
3132	3	1	8	60.0	2	0	[]
3143	2	1	8	60.0	2	0	[]
3151	2	1	2	60.0	2	0	[]
3165	8	5	8	60.0	2	0	[]
3167	1	1	8	60.0	2	0	[]
3168	10	2	8	60.0	2	1	[(5482, 0)]
3176	3	1	8	60.0	2	0	[]
3184	1	1	8	60.0	2	0	[]
3193	2	2	7	60.0	2	0	[]
3195	3	1	8	60.0	2	0	[]
3205	2	1	8	60.0	2	0	[]
3207	1	1	8	60.0	2	0	[]
3210	24	6	8	60.0	2	1	[(1694, 1)]
3212	3	2	8	60.0	2	0	[]
3223	5	2	8	60.0	2	0	[]
3224	2	2	8	60.0	2	0	[]
3227	2	2	8	60.0	2	0	[]
3232	1	1	8	60.0	2	0	[]
3234	2	1	8	60.0	2	0	[]
3251	3	1	8	300.0	2	0	[]
3256	1	1	8	60.0	2	0	[]
3268	1	1	8	60.0	2	0	[]
3281	1	1	8	60.0	2	0	[]
3295	4	2	8	60.0	2	0	[]
3301	3	1	8	60.0	2	1	[(6659, 0)]
3304	2	1	8	60.0	2	0	[]
3327	407	4	8	60.0	0	9	[(1672, 2), (516, 0), (1263, 0), (6659, 0), (9046, 0), (7980, 0), (3479, 2), (8312, 0), (3845, 0)]
3335	5	1	8	60.0	2	2	[(5063, 0), (7763, 0)]
3356	6	6	8	60.0	2	19	[(8529, 2), (40, 1), (6370, 2), (8993, 2), (5025, 2), (2192, 0), (4302, 2), (1742, 2), (2057, 2), (5638, 1), (6463, 2), (187, 2), (23, 2), (5452, 1), (3251, 2), (3132, 2), (8669, 2), (8761, 2), (950, 1)]
3361	1	1	8	60.0	2	0	[]
3382	3	1	8	60.0	2	0	[]
3384	2	1	6	60.0	2	0	[]
3400	4	1	8	60.0	2	0	[]
3412	1	1	8	60.0	2	0	[]
3438	1	1	8	60.0	2	0	[]
3442	2	3	8	60.0	2	0	[]
3447	1	3	8	60.0	2	0	[]
3455	4	3	8	60.0	2	0	[]
3460	2	1	8	40.0	2	0	[]
3471	1	1	2	60.0	2	0	[]
3479	49	6	8	60.0	2	0	[]
3505	4	2	8	60.0	2	0	[]
3510	2	1	8	60.0	2	0	[]
3511	8	6	8	40.0	2	1	[(4048, 2)]
3522	1	1	1	60.0	2	0	[]
3535	1	4	8	60.0	2	0	[]
3541	2	1	8	60.0	2	0	[]
3550	1	1	8	60.0	2	0	[]
3555	60	3	8	60.0	2	3	[(6340, 2), (7067, 0), (7445, 0)]
3562	3	1	2	60.0	2	0	[]
3564	5	1	8	60.0	2	0	[]
3575	1	1	2	60.0	2	0	[]
3587	3	4	8	60.0	2	1	[(5020, 1)]
3601	1	1	2	60.0	2	0	[]
3604	19	5	8	60.0	2	0	[]
3615	2	1	8	60.0	2	0	[]
3638	1	4	8	60.0	2	0	[]
3641	2	1	8	60.0	2	0	[]
3648	2	4	8	60.0	2	0	[]
3660	5	1	8	60.0	2	0	[]
3664	1	1	8	60.0	2	0	[]
3670	2	2	8	60.0	2	0	[]
3671	2	1	8	60.0	2	0	[]
3701	21	1	8	60.0	2	0	[]
3717	2	1	8	60.0	2	0	[]
3719	2	1	8	60.0	2	0	[]
3726	3	6	8	40.0	2	0	[]
3730	2	1	8	60.0	2	0	[]
3731	191	5	8	60.0	2	12	[(707, 2), (6468, 2), (1840, 2), (8641, 0), (2883, 1), (9174, 2), (1486, 2), (1413, 2), (6884, 2), (2559, 1), (8669, 2), (7369, 0)]
3737	2	1	8	60.0	2	0	[]
3744	1	4	8	60.0	2	0	[]
3760	1	1	8	60.0	2	0	[]
3762	2	1	2	60.0	2	0	[]
3768	1	1	8	60.0	2	0	[]
3789	1	1	5	60.0	2	0	[]
3823	1	1	8	60.0	2	0	[]
3827	1	1	6	60.0	2	0	[]
3844	1	1	8	60.0	2	0	[]
3845	20	2	16	60.0	2	0	[]
3859	1	7	24	80.0	2	0	[]
3883	1	1	8	60.0	2	0	[]
3907	2	1	2	60.0	2	0	[]
3908	1	1	1	60.0	2	19	[(8663, 0), (2010, 0), (2924, 0), (4965, 0), (1049, 0), (2243, 0), (4322, 0), (5302, 0), (8835, 0), (6924, 0), (7200, 0), (4219, 0), (8745, 0), (2097, 0), (6106, 0), (7723, 0), (7955, 0), (8889, 0), (5845, 0)]
3972	6	1	8	60.0	2	0	[]
3974	2	4	8	60.0	2	0	[]
3985	3	1	8	60.0	2	0	[]
4005	2	4	8	60.0	2	0	[]
4015	2	1	8	60.0	2	0	[]
4024	2	4	8	60.0	2	0	[]
4027	3	1	8	60.0	2	0	[]
4029	8	2	8	60.0	2	0	[]
4038	13	1	8	60.0	2	0	[]
4042	34	3	16	60.0	0	1	[(1328, 2)]
4048	36	12	32	100.0	2	7	[(6880, 0), (1328, 2), (8069, 0), (5080, 1), (7889, 0), (6060, 2), (6659, 0)]
4049	2	2	8	60.0	2	0	[]
4058	22	3	8	60.0	2	0	[]
4059	4	1	16	60.0	2	0	[]
4062	2	4	8	60.0	2	0	[]
4072	1	1	8	60.0	2	0	[]
4076	4	1	8	60.0	2	1	[(6659, 0)]
4088	1	1	8	60.0	2	0	[]
4095	2	1	8	60.0	2	0	[]
4096	2	1	8	60.0	2	0	[]
4105	1	4	8	60.0	2	0	[]
4136	2	1	3	60.0	2	0	[]
4147	10	6	8	60.0	2	2	[(6659, 0), (5025, 2)]
4161	65	1	8	60.0	2	3	[(9336, 1), (5143, 2), (4048, 2)]
4164	4	2	32	80.0	2	0	[]
4179	1	1	8	60.0	2	0	[]
4208	1	1	8	60.0	2	0	[]
4212	4	1	8	60.0	2	0	[]
4217	2	1	8	60.0	2	0	[]
4219	2	1	8	60.0	2	0	[]
4226	2	1	2	60.0	2	0	[]
4250	2	1	8	60.0	2	0	[]
4262	71	7	16	100.0	2	2	[(4147, 0), (6659, 0)]
4266	1	2	2	60.0	2	0	[]
4269	4	4	8	60.0	2	0	[]
4282	7	5	32	200.0	2	1	[(8451, 0)]
4285	1	1	8	60.0	2	0	[]
4293	1	1	8	60.0	2	0	[]
4302	4	1	8	60.0	2	0	[]
4305	1	4	8	60.0	2	0	[]
4306	1	1	8	60.0	2	0	[]
4308	2	24	48	300.0	2	0	[]
4322	3	4	8	60.0	2	0	[]
4336	1	4	8	80.0	2	0	[]
4357	2	3	16	60.0	0	0	[]
4361	3	1	8	60.0	2	0	[]
4386	69	2	8	60.0	2	4	[(6659, 0), (7980, 1), (4048, 2), (4576, 2)]
4389	2	1	8	60.0	2	0	[]
4428	3	1	8	60.0	2	0	[]
4433	1	1	8	60.0	2	0	[]
4445	2	3	8	60.0	2	0	[]
4459	12	6	8	60.0	2	0	[]
4483	2	1	8	60.0	2	0	[]
4486	7	11	16	100.0	2	0	[]
4501	2	1	8	60.0	2	0	[]
4512	3	2	8	60.0	2	0	[]
4521	1	1	8	60.0	2	0	[]
4522	42	12	16	100.0	2	2	[(1855, 0), (6659, 0)]
4523	1	1	16	100.0	2	0	[]
4526	2	1	8	60.0	2	0	[]
4528	1	1	8	60.0	2	0	[]
4532	2	1	8	60.0	2	0	[]
4535	2	2	8	60.0	2	0	[]
4536	12	3	8	100.0	2	1	[(4038, 1)]
4552	14	6	8	60.0	2	1	[(1328, 0)]
4554	2	1	1	60.0	2	0	[]
4559	4	1	8	60.0	2	0	[]
4575	5	1	8	60.0	2	0	[]
4576	61	4	8	40.0	0	3	[(6659, 0), (2081, 0), (2353, 1)]
4600	2	1	8	60.0	2	0	[]
4606	4	8	16	200.0	2	0	[]
4607	2	1	2	60.0	2	0	[]
4612	1	1	8	60.0	2	0	[]
4630	1	3	32	100.0	2	3	[(5080, 1), (1328, 2), (6060, 2)]
4632	4	7	16	60.0	2	0	[]
4636	2	1	8	60.0	2	0	[]
4643	1	1	8	60.0	2	0	[]
4673	1	4	8	60.0	2	0	[]
4676	2	2	8	60.0	2	0	[]
4682	2	1	8	60.0	2	0	[]
4692	14	1	8	60.0	2	1	[(8369, 0)]
4750	11	1	8	60.0	2	0	[]
4765	1	1	8	60.0	2	0	[]
4774	2	1	8	60.0	2	0	[]
4776	1	1	8	60.0	2	0	[]
4778	27	2	8	40.0	2	3	[(4048, 0), (2353, 1), (6659, 0)]
4795	1	1	2	60.0	2	0	[]
4798	1	1	8	60.0	2	0	[]
4803	2	1	8	60.0	2	0	[]
4804	2	1	8	60.0	2	0	[]
4826	2	4	16	60.0	2	0	[]
4833	2	3	8	60.0	2	0	[]
4835	2	1	8	60.0	2	0	[]
4838	1	4	8	60.0	2	0	[]
4840	5	6	8	60.0	2	0	[]
4847	4	6	8	60.0	2	0	[]
4856	2	4	8	60.0	2	0	[]
4858	11	12	2	60.0	2	4	[(569, 0), (7067, 0), (5903, 0), (7266, 0)]
4869	9	3	8	80.0	2	0	[]
4880	1	1	8	60.0	2	0	[]
4885	2	1	8	60.0	2	0	[]
4894	2	1	8	60.0	2	0	[]
4906	2	1	8	60.0	2	0	[]
4933	7	2	8	60.0	2	0	[]
4936	5	1	8	60.0	2	0	[]
4937	1	1	2	60.0	2	0	[]
4952	1	2	8	60.0	2	0	[]
4957	2	1	8	60.0	2	0	[]
4958	2	1	9	80.0	2	0	[]
4961	1	1	8	60.0	2	0	[]
4965	3	1	8	60.0	2	0	[]
4966	3	4	8	60.0	2	0	[]
5000	2	1	8	60.0	2	0	[]
5004	30	3	8	60.0	2	2	[(4038, 0), (6911, 0)]
5006	1	2	4	60.0	2	0	[]
5009	2	1	8	60.0	2	0	[]
5012	2	2	8	60.0	2	0	[]
5020	2	1	8	60.0	2	0	[]
5025	7	1	8	60.0	2	0	[]
5047	7	2	8	60.0	2	2	[(290, 0), (5317, 0)]
5062	1	1	8	60.0	2	0	[]
5063	58	4	5	200.0	2	3	[(6964, 0), (6659, 0), (6408, 0)]
5069	2	1	8	60.0	2	0	[]
5080	1	8	16	60.0	2	5	[(8347, 3), (1328, 2), (4048, 3), (4630, 3), (6060, 2)]
5088	1	1	2	60.0	2	0	[]
5090	1	2	8	60.0	2	0	[]
5100	1	1	3	60.0	2	0	[]
5115	1	1	8	60.0	2	0	[]
5143	1	1	8	60.0	2	0	[]
5147	2	1	8	60.0	2	0	[]
5149	2	2	8	60.0	2	0	[]
5157	1	1	8	60.0	2	0	[]
5172	8	1	8	60.0	2	1	[(2915, 2)]
5173	1	1	8	60.0	2	0	[]
5180	2	1	8	60.0	2	0	[]
5183	3	4	8	60.0	2	0	[]
5191	1	4	8	60.0	2	0	[]
5193	2	1	8	60.0	2	0	[]
5201	2	1	8	60.0	2	0	[]
5210	1	1	8	60.0	2	0	[]
5213	4	1	8	100.0	2	0	[]
5216	2	1	8	60.0	2	0	[]
5217	28	5	2	200.0	2	1	[(6659, 0)]
5243	1	1	2	60.0	2	0	[]
5249	2	2	8	60.0	2	0	[]
5262	8	1	8	60.0	2	0	[]
5287	1	1	8	60.0	2	0	[]
5294	2	1	8	60.0	2	0	[]
5297	2	1	3	60.0	2	0	[]
5300	1	1	8	60.0	2	0	[]
5302	1	1	8	60.0	2	0	[]
5315	2	1	5	60.0	2	0	[]
5317	3	1	2	60.0	2	0	[]
5319	1	4	8	60.0	2	0	[]
5330	2	1	8	60.0	2	0	[]
5334	1	1	8	60.0	2	0	[]
5341	4	1	8	60.0	2	0	[]
5343	1	4	8	60.0	2	0	[]
5355	1	1	8	60.0	2	0	[]
5373	1	1	8	60.0	2	0	[]
5377	2	4	8	60.0	2	0	[]
5386	7	1	8	60.0	2	0	[]
5400	2	1	8	60.0	2	0	[]
5401	5	1	8	60.0	2	0	[]
5416	2	1	1	60.0	2	0	[]
5421	4	1	8	60.0	2	0	[]
5424	2	1	8	60.0	2	0	[]
5439	4	1	8	60.0	2	0	[]
5441	24	2	8	40.0	2	2	[(1123, 2), (4048, 2)]
5452	5	1	8	60.0	2	0	[]
5463	6	1	8	60.0	2	0	[]
5471	2	1	8	60.0	2	0	[]
5482	2	1	8	60.0	2	0	[]
5485	2	1	7	60.0	2	0	[]
5508	1	1	2	60.0	2	0	[]
5509	1	1	8	60.0	2	0	[]
5510	1	1	8	60.0	2	1	[(6659, 0)]
5523	8	2	8	60.0	2	0	[]
5545	2	1	8	60.0	2	0	[]
5553	2	1	8	60.0	2	0	[]
5555	1	1	2	60.0	2	0	[]
5563	3	2	8	60.0	2	0	[]
5568	3	1	8	60.0	2	0	[]
5588	2	1	8	60.0	2	1	[(3562, 0)]
5594	1	1	8	60.0	2	0	[]
5613	1	1	8	60.0	2	0	[]
5631	3	1	8	60.0	2	0	[]
5637	1	1	2	60.0	2	0	[]
5638	2	1	2	60.0	2	0	[]
5639	5	6	8	60.0	2	0	[]
5663	1	3	8	60.0	2	0	[]
5665	7	6	8	60.0	2	0	[]
5704	2	1	8	60.0	2	0	[]
5710	2	1	3	60.0	2	0	[]
5712	2	1	8	60.0	2	0	[]
5733	1	1	8	60.0	2	0	[]
5740	29	2	8	60.0	0	6	[(2353, 0), (4048, 0), (8347, 0), (4576, 0), (8451, 0), (5172, 1)]
5743	2	2	8	60.0	2	0	[]
5748	2	1	8	60.0	2	0	[]
5749	1	4	8	60.0	2	0	[]
5756	2	6	8	60.0	2	0	[]
5764	14	3	8	60.0	2	0	[]
5767	6	1	8	60.0	2	0	[]
5769	1	4	8	60.0	2	0	[]
5773	2	1	8	60.0	2	0	[]
5779	3	1	8	60.0	2	0	[]
5802	1	1	8	60.0	2	0	[]
5809	2	1	8	60.0	2	0	[]
5811	1	1	8	60.0	2	0	[]
5819	1	1	3	60.0	2	0	[]
5823	2	1	8	60.0	2	0	[]
5827	1	1	2	60.0	2	0	[]
5844	2	1	8	60.0	2	0	[]
5845	1	1	1	60.0	2	0	[]
5848	2	1	6	60.0	2	0	[]
5852	1	1	8	60.0	2	0	[]
5854	2	1	8	60.0	2	0	[]
5871	15	6	8	60.0	2	1	[(7445, 1)]
5874	1	1	8	60.0	2	0	[]
5894	2	1	8	60.0	2	1	[(5968, 1)]
5901	5	1	8	60.0	2	0	[]
5903	17	6	8	60.0	2	4	[(4858, 2), (4038, 1), (8293, 1), (6628, 2)]
5907	1	1	8	60.0	2	0	[]
5916	2	4	8	100.0	2	0	[]
5928	1	1	16	100.0	2	0	[]
5945	1	1	1	60.0	2	0	[]
5951	2	1	8	60.0	2	0	[]
5952	2	1	8	60.0	2	0	[]
5954	10	1	8	60.0	2	2	[(7992, 0), (8992, 0)]
5961	6	2	8	60.0	2	0	[]
5968	3	1	8	60.0	2	0	[]
5985	1	4	8	60.0	2	0	[]
5993	1	1	8	60.0	2	0	[]
5998	1	1	2	60.0	2	0	[]
6012	2	4	8	60.0	2	0	[]
6052	4	1	2	60.0	2	0	[]
6060	1	2	16	60.0	1	5	[(5080, 1), (8347, 2), (1328, 2), (4048, 2), (4630, 2)]
6062	9	2	3	80.0	2	0	[]
6063	2	1	7	60.0	2	0	[]
6065	2	1	2	1000.0	2	0	[]
6067	17	3	8	60.0	2	0	[]
6071	1	1	5	100.0	2	0	[]
6087	1	4	8	60.0	2	0	[]
6103	17	6	8	60.0	2	1	[(6659, 0)]
6106	6	5	8	60.0	2	0	[]
6123	138	6	8	60.0	2	3	[(6659, 0), (1423, 0), (6450, 0)]
6135	1	1	8	60.0	2	0	[]
6136	4	1	8	60.0	2	0	[]
6140	1	5	8	60.0	2	1	[(1742, 2)]
6147	4	3	8	60.0	2	0	[]
6168	1	1	8	60.0	2	0	[]
6171	16	1	1	60.0	2	0	[]
6172	10	1	8	60.0	2	0	[]
6173	2	1	8	60.0	2	0	[]
6175	1	4	8	60.0	2	0	[]
6186	3	1	8	60.0	2	1	[(185, 1)]
6189	2	1	8	60.0	2	0	[]
6194	1	1	8	60.0	2	0	[]
6198	1	1	8	60.0	2	0	[]
6203	1	3	8	60.0	2	0	[]
6205	1	1	8	60.0	2	0	[]
6218	4	1	16	200.0	2	0	[]
6220	3	1	8	60.0	2	0	[]
6247	2	1	8	60.0	2	0	[]
6278	3	1	8	60.0	2	0	[]
6282	7	2	8	60.0	2	0	[]
6320	2	3	8	60.0	2	0	[]
6327	2	1	8	60.0	2	0	[]
6333	1	1	8	60.0	2	0	[]
6338	2	1	8	60.0	2	0	[]
6339	1	8	16	200.0	2	0	[]
6340	3	1	8	60.0	2	1	[(1810, 2)]
6357	3	1	8	80.0	2	0	[]
6370	1	1	8	60.0	2	0	[]
6371	1	1	8	60.0	2	0	[]
6372	2	4	8	60.0	2	0	[]
6375	10	3	8	100.0	2	0	[]
6380	3	1	8	60.0	2	1	[(3327, 2)]
6382	2	2	8	60.0	2	0	[]
6384	3	1	8	100.0	2	0	[]
6394	1	1	2	60.0	2	0	[]
6399	1	1	8	60.0	2	0	[]
6404	2	1	8	60.0	2	0	[]
6408	10	2	16	60.0	2	1	[(1328, 0)]
6411	2	1	8	60.0	2	0	[]
6435	1	1	1	60.0	2	0	[]
6437	1	1	8	60.0	2	0	[]
6442	20	2	8	60.0	2	2	[(6911, 1), (2710, 2)]
6444	3	3	3	60.0	2	0	[]
6450	5	2	16	60.0	2	1	[(8194, 0)]
6458	1	5	8	60.0	2	0	[]
6460	2	4	8	60.0	2	0	[]
6463	10	2	8	60.0	2	0	[]
6464	2	1	8	60.0	2	0	[]
6468	2	1	8	60.0	2	0	[]
6481	5	2	8	60.0	2	0	[]
6505	2	1	8	60.0	2	0	[]
6526	2	4	8	60.0	2	0	[]
6537	1	1	8	60.0	2	0	[]
6542	1	1	1	40.0	0	0	[]
6544	1	1	8	60.0	2	0	[]
6547	1	1	8	60.0	2	0	[]
6555	2	4	8	80.0	2	0	[]
6583	3	1	8	60.0	2	0	[]
6589	2	1	8	60.0	2	0	[]
6590	7	8	16	80.0	2	0	[]
6593	22	3	8	60.0	2	0	[]
6595	8	2	8	60.0	2	0	[]
6604	2	2	8	60.0	2	0	[]
6608	3	1	8	60.0	2	0	[]
6618	1	4	8	60.0	2	0	[]
6628	21	5	8	60.0	2	0	[]
6629	3	1	8	60.0	2	0	[]
6631	2	1	8	60.0	2	0	[]
6639	3	1	5	60.0	2	0	[]
6641	1	3	8	60.0	2	0	[]
6644	2	1	2	60.0	2	0	[]
6649	1	4	8	60.0	2	0	[]
6659	117	3	8	120.0	0	39	[(7067, 0), (1328, 0), (290, 0), (4778, 0), (8293, 0), (1425, 0), (4048, 0), (4386, 0), (4576, 0), (4076, 0), (5217, 0), (7889, 0), (5823, 2), (4147, 0), (5063, 0), (1855, 0), (3077, 0), (4522, 0), (6911, 0), (4262, 0), (3301, 0), (1777, 0), (1227, 0), (5510, 0), (8347, 0), (1443, 0), (1672, 0), (6880, 0), (6103, 0), (8069, 0), (8165, 0), (354, 0), (1736, 0), (6123, 0), (2353, 0), (3327, 0), (7922, 0), (1158, 0), (27, 0)]
6660	2	1	8	60.0	2	0	[]
6662	3	2	8	60.0	2	0	[]
6679	2	1	2	60.0	2	0	[]
6686	3	1	8	60.0	2	0	[]
6711	14	6	8	60.0	2	1	[(5553, 1)]
6719	9	1	8	60.0	2	0	[]
6721	2	3	8	60.0	2	0	[]
6725	28	6	8	100.0	2	2	[(1677, 2), (1354, 2)]
6727	1	4	8	60.0	2	0	[]
6740	1	2	16	60.0	2	0	[]
6748	2	1	8	60.0	2	0	[]
6751	1	1	1	60.0	2	0	[]
6763	4	1	6	60.0	2	0	[]
6772	1	8	16	60.0	2	0	[]
6783	1	1	16	60.0	2	0	[]
6787	3	1	8	60.0	2	0	[]
6797	1	1	8	60.0	2	0	[]
6798	1	1	8	60.0	2	0	[]
6799	2	1	1	60.0	2	0	[]
6808	39	2	8	60.0	2	0	[]
6821	2	1	2	60.0	2	0	[]
6825	1	1	8	60.0	2	0	[]
6828	3	1	8	60.0	2	0	[]
6842	4	1	8	60.0	2	0	[]
6845	2	4	8	60.0	2	0	[]
6847	2	1	2	60.0	2	0	[]
6856	2	1	8	60.0	2	0	[]
6859	2	1	8	60.0	2	0	[]
6868	1	1	8	60.0	2	0	[]
6872	1	1	7	60.0	2	0	[]
6874	5	1	8	60.0	2	0	[]
6875	2	1	8	60.0	2	0	[]
6880	75	2	8	40.0	2	3	[(8347, 2), (4048, 1), (6659, 0)]
6883	20	5	8	60.0	2	0	[]
6884	6	2	8	60.0	2	0	[]
6911	275	6	8	60.0	2	3	[(6659, 0), (7826, 2), (8199, 0)]
6924	1	1	2	60.0	2	0	[]
6927	1	4	8	60.0	2	0	[]
6929	2	1	8	60.0	2	0	[]
6932	1	1	8	60.0	2	0	[]
6952	1	1	8	60.0	2	0	[]
6964	19	11	2	60.0	2	0	[]
6973	3	4	8	60.0	2	0	[]
6984	18	1	8	60.0	2	1	[(6911, 2)]
6988	1	1	8	60.0	2	0	[]
7018	2	1	8	60.0	2	0	[]
7034	1	4	8	60.0	2	0	[]
7037	3	2	16	200.0	2	0	[]
7042	2	1	8	60.0	2	0	[]
7052	8	4	8	60.0	2	1	[(1742, 2)]
7058	19	9	16	200.0	2	2	[(5767, 1), (3845, 0)]
7067	396	12	12	60.0	2	13	[(5063, 0), (1872, 0), (516, 0), (1328, 0), (4858, 2), (1855, 0), (6911, 0), (5441, 0), (7763, 0), (4282, 0), (6659, 0), (5386, 0), (1425, 0)]
7082	1	1	8	60.0	2	0	[]
7089	1	1	2	60.0	2	0	[]
7106	6	2	8	60.0	2	0	[]
7112	3	4	2	60.0	2	0	[]
7114	15	6	8	60.0	2	0	[]
7136	2	1	8	60.0	2	0	[]
7138	1	4	8	60.0	2	0	[]
7155	43	1	8	40.0	2	0	[]
7200	1	1	2	60.0	2	0	[]
7203	1	1	8	60.0	2	0	[]
7210	6	2	8	60.0	2	0	[]
7220	1	4	8	60.0	2	0	[]
7238	4	2	8	60.0	2	0	[]
7256	11	4	8	60.0	2	0	[]
7257	2	1	8	60.0	2	0	[]
7263	1	4	8	60.0	2	0	[]
7266	10	6	8	60.0	2	0	[]
7271	3	1	2	60.0	2	0	[]
7291	8	6	8	60.0	2	0	[]
7302	5	1	8	60.0	2	0	[]
7311	2	1	2	60.0	2	0	[]
7312	4	1	8	60.0	2	0	[]
7369	54	6	8	60.0	2	0	[]
7373	2	1	8	60.0	2	0	[]
7388	2	1	7	60.0	2	0	[]
7400	4	1	8	60.0	2	0	[]
7404	2	1	2	60.0	2	0	[]
7417	2	4	8	60.0	2	0	[]
7419	2	1	8	60.0	2	0	[]
7445	4	1	8	60.0	2	0	[]
7450	1	1	1	60.0	2	0	[]
7459	3	1	8	60.0	2	0	[]
7461	3	2	8	60.0	2	0	[]
7490	2	1	8	60.0	2	0	[]
7496	1	1	6	60.0	2	0	[]
7516	2	1	8	60.0	2	0	[]
7520	4	11	16	200.0	2	0	[]
7545	4	1	8	60.0	2	0	[]
7561	2	1	8	60.0	2	0	[]
7573	1	1	8	60.0	2	0	[]
7580	1	4	8	60.0	2	0	[]
7585	5	1	8	60.0	2	0	[]
7596	5	4	16	150.0	2	2	[(4847, 2), (4058, 0)]
7597	2	1	2	60.0	2	0	[]
7609	1	2	4	60.0	2	0	[]
7610	1	1	8	60.0	2	0	[]
7612	1	4	8	60.0	2	0	[]
7617	2	1	8	60.0	2	0	[]
7632	2	1	2	60.0	2	0	[]
7636	2	1	8	60.0	2	0	[]
7646	1	1	8	60.0	2	0	[]
7661	1	1	2	60.0	2	0	[]
7684	2	1	8	60.0	2	0	[]
7707	1	4	8	60.0	2	0	[]
7719	3	2	8	60.0	2	0	[]
7723	2	1	2	60.0	2	0	[]
7737	3	1	8	60.0	2	0	[]
7743	2	1	8	60.0	2	0	[]
7749	2	1	8	60.0	2	0	[]
7763	1	1	8	60.0	2	1	[(7067, 0)]
7795	3	5	8	60.0	2	0	[]
7801	1	1	8	60.0	2	0	[]
7805	25	2	8	60.0	2	0	[]
7819	1	1	2	60.0	2	0	[]
7826	2	1	8	60.0	2	0	[]
7832	3	2	8	60.0	2	0	[]
7834	4	4	8	60.0	2	0	[]
7839	2	4	8	60.0	2	0	[]
7847	2	1	8	60.0	2	0	[]
7851	2	1	8	60.0	2	0	[]
7867	2	1	7	60.0	2	0	[]
7869	5	1	8	60.0	2	0	[]
7879	3	2	8	60.0	2	0	[]
7881	2	1	8	60.0	2	0	[]
7889	429	12	16	60.0	1	5	[(6659, 0), (2529, 2), (6408, 0), (5172, 2), (3510, 2)]
7900	2	1	2	60.0	2	0	[]
7913	2	4	8	60.0	2	0	[]
7916	10	1	8	60.0	2	0	[]
7922	2	1	2	60.0	2	1	[(6659, 0)]
7927	6	1	8	60.0	2	0	[]
7943	2	1	3	60.0	2	0	[]
7948	2	1	8	60.0	2	0	[]
7952	1	1	8	60.0	2	0	[]
7955	2	1	8	60.0	2	0	[]
7956	6	1	8	60.0	2	0	[]
7962	3	1	8	60.0	2	0	[]
7963	90	2	8	60.0	2	2	[(8347, 0), (6711, 1)]
7967	2	1	1	60.0	2	0	[]
7980	55	5	16	60.0	0	2	[(2353, 1), (6408, 0)]
7983	1	1	1	60.0	2	0	[]
7985	2	1	8	60.0	2	0	[]
7988	4	1	8	60.0	2	0	[]
7991	2	1	8	60.0	2	0	[]
7992	4	1	8	60.0	2	0	[]
8022	2	1	2	60.0	2	0	[]
8036	2	1	8	60.0	2	0	[]
8038	3	3	8	60.0	2	0	[]
8046	27	4	8	80.0	2	0	[]
8054	1	1	8	60.0	2	0	[]
8069	43	6	8	40.0	2	2	[(4048, 0), (6659, 0)]
8070	4	1	8	60.0	2	0	[]
8090	2	1	1	60.0	2	0	[]
8099	4	1	8	60.0	2	0	[]
8122	10	1	2	60.0	2	1	[(2917, 0)]
8160	1	4	8	60.0	2	0	[]
8165	4	1	4	60.0	2	1	[(6659, 0)]
8194	18	2	8	60.0	2	0	[]
8199	16	2	2	40.0	2	0	[]
8209	8	1	8	60.0	2	0	[]
8210	2	1	8	60.0	2	0	[]
8214	1	4	8	60.0	2	0	[]
8217	4	6	8	100.0	2	0	[]
8231	3	1	8	60.0	2	0	[]
8236	2	3	8	60.0	2	0	[]
8238	12	1	8	60.0	2	1	[(7801, 2)]
8241	4	5	8	60.0	2	0	[]
8252	1	1	8	60.0	2	0	[]
8256	1	1	7	60.0	2	0	[]
8261	7	1	8	40.0	2	0	[]
8270	6	1	7	60.0	2	0	[]
8277	2	4	8	60.0	2	0	[]
8284	2	1	8	60.0	2	0	[]
8288	1	1	1	100.0	2	0	[]
8293	25	1	16	60.0	2	1	[(6659, 0)]
8312	42	4	8	40.0	1	0	[]
8315	8	1	8	60.0	2	0	[]
8327	2	1	8	60.0	2	0	[]
8347	24	12	32	100.0	2	6	[(5080, 1), (6659, 0), (1328, 2), (7963, 0), (2353, 2), (6060, 2)]
8351	1	1	8	60.0	2	0	[]
8357	3	1	8	60.0	2	0	[]
8362	2	2	8	60.0	2	0	[]
8369	2	1	8	60.0	2	0	[]
8373	1	2	8	60.0	2	0	[]
8375	5	1	8	60.0	2	0	[]
8423	4	1	6	60.0	2	0	[]
8432	2	1	8	60.0	2	0	[]
8433	2	1	4	60.0	2	0	[]
8435	6	1	8	60.0	2	0	[]
8451	6	2	8	60.0	2	0	[]
8454	3	2	8	60.0	2	0	[]
8503	4	6	8	60.0	2	0	[]
8509	2	1	8	60.0	2	0	[]
8513	2	1	8	60.0	2	0	[]
8529	31	4	8	60.0	2	1	[(1017, 2)]
8536	8	6	8	60.0	2	1	[(1121, 0)]
8546	2	1	8	60.0	2	0	[]
8563	2	4	8	60.0	2	0	[]
8583	21	4	8	40.0	2	1	[(7155, 2)]
8586	3	1	8	60.0	2	0	[]
8592	1	2	9	80.0	2	0	[]
8611	1	4	8	60.0	2	0	[]
8620	1	16	32	80.0	2	0	[]
8624	1	4	8	60.0	2	0	[]
8627	1	1	1	60.0	2	0	[]
8633	2	1	2	60.0	2	0	[]
8638	3	3	8	60.0	2	0	[]
8639	2	1	8	60.0	2	0	[]
8641	14	6	8	60.0	2	1	[(8284, 0)]
8642	2	1	8	60.0	2	1	[(1372, 2)]
8644	2	4	8	60.0	2	0	[]
8651	2	1	8	60.0	2	0	[]
8663	4	2	8	60.0	2	0	[]
8668	3	1	8	60.0	2	0	[]
8669	41	4	16	60.0	2	6	[(7257, 0), (1810, 0), (5262, 1), (3114, 0), (4058, 0), (6725, 0)]
8697	2	1	16	60.0	2	0	[]
8700	6	1	8	60.0	2	0	[]
8714	1	4	8	60.0	2	0	[]
8734	3	2	8	60.0	2	0	[]
8735	16	1	8	60.0	2	1	[(8238, 1)]
8745	2	1	8	60.0	2	0	[]
8761	3	4	8	60.0	2	2	[(3356, 2), (8327, 1)]
8770	1	1	7	60.0	2	0	[]
8779	1	1	8	60.0	2	0	[]
8804	1	1	2	60.0	2	0	[]
8835	1	1	8	60.0	2	0	[]
8843	3	1	8	60.0	2	0	[]
8853	2	1	2	60.0	2	0	[]
8884	5	2	8	100.0	2	1	[(4966, 2)]
8889	2	1	8	60.0	2	0	[]
8903	2	1	7	60.0	2	0	[]
8934	2	1	8	60.0	2	0	[]
8952	1	1	6	60.0	2	0	[]
8965	2	1	8	60.0	2	0	[]
8969	1	1	8	60.0	2	0	[]
8991	1	1	16	100.0	2	0	[]
8992	2	1	8	60.0	2	0	[]
8993	1	2	8	60.0	2	0	[]
9002	5	2	8	60.0	2	0	[]
9014	28	3	8	60.0	2	0	[]
9016	4	1	8	60.0	2	0	[]
9019	1	1	8	60.0	2	0	[]
9035	55	3	8	100.0	1	7	[(1476, 2), (7545, 0), (1810, 2), (4389, 2), (8669, 1), (6186, 1), (3555, 2)]
9046	4	2	2	60.0	2	1	[(3327, 0)]
9064	6	1	8	60.0	2	0	[]
9069	1	1	7	60.0	2	0	[]
9076	1	1	8	60.0	2	0	[]
9116	1	1	2	60.0	2	0	[]
9121	2	1	2	60.0	2	0	[]
9133	8	1	1	60.0	2	0	[]
9147	1	4	8	60.0	2	0	[]
9150	1	4	8	60.0	2	0	[]
9154	1	1	8	60.0	2	0	[]
9155	1	1	8	60.0	2	0	[]
9160	2	1	8	60.0	2	0	[]
9174	9	2	8	60.0	2	0	[]
9183	1	1	8	60.0	2	0	[]
9184	1	1	4	60.0	2	0	[]
9199	1	2	3	60.0	2	0	[]
9202	2	1	8	60.0	2	0	[]
9210	1	1	8	60.0	2	0	[]
9218	2	1	3	60.0	2	0	[]
9234	2	1	8	60.0	2	0	[]
9255	1	1	8	60.0	2	0	[]
9263	1	4	8	60.0	2	0	[]
9276	4	3	16	100.0	2	0	[]
9279	1	1	8	60.0	2	0	[]
9296	2	1	6	60.0	2	0	[]
9299	1	4	8	60.0	2	0	[]
9308	2	1	8	60.0	2	0	[]
9309	1	4	8	60.0	2	0	[]
9330	11	6	8	60.0	2	0	[]
9336	8	1	2	80.0	2	0	[]
