app_id	nb_instances	core	memory	disk	intra_value	inter_degree	inter_aff
37	2	1	8	60.0	2	0	[]
41	2	1	1	60.0	2	0	[]
71	15	2	8	60.0	2	0	[]
74	2	1	9	600.0	2	0	[]
76	1	1	8	60.0	2	0	[]
83	2	2	2	60.0	2	0	[]
100	10	3	8	60.0	2	0	[]
111	2	1	8	60.0	2	0	[]
121	5	1	8	60.0	2	0	[]
123	1	1	8	60.0	2	0	[]
128	2	1	8	60.0	2	0	[]
136	1	1	8	60.0	2	0	[]
140	3	6	8	60.0	2	0	[]
163	1	1	8	60.0	2	0	[]
167	1	4	4	60.0	2	0	[]
186	2	1	8	60.0	2	0	[]
187	5	2	8	60.0	2	0	[]
188	20	23	48	60.0	2	1	[(7333, 0)]
193	2	1	8	80.0	2	0	[]
194	1	1	8	60.0	2	0	[]
196	2	1	2	60.0	2	0	[]
202	4	1	16	80.0	2	0	[]
205	1	1	8	60.0	2	0	[]
210	4	1	8	60.0	2	0	[]
219	2	2	8	60.0	2	0	[]
245	2	1	8	60.0	2	0	[]
260	19	2	8	60.0	2	2	[(703, 1), (3909, 1)]
265	2	1	8	60.0	2	0	[]
266	1	8	16	100.0	2	0	[]
272	1	4	16	80.0	2	0	[]
276	1	5	8	60.0	3	1	[(1891, 3)]
283	4	3	8	60.0	2	0	[]
295	2	1	8	60.0	2	0	[]
296	2	1	8	60.0	2	0	[]
330	2	1	10	40.0	2	0	[]
340	1	4	8	60.0	2	0	[]
361	4	1	8	60.0	2	0	[]
362	2	1	2	60.0	2	0	[]
367	4	1	8	60.0	2	0	[]
370	3	1	8	60.0	2	0	[]
388	3	1	1	60.0	2	0	[]
417	2	1	8	60.0	2	0	[]
425	1	1	1	60.0	2	0	[]
437	1	1	8	60.0	2	0	[]
448	2	1	3	60.0	2	0	[]
451	5	1	8	60.0	2	0	[]
454	1	4	8	60.0	2	0	[]
458	2	1	8	60.0	2	0	[]
467	4	1	8	60.0	2	0	[]
472	2	1	8	60.0	2	0	[]
490	2	1	8	60.0	2	0	[]
498	2	1	8	60.0	2	0	[]
503	2	2	8	60.0	2	0	[]
518	1	1	8	60.0	2	0	[]
519	3	1	8	80.0	2	0	[]
522	2	1	2	60.0	2	0	[]
527	2	2	8	60.0	2	0	[]
543	1	1	8	60.0	2	0	[]
546	2	1	8	60.0	2	0	[]
552	4	1	8	60.0	2	0	[]
553	1	1	8	60.0	2	0	[]
566	2	1	8	60.0	2	0	[]
568	3	1	8	60.0	2	0	[]
584	2	1	8	60.0	2	0	[]
607	2	4	8	60.0	2	0	[]
615	14	2	8	60.0	2	0	[]
620	2	2	4	60.0	2	0	[]
629	2	1	8	60.0	2	0	[]
646	27	6	8	60.0	2	5	[(8314, 1), (4995, 0), (3634, 0), (7115, 0), (2767, 0)]
659	6	1	4	60.0	2	0	[]
662	2	1	8	60.0	2	0	[]
666	23	11	16	100.0	2	3	[(735, 2), (8300, 1), (5736, 2)]
669	2	1	8	60.0	2	0	[]
682	5	1	8	60.0	2	0	[]
686	1	4	8	60.0	2	0	[]
690	2	1	8	60.0	2	0	[]
703	8	1	8	60.0	2	0	[]
713	2	1	8	60.0	2	0	[]
722	1	1	2	60.0	2	0	[]
730	3	1	2	60.0	2	0	[]
735	1	1	8	60.0	2	0	[]
748	2	1	1	60.0	2	0	[]
751	1	1	1	60.0	2	0	[]
754	2	1	8	60.0	2	0	[]
760	2	1	8	60.0	2	0	[]
793	15	2	2	60.0	2	0	[]
803	8	3	8	60.0	2	0	[]
811	1	4	8	60.0	2	0	[]
821	2	1	3	60.0	2	0	[]
823	1	1	2	500.0	2	0	[]
826	2	1	2	60.0	2	0	[]
841	1	1	2	60.0	2	0	[]
843	1	4	8	60.0	2	0	[]
849	2	1	8	60.0	2	0	[]
850	3	1	8	60.0	2	1	[(7797, 0)]
851	5	2	8	60.0	2	0	[]
859	12	3	16	80.0	2	0	[]
862	2	1	8	60.0	2	0	[]
864	4	2	8	60.0	2	0	[]
866	2	1	8	60.0	2	0	[]
882	1	4	8	60.0	2	0	[]
884	1	4	8	60.0	2	0	[]
886	2	2	8	60.0	2	0	[]
891	2	1	8	60.0	2	0	[]
916	2	1	8	60.0	2	0	[]
941	4	5	16	180.0	2	0	[]
961	3	3	8	60.0	2	0	[]
972	7	2	8	60.0	2	0	[]
975	20	36	48	300.0	2	0	[]
976	2	1	2	60.0	2	0	[]
1001	3	1	8	60.0	2	0	[]
1003	1	1	8	60.0	2	0	[]
1005	2	1	8	60.0	2	0	[]
1007	1	1	1	60.0	2	0	[]
1011	5	2	8	60.0	2	0	[]
1020	3	1	8	60.0	2	0	[]
1030	1	2	8	60.0	2	0	[]
1052	1	1	8	60.0	2	0	[]
1059	31	6	8	60.0	2	1	[(9106, 2)]
1066	30	3	8	60.0	2	1	[(1195, 2)]
1070	4	1	2	60.0	2	0	[]
1082	1	1	8	60.0	2	0	[]
1100	3	1	8	60.0	2	0	[]
1101	9	11	16	60.0	2	0	[]
1102	2	1	8	60.0	2	0	[]
1108	2	1	8	60.0	2	0	[]
1109	2	1	8	60.0	2	0	[]
1112	2	1	8	60.0	2	0	[]
1135	1	1	8	60.0	2	0	[]
1136	1	1	8	60.0	2	0	[]
1137	1	1	8	60.0	2	0	[]
1138	27	2	8	60.0	2	0	[]
1144	32	4	8	60.0	2	1	[(4200, 0)]
1152	409	5	8	60.0	2	13	[(9049, 0), (3634, 0), (3526, 0), (8386, 0), (1255, 0), (2291, 0), (793, 0), (1930, 0), (6298, 1), (7667, 0), (9207, 0), (5760, 1), (3183, 0)]
1165	4	1	2	60.0	2	0	[]
1168	2	4	8	60.0	2	0	[]
1182	5	2	8	60.0	2	0	[]
1187	2	1	8	60.0	2	0	[]
1190	4	2	8	60.0	2	0	[]
1193	2	1	8	60.0	2	0	[]
1194	3	1	8	60.0	2	0	[]
1195	98	5	8	60.0	2	3	[(3428, 0), (1730, 0), (7007, 0)]
1199	1	1	8	60.0	2	0	[]
1220	2	1	8	60.0	2	0	[]
1226	2	2	2	60.0	2	0	[]
1230	1	4	8	60.0	2	0	[]
1255	2	1	8	60.0	2	0	[]
1261	1	1	8	60.0	2	0	[]
1262	7	1	8	60.0	2	2	[(1449, 0), (2874, 0)]
1277	1	1	8	60.0	2	0	[]
1281	2	2	8	60.0	2	0	[]
1286	1	1	8	60.0	2	0	[]
1309	2	1	2	60.0	2	0	[]
1319	1	4	8	60.0	2	0	[]
1355	1	1	8	60.0	2	0	[]
1357	1	1	2	60.0	2	0	[]
1366	1	1	8	60.0	2	0	[]
1378	2	2	32	60.0	2	5	[(2739, 1), (8587, 2), (5135, 2), (7555, 2), (8162, 1)]
1397	1	1	8	60.0	2	0	[]
1398	2	1	8	60.0	2	0	[]
1411	1	1	16	60.0	2	0	[]
1413	2	1	8	60.0	2	0	[]
1422	1	2	16	100.0	2	0	[]
1431	5	6	8	60.0	2	0	[]
1441	2	1	2	60.0	2	0	[]
1444	1	1	8	60.0	2	0	[]
1445	1	2	6	60.0	2	0	[]
1449	10	1	8	60.0	2	0	[]
1458	3	4	8	60.0	2	0	[]
1469	3	1	8	60.0	2	0	[]
1484	2	1	8	60.0	2	0	[]
1498	2	1	8	60.0	2	0	[]
1501	1	1	2	60.0	2	0	[]
1502	6	1	8	60.0	2	0	[]
1514	1	1	1	60.0	2	0	[]
1521	1	1	8	167.0	2	0	[]
1528	1	4	8	60.0	2	0	[]
1529	4	1	8	60.0	2	0	[]
1535	2	1	8	60.0	2	0	[]
1540	4	1	8	60.0	2	0	[]
1555	2	1	8	60.0	2	0	[]
1557	3	2	8	60.0	2	0	[]
1572	2	1	8	60.0	2	0	[]
1578	1	4	8	60.0	2	0	[]
1601	1	2	16	60.0	2	0	[]
1607	1	1	8	60.0	2	0	[]
1614	1	2	8	60.0	2	0	[]
1631	1	1	8	60.0	2	0	[]
1649	1	2	8	60.0	2	0	[]
1662	23	3	8	60.0	2	1	[(3358, 1)]
1666	1	6	3	60.0	2	0	[]
1690	2	4	8	60.0	2	0	[]
1707	2	1	8	60.0	2	0	[]
1716	2	1	8	60.0	2	0	[]
1718	2	2	8	60.0	2	0	[]
1730	4	1	8	60.0	2	0	[]
1732	2	1	8	60.0	2	0	[]
1750	1	4	16	80.0	2	0	[]
1756	2	1	1	60.0	2	0	[]
1757	6	2	16	80.0	2	0	[]
1760	7	4	8	60.0	2	0	[]
1767	2	1	2	60.0	2	0	[]
1775	2	1	8	60.0	2	0	[]
1779	3	6	16	60.0	2	0	[]
1787	2	4	8	60.0	2	0	[]
1793	24	3	8	40.0	2	1	[(4011, 2)]
1796	15	4	3	60.0	2	0	[]
1799	1	4	8	60.0	2	0	[]
1811	1	1	8	60.0	2	0	[]
1820	2	1	8	60.0	2	0	[]
1848	5	3	8	60.0	2	1	[(3183, 0)]
1850	1	2	10	40.0	2	0	[]
1851	2	1	8	60.0	2	0	[]
1863	60	6	8	60.0	2	1	[(3283, 0)]
1876	2	1	8	80.0	2	0	[]
1877	4	1	8	60.0	2	0	[]
1878	6	1	8	60.0	2	0	[]
1882	1	4	8	60.0	2	0	[]
1891	2	1	8	60.0	2	1	[(276, 4)]
1893	3	1	8	60.0	2	0	[]
1914	2	1	8	60.0	2	0	[]
1922	2	4	8	60.0	2	0	[]
1923	2	1	2	60.0	2	0	[]
1930	2	1	2	60.0	2	0	[]
1938	2	1	8	60.0	2	0	[]
1939	3	1	8	60.0	2	0	[]
1954	1	1	16	60.0	1	0	[]
1964	1	4	8	80.0	2	0	[]
1988	2	1	8	60.0	2	0	[]
2013	2	1	8	60.0	2	0	[]
2031	2	1	8	60.0	2	0	[]
2049	1	3	32	60.0	2	5	[(2739, 1), (8587, 2), (5135, 2), (7555, 2), (8162, 1)]
2051	2	1	1	60.0	2	0	[]
2052	1	1	2	60.0	2	0	[]
2093	10	1	1	80.0	2	0	[]
2109	1	1	48	300.0	2	0	[]
2110	2	1	8	60.0	2	0	[]
2113	2	1	8	60.0	2	0	[]
2124	3	1	8	60.0	2	0	[]
2137	1	1	8	60.0	2	0	[]
2138	4	1	8	60.0	2	3	[(3711, 0), (7262, 0), (4045, 0)]
2139	5	1	8	60.0	2	0	[]
2151	1	1	8	60.0	2	0	[]
2177	1	1	2	60.0	2	0	[]
2181	1	1	8	60.0	2	0	[]
2187	3	1	8	60.0	2	0	[]
2195	3	1	8	60.0	2	0	[]
2196	2	1	4	60.0	2	0	[]
2202	1	1	8	60.0	2	0	[]
2210	1	1	8	60.0	2	0	[]
2219	2	1	8	60.0	2	0	[]
2220	4	1	8	60.0	2	0	[]
2222	1	5	8	60.0	2	0	[]
2229	3	1	1	60.0	2	0	[]
2230	1	1	7	60.0	2	0	[]
2233	2	1	8	60.0	2	0	[]
2244	2	6	8	60.0	2	0	[]
2249	1	1	8	60.0	2	0	[]
2260	2	1	8	60.0	2	0	[]
2276	1	1	8	60.0	2	0	[]
2277	4	1	8	60.0	2	0	[]
2282	1	4	8	60.0	2	0	[]
2288	1	1	8	60.0	2	0	[]
2289	4	1	8	60.0	2	0	[]
2291	8	1	1	80.0	2	0	[]
2301	2	1	8	60.0	2	0	[]
2303	6	1	8	60.0	2	0	[]
2320	1	4	8	60.0	2	0	[]
2338	3	1	8	60.0	2	0	[]
2339	1	1	8	60.0	2	0	[]
2358	2	1	8	60.0	2	0	[]
2369	1	4	8	60.0	2	0	[]
2397	1	1	1	60.0	2	0	[]
2403	1	4	8	60.0	2	0	[]
2409	1	1	8	60.0	2	0	[]
2410	1	4	8	60.0	2	0	[]
2417	2	4	8	60.0	2	0	[]
2435	4	1	1	60.0	2	0	[]
2437	4	4	8	60.0	2	1	[(4966, 1)]
2453	5	1	8	60.0	2	0	[]
2475	6	1	8	60.0	2	0	[]
2484	28	1	2	60.0	2	0	[]
2486	519	6	8	100.0	2	0	[]
2487	138	6	8	60.0	2	2	[(4923, 2), (3634, 0)]
2490	12	2	8	60.0	2	0	[]
2491	12	4	8	60.0	2	0	[]
2495	10	4	8	60.0	2	0	[]
2507	9	4	8	100.0	2	8	[(2487, 0), (8191, 0), (8457, 0), (2486, 0), (3283, 0), (111, 0), (1851, 0), (7498, 0)]
2525	2	1	8	60.0	2	0	[]
2567	2	4	8	60.0	2	0	[]
2571	2	4	8	60.0	2	0	[]
2574	2	1	8	60.0	2	0	[]
2584	2	1	8	60.0	2	0	[]
2590	2	1	8	60.0	2	0	[]
2591	1	1	8	60.0	2	0	[]
2593	29	6	8	60.0	2	17	[(6235, 0), (4337, 0), (3296, 0), (4608, 0), (8191, 0), (6153, 0), (9049, 0), (7229, 0), (3472, 0), (3691, 0), (1796, 0), (3619, 0), (3890, 0), (188, 0), (9207, 0), (2767, 0), (8194, 0)]
2608	2	4	8	100.0	2	0	[]
2619	1	1	2	60.0	2	0	[]
2621	5	1	8	40.0	2	0	[]
2623	2	1	2	60.0	2	0	[]
2641	2	1	8	60.0	2	0	[]
2653	2	1	8	60.0	2	0	[]
2671	1	1	6	60.0	2	0	[]
2686	2	1	2	60.0	2	0	[]
2691	1	1	8	60.0	2	0	[]
2693	9	1	8	60.0	2	0	[]
2694	2	1	8	60.0	2	0	[]
2700	27	2	8	60.0	2	3	[(7648, 0), (2767, 2), (2593, 1)]
2728	10	3	8	40.0	2	0	[]
2730	1	1	8	60.0	2	0	[]
2732	1	1	8	60.0	2	0	[]
2739	1	1	60	60.0	2	8	[(4608, 2), (8587, 2), (5135, 2), (2049, 2), (1378, 2), (4011, 2), (8162, 1), (7555, 2)]
2742	15	4	8	40.0	2	2	[(7772, 0), (1059, 2)]
2743	1	1	8	60.0	2	0	[]
2750	1	1	16	80.0	2	0	[]
2767	275	6	8	60.0	2	0	[]
2768	1	1	1	60.0	2	0	[]
2776	1	1	8	60.0	2	0	[]
2788	11	1	10	180.0	2	3	[(121, 0), (2276, 0), (5031, 0)]
2808	2	1	8	60.0	2	0	[]
2837	1	1	8	60.0	0	0	[]
2862	2	1	8	60.0	2	0	[]
2864	2	1	8	60.0	2	0	[]
2874	98	3	3	60.0	2	3	[(6557, 0), (7916, 0), (8002, 1)]
2898	1	1	8	60.0	2	0	[]
2907	1	4	8	60.0	2	0	[]
2909	2	1	8	60.0	2	0	[]
2920	1	12	8	60.0	2	0	[]
2930	2	1	1	60.0	2	0	[]
2936	2	1	8	60.0	2	0	[]
2943	1	1	8	60.0	2	0	[]
2956	1	1	8	60.0	2	0	[]
2962	6	6	2	60.0	2	0	[]
2966	2	1	8	60.0	2	0	[]
2972	1	1	8	60.0	2	0	[]
2974	2	1	1	60.0	2	0	[]
2976	1	7	16	100.0	2	0	[]
2978	12	2	8	60.0	2	0	[]
2982	2	2	8	60.0	2	0	[]
2984	20	5	8	60.0	2	0	[]
2989	2	2	8	60.0	2	0	[]
2990	1	1	8	60.0	2	0	[]
2992	1	1	2	60.0	2	0	[]
2998	16	2	8	60.0	2	0	[]
3025	1	1	8	60.0	2	0	[]
3028	1	4	8	60.0	2	0	[]
3052	2	4	8	60.0	2	0	[]
3057	1	1	1	60.0	2	0	[]
3059	2	1	8	60.0	2	0	[]
3095	15	3	8	60.0	2	0	[]
3098	2	1	7	60.0	2	0	[]
3102	1	1	8	60.0	2	0	[]
3103	8	2	8	60.0	2	0	[]
3108	63	8	16	60.0	2	0	[]
3115	1	4	8	60.0	2	0	[]
3122	1	4	8	60.0	2	0	[]
3125	2	2	16	60.0	2	0	[]
3130	1	1	2	60.0	2	0	[]
3131	1	1	8	60.0	2	0	[]
3132	3	1	8	60.0	2	1	[(4649, 0)]
3136	8	1	2	60.0	2	0	[]
3164	25	1	8	60.0	2	0	[]
3173	1	1	2	60.0	2	0	[]
3183	200	12	16	100.0	2	0	[]
3201	2	3	16	60.0	0	0	[]
3204	6	1	8	60.0	2	0	[]
3205	2	1	8	60.0	2	0	[]
3212	3	2	8	60.0	2	0	[]
3229	1	4	8	100.0	2	0	[]
3230	1	1	4	200.0	2	0	[]
3246	3	1	8	60.0	2	0	[]
3264	1	3	8	60.0	2	0	[]
3271	46	4	8	100.0	2	8	[(3354, 0), (7007, 1), (1449, 2), (9049, 0), (5701, 2), (7087, 0), (1100, 1), (2220, 2)]
3283	240	6	8	60.0	2	2	[(3634, 0), (3526, 0)]
3288	4	4	8	60.0	2	0	[]
3292	8	3	8	40.0	2	0	[]
3295	4	2	8	60.0	2	2	[(7087, 0), (6557, 0)]
3296	2	1	8	60.0	2	0	[]
3303	35	5	8	60.0	2	0	[]
3310	1	2	2	60.0	2	0	[]
3314	12	3	8	60.0	2	0	[]
3316	2	1	8	60.0	2	0	[]
3344	35	4	8	60.0	2	1	[(7087, 2)]
3354	4	2	8	60.0	2	0	[]
3356	6	6	8	60.0	2	16	[(1101, 0), (8529, 2), (4189, 2), (9320, 2), (4690, 1), (9338, 2), (5472, 0), (7754, 2), (1529, 1), (6744, 2), (3803, 0), (8276, 0), (187, 2), (5841, 0), (3132, 2), (3378, 1)]
3358	5	1	8	60.0	2	0	[]
3365	1	1	1	60.0	2	0	[]
3369	1	1	8	60.0	2	0	[]
3376	2	1	1	60.0	2	0	[]
3378	2	1	8	60.0	2	0	[]
3400	4	1	8	60.0	2	0	[]
3401	16	3	8	60.0	2	0	[]
3407	2	1	2	60.0	2	0	[]
3428	5	1	8	60.0	2	0	[]
3440	1	1	8	60.0	2	0	[]
3459	5	1	8	60.0	2	0	[]
3461	2	1	8	60.0	2	0	[]
3466	2	1	8	60.0	2	0	[]
3472	2	2	8	40.0	2	0	[]
3473	4	1	8	60.0	2	0	[]
3509	2	1	8	60.0	2	0	[]
3511	8	6	8	40.0	2	0	[]
3520	11	2	8	60.0	2	0	[]
3526	63	6	8	60.0	2	0	[]
3529	1	1	8	60.0	2	0	[]
3532	1	1	1	60.0	2	0	[]
3533	1	1	2	60.0	2	0	[]
3536	2	1	8	60.0	2	0	[]
3541	2	1	8	60.0	2	0	[]
3549	1	4	8	60.0	2	0	[]
3562	3	1	2	60.0	2	0	[]
3574	32	9	16	60.0	0	1	[(6754, 2)]
3581	3	1	8	60.0	2	0	[]
3583	1	4	8	60.0	2	0	[]
3598	2	2	2	60.0	2	0	[]
3617	5	2	8	80.0	2	0	[]
3619	4	1	8	60.0	2	0	[]
3630	2	1	8	60.0	2	0	[]
3634	102	3	8	60.0	2	0	[]
3635	4	1	4	60.0	2	0	[]
3663	2	1	8	60.0	2	0	[]
3669	2	3	8	60.0	2	0	[]
3672	3	1	8	60.0	2	0	[]
3675	3	1	8	60.0	2	0	[]
3677	1	5	8	60.0	2	0	[]
3691	2	5	8	60.0	2	0	[]
3694	2	1	8	60.0	2	0	[]
3697	1	1	8	60.0	2	0	[]
3703	2	4	8	60.0	2	0	[]
3711	2	3	3	60.0	2	0	[]
3731	191	5	8	60.0	2	17	[(1194, 2), (4337, 0), (3634, 0), (3407, 2), (467, 1), (1195, 0), (8145, 2), (7290, 1), (5610, 1), (367, 2), (6298, 1), (9249, 2), (7667, 0), (4198, 2), (1413, 2), (5601, 2), (6557, 0)]
3736	2	1	8	60.0	2	0	[]
3737	2	1	8	60.0	2	0	[]
3746	3	1	8	60.0	2	0	[]
3749	1	1	8	60.0	2	0	[]
3767	1	4	8	60.0	2	0	[]
3769	1	1	8	60.0	2	0	[]
3775	1	8	16	80.0	2	0	[]
3792	2	1	8	80.0	2	0	[]
3803	2	1	1	60.0	2	0	[]
3826	2	1	8	60.0	2	0	[]
3839	15	2	8	60.0	2	0	[]
3866	9	2	2	60.0	2	2	[(4939, 2), (8597, 1)]
3872	1	24	48	300.0	2	0	[]
3890	54	24	32	60.0	0	3	[(2767, 0), (4608, 0), (5740, 0)]
3900	1	1	8	60.0	2	0	[]
3903	2	1	8	60.0	2	0	[]
3909	2	1	8	60.0	2	0	[]
3919	2	1	8	60.0	2	0	[]
3935	1	4	8	60.0	2	0	[]
3937	2	2	8	60.0	2	0	[]
3939	2	1	8	80.0	2	0	[]
3946	1	2	8	60.0	2	0	[]
3972	6	1	8	60.0	2	0	[]
3983	1	4	8	80.0	2	0	[]
3985	3	1	8	60.0	2	0	[]
3988	10	1	8	60.0	2	1	[(7333, 0)]
3999	16	2	8	60.0	2	0	[]
4006	1	1	1	60.0	2	0	[]
4008	7	1	16	80.0	2	0	[]
4011	19	4	32	60.0	2	5	[(2739, 1), (8587, 2), (5135, 2), (8162, 1), (7555, 2)]
4019	1	1	3	60.0	2	0	[]
4029	8	2	8	60.0	2	0	[]
4031	1	1	1	60.0	2	0	[]
4033	1	1	8	60.0	2	0	[]
4045	7	6	8	60.0	2	3	[(3711, 0), (2138, 0), (7262, 0)]
4046	3	6	8	60.0	2	0	[]
4049	2	2	8	60.0	2	0	[]
4053	2	2	8	60.0	2	0	[]
4059	4	1	16	60.0	2	0	[]
4079	1	1	7	60.0	2	0	[]
4080	3	1	2	60.0	2	0	[]
4098	2	1	2	60.0	2	0	[]
4116	2	1	8	60.0	2	0	[]
4128	1	1	8	60.0	2	0	[]
4148	1	1	8	60.0	2	0	[]
4153	2	5	8	60.0	2	0	[]
4156	2	1	8	60.0	2	0	[]
4176	2	1	6	60.0	2	0	[]
4183	4	4	8	80.0	2	0	[]
4184	1	1	8	60.0	2	0	[]
4189	2	2	8	60.0	2	0	[]
4192	2	1	8	60.0	2	0	[]
4198	6	1	8	60.0	2	0	[]
4200	1	1	1	60.0	2	0	[]
4208	1	1	8	60.0	2	0	[]
4220	1	1	8	60.0	2	0	[]
4226	2	1	2	60.0	2	0	[]
4236	2	1	4	60.0	2	0	[]
4246	1	4	8	60.0	2	0	[]
4273	1	1	2	60.0	2	0	[]
4285	1	1	8	60.0	2	0	[]
4286	24	1	8	80.0	2	0	[]
4289	41	3	8	60.0	2	10	[(3358, 2), (2694, 2), (6732, 2), (3204, 1), (4923, 1), (5035, 0), (2220, 0), (1066, 0), (5256, 0), (1309, 1)]
4298	2	1	8	60.0	2	0	[]
4320	2	1	8	60.0	2	0	[]
4326	1	1	8	60.0	2	0	[]
4337	21	12	16	60.0	2	0	[]
4370	3	1	8	60.0	2	0	[]
4377	2	1	2	60.0	2	0	[]
4395	1	5	8	60.0	2	0	[]
4410	2	1	8	60.0	2	0	[]
4428	3	1	8	60.0	2	0	[]
4437	1	1	1	80.0	2	0	[]
4451	2	6	8	60.0	2	1	[(3562, 0)]
4457	3	1	8	60.0	2	0	[]
4473	1	1	8	60.0	2	0	[]
4505	4	1	8	60.0	2	0	[]
4509	8	1	8	60.0	2	1	[(467, 2)]
4514	14	2	8	60.0	2	0	[]
4515	1	1	8	60.0	2	0	[]
4527	2	1	16	80.0	2	0	[]
4545	1	1	8	60.0	2	0	[]
4549	2	1	8	60.0	2	0	[]
4592	2	1	8	60.0	2	0	[]
4602	1	1	8	60.0	2	0	[]
4604	2	1	8	60.0	2	0	[]
4608	143	12	32	60.0	2	7	[(2739, 1), (8587, 2), (5135, 2), (7555, 2), (3890, 0), (1850, 0), (8162, 1)]
4624	2	1	8	60.0	2	0	[]
4649	19	1	10	60.0	2	1	[(4769, 0)]
4666	1	1	8	60.0	2	0	[]
4671	12	2	8	60.0	2	0	[]
4676	2	2	8	60.0	2	0	[]
4681	2	1	1	60.0	2	0	[]
4690	3	1	8	60.0	2	1	[(4923, 2)]
4708	33	2	8	100.0	2	1	[(2874, 0)]
4714	1	1	8	60.0	2	0	[]
4718	57	2	8	40.0	2	0	[]
4745	1	1	8	60.0	2	0	[]
4747	1	4	8	100.0	2	0	[]
4769	1	4	8	60.0	2	0	[]
4773	3	3	8	60.0	2	0	[]
4777	1	1	3	60.0	2	0	[]
4802	4	1	8	60.0	2	0	[]
4817	1	1	2	60.0	2	0	[]
4845	1	1	8	60.0	0	0	[]
4859	2	1	8	60.0	2	0	[]
4861	1	1	8	60.0	2	0	[]
4863	3	1	8	60.0	2	0	[]
4866	14	2	8	60.0	2	0	[]
4879	2	1	8	60.0	2	0	[]
4892	2	1	2	60.0	2	0	[]
4893	1	1	8	60.0	2	0	[]
4905	1	1	2	60.0	2	0	[]
4919	2	1	8	60.0	2	0	[]
4923	3	36	48	300.0	2	0	[]
4924	1	1	8	60.0	2	0	[]
4931	5	1	8	60.0	2	0	[]
4939	18	4	2	100.0	2	0	[]
4942	2	1	8	60.0	2	0	[]
4956	2	1	8	60.0	2	0	[]
4966	3	4	8	60.0	2	0	[]
4972	1	1	8	100.0	2	0	[]
4990	1	2	8	60.0	2	0	[]
4995	2	1	8	60.0	2	0	[]
5008	2	1	8	60.0	2	0	[]
5012	2	2	8	60.0	2	0	[]
5017	4	4	8	60.0	2	0	[]
5020	2	1	8	60.0	2	0	[]
5024	2	1	2	100.0	2	0	[]
5031	2	1	8	60.0	2	0	[]
5033	2	1	8	60.0	2	0	[]
5035	2	5	8	60.0	2	0	[]
5041	3	1	8	60.0	2	0	[]
5050	1	1	1	60.0	2	0	[]
5057	6	3	16	60.0	2	1	[(3972, 1)]
5061	3	1	1	60.0	2	0	[]
5093	1	1	8	60.0	2	0	[]
5135	1	7	16	60.0	1	7	[(4608, 2), (8587, 2), (2049, 2), (2739, 2), (1378, 2), (4011, 2), (8162, 1)]
5164	1	1	128	600.0	2	0	[]
5170	4	1	8	60.0	2	0	[]
5171	1	1	8	60.0	2	0	[]
5256	18	5	8	60.0	2	0	[]
5271	21	1	8	60.0	2	0	[]
5280	1	1	8	60.0	2	0	[]
5303	1	1	8	60.0	2	0	[]
5304	1	4	8	60.0	2	0	[]
5315	2	1	5	60.0	2	0	[]
5320	1	1	8	60.0	2	0	[]
5326	2	1	2	60.0	2	0	[]
5334	1	1	8	60.0	2	0	[]
5336	19	1	8	60.0	2	0	[]
5339	2	1	8	60.0	2	0	[]
5343	1	4	8	60.0	2	0	[]
5346	9	2	8	60.0	2	0	[]
5354	1	1	8	60.0	2	0	[]
5360	1	1	2	60.0	2	0	[]
5364	4	1	8	60.0	2	0	[]
5365	1	1	2	60.0	2	0	[]
5379	14	1	8	60.0	2	0	[]
5392	1	1	1	60.0	2	0	[]
5398	7	2	8	60.0	2	0	[]
5402	1	1	8	60.0	2	0	[]
5412	2	1	8	60.0	2	0	[]
5414	1	1	8	60.0	2	0	[]
5437	3	3	16	60.0	2	0	[]
5472	7	4	8	60.0	2	0	[]
5496	5	2	8	60.0	2	0	[]
5526	39	3	8	60.0	2	1	[(3183, 0)]
5540	1	1	8	60.0	2	0	[]
5550	2	1	8	60.0	2	0	[]
5579	5	1	3	60.0	2	0	[]
5599	1	4	8	60.0	2	0	[]
5601	3	1	8	60.0	2	0	[]
5603	2	1	8	60.0	2	0	[]
5610	2	2	8	60.0	2	0	[]
5623	3	1	8	60.0	2	0	[]
5631	3	1	8	60.0	2	0	[]
5637	1	1	2	60.0	2	0	[]
5650	2	4	8	60.0	2	1	[(5909, 0)]
5665	7	6	8	60.0	2	0	[]
5666	1	4	8	60.0	2	0	[]
5676	3	1	8	60.0	2	0	[]
5682	2	1	8	60.0	2	0	[]
5698	8	12	2	60.0	2	0	[]
5701	1	1	8	60.0	2	0	[]
5707	24	36	48	300.0	2	0	[]
5708	2	1	8	60.0	2	0	[]
5720	1	4	8	60.0	2	0	[]
5736	2	1	11	80.0	2	0	[]
5740	29	2	8	60.0	0	4	[(7309, 0), (3108, 2), (3890, 0), (1793, 0)]
5753	2	1	8	60.0	2	0	[]
5760	1	1	8	60.0	2	0	[]
5779	3	1	8	60.0	2	0	[]
5781	36	3	8	60.0	2	1	[(3890, 1)]
5802	1	1	8	60.0	2	0	[]
5806	1	1	2	60.0	2	0	[]
5818	2	1	8	60.0	2	0	[]
5839	2	1	8	60.0	2	0	[]
5841	2	1	8	60.0	2	0	[]
5846	2	1	8	60.0	2	0	[]
5857	2	1	6	60.0	2	0	[]
5860	2	1	8	60.0	2	0	[]
5864	69	4	8	60.0	2	2	[(2484, 0), (1662, 0)]
5884	2	1	8	60.0	2	0	[]
5885	2	1	8	60.0	2	0	[]
5891	1	4	8	60.0	2	0	[]
5909	12	2	8	60.0	2	0	[]
5927	2	1	2	60.0	2	0	[]
5945	1	1	1	60.0	2	0	[]
5952	2	1	8	60.0	2	0	[]
5966	2	1	8	60.0	2	0	[]
5973	1	1	3	60.0	2	0	[]
5981	3	1	8	60.0	2	0	[]
5998	1	1	2	60.0	2	0	[]
6006	2	1	8	60.0	2	0	[]
6018	2	1	8	60.0	2	0	[]
6037	2	1	2	60.0	2	0	[]
6042	2	2	8	60.0	2	0	[]
6052	4	1	2	60.0	2	0	[]
6055	2	1	8	60.0	2	0	[]
6056	5	3	8	60.0	2	0	[]
6059	2	2	8	60.0	2	0	[]
6066	3	1	8	60.0	2	0	[]
6071	1	1	5	100.0	2	0	[]
6079	2	4	8	60.0	2	0	[]
6093	2	1	8	60.0	2	0	[]
6095	17	3	16	200.0	2	0	[]
6100	1	1	2	60.0	2	0	[]
6119	2	1	8	60.0	2	0	[]
6131	1	2	8	60.0	2	0	[]
6150	5	1	8	60.0	2	2	[(5379, 2), (4802, 1)]
6153	33	3	8	60.0	2	0	[]
6163	5	2	8	60.0	2	0	[]
6176	11	8	16	60.0	2	0	[]
6208	1	1	8	60.0	2	0	[]
6211	5	1	8	60.0	2	0	[]
6216	1	1	6	60.0	2	0	[]
6219	1	4	8	60.0	2	0	[]
6227	4	6	8	60.0	2	0	[]
6228	2	2	8	60.0	2	0	[]
6235	67	3	8	60.0	2	1	[(4337, 1)]
6239	17	1	8	60.0	2	0	[]
6245	1	1	7	60.0	2	0	[]
6246	5	1	8	60.0	2	0	[]
6248	1	1	8	60.0	2	0	[]
6253	2	1	8	60.0	2	0	[]
6263	1	1	3	60.0	2	0	[]
6266	4	1	8	60.0	2	0	[]
6290	1	1	16	60.0	2	0	[]
6298	2	1	8	60.0	2	0	[]
6303	19	6	8	60.0	2	1	[(1152, 0)]
6308	2	1	8	60.0	2	0	[]
6314	1	1	2	60.0	2	0	[]
6318	2	1	2	60.0	2	1	[(6417, 0)]
6396	1	6	4	60.0	2	0	[]
6406	17	1	8	80.0	2	8	[(7309, 0), (8871, 0), (2742, 0), (7447, 0), (5740, 0), (7874, 0), (682, 0), (4718, 0)]
6412	2	1	8	60.0	2	0	[]
6417	2	1	8	60.0	2	0	[]
6421	188	12	16	100.0	2	0	[]
6426	4	1	8	60.0	2	0	[]
6447	2	1	7	60.0	2	0	[]
6454	2	1	5	60.0	2	0	[]
6458	1	5	8	60.0	2	0	[]
6477	14	1	8	100.0	2	0	[]
6483	29	1	8	60.0	0	1	[(4769, 0)]
6484	1	5	8	60.0	2	0	[]
6523	2	1	8	60.0	2	0	[]
6555	2	4	8	80.0	2	0	[]
6557	43	6	8	60.0	2	8	[(7754, 0), (8851, 0), (5526, 0), (2874, 0), (3731, 0), (6163, 0), (3295, 0), (5271, 0)]
6568	31	5	8	60.0	0	1	[(4773, 2)]
6571	2	1	8	60.0	2	0	[]
6578	3	4	16	60.0	2	0	[]
6588	1	1	8	60.0	2	0	[]
6595	8	2	8	60.0	2	0	[]
6599	2	2	8	60.0	2	0	[]
6600	12	1	8	60.0	2	0	[]
6606	1	3	8	60.0	2	0	[]
6618	1	4	8	60.0	2	0	[]
6621	2	1	2	60.0	2	0	[]
6629	3	1	8	60.0	2	0	[]
6632	1	1	2	60.0	2	0	[]
6641	1	3	8	60.0	2	0	[]
6663	7	3	2	60.0	2	0	[]
6664	3	2	8	60.0	2	0	[]
6685	1	2	4	60.0	2	0	[]
6698	1	1	1	60.0	2	0	[]
6704	2	1	8	60.0	2	0	[]
6713	1	1	8	60.0	2	0	[]
6721	2	3	8	60.0	2	0	[]
6732	4	1	8	60.0	2	0	[]
6740	1	2	16	60.0	2	0	[]
6744	31	3	8	60.0	2	2	[(3108, 1), (3634, 0)]
6754	2	1	8	60.0	2	0	[]
6764	2	3	8	60.0	2	0	[]
6779	2	1	8	60.0	2	0	[]
6780	1	4	8	60.0	2	0	[]
6790	10	3	8	60.0	2	0	[]
6795	2	1	2	60.0	2	0	[]
6800	2	3	8	60.0	2	0	[]
6803	2	4	8	60.0	2	1	[(9288, 2)]
6810	5	6	8	60.0	2	0	[]
6812	1	1	8	60.0	2	0	[]
6830	1	1	8	40.0	2	0	[]
6833	2	2	8	60.0	2	0	[]
6846	5	1	8	60.0	2	0	[]
6852	2	1	8	60.0	2	0	[]
6855	2	1	8	60.0	2	0	[]
6868	1	1	8	60.0	2	0	[]
6871	5	2	8	60.0	2	0	[]
6877	2	1	1	60.0	2	0	[]
6916	23	2	8	80.0	2	0	[]
6920	3	1	8	60.0	2	0	[]
6929	2	1	8	60.0	2	0	[]
6933	2	1	8	60.0	2	0	[]
6941	4	2	8	60.0	2	0	[]
6950	1	4	8	60.0	2	0	[]
6952	1	1	8	60.0	2	0	[]
6955	1	1	1	60.0	2	0	[]
6963	2	1	4	60.0	2	0	[]
6989	2	1	8	60.0	2	0	[]
6997	2	1	2	60.0	2	0	[]
7004	2	2	8	60.0	2	0	[]
7007	16	3	8	60.0	2	0	[]
7036	2	2	5	60.0	2	0	[]
7056	1	1	8	60.0	2	0	[]
7061	2	1	8	60.0	2	0	[]
7064	11	5	8	60.0	2	0	[]
7079	2	5	8	60.0	2	0	[]
7087	25	4	2	200.0	2	3	[(3731, 2), (5271, 2), (3295, 1)]
7088	2	1	2	60.0	2	0	[]
7090	3	1	8	60.0	2	0	[]
7110	1	1	8	60.0	2	0	[]
7115	2	1	2	60.0	2	0	[]
7116	1	1	1	60.0	2	0	[]
7125	9	2	8	60.0	2	1	[(121, 2)]
7127	2	1	8	60.0	2	0	[]
7129	1	1	2	60.0	2	0	[]
7135	1	1	4	60.0	2	0	[]
7137	2	4	8	60.0	2	0	[]
7147	2	1	16	80.0	2	0	[]
7150	2	6	8	60.0	2	0	[]
7167	1	1	8	60.0	2	0	[]
7172	5	2	8	60.0	2	0	[]
7175	1	1	1	60.0	2	0	[]
7197	2	1	8	60.0	2	0	[]
7215	2	4	8	60.0	2	0	[]
7220	1	4	8	60.0	2	0	[]
7229	7	1	8	40.0	2	0	[]
7236	7	1	8	60.0	2	0	[]
7253	2	1	8	60.0	2	0	[]
7262	2	1	8	60.0	2	0	[]
7274	2	1	8	60.0	2	0	[]
7285	1	1	8	60.0	2	0	[]
7290	9	1	4	60.0	2	0	[]
7297	2	3	8	60.0	2	0	[]
7298	2	1	8	60.0	2	0	[]
7309	87	5	8	40.0	0	1	[(7627, 0)]
7333	12	2	8	60.0	2	8	[(3574, 0), (3108, 0), (7648, 0), (1059, 1), (2767, 1), (2593, 0), (5740, 2), (3183, 1)]
7340	1	1	1	60.0	2	0	[]
7342	2	1	3	60.0	2	0	[]
7362	2	2	8	60.0	2	0	[]
7376	4	1	8	60.0	2	0	[]
7387	3	1	8	60.0	2	0	[]
7400	4	1	8	60.0	2	0	[]
7412	1	1	4	60.0	2	0	[]
7417	2	4	8	60.0	2	0	[]
7424	1	1	8	60.0	2	0	[]
7447	20	4	8	60.0	2	0	[]
7460	2	1	8	60.0	2	0	[]
7463	3	1	8	60.0	2	0	[]
7495	1	2	8	60.0	2	0	[]
7498	9	10	32	80.0	2	0	[]
7499	1	4	8	60.0	2	0	[]
7502	4	4	8	60.0	2	0	[]
7524	10	3	8	60.0	2	0	[]
7552	2	1	8	60.0	2	0	[]
7555	1	6	16	60.0	1	7	[(4608, 2), (8587, 2), (2049, 2), (2739, 2), (1378, 2), (4011, 2), (8162, 1)]
7557	2	1	8	60.0	2	0	[]
7563	18	3	8	60.0	2	0	[]
7564	5	3	8	60.0	2	0	[]
7568	13	1	8	60.0	2	0	[]
7570	2	1	8	60.0	2	0	[]
7590	2	3	8	60.0	2	0	[]
7604	2	1	8	60.0	2	1	[(8805, 0)]
7627	1	1	8	60.0	2	0	[]
7629	2	4	16	80.0	2	0	[]
7648	8	2	2	60.0	2	1	[(2700, 0)]
7653	1	4	8	60.0	2	0	[]
7667	2	1	5	60.0	2	0	[]
7682	1	1	8	60.0	2	0	[]
7689	3	1	8	60.0	2	0	[]
7699	2	1	8	60.0	2	0	[]
7700	67	21	48	300.0	2	0	[]
7703	1	1	8	40.0	0	0	[]
7706	7	6	7	60.0	2	0	[]
7717	1	4	8	60.0	2	0	[]
7718	2	1	2	60.0	2	0	[]
7743	2	1	8	60.0	2	0	[]
7753	2	1	8	60.0	2	0	[]
7754	22	1	8	60.0	2	0	[]
7755	1	1	8	60.0	2	0	[]
7762	3	1	8	60.0	2	0	[]
7767	2	1	1	60.0	2	0	[]
7772	10	4	16	60.0	2	3	[(851, 0), (2742, 0), (1059, 0)]
7786	2	4	8	60.0	2	0	[]
7788	1	1	8	60.0	2	0	[]
7797	10	2	8	60.0	2	0	[]
7823	3	1	8	60.0	2	0	[]
7824	5	1	8	60.0	2	0	[]
7834	4	4	8	60.0	2	0	[]
7836	4	2	8	60.0	2	0	[]
7856	2	1	8	60.0	2	0	[]
7874	20	6	8	100.0	2	1	[(6421, 2)]
7885	3	1	8	60.0	2	0	[]
7894	2	1	8	60.0	2	0	[]
7899	4	1	8	60.0	2	0	[]
7905	6	1	8	60.0	2	0	[]
7908	2	4	8	60.0	2	0	[]
7916	10	1	8	60.0	2	1	[(2874, 0)]
7933	1	1	8	60.0	2	0	[]
7974	3	5	8	60.0	2	0	[]
7983	1	1	1	60.0	2	0	[]
7989	1	4	8	60.0	2	0	[]
7993	2	1	8	60.0	2	0	[]
7994	1	1	8	60.0	2	0	[]
8002	10	2	8	60.0	2	0	[]
8005	8	4	8	60.0	2	0	[]
8011	3	1	8	60.0	2	0	[]
8014	10	1	8	60.0	2	1	[(9254, 0)]
8025	1	1	1	60.0	2	0	[]
8032	1	1	2	60.0	2	0	[]
8038	3	3	8	60.0	2	0	[]
8064	2	1	8	60.0	2	0	[]
8072	4	1	8	60.0	2	0	[]
8073	6	2	8	60.0	2	0	[]
8080	2	1	8	60.0	2	1	[(1070, 2)]
8083	1	1	8	80.0	2	0	[]
8084	2	1	8	60.0	2	0	[]
8087	1	1	4	60.0	2	0	[]
8094	2	1	8	60.0	2	0	[]
8095	5	1	8	60.0	2	0	[]
8110	2	1	8	100.0	2	0	[]
8131	5	2	8	60.0	2	0	[]
8145	2	6	8	60.0	2	0	[]
8153	3	1	8	60.0	2	0	[]
8158	2	4	8	60.0	2	0	[]
8162	1	2	16	60.0	2	8	[(4608, 3), (2739, 2), (8587, 2), (5135, 2), (2049, 3), (1378, 3), (4011, 3), (7555, 2)]
8167	1	1	8	40.0	2	0	[]
8191	110	6	8	40.0	2	0	[]
8194	18	2	8	60.0	2	0	[]
8195	2	1	8	60.0	2	0	[]
8198	4	2	8	60.0	2	0	[]
8201	2	4	8	60.0	2	0	[]
8207	3	1	8	60.0	2	0	[]
8214	1	4	8	60.0	2	0	[]
8230	1	1	8	60.0	2	0	[]
8236	2	3	8	60.0	2	0	[]
8237	4	2	8	60.0	2	0	[]
8249	1	1	36	60.0	2	0	[]
8254	2	4	8	60.0	2	0	[]
8276	11	6	8	100.0	2	0	[]
8292	2	2	8	60.0	2	0	[]
8295	1	1	2	60.0	2	0	[]
8296	2	1	8	60.0	2	0	[]
8300	6	3	8	60.0	2	0	[]
8314	2	1	8	60.0	2	0	[]
8332	2	1	3	60.0	2	0	[]
8345	2	1	8	60.0	2	0	[]
8372	2	1	8	60.0	2	0	[]
8386	75	2	8	60.0	2	0	[]
8388	2	1	8	60.0	2	0	[]
8391	3	1	8	60.0	2	0	[]
8410	9	2	8	60.0	2	0	[]
8413	4	2	8	60.0	2	0	[]
8421	1	4	8	60.0	2	0	[]
8424	2	1	8	60.0	2	0	[]
8425	1	1	6	60.0	2	0	[]
8457	5	4	16	80.0	2	0	[]
8458	1	1	8	60.0	2	0	[]
8464	2	1	8	60.0	2	0	[]
8468	1	1	8	60.0	2	0	[]
8479	2	1	2	60.0	2	0	[]
8483	5	1	16	60.0	2	0	[]
8490	2	1	2	60.0	2	0	[]
8495	1	1	8	60.0	2	0	[]
8508	1	1	8	60.0	2	0	[]
8510	2	1	8	60.0	2	0	[]
8529	31	4	8	60.0	2	0	[]
8531	4	1	7	60.0	2	0	[]
8544	2	2	8	60.0	2	0	[]
8562	1	8	16	100.0	2	0	[]
8577	1	4	8	60.0	2	0	[]
8586	3	1	8	60.0	2	0	[]
8587	2	8	16	60.0	2	7	[(4608, 2), (5135, 3), (2049, 2), (2739, 2), (1378, 2), (4011, 2), (7555, 3)]
8595	1	1	8	60.0	2	0	[]
8597	1	1	8	60.0	2	0	[]
8613	2	1	8	60.0	2	0	[]
8621	1	1	8	60.0	2	4	[(194, 0), (490, 0), (8851, 0), (1020, 0)]
8627	1	1	1	60.0	2	0	[]
8633	2	1	2	60.0	2	0	[]
8635	2	1	8	60.0	2	0	[]
8646	5	4	8	60.0	2	0	[]
8656	3	2	8	60.0	2	0	[]
8680	12	1	8	60.0	2	0	[]
8682	2	1	8	60.0	2	0	[]
8694	1	1	2	60.0	2	0	[]
8698	18	3	8	40.0	2	0	[]
8701	2	2	8	60.0	2	0	[]
8711	6	2	8	60.0	2	0	[]
8712	4	1	8	60.0	2	0	[]
8720	2	1	8	60.0	2	0	[]
8727	1	1	8	60.0	2	0	[]
8731	4	2	8	60.0	2	0	[]
8742	3	1	8	60.0	2	0	[]
8771	2	1	8	60.0	2	0	[]
8772	2	1	8	60.0	2	0	[]
8778	2	1	8	60.0	2	0	[]
8784	1	1	8	60.0	2	0	[]
8797	2	1	8	60.0	2	0	[]
8805	34	5	8	100.0	2	0	[]
8814	2	1	8	60.0	2	0	[]
8827	2	1	8	60.0	2	0	[]
8851	2	1	8	60.0	2	0	[]
8853	2	1	2	60.0	2	0	[]
8871	8	1	8	60.0	2	0	[]
8886	2	1	8	60.0	2	0	[]
8900	1	3	16	60.0	1	0	[]
8934	2	1	8	60.0	2	0	[]
8948	2	2	8	60.0	2	0	[]
8976	5	1	8	60.0	2	0	[]
8978	2	1	8	60.0	2	0	[]
9039	2	1	8	60.0	2	0	[]
9049	99	2	8	60.0	2	1	[(1309, 1)]
9053	2	1	8	60.0	2	1	[(2484, 0)]
9055	1	4	8	60.0	2	0	[]
9068	1	4	8	60.0	2	0	[]
9094	2	1	8	60.0	2	0	[]
9100	8	2	2	60.0	2	6	[(3095, 0), (8191, 0), (7309, 2), (3511, 0), (2621, 0), (793, 0)]
9105	1	1	8	60.0	2	0	[]
9106	1	1	7	60.0	2	0	[]
9143	6	1	8	40.0	2	0	[]
9146	2	3	16	60.0	0	0	[]
9147	1	4	8	60.0	2	0	[]
9175	1	1	2	60.0	2	0	[]
9176	7	1	16	60.0	2	0	[]
9184	1	1	4	60.0	2	0	[]
9185	2	4	8	60.0	2	0	[]
9191	3	1	8	60.0	2	0	[]
9195	2	1	2	60.0	2	0	[]
9200	2	1	8	60.0	2	0	[]
9207	31	4	16	60.0	2	0	[]
9210	1	1	8	60.0	2	0	[]
9217	1	1	1	300.0	2	0	[]
9230	2	1	1	60.0	2	0	[]
9233	3	4	8	60.0	2	0	[]
9247	2	1	1	60.0	2	0	[]
9249	5	1	8	60.0	2	0	[]
9254	1	1	2	60.0	2	0	[]
9264	6	5	8	60.0	2	0	[]
9279	1	1	8	60.0	2	0	[]
9287	1	4	16	80.0	2	0	[]
9288	1	1	1	60.0	2	0	[]
9294	1	1	8	60.0	2	0	[]
9304	2	1	8	60.0	2	0	[]
9308	2	1	8	60.0	2	0	[]
9310	2	4	8	60.0	2	0	[]
9320	3	1	8	60.0	2	0	[]
9330	11	6	8	60.0	2	0	[]
9338	9	1	8	60.0	2	0	[]
