app_id	nb_instances	core	memory	disk	intra_value	inter_degree	inter_aff
3	4	1	8	60.0	2	0	[]
9	1	1	2	60.0	2	0	[]
28	10	1	1	60.0	2	1	[(3489, 2)]
32	2	1	8	60.0	2	0	[]
42	1	1	16	200.0	2	0	[]
50	8	3	8	60.0	2	0	[]
62	2	1	8	60.0	2	0	[]
65	7	1	8	60.0	2	0	[]
67	21	1	8	60.0	2	0	[]
78	2	1	8	60.0	2	0	[]
88	5	1	8	60.0	2	0	[]
103	8	3	8	60.0	2	0	[]
110	3	1	8	60.0	2	0	[]
113	1	1	8	60.0	2	0	[]
129	2	3	8	60.0	2	0	[]
130	1	2	8	40.0	2	0	[]
131	2	4	8	60.0	2	0	[]
144	2	1	8	60.0	2	0	[]
147	315	6	8	60.0	2	5	[(7217, 0), (4717, 0), (1891, 3), (6831, 0), (3511, 0)]
148	2	1	8	60.0	2	0	[]
157	2	1	2	60.0	2	0	[]
163	1	1	8	60.0	2	0	[]
167	1	4	4	60.0	2	0	[]
174	2	2	8	60.0	2	0	[]
177	1	1	8	60.0	2	0	[]
193	2	1	8	80.0	2	0	[]
194	1	1	8	60.0	2	0	[]
210	4	1	8	60.0	2	0	[]
212	1	1	8	60.0	2	0	[]
224	5	3	8	60.0	2	0	[]
229	2	1	3	60.0	2	0	[]
236	10	3	8	60.0	2	0	[]
242	3	1	5	60.0	2	0	[]
243	2	1	5	60.0	2	0	[]
246	1	1	1	60.0	2	0	[]
247	1	4	8	60.0	2	0	[]
252	9	1	8	60.0	2	0	[]
260	19	2	8	60.0	2	1	[(5064, 0)]
261	5	1	8	60.0	2	1	[(3387, 0)]
270	11	1	8	60.0	2	0	[]
275	86	3	8	60.0	2	4	[(7622, 0), (5848, 2), (2819, 1), (88, 0)]
291	1	1	8	60.0	2	0	[]
309	2	1	8	60.0	2	0	[]
315	1	1	2	60.0	2	0	[]
333	1	1	8	60.0	2	0	[]
339	2	4	8	60.0	2	0	[]
348	2	1	8	60.0	2	1	[(555, 2)]
350	7	3	8	60.0	2	0	[]
364	2	5	8	60.0	2	0	[]
376	37	2	8	60.0	2	1	[(2042, 2)]
395	1	4	8	60.0	2	0	[]
396	4	1	8	60.0	2	0	[]
405	1	1	1	60.0	2	0	[]
406	2	4	8	60.0	2	0	[]
413	3	1	8	60.0	2	0	[]
415	1	1	2	60.0	2	0	[]
430	10	2	8	60.0	2	0	[]
432	2	1	8	60.0	2	0	[]
441	18	2	8	60.0	2	1	[(2701, 0)]
456	35	2	8	60.0	2	0	[]
457	3	1	8	60.0	2	0	[]
462	1	2	32	80.0	2	0	[]
484	5	1	8	60.0	2	0	[]
486	2	1	6	60.0	2	0	[]
499	2	1	8	60.0	2	0	[]
521	2	1	8	60.0	2	0	[]
522	2	1	2	60.0	2	0	[]
545	3	1	3	60.0	2	0	[]
549	2	1	16	60.0	2	0	[]
555	6	1	8	60.0	2	0	[]
562	33	2	8	60.0	2	1	[(7889, 0)]
563	2	1	8	60.0	2	0	[]
571	2	1	8	60.0	2	0	[]
576	2	1	2	60.0	2	0	[]
584	2	1	8	60.0	2	0	[]
592	1	16	32	200.0	2	0	[]
603	2	1	8	60.0	2	0	[]
620	2	2	4	60.0	2	0	[]
621	1	1	8	60.0	2	0	[]
623	2	1	8	60.0	2	0	[]
625	5	2	8	60.0	2	0	[]
629	2	1	8	60.0	2	0	[]
630	2	1	3	60.0	2	0	[]
637	1	1	32	200.0	0	0	[]
652	2	1	8	60.0	2	0	[]
671	2	4	8	60.0	2	0	[]
691	1	1	6	60.0	2	0	[]
693	14	2	8	60.0	2	1	[(1026, 0)]
705	1	1	8	60.0	2	0	[]
724	2	1	8	60.0	2	0	[]
725	25	1	8	60.0	2	2	[(5747, 0), (5446, 0)]
735	1	1	8	60.0	2	0	[]
746	12	3	8	60.0	2	0	[]
749	2	4	8	60.0	2	0	[]
780	2	4	8	60.0	2	0	[]
789	6	1	8	60.0	2	0	[]
807	6	1	8	60.0	2	0	[]
818	1	1	2	60.0	2	0	[]
847	2	5	8	60.0	2	0	[]
853	10	1	8	60.0	2	0	[]
858	2	1	8	60.0	2	0	[]
860	2	1	8	60.0	2	0	[]
867	1	1	8	60.0	2	0	[]
881	1	1	4	60.0	2	0	[]
899	2	1	8	60.0	2	0	[]
910	1	1	8	60.0	2	0	[]
927	1	1	8	60.0	2	0	[]
938	50	1	8	80.0	2	0	[]
942	23	2	8	80.0	2	0	[]
946	3	1	8	60.0	2	0	[]
950	2	2	8	60.0	2	0	[]
951	1	1	8	60.0	2	0	[]
993	1	1	8	60.0	2	0	[]
1003	1	1	8	60.0	2	0	[]
1022	2	1	8	60.0	2	0	[]
1025	4	1	8	40.0	2	0	[]
1026	12	4	8	60.0	2	2	[(7798, 0), (8284, 0)]
1030	1	2	8	60.0	2	0	[]
1033	4	1	8	60.0	2	0	[]
1048	4	1	8	60.0	2	0	[]
1068	2	1	8	60.0	2	0	[]
1088	1	4	8	60.0	2	0	[]
1095	1	1	8	60.0	2	0	[]
1123	76	2	8	60.0	2	20	[(7196, 1), (8293, 1), (5217, 1), (2152, 1), (637, 2), (2728, 0), (5127, 0), (2745, 0), (1855, 1), (5047, 0), (8194, 0), (1740, 1), (4221, 1), (7889, 1), (5086, 1), (9138, 1), (2886, 1), (8796, 1), (7853, 0), (7486, 1)]
1126	2	1	8	100.0	2	0	[]
1128	2	1	8	60.0	2	0	[]
1153	135	6	8	60.0	2	2	[(3277, 1), (7497, 1)]
1164	1	1	2	60.0	2	0	[]
1180	2	1	8	60.0	2	0	[]
1186	1	1	5	60.0	2	0	[]
1190	4	2	8	60.0	2	0	[]
1193	2	1	8	60.0	2	0	[]
1196	3	1	8	100.0	2	0	[]
1202	1	1	8	60.0	2	0	[]
1204	2	1	8	60.0	2	0	[]
1229	12	2	8	60.0	2	2	[(8221, 0), (4471, 2)]
1244	2	1	8	60.0	2	0	[]
1267	5	1	2	60.0	2	0	[]
1275	3	6	8	60.0	2	0	[]
1284	2	1	8	60.0	2	0	[]
1285	7	5	8	60.0	2	0	[]
1301	2	1	8	60.0	2	3	[(4668, 0), (7364, 0), (1345, 0)]
1307	2	1	8	60.0	2	0	[]
1322	4	4	8	60.0	2	0	[]
1327	2	1	8	60.0	2	0	[]
1345	3	1	8	60.0	2	0	[]
1355	1	1	8	60.0	2	0	[]
1383	2	1	8	60.0	2	0	[]
1395	3	2	8	60.0	2	0	[]
1396	3	2	8	60.0	2	0	[]
1406	1	1	8	60.0	2	0	[]
1413	2	1	8	60.0	2	0	[]
1420	2	1	32	100.0	2	0	[]
1436	1	1	8	60.0	2	0	[]
1437	95	6	8	60.0	2	12	[(3225, 1), (7401, 2), (4188, 0), (8648, 2), (413, 1), (6916, 0), (4967, 2), (5228, 0), (6485, 0), (2277, 1), (6444, 0), (1025, 1)]
1440	2	1	8	60.0	2	0	[]
1441	2	1	2	60.0	2	0	[]
1445	1	2	6	60.0	2	0	[]
1473	3	1	16	60.0	2	0	[]
1488	20	7	8	100.0	2	0	[]
1490	1	1	8	60.0	2	0	[]
1494	47	2	8	60.0	2	0	[]
1507	3	2	8	60.0	2	0	[]
1514	1	1	1	60.0	2	0	[]
1520	1	1	5	60.0	2	0	[]
1525	6	4	8	60.0	2	0	[]
1539	2	1	8	60.0	2	0	[]
1548	5	1	8	60.0	2	1	[(693, 2)]
1564	4	1	2	60.0	2	0	[]
1568	1	4	16	80.0	2	0	[]
1572	2	1	8	60.0	2	0	[]
1583	1	1	8	60.0	2	0	[]
1585	1	4	8	60.0	2	0	[]
1586	4	1	8	60.0	2	0	[]
1604	2	1	8	60.0	2	0	[]
1606	2	2	32	60.0	2	7	[(3284, 1), (7045, 2), (7217, 2), (4221, 1), (2175, 2), (3039, 1), (8162, 1)]
1609	2	2	8	60.0	2	0	[]
1616	5	1	8	60.0	2	0	[]
1629	1	1	8	60.0	2	0	[]
1638	4	1	8	60.0	2	0	[]
1639	100	2	8	60.0	2	10	[(2551, 0), (693, 1), (4611, 1), (7055, 0), (4118, 2), (7508, 2), (1494, 2), (4198, 2), (8095, 2), (4996, 2)]
1659	2	1	8	60.0	2	0	[]
1663	2	3	8	60.0	2	0	[]
1691	2	1	8	60.0	2	0	[]
1708	5	3	8	60.0	2	0	[]
1717	1	4	8	60.0	2	0	[]
1721	2	4	8	60.0	2	0	[]
1734	5	5	8	60.0	2	0	[]
1735	4	2	8	60.0	2	0	[]
1740	4	1	8	60.0	2	0	[]
1760	7	4	8	60.0	2	0	[]
1780	2	1	8	60.0	2	0	[]
1785	4	1	8	60.0	2	0	[]
1799	1	4	8	60.0	2	0	[]
1839	2	1	8	60.0	2	0	[]
1849	2	1	3	60.0	2	0	[]
1853	5	1	8	60.0	2	0	[]
1855	47	3	16	80.0	2	1	[(4471, 1)]
1886	2	1	5	60.0	2	0	[]
1891	2	1	8	60.0	2	1	[(147, 3)]
1912	2	1	2	60.0	2	0	[]
1926	1	1	8	60.0	2	0	[]
1933	1	4	16	60.0	2	0	[]
1937	2	5	8	60.0	2	0	[]
1940	3	1	8	60.0	2	0	[]
1953	2	1	8	60.0	2	0	[]
1954	1	1	16	60.0	1	0	[]
1956	3	1	8	60.0	2	0	[]
1970	1	1	8	60.0	2	0	[]
1976	3	1	8	60.0	2	0	[]
1989	1	4	8	60.0	2	0	[]
1996	1	1	8	60.0	2	0	[]
2007	6	2	8	60.0	2	0	[]
2028	1	8	16	60.0	2	0	[]
2030	4	1	8	60.0	2	0	[]
2042	1	1	8	60.0	2	0	[]
2048	24	5	8	60.0	2	2	[(7196, 0), (2701, 0)]
2050	4	1	8	60.0	2	0	[]
2053	4	1	8	60.0	2	0	[]
2063	2	1	8	60.0	2	0	[]
2077	4	1	8	60.0	2	0	[]
2087	1	1	2	60.0	2	0	[]
2092	1	2	8	60.0	2	0	[]
2095	4	3	8	60.0	2	0	[]
2102	1	2	6	60.0	2	0	[]
2107	4	1	8	60.0	2	0	[]
2122	1	4	8	60.0	2	0	[]
2126	11	6	8	60.0	2	0	[]
2135	2	1	8	60.0	2	0	[]
2138	4	1	8	60.0	2	5	[(6814, 0), (5307, 0), (7452, 0), (7262, 0), (1839, 0)]
2148	15	2	8	60.0	2	2	[(6450, 0), (3395, 0)]
2152	27	1	8	40.0	2	2	[(3343, 0), (456, 0)]
2161	3	5	8	60.0	2	0	[]
2175	1	2	16	60.0	1	11	[(3284, 1), (7045, 2), (6831, 2), (7217, 2), (4221, 1), (1606, 2), (4037, 2), (3928, 2), (3270, 2), (3039, 1), (8162, 1)]
2181	1	1	8	60.0	2	0	[]
2184	2	4	8	60.0	2	0	[]
2209	1	1	1	60.0	2	0	[]
2212	2	1	8	60.0	2	0	[]
2225	2	1	2	60.0	2	0	[]
2240	2	1	8	60.0	2	0	[]
2246	10	1	8	60.0	2	0	[]
2247	1	1	8	60.0	2	0	[]
2277	4	1	8	60.0	2	0	[]
2280	1	1	2	60.0	2	0	[]
2282	1	4	8	60.0	2	0	[]
2284	4	1	8	60.0	2	0	[]
2286	1	1	8	60.0	2	0	[]
2298	4	1	8	60.0	2	0	[]
2312	2	1	8	60.0	2	0	[]
2317	5	3	2	650.0	2	0	[]
2318	1	1	8	60.0	2	0	[]
2328	1	2	24	200.0	0	0	[]
2337	2	1	2	60.0	2	0	[]
2371	1	4	8	60.0	2	0	[]
2373	1	4	8	60.0	2	0	[]
2386	1	1	8	60.0	2	0	[]
2389	1	4	8	60.0	2	0	[]
2413	2	4	8	60.0	2	0	[]
2438	4	1	8	60.0	2	0	[]
2441	4	2	8	60.0	2	0	[]
2443	4	1	8	60.0	2	0	[]
2449	4	1	8	60.0	2	0	[]
2456	5	4	8	60.0	2	0	[]
2461	5	1	8	60.0	2	0	[]
2479	17	4	1	100.0	2	1	[(4009, 2)]
2508	8	1	8	60.0	2	1	[(1026, 0)]
2530	2	12	16	60.0	2	0	[]
2538	2	1	2	60.0	2	0	[]
2540	2	1	1	80.0	2	0	[]
2541	2	1	8	60.0	2	0	[]
2549	2	4	8	60.0	2	0	[]
2551	2	1	8	60.0	2	0	[]
2568	2	1	1	60.0	2	2	[(8979, 0), (6295, 0)]
2587	6	3	8	60.0	2	0	[]
2598	1	1	8	60.0	2	0	[]
2607	4	2	8	60.0	2	0	[]
2618	7	1	8	80.0	2	0	[]
2631	1	1	8	60.0	2	0	[]
2635	1	1	8	60.0	2	0	[]
2663	1	1	7	60.0	2	0	[]
2670	2	1	2	60.0	2	0	[]
2680	11	2	8	60.0	2	0	[]
2690	9	3	8	60.0	2	1	[(4221, 2)]
2693	9	1	8	60.0	2	0	[]
2696	21	6	8	60.0	2	2	[(5747, 0), (6195, 0)]
2701	27	4	7	60.0	2	0	[]
2705	2	1	8	60.0	2	0	[]
2708	2	1	8	60.0	2	0	[]
2728	10	3	8	40.0	2	0	[]
2737	2	2	32	80.0	2	0	[]
2738	2	1	8	60.0	2	0	[]
2745	46	12	16	80.0	2	3	[(8695, 0), (147, 0), (1855, 0)]
2748	1	1	8	60.0	2	0	[]
2750	1	1	16	80.0	2	0	[]
2769	6	2	8	40.0	2	0	[]
2772	10	12	2	60.0	2	0	[]
2773	2	1	8	60.0	2	0	[]
2777	4	1	8	60.0	2	0	[]
2786	2	4	8	60.0	2	0	[]
2809	2	2	8	60.0	2	0	[]
2819	4	2	8	60.0	2	0	[]
2820	1	1	1	60.0	2	0	[]
2834	1	4	16	100.0	2	0	[]
2839	10	6	8	60.0	2	0	[]
2861	3	1	8	60.0	2	0	[]
2867	2	1	8	60.0	2	0	[]
2886	31	2	2	60.0	2	0	[]
2891	1	1	8	60.0	2	0	[]
2894	1	1	1	60.0	2	0	[]
2912	3	3	8	60.0	2	1	[(7008, 0)]
2918	7	1	8	60.0	2	0	[]
2932	2	1	2	60.0	2	0	[]
2950	1	1	3	60.0	2	0	[]
2956	1	1	8	60.0	2	0	[]
2962	6	6	2	60.0	2	0	[]
2967	2	5	8	60.0	2	0	[]
2969	3	1	8	60.0	2	0	[]
2995	1	1	8	60.0	2	0	[]
3007	4	1	8	60.0	2	0	[]
3014	2	1	8	60.0	2	0	[]
3016	1	1	8	60.0	2	0	[]
3039	1	11	16	60.0	2	11	[(3284, 1), (4037, 2), (7045, 2), (6831, 2), (7217, 2), (4221, 1), (1606, 2), (2175, 2), (3928, 2), (3270, 2), (8162, 1)]
3041	9	3	8	60.0	2	0	[]
3044	2	1	8	60.0	2	0	[]
3045	2	2	8	60.0	2	0	[]
3047	5	1	8	60.0	2	0	[]
3054	9	6	8	60.0	2	4	[(6405, 0), (5691, 0), (4530, 0), (2708, 0)]
3072	1	1	8	60.0	2	0	[]
3075	2	1	8	60.0	2	0	[]
3079	2	1	8	60.0	2	0	[]
3081	2	1	8	60.0	2	0	[]
3091	40	5	8	60.0	2	1	[(1525, 2)]
3099	1	1	8	60.0	2	0	[]
3100	1	1	8	60.0	2	0	[]
3113	1	1	7	60.0	2	0	[]
3126	1	2	8	60.0	2	0	[]
3141	1	1	8	60.0	2	0	[]
3142	1	1	2	60.0	2	0	[]
3150	1	1	8	60.0	2	0	[]
3159	1	1	8	60.0	2	0	[]
3160	1	2	8	60.0	2	0	[]
3171	2	4	8	60.0	2	0	[]
3174	1	1	2	100.0	2	0	[]
3177	2	1	8	80.0	2	0	[]
3182	9	6	8	60.0	2	0	[]
3205	2	1	8	60.0	2	0	[]
3207	1	1	8	60.0	2	0	[]
3214	1	1	8	60.0	2	0	[]
3225	2	1	8	60.0	2	0	[]
3231	2	1	8	60.0	2	0	[]
3246	3	1	8	60.0	2	0	[]
3260	15	4	8	60.0	2	2	[(4996, 2), (8717, 0)]
3261	2	1	8	60.0	2	0	[]
3265	2	2	8	60.0	2	0	[]
3268	1	1	8	60.0	2	0	[]
3270	5	1	32	60.0	2	7	[(3284, 1), (7045, 2), (7217, 2), (4221, 1), (2175, 2), (3039, 1), (8162, 1)]
3277	2	1	8	60.0	2	0	[]
3283	240	6	8	60.0	2	2	[(1153, 0), (2087, 2)]
3284	2	6	16	60.0	2	9	[(7045, 2), (6831, 3), (7217, 2), (1606, 3), (4037, 3), (2175, 2), (3928, 3), (3270, 3), (3039, 1)]
3325	2	2	8	60.0	2	0	[]
3339	3	1	8	60.0	2	0	[]
3343	135	7	16	60.0	0	2	[(2152, 0), (5086, 2)]
3347	2	1	8	60.0	2	0	[]
3348	1	1	8	60.0	2	0	[]
3359	50	6	8	60.0	2	1	[(7622, 0)]
3387	5	1	2	60.0	2	0	[]
3395	4	1	8	60.0	2	0	[]
3419	1	1	4	60.0	2	0	[]
3440	1	1	8	60.0	2	0	[]
3454	2	1	8	60.0	2	0	[]
3455	4	3	8	60.0	2	1	[(8138, 0)]
3468	4	1	1	60.0	2	0	[]
3479	49	6	8	60.0	2	0	[]
3481	12	4	8	60.0	2	0	[]
3489	2	1	8	60.0	2	0	[]
3503	3	1	8	60.0	2	0	[]
3511	8	6	8	40.0	2	2	[(1564, 1), (562, 2)]
3519	1	3	8	60.0	2	0	[]
3532	1	1	1	60.0	2	0	[]
3536	2	1	8	60.0	2	0	[]
3580	8	3	8	80.0	2	0	[]
3588	9	1	16	80.0	2	3	[(3678, 1), (571, 0), (4063, 2)]
3591	2	1	8	60.0	2	0	[]
3598	2	2	2	60.0	2	0	[]
3600	2	1	1	60.0	2	0	[]
3623	2	3	8	60.0	2	0	[]
3632	4	1	2	60.0	2	0	[]
3636	77	4	8	60.0	2	1	[(2042, 2)]
3637	150	6	10	60.0	1	3	[(3709, 0), (8979, 1), (5691, 0)]
3642	1	1	8	60.0	2	0	[]
3646	1	1	1	60.0	2	0	[]
3654	122	3	8	40.0	1	3	[(9156, 0), (456, 0), (4229, 0)]
3657	103	6	16	60.0	1	3	[(7217, 0), (6715, 1), (4221, 0)]
3663	2	1	8	60.0	2	0	[]
3678	2	2	8	1024.0	2	0	[]
3704	7	1	8	60.0	2	0	[]
3705	20	6	8	60.0	2	4	[(8086, 2), (7021, 1), (1025, 2), (693, 0)]
3709	21	2	8	40.0	2	0	[]
3720	8	1	8	60.0	2	0	[]
3737	2	1	8	60.0	2	0	[]
3743	1	4	8	60.0	2	0	[]
3744	1	4	8	60.0	2	0	[]
3764	2	4	8	60.0	2	0	[]
3779	3	2	8	60.0	2	0	[]
3784	4	1	8	60.0	2	0	[]
3788	20	2	8	60.0	2	0	[]
3792	2	1	8	80.0	2	0	[]
3794	2	1	8	60.0	2	0	[]
3795	2	1	2	60.0	2	0	[]
3808	2	1	8	60.0	2	0	[]
3812	1	1	8	60.0	2	0	[]
3821	30	1	8	60.0	2	0	[]
3833	1	1	8	60.0	2	0	[]
3837	1	1	8	40.0	2	0	[]
3847	2	12	16	100.0	2	0	[]
3868	2	1	8	60.0	2	0	[]
3869	2	1	8	60.0	2	0	[]
3881	1	4	8	60.0	2	0	[]
3885	14	4	8	60.0	2	0	[]
3897	1	1	1	60.0	2	0	[]
3907	2	1	2	60.0	2	0	[]
3919	2	1	8	60.0	2	0	[]
3922	4	4	8	60.0	2	0	[]
3924	1	1	2	60.0	2	0	[]
3925	1	1	8	60.0	2	0	[]
3928	3	6	32	60.0	2	7	[(3284, 1), (7045, 2), (7217, 2), (4221, 1), (2175, 2), (3039, 1), (8162, 1)]
3937	2	2	8	60.0	2	0	[]
3948	8	1	8	60.0	2	0	[]
3950	5	1	8	60.0	2	0	[]
3953	2	1	16	100.0	2	0	[]
3965	2	1	8	80.0	2	0	[]
3984	6	1	8	60.0	2	4	[(1153, 0), (1473, 0), (4996, 1), (7622, 1)]
3985	3	1	8	60.0	2	0	[]
4005	2	4	8	60.0	2	0	[]
4009	16	6	8	60.0	2	1	[(1639, 2)]
4018	1	1	2	60.0	2	0	[]
4037	1	2	32	60.0	2	7	[(3284, 1), (7045, 2), (7217, 2), (4221, 1), (2175, 2), (3039, 1), (8162, 1)]
4044	1	5	16	60.0	2	0	[]
4057	2	4	8	60.0	2	0	[]
4063	2	1	8	60.0	2	0	[]
4067	5	2	8	60.0	2	0	[]
4072	1	1	8	60.0	2	0	[]
4093	1	1	8	60.0	2	0	[]
4116	2	1	8	60.0	2	0	[]
4118	4	1	8	80.0	2	0	[]
4167	1	1	4	60.0	2	0	[]
4174	2	1	2	60.0	2	0	[]
4188	4	1	8	60.0	2	0	[]
4191	5	2	8	80.0	2	0	[]
4198	6	1	8	60.0	2	0	[]
4199	2	1	8	60.0	2	0	[]
4205	6	1	8	60.0	2	0	[]
4211	3	3	8	60.0	2	0	[]
4220	1	1	8	60.0	2	0	[]
4221	88	8	16	60.0	2	9	[(7045, 2), (6831, 3), (7217, 2), (1606, 3), (4037, 3), (2175, 2), (3928, 3), (3270, 3), (3039, 1)]
4229	2	1	8	60.0	2	2	[(3654, 0), (456, 0)]
4247	1	1	8	60.0	2	0	[]
4255	1	1	8	60.0	2	0	[]
4285	1	1	8	60.0	2	0	[]
4294	4	1	5	60.0	2	0	[]
4302	4	1	8	60.0	2	0	[]
4306	1	1	8	60.0	2	0	[]
4308	2	24	48	300.0	2	0	[]
4312	2	1	8	60.0	2	0	[]
4319	6	2	8	60.0	2	0	[]
4320	2	1	8	60.0	2	0	[]
4324	1	1	2	60.0	2	0	[]
4337	21	12	16	60.0	2	0	[]
4342	2	4	8	60.0	2	0	[]
4345	2	1	2	60.0	2	0	[]
4354	2	2	4	60.0	2	0	[]
4356	1	1	8	60.0	2	0	[]
4367	2	2	5	60.0	2	0	[]
4370	3	1	8	60.0	2	0	[]
4388	2	2	8	100.0	2	0	[]
4398	15	6	8	60.0	2	3	[(7639, 2), (456, 1), (4471, 0)]
4416	2	1	8	60.0	2	0	[]
4418	7	6	8	60.0	2	0	[]
4426	5	4	8	60.0	2	0	[]
4455	3	1	8	60.0	2	0	[]
4459	12	6	8	60.0	2	0	[]
4460	2	1	8	60.0	2	0	[]
4471	46	6	8	40.0	0	3	[(2246, 0), (8221, 0), (4398, 2)]
4512	3	2	8	60.0	2	0	[]
4521	1	1	8	60.0	2	0	[]
4525	2	1	3	60.0	2	0	[]
4530	27	5	8	100.0	2	0	[]
4532	2	1	8	60.0	2	0	[]
4544	4	1	8	60.0	2	0	[]
4546	2	4	8	60.0	2	0	[]
4557	2	1	8	60.0	2	0	[]
4571	2	1	8	60.0	2	0	[]
4581	15	2	8	60.0	2	0	[]
4583	3	1	8	60.0	2	0	[]
4591	8	2	16	100.0	2	0	[]
4593	2	1	8	60.0	2	0	[]
4607	2	1	2	60.0	2	0	[]
4611	2	1	1	60.0	2	0	[]
4614	2	1	5	60.0	2	0	[]
4625	1	1	8	60.0	2	0	[]
4627	4	1	7	60.0	2	0	[]
4635	13	1	8	60.0	2	0	[]
4639	3	1	8	60.0	2	0	[]
4643	1	1	8	60.0	2	0	[]
4645	1	4	8	60.0	2	0	[]
4653	19	6	8	60.0	2	0	[]
4657	2	1	8	60.0	2	0	[]
4668	3	1	8	60.0	2	0	[]
4672	1	3	8	60.0	2	0	[]
4676	2	2	8	60.0	2	0	[]
4677	5	1	6	60.0	2	0	[]
4685	2	4	8	60.0	2	0	[]
4712	2	1	3	60.0	2	0	[]
4717	3	1	8	60.0	2	0	[]
4740	1	1	8	60.0	2	0	[]
4743	4	2	8	60.0	2	0	[]
4744	1	1	8	60.0	2	0	[]
4752	2	1	8	60.0	2	0	[]
4755	1	1	3	60.0	2	0	[]
4762	26	2	8	60.0	2	18	[(3325, 0), (2886, 0), (7196, 0), (4530, 0), (3637, 0), (3709, 0), (6295, 0), (4789, 0), (2690, 0), (6100, 0), (5528, 0), (2912, 0), (7639, 0), (7889, 0), (1153, 0), (2225, 0), (1025, 0), (7486, 0)]
4770	35	2	16	100.0	2	0	[]
4771	4	2	8	60.0	2	0	[]
4778	27	2	8	40.0	2	0	[]
4782	3	1	8	60.0	2	0	[]
4783	2	1	8	60.0	2	0	[]
4787	2	1	16	60.0	2	0	[]
4789	2	1	2	40.0	2	0	[]
4799	7	1	8	60.0	2	0	[]
4803	2	1	8	60.0	2	0	[]
4821	6	1	8	60.0	2	0	[]
4839	1	1	8	60.0	2	0	[]
4848	1	4	8	60.0	2	0	[]
4852	1	4	8	60.0	2	0	[]
4863	3	1	8	60.0	2	0	[]
4866	14	2	8	60.0	2	0	[]
4867	2	1	8	60.0	2	0	[]
4870	2	1	8	60.0	2	0	[]
4874	13	3	8	60.0	2	2	[(7486, 0), (7217, 2)]
4876	1	1	8	60.0	2	0	[]
4883	11	6	8	60.0	2	0	[]
4899	1	4	8	60.0	2	0	[]
4913	7	2	8	60.0	2	0	[]
4918	1	4	8	60.0	2	0	[]
4929	4	3	8	60.0	2	0	[]
4933	7	2	8	60.0	2	0	[]
4950	4	1	8	60.0	2	0	[]
4958	2	1	9	80.0	2	0	[]
4967	2	1	8	60.0	2	0	[]
4974	4	1	2	60.0	2	0	[]
4996	100	6	16	100.0	2	1	[(3260, 0)]
5018	1	1	1	60.0	2	0	[]
5026	2	1	8	60.0	2	0	[]
5033	2	1	8	60.0	2	0	[]
5047	7	2	8	60.0	2	0	[]
5050	1	1	1	60.0	2	0	[]
5062	1	1	8	60.0	2	0	[]
5064	7	1	8	60.0	2	0	[]
5076	1	1	8	60.0	2	0	[]
5077	2	1	8	60.0	2	0	[]
5081	2	1	8	60.0	2	0	[]
5086	22	2	8	60.0	2	1	[(7217, 2)]
5096	3	1	8	60.0	2	0	[]
5123	1	1	2	60.0	2	0	[]
5127	21	4	16	60.0	2	0	[]
5138	7	3	8	60.0	2	0	[]
5149	2	2	8	60.0	2	0	[]
5174	1	1	2	60.0	2	0	[]
5196	1	1	8	60.0	2	0	[]
5205	1	3	8	60.0	2	0	[]
5207	2	1	8	60.0	2	0	[]
5217	28	5	2	200.0	2	0	[]
5223	4	5	16	60.0	2	0	[]
5228	7	2	8	60.0	2	0	[]
5234	2	2	8	60.0	2	0	[]
5257	2	1	8	60.0	2	0	[]
5263	2	1	8	60.0	2	0	[]
5273	1	1	2	60.0	2	0	[]
5291	1	1	2	60.0	2	0	[]
5297	2	1	3	60.0	2	0	[]
5307	4	1	8	60.0	2	5	[(6814, 0), (2138, 0), (7452, 0), (7262, 0), (1839, 0)]
5309	4	1	8	60.0	2	0	[]
5312	2	4	8	60.0	2	0	[]
5331	2	1	8	60.0	2	0	[]
5341	4	1	8	60.0	2	0	[]
5344	4	2	8	60.0	2	0	[]
5346	9	2	8	60.0	2	0	[]
5352	1	1	6	60.0	2	0	[]
5358	2	1	8	60.0	2	0	[]
5361	1	4	8	60.0	2	0	[]
5366	142	12	16	60.0	1	4	[(9010, 2), (7639, 0), (1606, 0), (1229, 0)]
5369	2	2	8	200.0	2	0	[]
5432	1	1	7	60.0	2	0	[]
5438	104	2	8	60.0	2	5	[(3965, 1), (5815, 2), (4996, 2), (9179, 2), (3588, 2)]
5443	4	1	2	60.0	2	0	[]
5446	5	1	8	60.0	2	0	[]
5451	2	2	8	60.0	2	0	[]
5463	6	1	8	60.0	2	0	[]
5481	6	1	8	60.0	2	0	[]
5499	3	1	8	60.0	2	0	[]
5500	3	1	8	60.0	2	0	[]
5502	2	1	1	60.0	2	0	[]
5505	2	5	8	60.0	2	0	[]
5519	4	3	8	60.0	2	0	[]
5525	3	1	8	60.0	2	0	[]
5528	1	6	8	40.0	2	0	[]
5545	2	1	8	60.0	2	0	[]
5563	3	2	8	60.0	2	0	[]
5564	15	2	8	60.0	2	0	[]
5589	4	1	16	100.0	2	0	[]
5590	9	1	1	60.0	2	0	[]
5612	1	1	5	60.0	2	0	[]
5618	2	1	8	60.0	2	0	[]
5622	2	4	4	60.0	2	0	[]
5670	2	1	8	60.0	2	0	[]
5680	1	1	8	60.0	2	0	[]
5691	61	4	8	60.0	2	1	[(8528, 0)]
5692	2	1	8	60.0	2	0	[]
5693	3	1	2	60.0	2	0	[]
5700	1	1	8	60.0	2	0	[]
5703	1	1	2	60.0	2	0	[]
5705	59	3	8	60.0	2	6	[(7532, 2), (8221, 0), (5712, 0), (6295, 0), (7217, 0), (4996, 2)]
5710	2	1	3	60.0	2	0	[]
5712	2	1	8	60.0	2	0	[]
5735	1	1	8	40.0	2	0	[]
5747	18	3	8	60.0	2	0	[]
5748	2	1	8	60.0	2	0	[]
5786	2	1	8	60.0	2	0	[]
5791	2	1	8	60.0	2	0	[]
5801	1	1	8	60.0	2	0	[]
5804	1	1	4	60.0	2	0	[]
5808	1	1	8	60.0	2	0	[]
5815	2	1	4	60.0	2	0	[]
5824	2	2	8	60.0	2	0	[]
5845	1	1	1	60.0	2	0	[]
5848	2	1	6	60.0	2	0	[]
5854	2	1	8	60.0	2	0	[]
5860	2	1	8	60.0	2	0	[]
5866	2	1	8	60.0	2	0	[]
5883	23	5	8	60.0	2	0	[]
5888	4	1	1	60.0	2	0	[]
5892	1	1	96	300.0	2	0	[]
5895	1	1	1	60.0	2	0	[]
5924	2	1	7	60.0	2	0	[]
5945	1	1	1	60.0	2	0	[]
5951	2	1	8	60.0	2	0	[]
5973	1	1	3	60.0	2	0	[]
6015	12	4	8	60.0	2	0	[]
6032	2	1	8	60.0	2	0	[]
6036	6	1	1	60.0	2	0	[]
6049	2	1	8	60.0	2	0	[]
6059	2	2	8	60.0	2	0	[]
6066	3	1	8	60.0	2	0	[]
6079	2	4	8	60.0	2	0	[]
6087	1	4	8	60.0	2	0	[]
6100	1	1	2	60.0	2	0	[]
6107	1	4	8	60.0	2	0	[]
6128	15	5	8	80.0	2	0	[]
6136	4	1	8	60.0	2	0	[]
6150	5	1	8	60.0	2	1	[(3343, 2)]
6154	1	4	8	60.0	2	0	[]
6162	5	1	2	300.0	2	0	[]
6167	3	1	4	60.0	2	0	[]
6195	2	1	2	60.0	2	0	[]
6205	1	1	8	60.0	2	0	[]
6209	2	1	8	60.0	2	0	[]
6211	5	1	8	60.0	2	0	[]
6215	2	1	8	60.0	2	0	[]
6229	1	1	1	60.0	2	0	[]
6254	1	1	8	60.0	2	0	[]
6257	2	1	8	60.0	2	0	[]
6270	3	6	8	60.0	2	3	[(2701, 1), (7639, 2), (6991, 2)]
6281	2	1	1	60.0	2	0	[]
6286	1	1	8	60.0	2	0	[]
6295	14	4	8	40.0	2	1	[(456, 0)]
6306	8	1	8	60.0	2	0	[]
6309	1	4	8	60.0	2	0	[]
6317	13	1	8	60.0	2	0	[]
6318	2	1	2	60.0	2	1	[(6195, 0)]
6338	2	1	8	60.0	2	0	[]
6339	1	8	16	200.0	2	0	[]
6361	2	1	2	60.0	2	0	[]
6365	7	1	8	60.0	2	0	[]
6374	7	1	8	60.0	2	0	[]
6405	6	1	8	60.0	2	0	[]
6416	9	2	8	60.0	2	3	[(3654, 2), (4471, 2), (4996, 2)]
6423	1	1	8	60.0	2	0	[]
6444	3	3	3	60.0	2	0	[]
6450	5	2	16	60.0	2	1	[(8194, 0)]
6459	1	1	8	60.0	2	0	[]
6461	1	2	8	60.0	2	0	[]
6475	4	2	8	200.0	2	0	[]
6476	1	1	8	60.0	2	0	[]
6485	3	3	8	60.0	2	0	[]
6488	2	4	8	60.0	2	0	[]
6494	3	1	8	60.0	2	0	[]
6496	3	1	8	60.0	2	0	[]
6500	2	1	8	60.0	2	0	[]
6514	24	3	8	60.0	2	0	[]
6518	1	1	2	60.0	2	0	[]
6529	1	1	8	60.0	2	0	[]
6535	1	4	8	60.0	2	0	[]
6542	1	1	1	40.0	0	0	[]
6543	1	4	8	60.0	2	0	[]
6544	1	1	8	60.0	2	0	[]
6549	2	1	8	60.0	2	0	[]
6551	1	1	2	60.0	2	0	[]
6562	3	1	8	60.0	2	0	[]
6569	1	1	8	60.0	2	0	[]
6573	3	1	8	60.0	2	0	[]
6574	1	1	2	60.0	2	0	[]
6592	2	4	8	60.0	2	0	[]
6608	3	1	8	60.0	2	0	[]
6637	1	1	8	60.0	2	0	[]
6655	1	4	8	60.0	2	0	[]
6667	1	1	8	60.0	2	0	[]
6668	1	1	1	60.0	2	0	[]
6691	1	1	2	60.0	2	0	[]
6715	13	6	2	60.0	2	0	[]
6740	1	2	16	60.0	2	0	[]
6746	2	1	8	60.0	2	0	[]
6752	1	1	7	40.0	2	0	[]
6756	4	1	8	60.0	2	0	[]
6761	1	1	8	60.0	2	0	[]
6768	4	1	8	60.0	2	0	[]
6786	2	1	6	60.0	2	0	[]
6787	3	1	8	60.0	2	0	[]
6814	4	1	5	60.0	2	5	[(5307, 0), (2138, 0), (7452, 0), (7262, 0), (1839, 0)]
6819	2	1	2	60.0	2	0	[]
6821	2	1	2	60.0	2	0	[]
6831	1	8	32	60.0	2	7	[(3284, 1), (7045, 2), (7217, 2), (4221, 1), (2175, 2), (3039, 1), (8162, 1)]
6834	5	1	8	80.0	2	0	[]
6882	2	1	1	60.0	2	0	[]
6897	1	1	8	60.0	2	0	[]
6898	2	1	8	60.0	2	0	[]
6916	23	2	8	80.0	2	1	[(8777, 0)]
6924	1	1	2	60.0	2	0	[]
6928	4	1	8	60.0	2	0	[]
6941	4	2	8	60.0	2	0	[]
6943	3	6	8	60.0	2	0	[]
6953	2	1	8	60.0	2	0	[]
6962	2	1	8	60.0	2	0	[]
6967	1	1	16	40.0	2	0	[]
6976	76	5	16	150.0	2	0	[]
6980	1	1	2	60.0	2	0	[]
6983	2	1	8	60.0	2	0	[]
6986	1	1	8	60.0	2	0	[]
6991	25	2	8	100.0	2	0	[]
7003	1	1	2	60.0	2	0	[]
7008	2	1	8	60.0	2	0	[]
7009	7	2	8	60.0	2	0	[]
7021	2	1	1	60.0	2	0	[]
7023	2	2	8	60.0	2	0	[]
7045	2	2	16	60.0	2	6	[(4037, 2), (6831, 2), (1606, 2), (2175, 3), (3928, 2), (3270, 2)]
7055	16	12	12	60.0	2	2	[(3636, 1), (4668, 1)]
7056	1	1	8	60.0	2	0	[]
7057	1	4	8	60.0	2	0	[]
7064	11	5	8	60.0	2	0	[]
7078	2	4	8	60.0	2	0	[]
7084	1	3	16	100.0	2	0	[]
7098	13	2	16	80.0	2	0	[]
7114	15	6	8	60.0	2	0	[]
7124	3	1	8	60.0	2	0	[]
7161	1	1	2	60.0	2	0	[]
7163	6	1	8	60.0	2	1	[(270, 0)]
7179	2	1	8	60.0	2	0	[]
7186	1	1	1	60.0	2	0	[]
7189	1	1	2	60.0	2	0	[]
7196	36	2	8	60.0	2	3	[(9034, 1), (6500, 2), (7486, 0)]
7213	1	2	8	60.0	2	0	[]
7217	85	12	16	60.0	2	8	[(4037, 2), (6831, 2), (1606, 2), (3657, 0), (2175, 3), (3928, 2), (3270, 2), (1229, 0)]
7230	2	3	8	60.0	2	0	[]
7237	2	1	8	60.0	2	0	[]
7243	2	2	8	60.0	2	0	[]
7262	2	1	8	60.0	2	0	[]
7265	2	1	8	60.0	2	0	[]
7274	2	1	8	60.0	2	0	[]
7281	1	8	16	80.0	2	0	[]
7288	2	1	2	60.0	2	0	[]
7297	2	3	8	60.0	2	0	[]
7300	1	1	8	60.0	2	0	[]
7302	5	1	8	60.0	2	0	[]
7305	1	4	8	80.0	2	0	[]
7325	1	8	16	150.0	2	0	[]
7335	1	2	8	60.0	2	0	[]
7354	4	1	8	60.0	2	0	[]
7356	9	2	7	60.0	2	0	[]
7363	1	1	8	60.0	2	0	[]
7364	3	1	8	80.0	2	0	[]
7376	4	1	8	60.0	2	0	[]
7401	23	3	8	60.0	2	0	[]
7412	1	1	4	60.0	2	0	[]
7420	3	2	8	40.0	2	0	[]
7423	2	1	8	60.0	2	0	[]
7440	1	4	8	60.0	2	0	[]
7452	2	1	8	60.0	2	5	[(6814, 0), (5307, 0), (2138, 0), (7262, 0), (1839, 0)]
7465	2	1	8	60.0	2	0	[]
7470	1	1	8	40.0	2	0	[]
7486	225	3	8	60.0	2	2	[(4789, 0), (6450, 2)]
7497	5	3	8	60.0	2	0	[]
7503	6	1	8	60.0	2	0	[]
7508	2	6	6	60.0	2	1	[(147, 0)]
7512	2	1	8	60.0	2	0	[]
7523	2	1	8	60.0	2	0	[]
7524	10	3	8	60.0	2	0	[]
7527	1	1	8	60.0	2	0	[]
7532	2	1	8	60.0	2	0	[]
7579	1	1	8	60.0	2	0	[]
7583	2	1	2	60.0	2	0	[]
7590	2	3	8	60.0	2	0	[]
7608	1	1	8	60.0	2	0	[]
7622	39	3	8	60.0	2	2	[(6295, 2), (6257, 1)]
7625	2	1	6	60.0	2	0	[]
7628	1	1	8	60.0	2	0	[]
7639	22	2	8	40.0	0	4	[(9156, 0), (3654, 2), (8221, 1), (1606, 0)]
7640	1	1	8	60.0	2	0	[]
7655	3	1	8	60.0	2	0	[]
7656	2	1	2	60.0	2	0	[]
7672	2	1	8	60.0	2	0	[]
7678	1	4	8	80.0	2	0	[]
7688	2	1	8	60.0	2	0	[]
7695	2	2	8	60.0	2	0	[]
7714	2	1	8	60.0	2	0	[]
7721	1	1	8	60.0	2	0	[]
7763	1	1	8	60.0	2	0	[]
7787	1	1	16	60.0	2	0	[]
7790	1	1	8	60.0	2	0	[]
7794	9	12	16	100.0	2	0	[]
7795	3	5	8	60.0	2	0	[]
7798	16	3	8	60.0	2	0	[]
7812	2	1	8	60.0	2	0	[]
7845	6	1	8	60.0	2	0	[]
7846	1	1	2	60.0	2	0	[]
7849	1	1	8	60.0	2	0	[]
7853	22	1	8	60.0	2	1	[(1708, 0)]
7864	8	1	8	60.0	2	0	[]
7866	3	1	8	60.0	2	0	[]
7885	3	1	8	60.0	2	0	[]
7889	429	12	16	60.0	1	2	[(6281, 0), (562, 0)]
7896	1	1	2	60.0	2	0	[]
7903	1	1	4	60.0	2	0	[]
7911	3	2	8	60.0	2	2	[(725, 2), (7465, 1)]
7927	6	1	8	60.0	2	0	[]
7939	6	2	3	100.0	2	0	[]
7946	2	1	8	60.0	2	0	[]
7949	1	1	8	60.0	2	0	[]
7960	15	1	8	60.0	2	1	[(147, 0)]
7969	1	1	1	60.0	2	0	[]
7995	6	1	8	60.0	2	0	[]
8013	2	1	1	60.0	2	0	[]
8032	1	1	2	60.0	2	0	[]
8039	1	1	1	60.0	2	0	[]
8059	2	4	8	60.0	2	0	[]
8067	1	1	8	60.0	2	0	[]
8074	3	1	8	60.0	2	0	[]
8085	6	1	8	60.0	2	0	[]
8086	2	1	8	60.0	2	0	[]
8095	5	1	8	60.0	2	0	[]
8098	1	1	8	60.0	2	0	[]
8104	3	1	8	60.0	2	0	[]
8121	2	1	8	60.0	2	0	[]
8125	2	1	8	60.0	2	0	[]
8128	4	3	8	60.0	2	0	[]
8131	5	2	8	60.0	2	0	[]
8138	100	6	8	60.0	2	2	[(3455, 2), (147, 0)]
8141	3	6	2	60.0	2	0	[]
8143	2	1	2	60.0	2	0	[]
8144	103	6	8	60.0	2	0	[]
8154	1	1	8	60.0	2	0	[]
8156	2	2	16	100.0	2	0	[]
8162	1	2	16	60.0	2	9	[(7045, 2), (6831, 3), (7217, 2), (1606, 3), (4037, 3), (2175, 2), (3928, 3), (3270, 3), (3039, 1)]
8194	18	2	8	60.0	2	0	[]
8203	9	2	8	60.0	2	0	[]
8221	34	3	16	100.0	2	2	[(1123, 2), (4471, 0)]
8253	12	2	8	60.0	2	1	[(693, 1)]
8265	5	5	8	60.0	2	0	[]
8284	2	1	8	60.0	2	0	[]
8288	1	1	1	100.0	2	0	[]
8293	25	1	16	60.0	2	0	[]
8295	1	1	2	60.0	2	0	[]
8308	3	2	8	60.0	2	0	[]
8335	5	1	5	300.0	2	0	[]
8339	4	6	8	60.0	2	0	[]
8351	1	1	8	60.0	2	0	[]
8352	2	1	6	60.0	2	0	[]
8358	1	1	8	60.0	2	0	[]
8361	2	2	16	200.0	2	0	[]
8369	2	1	8	60.0	2	0	[]
8377	2	1	8	60.0	2	0	[]
8380	2	1	8	60.0	2	0	[]
8388	2	1	8	60.0	2	0	[]
8389	2	1	8	60.0	2	0	[]
8396	3	1	8	60.0	2	0	[]
8421	1	4	8	60.0	2	0	[]
8426	4	1	6	60.0	2	0	[]
8438	5	3	8	60.0	2	0	[]
8441	1	4	8	60.0	2	0	[]
8446	4	2	8	60.0	2	0	[]
8450	1	1	2	60.0	2	0	[]
8451	6	2	8	60.0	2	0	[]
8456	1	1	8	60.0	2	0	[]
8457	5	4	16	80.0	2	0	[]
8467	1	2	8	60.0	2	0	[]
8468	1	1	8	60.0	2	0	[]
8471	2	1	8	60.0	2	0	[]
8487	2	1	8	60.0	2	0	[]
8502	6	2	8	60.0	2	0	[]
8510	2	1	8	60.0	2	0	[]
8528	5	5	8	60.0	2	0	[]
8531	4	1	7	60.0	2	0	[]
8541	3	2	8	60.0	2	0	[]
8556	8	1	8	60.0	2	0	[]
8585	2	1	4	60.0	2	0	[]
8586	3	1	8	60.0	2	0	[]
8634	26	2	8	60.0	2	0	[]
8635	2	1	8	60.0	2	0	[]
8638	3	3	8	60.0	2	0	[]
8642	2	1	8	60.0	2	0	[]
8648	20	4	8	60.0	2	0	[]
8658	1	1	2	60.0	2	0	[]
8661	2	1	8	60.0	2	0	[]
8664	3	1	8	60.0	2	0	[]
8678	2	1	8	40.0	2	0	[]
8679	2	1	1	100.0	2	0	[]
8694	1	1	2	60.0	2	0	[]
8695	11	1	8	100.0	2	1	[(147, 0)]
8697	2	1	16	60.0	2	0	[]
8704	2	4	8	60.0	2	0	[]
8706	1	4	8	60.0	2	0	[]
8717	44	6	8	60.0	2	0	[]
8723	14	1	6	100.0	2	0	[]
8757	1	1	8	60.0	2	0	[]
8769	1	1	16	60.0	0	0	[]
8777	2	1	8	60.0	2	0	[]
8784	1	1	8	60.0	2	0	[]
8788	2	1	8	60.0	2	0	[]
8789	7	4	8	60.0	2	0	[]
8796	4	2	2	80.0	2	0	[]
8804	1	1	2	60.0	2	0	[]
8818	25	2	8	60.0	2	0	[]
8828	7	1	16	80.0	2	0	[]
8843	3	1	8	60.0	2	0	[]
8844	2	3	8	60.0	2	0	[]
8853	2	1	2	60.0	2	0	[]
8855	5	3	8	60.0	2	0	[]
8858	1	1	8	60.0	2	0	[]
8884	5	2	8	100.0	2	0	[]
8890	2	1	8	60.0	2	0	[]
8916	1	4	8	60.0	2	0	[]
8929	1	1	2	60.0	2	0	[]
8940	2	1	8	60.0	2	0	[]
8953	8	1	8	60.0	2	0	[]
8958	4	2	8	60.0	2	0	[]
8967	98	6	8	60.0	2	4	[(1026, 0), (9174, 0), (2461, 0), (693, 2)]
8974	1	1	8	60.0	2	0	[]
8977	4	1	8	60.0	2	0	[]
8979	40	3	8	60.0	2	1	[(6831, 0)]
8982	2	1	8	60.0	2	0	[]
8984	1	1	8	60.0	2	0	[]
8997	4	2	8	60.0	2	0	[]
8998	5	1	8	60.0	2	0	[]
9006	2	1	8	60.0	2	0	[]
9010	30	4	8	60.0	2	1	[(2701, 0)]
9014	28	3	8	60.0	2	0	[]
9018	2	1	2	60.0	2	0	[]
9025	1	1	2	60.0	2	0	[]
9027	2	2	32	200.0	0	0	[]
9034	1	1	8	60.0	2	0	[]
9053	2	1	8	60.0	2	0	[]
9055	1	4	8	60.0	2	0	[]
9072	74	2	8	60.0	2	1	[(4996, 1)]
9089	3	3	2	100.0	2	0	[]
9107	2	4	8	60.0	2	0	[]
9112	1	4	8	60.0	2	0	[]
9115	1	1	3	60.0	2	0	[]
9132	4	1	16	80.0	2	0	[]
9138	72	6	8	60.0	2	1	[(2886, 0)]
9146	2	3	16	60.0	0	0	[]
9156	25	4	8	60.0	2	3	[(3654, 0), (7217, 0), (8293, 2)]
9166	9	1	2	60.0	2	0	[]
9168	13	6	8	60.0	2	0	[]
9174	9	2	8	60.0	2	1	[(8967, 0)]
9179	2	1	8	60.0	2	0	[]
9197	2	12	16	100.0	2	0	[]
9199	1	2	3	60.0	2	0	[]
9202	2	1	8	60.0	2	0	[]
9212	2	1	8	60.0	2	0	[]
9223	2	1	8	60.0	2	0	[]
9239	1	2	8	60.0	2	0	[]
9242	2	1	8	60.0	2	0	[]
9243	6	1	8	60.0	2	0	[]
9253	2	1	8	60.0	2	0	[]
9258	2	1	8	60.0	2	0	[]
9261	1	1	8	60.0	2	0	[]
9275	3	1	8	60.0	2	0	[]
9278	2	4	8	60.0	2	0	[]
9285	5	1	8	60.0	2	0	[]
9292	2	3	16	60.0	2	0	[]
9311	2	1	2	60.0	2	1	[(6270, 0)]
9333	2	1	8	60.0	2	0	[]
9335	1	5	8	60.0	2	0	[]
