app_id	nb_instances	core	memory	disk	intra_value	inter_degree	inter_aff
9	1	1	2	60.0	2	0	[]
10	1	4	8	60.0	2	0	[]
32	2	1	8	60.0	2	0	[]
37	2	1	8	60.0	2	0	[]
38	5	1	8	60.0	2	0	[]
43	2	1	8	60.0	2	0	[]
44	2	1	8	60.0	2	0	[]
53	6	1	8	60.0	2	0	[]
57	1	4	8	60.0	2	0	[]
74	2	1	9	600.0	2	0	[]
78	2	1	8	60.0	2	0	[]
83	2	2	2	60.0	2	0	[]
89	1	1	8	60.0	2	0	[]
99	1	1	8	60.0	2	0	[]
111	2	1	8	60.0	2	0	[]
112	2	1	2	60.0	2	0	[]
116	3	1	8	60.0	2	0	[]
118	3	1	8	60.0	2	2	[(3349, 2), (4039, 2)]
120	7	1	8	60.0	2	0	[]
124	1	1	8	60.0	2	0	[]
142	2	1	2	80.0	2	0	[]
171	1	1	8	60.0	2	0	[]
173	4	1	2	60.0	2	0	[]
176	1	1	32	80.0	0	0	[]
194	1	1	8	60.0	2	0	[]
225	2	2	8	60.0	2	0	[]
238	37	3	8	80.0	0	2	[(6065, 0), (9336, 0)]
241	1	1	6	60.0	2	0	[]
243	2	1	5	60.0	2	0	[]
253	2	1	2	60.0	2	0	[]
271	3	2	8	60.0	2	1	[(798, 0)]
274	1	4	8	60.0	2	0	[]
282	1	1	8	60.0	2	0	[]
283	4	3	8	60.0	2	0	[]
284	2	1	1	60.0	2	0	[]
289	5	2	8	60.0	2	0	[]
312	5	1	8	40.0	2	0	[]
320	3	1	8	60.0	2	0	[]
325	3	1	2	60.0	2	0	[]
326	3	1	7	60.0	2	0	[]
327	5	2	8	60.0	2	0	[]
337	1	1	7	60.0	2	0	[]
351	24	1	4	60.0	2	0	[]
400	2	1	8	60.0	2	0	[]
408	1	4	8	80.0	2	0	[]
410	2	1	8	60.0	2	0	[]
411	5	1	8	100.0	2	0	[]
414	3	4	8	60.0	2	0	[]
440	4	2	8	60.0	2	0	[]
447	3	1	7	60.0	2	0	[]
455	1	4	8	60.0	2	0	[]
457	3	1	8	60.0	2	0	[]
466	1	6	8	60.0	2	0	[]
467	4	1	8	60.0	2	0	[]
478	2	1	8	60.0	2	0	[]
482	6	1	8	60.0	2	0	[]
486	2	1	6	60.0	2	0	[]
496	6	1	8	60.0	2	0	[]
505	14	2	8	60.0	2	1	[(798, 0)]
508	1	1	8	60.0	2	0	[]
534	2	1	8	60.0	2	0	[]
541	35	2	8	40.0	2	0	[]
544	22	6	8	60.0	2	2	[(798, 0), (4543, 2)]
550	2	1	16	40.0	2	0	[]
559	1	1	8	60.0	2	0	[]
565	43	24	32	200.0	2	0	[]
573	3	1	8	60.0	2	0	[]
577	1	2	8	40.0	2	3	[(1416, 0), (4039, 1), (312, 0)]
591	1	1	2	60.0	2	0	[]
592	1	16	32	200.0	2	0	[]
610	2	1	8	60.0	2	0	[]
617	6	2	8	60.0	2	0	[]
622	1	1	8	60.0	2	0	[]
624	1	4	8	60.0	2	0	[]
627	1	2	8	60.0	2	0	[]
640	4	1	8	60.0	2	0	[]
649	1	1	2	60.0	2	0	[]
659	6	1	4	60.0	2	0	[]
661	3	1	8	60.0	2	0	[]
665	1	4	8	60.0	2	0	[]
668	4	5	8	60.0	2	0	[]
689	5	6	8	60.0	2	0	[]
696	2	6	8	60.0	2	1	[(798, 0)]
721	1	1	8	60.0	2	0	[]
723	1	1	2	60.0	2	0	[]
724	2	1	8	60.0	2	0	[]
743	1	4	8	60.0	2	0	[]
751	1	1	1	60.0	2	0	[]
757	3	2	8	60.0	2	1	[(798, 0)]
758	2	1	8	60.0	2	0	[]
759	1	4	16	100.0	2	0	[]
767	6	2	8	40.0	0	1	[(798, 0)]
771	2	1	8	60.0	2	0	[]
783	1	1	8	60.0	2	0	[]
784	1	1	8	40.0	2	0	[]
785	2	1	1	60.0	2	0	[]
794	1	32	96	300.0	2	0	[]
797	3	1	8	60.0	2	0	[]
798	226	6	8	60.0	0	65	[(9035, 0), (6313, 0), (757, 0), (5607, 0), (1344, 0), (696, 0), (3960, 0), (3121, 0), (9017, 0), (1858, 0), (4008, 0), (1541, 0), (767, 0), (544, 0), (271, 0), (7825, 0), (4039, 0), (1363, 0), (5884, 0), (505, 0), (7310, 0), (2019, 0), (5213, 0), (6375, 0), (5449, 0), (6729, 0), (7871, 0), (1437, 0), (1119, 0), (3349, 0), (2120, 0), (4953, 0), (7076, 0), (2839, 0), (6626, 0), (8313, 0), (4762, 0), (6917, 0), (1987, 0), (3709, 0), (2134, 0), (3027, 0), (5387, 0), (5262, 0), (5762, 0), (4543, 0), (8106, 0), (1045, 0), (5296, 0), (3901, 0), (3387, 0), (7350, 0), (8205, 0), (5346, 0), (1349, 0), (6336, 0), (3021, 0), (5119, 0), (3894, 0), (9281, 0), (5984, 0), (7250, 0), (8634, 0), (6874, 0), (5077, 0)]
801	1	4	8	60.0	2	0	[]
802	1	4	8	60.0	2	0	[]
804	5	4	8	60.0	2	0	[]
808	6	4	8	60.0	2	0	[]
810	9	2	8	40.0	2	0	[]
813	1	1	8	60.0	2	0	[]
814	2	4	8	60.0	2	0	[]
815	3	1	8	60.0	2	0	[]
824	5	2	8	60.0	2	0	[]
869	2	6	8	60.0	2	0	[]
877	5	1	8	60.0	2	0	[]
882	1	4	8	60.0	2	0	[]
894	9	3	8	60.0	2	0	[]
899	2	1	8	60.0	2	0	[]
902	3	1	8	60.0	2	0	[]
909	8	12	16	100.0	2	0	[]
917	2	2	8	60.0	2	0	[]
920	4	2	8	200.0	2	0	[]
930	7	3	8	60.0	2	0	[]
945	21	1	8	60.0	2	1	[(3634, 0)]
960	1	1	2	60.0	2	0	[]
966	2	2	16	80.0	2	0	[]
1006	1	1	1	60.0	2	0	[]
1030	1	2	8	60.0	2	0	[]
1041	1	1	2	60.0	2	0	[]
1045	19	3	8	60.0	2	1	[(798, 0)]
1046	44	4	32	100.0	2	0	[]
1061	1	1	8	60.0	2	0	[]
1065	1	1	8	60.0	2	0	[]
1071	23	2	10	60.0	1	0	[]
1075	2	1	5	60.0	2	0	[]
1077	3	1	8	60.0	2	1	[(6237, 2)]
1088	1	4	8	60.0	2	0	[]
1107	5	2	8	60.0	2	0	[]
1113	1	32	80	600.0	2	0	[]
1119	3	5	8	100.0	2	1	[(798, 0)]
1120	2	1	2	60.0	2	0	[]
1122	7	1	8	40.0	2	0	[]
1154	12	2	16	60.0	2	1	[(810, 0)]
1157	2	1	8	60.0	2	0	[]
1159	5	1	8	60.0	2	0	[]
1171	1	1	8	60.0	2	0	[]
1172	3	1	8	60.0	2	0	[]
1179	1	1	8	60.0	2	0	[]
1196	3	1	8	100.0	2	0	[]
1205	3	1	8	60.0	2	0	[]
1215	1	1	8	60.0	2	0	[]
1217	2	1	6	60.0	2	0	[]
1226	2	2	2	60.0	2	0	[]
1256	2	12	16	200.0	2	0	[]
1269	1	1	8	60.0	2	0	[]
1281	2	2	8	60.0	2	0	[]
1288	16	2	8	60.0	2	0	[]
1306	1	4	8	60.0	2	0	[]
1322	4	4	8	60.0	2	0	[]
1344	25	3	8	60.0	2	1	[(798, 0)]
1349	8	1	16	60.0	2	1	[(798, 0)]
1363	1	1	8	60.0	2	1	[(798, 0)]
1384	1	1	8	60.0	2	0	[]
1385	2	3	8	60.0	2	0	[]
1390	1	1	8	60.0	2	0	[]
1416	64	10	16	60.0	0	1	[(3250, 1)]
1421	4	1	8	60.0	2	0	[]
1437	95	6	8	60.0	2	9	[(3225, 1), (5449, 0), (696, 2), (6336, 1), (5103, 2), (3491, 1), (7076, 0), (5983, 0), (798, 0)]
1448	1	1	5	60.0	2	0	[]
1451	1	1	1	60.0	2	0	[]
1471	1	1	8	60.0	2	0	[]
1498	2	1	8	60.0	2	0	[]
1516	2	1	8	60.0	2	0	[]
1534	2	1	8	40.0	2	0	[]
1536	2	1	8	60.0	2	0	[]
1538	2	1	8	60.0	2	0	[]
1539	2	1	8	60.0	2	0	[]
1541	60	6	8	60.0	2	12	[(4214, 0), (3107, 2), (2481, 0), (798, 0), (6640, 1), (3894, 1), (4286, 1), (1834, 1), (5271, 2), (4953, 2), (6917, 1), (7879, 0)]
1574	2	1	7	60.0	2	0	[]
1590	2	1	6	60.0	2	0	[]
1602	51	6	8	60.0	2	1	[(1534, 0)]
1613	1	1	2	60.0	2	0	[]
1623	2	1	2	60.0	2	0	[]
1636	1	1	8	60.0	2	0	[]
1642	2	1	1	500.0	2	0	[]
1643	4	2	8	60.0	2	0	[]
1646	2	1	8	60.0	2	0	[]
1651	2	1	8	60.0	2	0	[]
1654	7	16	32	200.0	2	0	[]
1656	2	1	8	60.0	2	0	[]
1659	2	1	8	60.0	2	0	[]
1661	2	2	8	60.0	2	0	[]
1674	2	1	8	60.0	2	0	[]
1698	2	1	1	80.0	2	0	[]
1710	6	2	8	60.0	2	0	[]
1712	1	1	1	60.0	2	0	[]
1738	4	1	8	60.0	2	0	[]
1742	11	1	8	60.0	2	0	[]
1761	2	6	8	60.0	2	0	[]
1765	1	1	8	60.0	2	0	[]
1767	2	1	2	60.0	2	0	[]
1771	2	3	8	60.0	2	0	[]
1780	2	1	8	60.0	2	0	[]
1781	17	5	8	60.0	0	5	[(2082, 0), (7268, 0), (8931, 0), (312, 0), (3395, 0)]
1790	4	2	8	60.0	2	0	[]
1792	1	4	8	60.0	2	0	[]
1798	2	1	8	60.0	2	0	[]
1807	1	1	8	60.0	2	0	[]
1813	9	1	8	60.0	2	0	[]
1834	21	4	8	60.0	2	2	[(4337, 0), (5617, 0)]
1849	2	1	3	60.0	2	0	[]
1852	2	1	2	60.0	2	0	[]
1858	52	1	8	80.0	2	2	[(7350, 0), (798, 0)]
1867	1	1	6	60.0	2	0	[]
1900	50	1	16	60.0	2	21	[(3306, 1), (2070, 1), (1541, 0), (2890, 0), (8317, 0), (3021, 0), (74, 0), (7064, 0), (2029, 2), (2020, 1), (1780, 1), (7773, 0), (5449, 1), (8313, 0), (3585, 1), (2019, 0), (5670, 2), (7148, 0), (8106, 0), (7504, 0), (5884, 2)]
1914	2	1	8	60.0	2	0	[]
1916	28	12	6	100.0	2	0	[]
1920	1	1	2	60.0	2	0	[]
1923	2	1	2	60.0	2	0	[]
1942	2	1	8	60.0	2	0	[]
1945	7	6	8	60.0	2	1	[(8386, 2)]
1948	2	1	8	60.0	2	0	[]
1959	5	2	8	60.0	2	0	[]
1969	3	3	16	60.0	2	0	[]
1982	4	5	8	60.0	2	0	[]
1985	1	2	8	60.0	2	0	[]
1987	8	2	8	60.0	2	1	[(798, 0)]
1988	2	1	8	60.0	2	0	[]
1997	16	1	8	60.0	2	0	[]
2013	2	1	8	60.0	2	0	[]
2019	60	1	8	60.0	2	2	[(798, 0), (659, 2)]
2020	3	2	8	60.0	2	0	[]
2023	2	2	8	60.0	2	0	[]
2025	1	4	8	60.0	2	0	[]
2026	2	1	8	60.0	2	0	[]
2029	55	2	8	60.0	2	1	[(4926, 1)]
2040	3	1	7	60.0	2	0	[]
2041	2	1	8	60.0	2	0	[]
2061	24	2	8	60.0	2	0	[]
2070	5	4	16	200.0	2	0	[]
2074	2	1	2	60.0	2	0	[]
2082	14	2	8	60.0	2	0	[]
2109	1	1	48	300.0	2	0	[]
2113	2	1	8	60.0	2	0	[]
2119	1	1	2	80.0	2	0	[]
2120	16	1	8	60.0	2	1	[(798, 0)]
2122	1	4	8	60.0	2	0	[]
2128	2	1	8	60.0	2	0	[]
2130	3	1	8	60.0	2	0	[]
2132	3	1	8	60.0	2	0	[]
2134	5	1	8	60.0	2	0	[]
2154	1	1	2	60.0	2	0	[]
2189	10	5	2	200.0	2	0	[]
2191	1	2	8	60.0	2	0	[]
2198	1	1	2	60.0	2	0	[]
2206	6	3	8	60.0	2	0	[]
2211	3	1	5	60.0	2	0	[]
2213	2	2	8	60.0	2	0	[]
2234	5	2	8	60.0	2	0	[]
2239	2	4	8	60.0	2	1	[(5449, 2)]
2245	3	4	8	60.0	2	0	[]
2250	2	1	8	60.0	2	0	[]
2267	1	1	8	60.0	2	0	[]
2294	1	1	1	60.0	2	0	[]
2311	2	1	8	60.0	2	0	[]
2315	2	1	8	60.0	2	0	[]
2321	2	3	8	60.0	2	0	[]
2355	1	1	8	60.0	2	0	[]
2356	6	2	8	60.0	2	0	[]
2360	2	4	8	60.0	2	0	[]
2361	1	1	1	60.0	2	0	[]
2367	1	4	16	80.0	2	0	[]
2395	1	1	7	80.0	2	0	[]
2415	2	1	8	60.0	2	0	[]
2416	2	1	8	60.0	2	0	[]
2424	2	1	8	60.0	2	1	[(3480, 2)]
2426	2	1	8	60.0	2	0	[]
2450	4	1	8	60.0	2	0	[]
2456	5	4	8	60.0	2	0	[]
2481	24	12	16	200.0	2	0	[]
2488	42	6	7	60.0	2	13	[(9035, 1), (7505, 1), (617, 1), (2029, 2), (3894, 1), (2311, 1), (8883, 0), (3480, 0), (1834, 0), (4595, 1), (7441, 2), (7064, 0), (6020, 2)]
2490	12	2	8	60.0	2	0	[]
2498	10	1	8	60.0	2	0	[]
2508	8	1	8	60.0	2	1	[(5141, 0)]
2525	2	1	8	60.0	2	0	[]
2526	2	1	2	60.0	2	0	[]
2572	2	1	8	60.0	2	0	[]
2583	2	1	8	60.0	2	0	[]
2593	29	6	8	60.0	2	15	[(1916, 0), (4337, 0), (5449, 2), (5441, 0), (7368, 0), (312, 0), (2668, 0), (8931, 0), (8199, 0), (7210, 0), (3349, 0), (2887, 0), (3873, 0), (5470, 0), (1781, 0)]
2603	1	1	8	60.0	2	0	[]
2606	2	2	2	60.0	2	0	[]
2640	1	1	2	60.0	2	0	[]
2648	4	1	8	60.0	2	0	[]
2660	2	1	8	60.0	2	0	[]
2661	2	4	8	60.0	2	0	[]
2667	1	1	7	60.0	2	0	[]
2668	114	6	2	60.0	2	4	[(5470, 2), (8494, 1), (9228, 0), (3624, 1)]
2670	2	1	2	60.0	2	0	[]
2687	1	1	8	60.0	2	1	[(4286, 1)]
2690	9	3	8	60.0	2	0	[]
2707	2	4	8	60.0	2	0	[]
2711	1	1	8	60.0	2	0	[]
2726	2	2	8	60.0	2	0	[]
2733	1	1	8	60.0	2	0	[]
2745	46	12	16	80.0	2	2	[(8695, 0), (2668, 0)]
2747	2	1	8	60.0	2	0	[]
2749	19	3	8	60.0	2	0	[]
2753	1	1	8	60.0	2	0	[]
2773	2	1	8	60.0	2	0	[]
2774	2	1	3	60.0	2	0	[]
2776	1	1	8	60.0	2	0	[]
2787	2	1	8	60.0	2	0	[]
2791	1	1	16	60.0	2	0	[]
2803	1	4	8	60.0	2	0	[]
2809	2	2	8	60.0	2	0	[]
2813	4	5	8	60.0	2	1	[(8669, 1)]
2817	1	1	8	60.0	2	0	[]
2822	2	3	8	80.0	2	0	[]
2839	10	6	8	60.0	2	1	[(798, 0)]
2847	5	1	8	60.0	2	0	[]
2868	1	1	8	60.0	2	0	[]
2869	1	1	8	200.0	2	0	[]
2887	18	3	16	200.0	2	0	[]
2890	2	3	8	60.0	2	0	[]
2913	17	2	8	60.0	2	0	[]
2921	2	6	8	60.0	2	0	[]
2929	2	1	8	60.0	2	0	[]
2930	2	1	1	60.0	2	0	[]
2946	2	2	16	100.0	2	0	[]
2953	2	2	8	60.0	2	0	[]
2956	1	1	8	60.0	2	0	[]
2962	6	6	2	60.0	2	0	[]
2982	2	2	8	60.0	2	0	[]
2993	1	2	8	60.0	2	0	[]
3002	18	2	8	60.0	2	0	[]
3012	2	1	8	60.0	2	0	[]
3017	2	1	8	60.0	2	0	[]
3021	37	4	8	60.0	2	1	[(798, 0)]
3027	6	1	2	60.0	2	1	[(798, 0)]
3040	1	4	8	60.0	2	0	[]
3052	2	4	8	60.0	2	0	[]
3074	2	1	6	60.0	2	0	[]
3104	3	2	8	60.0	2	0	[]
3105	13	4	8	40.0	2	0	[]
3107	12	2	8	60.0	2	1	[(610, 0)]
3112	24	3	8	60.0	2	0	[]
3121	6	3	2	60.0	2	2	[(4595, 0), (798, 0)]
3124	3	4	7	60.0	2	0	[]
3125	2	2	16	60.0	2	0	[]
3139	1	1	8	60.0	2	0	[]
3148	2	1	8	60.0	2	0	[]
3179	2	1	1	60.0	2	0	[]
3180	3	1	8	60.0	2	0	[]
3189	5	1	8	60.0	2	0	[]
3198	1	1	8	60.0	2	0	[]
3206	1	1	8	60.0	2	0	[]
3225	2	1	8	60.0	2	0	[]
3227	2	2	8	60.0	2	0	[]
3232	1	1	8	60.0	2	0	[]
3234	2	1	8	60.0	2	0	[]
3250	155	2	8	40.0	0	1	[(289, 0)]
3254	2	6	8	60.0	2	0	[]
3256	1	1	8	60.0	2	0	[]
3262	2	1	1	60.0	2	0	[]
3264	1	3	8	60.0	2	0	[]
3281	1	1	8	60.0	2	0	[]
3301	3	1	8	60.0	2	0	[]
3302	4	6	8	60.0	2	0	[]
3306	6	2	8	60.0	2	0	[]
3314	12	3	8	60.0	2	0	[]
3326	1	1	8	60.0	2	0	[]
3341	2	1	8	60.0	2	0	[]
3346	4	1	8	60.0	2	0	[]
3349	116	12	16	60.0	0	5	[(8979, 0), (3480, 0), (2668, 0), (1171, 2), (798, 0)]
3356	6	6	8	60.0	2	11	[(7310, 2), (5880, 2), (6640, 2), (8129, 2), (6634, 2), (9338, 2), (1742, 2), (1738, 2), (3621, 2), (3840, 1), (8669, 2)]
3360	3	1	8	60.0	2	0	[]
3379	3	1	8	60.0	2	0	[]
3380	1	12	16	200.0	2	0	[]
3381	3	1	8	60.0	2	0	[]
3387	5	1	2	60.0	2	1	[(798, 0)]
3390	2	2	8	60.0	2	0	[]
3395	4	1	8	60.0	2	0	[]
3409	2	1	8	40.0	2	0	[]
3421	1	2	8	60.0	2	0	[]
3439	1	1	8	60.0	2	0	[]
3447	1	3	8	60.0	2	0	[]
3464	9	2	8	40.0	2	0	[]
3475	3	2	8	60.0	2	0	[]
3477	1	1	2	60.0	2	0	[]
3480	20	2	16	60.0	2	0	[]
3491	3	1	8	60.0	2	0	[]
3511	8	6	8	40.0	2	0	[]
3522	1	1	1	60.0	2	0	[]
3532	1	1	1	60.0	2	0	[]
3548	2	1	8	60.0	2	0	[]
3561	1	1	5	80.0	2	0	[]
3567	1	4	8	80.0	2	0	[]
3570	12	5	8	60.0	2	1	[(3349, 0)]
3572	4	2	8	60.0	2	0	[]
3579	1	2	8	60.0	2	0	[]
3582	2	1	2	60.0	2	0	[]
3585	7	2	8	60.0	2	0	[]
3604	19	5	8	60.0	2	0	[]
3621	12	2	8	60.0	2	0	[]
3624	16	2	8	100.0	2	2	[(6822, 0), (120, 0)]
3634	102	3	8	60.0	2	1	[(2206, 0)]
3696	2	1	7	60.0	2	0	[]
3709	21	2	8	40.0	2	1	[(798, 0)]
3712	1	1	8	60.0	2	0	[]
3761	2	1	8	60.0	2	0	[]
3784	4	1	8	60.0	2	0	[]
3786	4	2	8	60.0	2	0	[]
3787	3	1	12	60.0	2	0	[]
3791	3	4	8	60.0	2	0	[]
3808	2	1	8	60.0	2	0	[]
3824	1	4	8	60.0	2	0	[]
3840	2	1	8	60.0	2	0	[]
3847	2	12	16	100.0	2	0	[]
3859	1	7	24	80.0	2	0	[]
3873	13	2	8	40.0	2	2	[(5607, 0), (577, 0)]
3878	6	1	8	60.0	2	0	[]
3894	66	6	10	60.0	2	4	[(3480, 0), (2488, 0), (5271, 1), (798, 0)]
3901	2	4	8	60.0	2	1	[(798, 0)]
3929	2	1	8	60.0	2	0	[]
3942	6	5	32	100.0	2	3	[(5080, 1), (6034, 2), (7555, 2)]
3960	11	6	8	60.0	2	1	[(798, 0)]
3961	1	4	8	60.0	2	0	[]
3974	2	4	8	60.0	2	0	[]
4003	2	1	5	60.0	2	0	[]
4008	7	1	16	80.0	2	1	[(798, 0)]
4009	16	6	8	60.0	2	0	[]
4030	1	1	1	60.0	2	0	[]
4039	219	11	16	60.0	0	11	[(4595, 0), (798, 0), (7492, 0), (577, 0), (8137, 1), (1781, 0), (8386, 0), (8931, 0), (2481, 0), (3124, 0), (289, 0)]
4040	1	1	7	60.0	2	0	[]
4056	1	4	8	60.0	2	0	[]
4059	4	1	16	60.0	2	0	[]
4061	2	1	7	60.0	2	0	[]
4086	6	3	8	60.0	2	0	[]
4100	1	1	7	60.0	2	0	[]
4108	6	2	8	60.0	2	0	[]
4120	2	1	8	60.0	2	0	[]
4124	1	1	8	60.0	2	0	[]
4137	1	1	8	60.0	2	0	[]
4149	1	8	16	100.0	1	0	[]
4155	5	1	8	60.0	2	0	[]
4157	2	1	6	60.0	2	0	[]
4168	1	1	8	60.0	2	0	[]
4183	4	4	8	80.0	2	0	[]
4184	1	1	8	60.0	2	0	[]
4198	6	1	8	60.0	2	0	[]
4203	1	7	60	60.0	0	0	[]
4214	2	1	2	60.0	2	0	[]
4224	2	1	7	60.0	2	0	[]
4236	2	1	4	60.0	2	0	[]
4256	1	1	8	60.0	2	0	[]
4263	3	3	8	60.0	2	0	[]
4265	2	4	8	60.0	2	0	[]
4279	2	1	8	60.0	2	0	[]
4282	7	5	32	200.0	2	0	[]
4286	24	1	8	80.0	2	1	[(8669, 0)]
4291	1	1	8	60.0	2	0	[]
4299	2	1	8	60.0	2	0	[]
4307	2	1	8	60.0	2	0	[]
4314	1	1	2	60.0	2	0	[]
4323	2	1	8	60.0	2	0	[]
4337	21	12	16	60.0	2	0	[]
4341	2	2	8	60.0	2	0	[]
4346	3	1	8	60.0	2	0	[]
4353	3	1	1	60.0	2	1	[(8337, 2)]
4377	2	1	2	60.0	2	0	[]
4392	6	1	16	80.0	2	0	[]
4394	3	1	8	60.0	2	0	[]
4403	1	1	8	60.0	2	0	[]
4411	2	1	8	60.0	2	0	[]
4453	9	1	8	60.0	2	0	[]
4455	3	1	8	60.0	2	0	[]
4462	3	1	8	60.0	2	0	[]
4469	1	8	16	200.0	2	0	[]
4483	2	1	8	60.0	2	0	[]
4484	1	1	1	60.0	2	0	[]
4486	7	11	16	100.0	2	0	[]
4497	1	1	2	60.0	2	0	[]
4511	4	2	8	60.0	2	1	[(2593, 2)]
4513	3	2	8	60.0	2	0	[]
4524	4	2	8	60.0	2	0	[]
4543	44	10	16	60.0	2	4	[(2668, 2), (7995, 2), (2488, 1), (798, 0)]
4546	2	4	8	60.0	2	0	[]
4563	2	8	16	60.0	0	0	[]
4567	1	3	8	60.0	2	0	[]
4582	4	1	8	60.0	2	0	[]
4592	2	1	8	60.0	2	0	[]
4595	27	4	8	60.0	2	0	[]
4610	2	1	8	60.0	2	0	[]
4621	2	1	8	60.0	2	0	[]
4622	1	1	1	60.0	2	0	[]
4623	3	1	8	60.0	2	0	[]
4660	1	4	8	60.0	2	0	[]
4665	2	1	8	60.0	2	0	[]
4673	1	4	8	60.0	2	0	[]
4678	15	6	3	60.0	2	1	[(2668, 0)]
4685	2	4	8	60.0	2	0	[]
4700	1	1	8	60.0	2	0	[]
4719	7	1	2	60.0	2	0	[]
4724	1	4	8	60.0	2	0	[]
4756	1	1	8	60.0	2	0	[]
4762	26	2	8	60.0	2	23	[(541, 0), (447, 0), (2668, 0), (3709, 0), (4039, 2), (3112, 0), (3349, 0), (7368, 0), (2690, 0), (289, 0), (3124, 0), (8931, 0), (798, 0), (1602, 0), (4595, 0), (9163, 0), (5497, 0), (8618, 0), (810, 0), (3873, 0), (5251, 0), (9228, 0), (1781, 0)]
4791	3	1	8	60.0	2	0	[]
4793	2	2	8	60.0	2	0	[]
4796	2	1	8	60.0	2	0	[]
4804	2	1	8	60.0	2	0	[]
4813	2	1	6	60.0	2	0	[]
4816	2	1	8	60.0	2	0	[]
4817	1	1	2	60.0	2	0	[]
4822	1	1	7	60.0	2	0	[]
4860	2	1	8	60.0	2	0	[]
4867	2	1	8	60.0	2	0	[]
4876	1	1	8	60.0	2	0	[]
4884	1	1	8	60.0	2	0	[]
4891	2	1	8	60.0	2	0	[]
4893	1	1	8	60.0	2	0	[]
4896	5	1	8	60.0	2	0	[]
4899	1	4	8	60.0	2	0	[]
4901	4	1	8	60.0	2	0	[]
4926	2	1	8	60.0	2	0	[]
4931	5	1	8	60.0	2	0	[]
4953	31	2	8	60.0	2	1	[(798, 0)]
4954	2	1	8	60.0	2	0	[]
4966	3	4	8	60.0	2	0	[]
4986	2	1	8	60.0	2	0	[]
5036	1	1	1	60.0	2	0	[]
5039	2	1	8	60.0	2	0	[]
5055	1	1	1	60.0	2	0	[]
5077	2	1	8	60.0	2	1	[(798, 0)]
5080	1	8	16	60.0	2	3	[(3942, 3), (6034, 2), (7555, 2)]
5091	2	1	2	60.0	2	0	[]
5103	4	1	8	60.0	2	0	[]
5119	21	1	2	60.0	2	1	[(798, 0)]
5122	1	3	8	60.0	2	0	[]
5125	7	2	2	60.0	2	0	[]
5126	1	4	8	60.0	2	0	[]
5127	21	4	16	60.0	2	1	[(3942, 0)]
5141	2	1	8	60.0	2	0	[]
5145	2	1	8	500.0	2	0	[]
5154	2	1	8	60.0	2	0	[]
5156	1	2	8	60.0	2	0	[]
5158	1	1	8	60.0	2	0	[]
5167	2	1	8	60.0	2	0	[]
5168	4	1	8	167.0	2	0	[]
5169	2	1	8	60.0	2	0	[]
5179	4	1	8	60.0	2	0	[]
5195	1	1	1	100.0	1	0	[]
5203	1	1	2	60.0	2	0	[]
5206	7	1	8	60.0	2	0	[]
5213	4	1	8	100.0	2	1	[(798, 0)]
5215	1	1	2	60.0	2	0	[]
5229	3	1	8	80.0	2	0	[]
5234	2	2	8	60.0	2	0	[]
5241	2	1	8	60.0	2	0	[]
5249	2	2	8	60.0	2	0	[]
5251	11	6	8	60.0	2	0	[]
5255	3	2	28	500.0	2	0	[]
5257	2	1	8	60.0	2	0	[]
5262	8	1	8	60.0	2	1	[(798, 0)]
5271	21	1	8	60.0	2	0	[]
5288	6	1	8	60.0	2	0	[]
5289	6	1	8	60.0	2	0	[]
5290	1	1	2	60.0	2	0	[]
5291	1	1	2	60.0	2	0	[]
5292	2	1	8	60.0	2	0	[]
5293	2	1	2	60.0	2	0	[]
5296	3	1	8	60.0	2	1	[(798, 0)]
5301	1	1	8	60.0	2	0	[]
5302	1	1	8	60.0	2	0	[]
5327	2	1	1	60.0	2	0	[]
5328	1	1	8	60.0	2	0	[]
5346	9	2	8	60.0	2	1	[(798, 0)]
5351	5	3	8	60.0	2	0	[]
5357	1	1	6	60.0	2	0	[]
5365	1	1	2	60.0	2	0	[]
5368	4	1	8	60.0	2	0	[]
5369	2	2	8	200.0	2	0	[]
5370	3	1	8	100.0	2	0	[]
5371	1	1	8	60.0	2	0	[]
5373	1	1	8	60.0	2	0	[]
5374	5	6	8	60.0	2	0	[]
5379	14	1	8	60.0	2	0	[]
5380	1	4	8	60.0	2	0	[]
5387	3	1	8	60.0	2	1	[(798, 0)]
5410	1	1	8	60.0	2	0	[]
5421	4	1	8	60.0	2	0	[]
5422	1	1	2	60.0	2	0	[]
5425	1	1	8	60.0	2	0	[]
5441	24	2	8	40.0	2	3	[(1416, 2), (3250, 2), (1122, 2)]
5449	35	6	8	60.0	2	2	[(798, 0), (7801, 1)]
5459	2	1	8	60.0	2	0	[]
5470	11	1	8	60.0	2	1	[(1781, 0)]
5497	5	1	8	60.0	2	0	[]
5498	3	1	2	60.0	2	0	[]
5516	3	1	8	60.0	2	0	[]
5523	8	2	8	60.0	2	0	[]
5531	15	6	8	60.0	2	0	[]
5559	2	1	8	60.0	2	0	[]
5565	11	3	8	60.0	2	0	[]
5575	1	1	2	60.0	2	0	[]
5583	9	4	8	60.0	2	0	[]
5607	38	2	8	40.0	0	3	[(1416, 0), (2747, 1), (798, 0)]
5610	2	2	8	60.0	2	0	[]
5617	2	1	8	60.0	2	0	[]
5620	2	1	8	60.0	2	0	[]
5670	2	1	8	60.0	2	0	[]
5701	1	1	8	60.0	2	0	[]
5714	1	1	8	60.0	2	0	[]
5725	15	2	8	60.0	2	0	[]
5752	3	1	2	60.0	2	0	[]
5762	3	1	8	60.0	2	1	[(798, 0)]
5786	2	1	8	60.0	2	0	[]
5787	1	1	8	60.0	2	0	[]
5800	2	1	8	60.0	2	0	[]
5801	1	1	8	60.0	2	0	[]
5804	1	1	4	60.0	2	0	[]
5819	1	1	3	60.0	2	0	[]
5823	2	1	8	60.0	2	0	[]
5832	1	1	8	60.0	2	0	[]
5835	10	1	16	60.0	2	0	[]
5845	1	1	1	60.0	2	0	[]
5850	1	1	1	60.0	2	0	[]
5867	2	1	1	60.0	2	0	[]
5880	2	1	8	60.0	2	0	[]
5884	2	1	8	60.0	2	1	[(798, 0)]
5896	2	1	2	60.0	2	1	[(1834, 0)]
5899	1	2	8	60.0	2	0	[]
5910	4	3	8	60.0	2	0	[]
5912	2	1	7	60.0	2	0	[]
5913	2	1	8	60.0	2	0	[]
5916	2	4	8	100.0	2	0	[]
5918	1	2	8	60.0	2	0	[]
5932	2	1	8	60.0	2	0	[]
5950	1	1	2	60.0	2	0	[]
5978	13	2	8	60.0	2	0	[]
5983	5	1	8	40.0	2	0	[]
5984	11	2	8	60.0	2	1	[(798, 0)]
5993	1	1	8	60.0	2	0	[]
5998	1	1	2	60.0	2	0	[]
5999	1	1	8	60.0	2	0	[]
6001	1	1	8	60.0	2	0	[]
6008	2	1	8	60.0	2	0	[]
6009	1	1	1	60.0	2	0	[]
6012	2	4	8	60.0	2	0	[]
6014	1	4	8	60.0	2	0	[]
6016	2	1	8	60.0	2	0	[]
6019	2	1	8	60.0	2	0	[]
6020	31	2	16	60.0	2	5	[(6814, 0), (7766, 0), (7050, 1), (7251, 1), (7488, 1)]
6026	5	1	8	80.0	2	0	[]
6034	1	2	16	60.0	2	2	[(3942, 2), (7555, 3)]
6049	2	1	8	60.0	2	0	[]
6052	4	1	2	60.0	2	0	[]
6062	9	2	3	80.0	2	0	[]
6065	2	1	2	1000.0	2	0	[]
6080	2	4	8	100.0	2	0	[]
6086	2	1	2	60.0	2	0	[]
6092	1	1	8	60.0	2	0	[]
6102	2	1	16	60.0	2	0	[]
6111	3	1	8	60.0	2	0	[]
6119	2	1	8	60.0	2	0	[]
6122	40	6	8	60.0	2	1	[(7568, 2)]
6125	2	1	8	60.0	2	0	[]
6140	1	5	8	60.0	2	1	[(1742, 2)]
6148	2	12	16	80.0	2	0	[]
6172	10	1	8	60.0	2	1	[(5620, 0)]
6195	2	1	2	60.0	2	0	[]
6199	1	1	8	60.0	2	0	[]
6203	1	3	8	60.0	2	0	[]
6204	1	1	8	60.0	2	0	[]
6208	1	1	8	60.0	2	0	[]
6217	2	1	8	60.0	2	0	[]
6237	5	1	8	60.0	2	0	[]
6243	2	1	8	60.0	2	0	[]
6245	1	1	7	60.0	2	0	[]
6251	14	8	16	200.0	2	0	[]
6276	4	1	8	60.0	2	0	[]
6278	3	1	8	60.0	2	0	[]
6289	2	1	8	60.0	2	0	[]
6304	10	2	8	60.0	0	1	[(577, 0)]
6313	2	1	1	60.0	2	1	[(798, 0)]
6336	13	1	8	60.0	2	1	[(798, 0)]
6346	1	2	8	60.0	2	0	[]
6350	1	1	8	60.0	2	0	[]
6364	5	1	8	60.0	2	0	[]
6375	10	3	8	100.0	2	1	[(798, 0)]
6376	1	8	8	60.0	2	0	[]
6380	3	1	8	60.0	2	0	[]
6386	1	1	8	60.0	2	0	[]
6388	1	4	8	60.0	2	0	[]
6415	3	1	8	60.0	2	0	[]
6428	2	1	8	60.0	2	0	[]
6437	1	1	8	60.0	2	0	[]
6445	1	1	8	60.0	2	0	[]
6457	2	1	3	60.0	2	0	[]
6499	2	2	8	60.0	2	0	[]
6504	2	2	8	60.0	2	0	[]
6508	2	2	8	60.0	2	1	[(6874, 0)]
6509	1	3	2	60.0	2	2	[(7198, 0), (4039, 0)]
6512	1	1	2	60.0	2	0	[]
6513	2	1	8	60.0	2	0	[]
6516	2	1	8	60.0	2	0	[]
6524	1	1	8	60.0	2	0	[]
6530	12	3	8	60.0	2	1	[(4986, 2)]
6540	2	1	8	60.0	2	0	[]
6541	1	2	8	60.0	2	0	[]
6546	1	1	2	60.0	2	0	[]
6554	5	2	8	60.0	2	0	[]
6592	2	4	8	60.0	2	0	[]
6617	2	1	3	60.0	2	0	[]
6622	13	3	8	60.0	2	0	[]
6626	24	6	8	60.0	2	1	[(798, 0)]
6628	21	5	8	60.0	2	0	[]
6632	1	1	2	60.0	2	0	[]
6634	2	1	2	60.0	2	0	[]
6640	4	1	6	60.0	2	0	[]
6643	7	1	8	60.0	2	0	[]
6668	1	1	1	60.0	2	0	[]
6677	2	4	8	60.0	2	0	[]
6680	41	2	16	100.0	2	0	[]
6698	1	1	1	60.0	2	0	[]
6704	2	1	8	60.0	2	0	[]
6719	9	1	8	60.0	2	0	[]
6729	13	2	8	60.0	2	1	[(798, 0)]
6739	4	3	8	60.0	2	0	[]
6741	1	1	8	60.0	2	0	[]
6746	2	1	8	60.0	2	0	[]
6754	2	1	8	60.0	2	0	[]
6773	1	1	7	60.0	2	0	[]
6784	1	1	10	300.0	2	0	[]
6809	1	4	8	60.0	2	0	[]
6814	4	1	5	60.0	2	2	[(7766, 0), (6020, 0)]
6815	1	1	8	60.0	2	0	[]
6819	2	1	2	60.0	2	0	[]
6822	2	1	8	60.0	2	0	[]
6829	2	1	8	60.0	2	0	[]
6830	1	1	8	40.0	2	0	[]
6847	2	1	2	60.0	2	0	[]
6854	2	2	8	60.0	2	0	[]
6874	5	1	8	60.0	2	1	[(798, 0)]
6902	4	3	8	60.0	2	0	[]
6917	2	1	8	60.0	2	1	[(798, 0)]
6921	5	2	8	60.0	2	0	[]
6924	1	1	2	60.0	2	0	[]
6957	1	1	4	60.0	2	0	[]
6962	2	1	8	60.0	2	0	[]
6966	2	1	8	60.0	2	0	[]
6969	1	1	8	60.0	2	0	[]
6981	2	1	7	60.0	2	0	[]
6984	18	1	8	60.0	2	0	[]
6986	1	1	8	60.0	2	0	[]
6990	1	4	8	80.0	2	0	[]
7024	2	1	8	60.0	2	0	[]
7042	2	1	8	60.0	2	0	[]
7050	2	1	8	60.0	2	0	[]
7057	1	4	8	60.0	2	0	[]
7062	4	1	8	60.0	2	0	[]
7064	11	5	8	60.0	2	0	[]
7076	8	5	8	60.0	2	1	[(798, 0)]
7082	1	1	8	60.0	2	0	[]
7083	1	1	8	60.0	2	0	[]
7125	9	2	8	60.0	2	0	[]
7138	1	4	8	60.0	2	0	[]
7142	2	1	5	60.0	2	0	[]
7144	4	1	8	60.0	2	0	[]
7148	1	1	8	60.0	2	0	[]
7172	5	2	8	60.0	2	0	[]
7174	4	1	8	60.0	2	0	[]
7183	1	2	8	40.0	2	0	[]
7186	1	1	1	60.0	2	0	[]
7187	1	4	8	60.0	2	0	[]
7189	1	1	2	60.0	2	0	[]
7195	2	1	8	60.0	2	0	[]
7198	5	1	6	60.0	2	0	[]
7210	6	2	8	60.0	2	0	[]
7226	2	1	8	60.0	2	0	[]
7242	2	1	8	60.0	2	0	[]
7250	3	6	8	60.0	2	1	[(798, 0)]
7251	2	1	8	60.0	2	0	[]
7268	14	2	16	60.0	2	0	[]
7279	22	3	16	200.0	2	0	[]
7284	1	4	8	60.0	2	0	[]
7295	2	1	8	60.0	2	0	[]
7303	2	2	8	60.0	2	0	[]
7310	3	1	8	80.0	2	1	[(798, 0)]
7328	1	1	8	60.0	2	0	[]
7346	1	1	8	60.0	2	0	[]
7350	3	1	8	60.0	2	1	[(798, 0)]
7357	2	1	8	60.0	2	0	[]
7368	5	2	8	60.0	2	0	[]
7391	3	1	8	80.0	2	0	[]
7396	3	2	8	60.0	2	0	[]
7410	13	2	2	60.0	2	0	[]
7413	5	1	24	150.0	2	0	[]
7420	3	2	8	40.0	2	0	[]
7429	1	1	1	60.0	2	0	[]
7441	9	3	8	60.0	2	0	[]
7442	1	4	8	60.0	2	1	[(5168, 2)]
7445	4	1	8	60.0	2	1	[(4108, 2)]
7488	1	1	1	60.0	2	0	[]
7489	2	1	8	60.0	2	0	[]
7492	1	1	8	60.0	2	0	[]
7499	1	4	8	60.0	2	0	[]
7504	17	4	8	60.0	2	1	[(7887, 2)]
7505	16	2	8	60.0	2	0	[]
7509	8	1	8	60.0	2	0	[]
7512	2	1	8	60.0	2	0	[]
7523	2	1	8	60.0	2	0	[]
7525	1	1	2	60.0	2	0	[]
7534	2	1	8	60.0	2	0	[]
7539	2	1	8	60.0	2	0	[]
7555	1	6	16	60.0	1	3	[(5080, 1), (3942, 2), (6034, 2)]
7562	1	1	4	60.0	2	0	[]
7566	2	3	8	60.0	2	0	[]
7568	13	1	8	60.0	2	0	[]
7581	3	1	8	60.0	2	0	[]
7583	2	1	2	60.0	2	0	[]
7604	2	1	8	60.0	2	0	[]
7618	1	1	2	200.0	2	0	[]
7633	1	1	8	60.0	2	0	[]
7647	1	1	8	60.0	2	0	[]
7673	3	1	8	60.0	2	0	[]
7695	2	2	8	60.0	2	0	[]
7706	7	6	7	60.0	2	0	[]
7717	1	4	8	60.0	2	0	[]
7718	2	1	2	60.0	2	0	[]
7721	1	1	8	60.0	2	0	[]
7723	2	1	2	60.0	2	0	[]
7734	7	2	8	40.0	0	1	[(312, 0)]
7737	3	1	8	60.0	2	0	[]
7746	1	1	1	60.0	2	0	[]
7766	1	1	8	60.0	2	0	[]
7767	2	1	1	60.0	2	0	[]
7773	5	1	8	60.0	2	0	[]
7779	1	4	8	60.0	2	0	[]
7795	3	5	8	60.0	2	0	[]
7801	1	1	8	60.0	2	0	[]
7811	3	1	8	60.0	2	0	[]
7814	1	1	8	60.0	2	0	[]
7824	5	1	8	60.0	2	0	[]
7825	19	3	8	60.0	2	1	[(798, 0)]
7829	2	1	8	60.0	2	0	[]
7832	3	2	8	60.0	2	0	[]
7833	4	1	8	60.0	2	0	[]
7836	4	2	8	60.0	2	0	[]
7842	3	2	8	60.0	2	0	[]
7857	3	1	8	60.0	2	0	[]
7862	2	1	8	60.0	2	0	[]
7866	3	1	8	60.0	2	0	[]
7871	6	2	8	60.0	2	1	[(798, 0)]
7878	1	2	8	60.0	2	0	[]
7879	3	2	8	60.0	2	0	[]
7887	16	2	8	60.0	2	0	[]
7903	1	1	4	60.0	2	0	[]
7912	1	1	8	60.0	2	0	[]
7923	2	4	8	60.0	2	0	[]
7930	3	4	8	60.0	2	0	[]
7932	10	1	8	60.0	2	21	[(8477, 0), (1541, 0), (7064, 0), (4453, 0), (8101, 0), (2029, 0), (8950, 0), (6375, 0), (5670, 0), (2953, 0), (1077, 0), (3894, 0), (8122, 0), (3561, 1), (5912, 0), (6829, 0), (2773, 0), (8669, 0), (1674, 0), (798, 1), (1834, 0)]
7936	2	1	8	60.0	2	0	[]
7944	2	1	8	100.0	2	0	[]
7946	2	1	8	60.0	2	0	[]
7948	2	1	8	60.0	2	0	[]
7959	7	6	8	60.0	2	4	[(3878, 0), (2488, 2), (1923, 0), (5762, 0)]
7964	2	6	8	60.0	2	0	[]
7987	7	2	8	60.0	2	0	[]
7995	6	1	8	60.0	2	0	[]
8025	1	1	1	60.0	2	0	[]
8027	2	4	8	60.0	2	0	[]
8029	1	1	3	60.0	2	0	[]
8033	4	2	8	60.0	2	0	[]
8045	3	1	8	60.0	2	0	[]
8052	7	1	8	60.0	2	0	[]
8053	21	6	8	60.0	2	0	[]
8055	2	2	8	60.0	2	0	[]
8082	1	1	1	60.0	2	0	[]
8094	2	1	8	60.0	2	0	[]
8101	8	3	8	60.0	2	0	[]
8106	36	2	8	60.0	2	4	[(945, 0), (2887, 1), (1046, 0), (798, 0)]
8121	2	1	8	60.0	2	0	[]
8122	10	1	2	60.0	2	0	[]
8124	6	6	8	60.0	2	0	[]
8125	2	1	8	60.0	2	0	[]
8129	10	6	8	60.0	2	0	[]
8137	4	3	8	60.0	2	0	[]
8141	3	6	2	60.0	2	0	[]
8147	2	1	8	60.0	2	0	[]
8154	1	1	8	60.0	2	0	[]
8158	2	4	8	60.0	2	0	[]
8159	2	1	8	60.0	2	0	[]
8177	2	4	8	60.0	2	0	[]
8179	1	4	8	60.0	2	0	[]
8186	2	1	8	60.0	2	0	[]
8189	1	1	8	60.0	2	0	[]
8199	16	2	2	40.0	2	0	[]
8203	9	2	8	60.0	2	0	[]
8205	2	1	8	60.0	2	1	[(798, 0)]
8226	2	3	8	60.0	2	0	[]
8231	3	1	8	60.0	2	0	[]
8248	3	1	8	60.0	2	0	[]
8272	2	1	8	60.0	2	0	[]
8288	1	1	1	100.0	2	0	[]
8307	1	1	16	60.0	2	0	[]
8309	1	4	8	60.0	2	0	[]
8313	10	1	8	60.0	2	1	[(798, 0)]
8317	1	6	8	60.0	2	0	[]
8327	2	1	8	60.0	2	0	[]
8332	2	1	3	60.0	2	0	[]
8337	3	2	8	60.0	2	0	[]
8341	3	1	8	60.0	2	0	[]
8368	2	1	8	60.0	2	0	[]
8370	5	1	8	60.0	2	0	[]
8371	2	1	8	60.0	2	0	[]
8375	5	1	8	60.0	2	0	[]
8386	75	2	8	60.0	2	0	[]
8388	2	1	8	60.0	2	0	[]
8399	1	1	8	60.0	2	0	[]
8406	2	1	8	60.0	2	0	[]
8421	1	4	8	60.0	2	0	[]
8424	2	1	8	60.0	2	0	[]
8447	1	1	8	60.0	2	0	[]
8473	3	1	2	60.0	2	0	[]
8477	1	1	8	60.0	2	0	[]
8485	4	1	8	40.0	2	0	[]
8488	1	1	8	60.0	2	0	[]
8494	3	1	8	60.0	2	0	[]
8503	4	6	8	60.0	2	0	[]
8514	2	1	7	60.0	2	0	[]
8516	1	1	1	60.0	2	0	[]
8533	1	1	8	60.0	2	0	[]
8541	3	2	8	60.0	2	0	[]
8561	1	1	2	60.0	2	0	[]
8567	2	1	7	60.0	2	0	[]
8575	2	1	8	60.0	2	0	[]
8581	1	1	8	60.0	2	0	[]
8600	1	1	1	60.0	2	0	[]
8609	2	1	6	60.0	2	0	[]
8618	23	1	8	60.0	2	0	[]
8634	26	2	8	60.0	2	1	[(798, 0)]
8645	1	1	2	60.0	2	0	[]
8664	3	1	8	60.0	2	0	[]
8669	41	4	16	60.0	2	3	[(6626, 0), (5850, 2), (5262, 1)]
8682	2	1	8	60.0	2	0	[]
8695	11	1	8	100.0	2	0	[]
8714	1	4	8	60.0	2	0	[]
8718	1	1	8	60.0	2	0	[]
8745	2	1	8	60.0	2	0	[]
8751	1	1	8	60.0	2	0	[]
8764	1	1	1	60.0	2	0	[]
8765	8	1	8	60.0	2	0	[]
8772	2	1	8	60.0	2	0	[]
8835	1	1	8	60.0	2	0	[]
8841	2	1	6	60.0	2	0	[]
8848	14	3	16	80.0	2	1	[(89, 2)]
8851	2	1	8	60.0	2	0	[]
8871	8	1	8	60.0	2	0	[]
8881	1	1	3	60.0	2	0	[]
8883	10	2	16	200.0	2	0	[]
8904	24	4	8	60.0	2	0	[]
8925	2	2	8	60.0	2	0	[]
8931	56	3	8	40.0	2	1	[(1781, 0)]
8936	2	1	8	60.0	2	0	[]
8937	1	1	15	80.0	2	0	[]
8950	3	3	8	60.0	2	0	[]
8964	2	1	8	60.0	2	0	[]
8970	2	1	8	60.0	2	0	[]
8974	1	1	8	60.0	2	0	[]
8979	40	3	8	60.0	2	1	[(2847, 1)]
8985	2	1	8	60.0	2	0	[]
8992	2	1	8	60.0	2	0	[]
9016	4	1	8	60.0	2	0	[]
9017	33	1	8	60.0	2	1	[(798, 0)]
9022	2	2	8	60.0	2	0	[]
9023	2	1	8	60.0	2	0	[]
9030	1	4	8	80.0	2	0	[]
9035	55	3	8	100.0	1	13	[(7959, 1), (5234, 2), (3582, 2), (3894, 1), (5800, 2), (3784, 1), (798, 0), (8848, 1), (8669, 1), (478, 2), (4816, 1), (1590, 2), (6020, 1)]
9071	1	4	8	60.0	2	0	[]
9080	2	1	2	60.0	2	0	[]
9128	2	2	4	60.0	2	0	[]
9140	4	1	8	60.0	2	0	[]
9154	1	1	8	60.0	2	0	[]
9161	6	1	8	60.0	2	0	[]
9163	86	12	16	200.0	2	1	[(6962, 1)]
9183	1	1	8	60.0	2	0	[]
9202	2	1	8	60.0	2	0	[]
9204	6	1	8	60.0	2	0	[]
9211	2	1	8	60.0	2	0	[]
9227	1	4	8	60.0	2	0	[]
9228	42	4	8	40.0	2	1	[(2668, 0)]
9235	2	2	2	60.0	2	0	[]
9246	1	4	8	60.0	2	0	[]
9248	1	1	8	60.0	2	0	[]
9262	2	1	8	60.0	2	0	[]
9277	3	1	8	60.0	2	0	[]
9278	2	4	8	60.0	2	0	[]
9281	2	1	8	60.0	2	1	[(798, 0)]
9284	2	1	2	60.0	2	0	[]
9315	3	1	8	60.0	2	0	[]
9316	2	1	2	60.0	2	0	[]
9325	2	1	8	60.0	2	0	[]
9332	1	3	2	60.0	2	0	[]
9336	8	1	2	80.0	2	0	[]
9338	9	1	8	60.0	2	0	[]
