app_id	nb_instances	core	memory	disk	intra_value	inter_degree	inter_aff
10	1	4	8	60.0	2	0	[]
17	2	1	8	60.0	2	0	[]
24	2	2	8	60.0	2	0	[]
25	2	2	2	60.0	2	0	[]
27	21	3	8	60.0	2	0	[]
49	4	1	8	60.0	2	0	[]
52	22	2	8	60.0	2	1	[(6381, 2)]
56	5	1	8	60.0	2	0	[]
60	10	4	8	60.0	2	8	[(275, 0), (7322, 0), (2857, 0), (6419, 1), (2033, 0), (8622, 0), (2496, 0), (91, 0)]
62	2	1	8	60.0	2	0	[]
63	4	1	8	60.0	2	0	[]
87	4	1	8	60.0	2	0	[]
91	2	4	8	60.0	2	0	[]
97	5	2	8	60.0	2	0	[]
101	2	1	8	60.0	2	0	[]
106	1	10	8	60.0	2	0	[]
115	1	1	8	60.0	2	0	[]
121	5	1	8	60.0	2	0	[]
129	2	3	8	60.0	2	0	[]
134	1	1	7	60.0	2	0	[]
142	2	1	2	80.0	2	0	[]
160	6	1	8	40.0	2	0	[]
169	6	1	8	60.0	2	0	[]
188	20	23	48	60.0	2	1	[(577, 0)]
191	7	1	2	60.0	2	0	[]
205	1	1	8	60.0	2	0	[]
219	2	2	8	60.0	2	0	[]
243	2	1	5	60.0	2	0	[]
247	1	4	8	60.0	2	0	[]
262	29	4	8	60.0	0	13	[(2910, 0), (1425, 0), (7970, 0), (3283, 0), (8485, 0), (737, 0), (6381, 0), (3349, 0), (5836, 0), (8618, 0), (1229, 0), (5882, 0), (6628, 0)]
272	1	4	16	80.0	2	0	[]
275	86	3	8	60.0	2	1	[(7463, 1)]
281	8	3	8	40.0	2	1	[(5366, 0)]
283	4	3	8	60.0	2	0	[]
285	2	1	8	60.0	2	0	[]
287	2	1	8	60.0	2	0	[]
289	5	2	8	60.0	2	0	[]
295	2	1	8	60.0	2	0	[]
324	1	1	8	60.0	2	0	[]
332	2	4	2	60.0	2	0	[]
337	1	1	7	60.0	2	0	[]
342	2	6	8	60.0	2	0	[]
371	5	1	8	60.0	2	0	[]
380	2	1	8	60.0	2	0	[]
391	4	1	8	60.0	2	0	[]
393	5	1	8	60.0	2	3	[(1638, 0), (7376, 0), (3480, 0)]
402	3	1	8	60.0	2	0	[]
416	8	2	8	60.0	2	0	[]
421	14	3	8	60.0	2	1	[(262, 0)]
430	10	2	8	60.0	2	0	[]
437	1	1	8	60.0	2	0	[]
456	35	2	8	60.0	2	3	[(2033, 0), (5958, 0), (2185, 0)]
463	2	1	2	60.0	2	0	[]
468	6	1	8	60.0	2	0	[]
504	1	1	8	60.0	2	0	[]
530	1	1	8	60.0	2	0	[]
539	2	1	8	60.0	2	0	[]
551	16	3	8	100.0	2	0	[]
566	2	1	8	60.0	2	0	[]
577	1	2	8	40.0	2	5	[(281, 0), (8221, 1), (3657, 0), (2621, 2), (2185, 0)]
593	1	1	8	60.0	2	0	[]
594	2	1	8	60.0	2	0	[]
609	1	1	8	60.0	2	0	[]
611	3	1	8	60.0	2	0	[]
618	53	2	8	60.0	2	2	[(9228, 0), (2033, 0)]
623	2	1	8	60.0	2	0	[]
627	1	2	8	60.0	2	0	[]
634	2	2	8	60.0	2	0	[]
653	2	1	8	60.0	2	0	[]
655	26	1	8	40.0	2	1	[(737, 2)]
667	2	1	8	60.0	2	1	[(4242, 2)]
674	5	1	8	60.0	2	0	[]
678	1	1	8	60.0	2	0	[]
688	36	6	8	100.0	2	2	[(3283, 0), (4754, 0)]
695	27	4	8	60.0	2	0	[]
709	3	4	8	60.0	2	1	[(3283, 1)]
716	3	3	8	100.0	2	0	[]
727	3	1	8	80.0	2	0	[]
737	10	5	32	60.0	2	3	[(8221, 0), (6381, 2), (5684, 0)]
779	3	1	8	60.0	2	0	[]
782	319	6	8	60.0	2	1	[(688, 0)]
786	2	1	8	60.0	2	0	[]
820	2	1	8	60.0	2	0	[]
824	5	2	8	60.0	2	1	[(6381, 0)]
826	2	1	2	60.0	2	0	[]
836	3	3	8	60.0	2	0	[]
840	6	2	8	60.0	2	0	[]
845	3	1	8	60.0	2	0	[]
852	3	2	8	60.0	2	0	[]
860	2	1	8	60.0	2	0	[]
864	4	2	8	60.0	2	0	[]
876	4	1	8	60.0	2	0	[]
877	5	1	8	60.0	2	0	[]
884	1	4	8	60.0	2	0	[]
895	14	3	8	60.0	2	0	[]
909	8	12	16	100.0	2	0	[]
923	2	3	8	60.0	2	0	[]
933	1	1	8	60.0	2	0	[]
942	23	2	8	80.0	2	0	[]
949	16	2	8	40.0	2	3	[(8221, 0), (9143, 2), (456, 0)]
952	41	3	8	40.0	2	0	[]
954	1	4	8	100.0	2	0	[]
956	2	1	8	60.0	2	0	[]
960	1	1	2	60.0	2	0	[]
972	7	2	8	60.0	2	0	[]
976	2	1	2	60.0	2	0	[]
983	1	1	7	60.0	2	0	[]
1002	6	3	8	80.0	2	0	[]
1012	7	1	8	60.0	2	0	[]
1031	6	2	2	60.0	2	0	[]
1032	2	1	8	60.0	2	0	[]
1049	4	1	8	60.0	2	0	[]
1056	1	1	2	60.0	2	0	[]
1066	30	3	8	60.0	2	1	[(1195, 2)]
1084	2	1	8	60.0	2	0	[]
1092	1	1	8	60.0	2	0	[]
1093	3	1	8	60.0	2	0	[]
1113	1	32	80	600.0	2	0	[]
1115	6	1	8	60.0	2	0	[]
1118	2	1	8	60.0	2	0	[]
1129	2	1	8	60.0	2	0	[]
1137	1	1	8	60.0	2	0	[]
1145	2	1	8	60.0	2	0	[]
1149	1	1	8	60.0	2	0	[]
1151	1	2	8	60.0	2	1	[(2206, 1)]
1154	12	2	16	60.0	2	0	[]
1159	5	1	8	60.0	2	0	[]
1163	11	3	8	60.0	2	2	[(7667, 1), (2773, 0)]
1165	4	1	2	60.0	2	0	[]
1168	2	4	8	60.0	2	0	[]
1169	4	2	8	60.0	2	0	[]
1170	2	1	8	60.0	2	0	[]
1171	1	1	8	60.0	2	0	[]
1192	2	1	8	60.0	2	0	[]
1195	98	5	8	60.0	2	5	[(3428, 0), (3480, 0), (3959, 0), (4909, 0), (942, 2)]
1213	4	1	8	60.0	2	0	[]
1226	2	2	2	60.0	2	0	[]
1227	76	3	8	60.0	2	1	[(577, 0)]
1229	12	2	8	60.0	2	2	[(8221, 0), (6381, 0)]
1230	1	4	8	60.0	2	0	[]
1235	6	2	8	60.0	2	0	[]
1237	5	1	8	60.0	2	0	[]
1247	4	1	8	60.0	2	0	[]
1252	2	1	8	60.0	2	0	[]
1271	2	4	8	60.0	2	0	[]
1286	1	1	8	60.0	2	0	[]
1297	1	1	8	60.0	2	0	[]
1300	2	1	8	60.0	2	0	[]
1337	1	3	8	60.0	2	0	[]
1339	2	1	8	60.0	2	0	[]
1341	1	1	7	60.0	2	0	[]
1350	2	3	8	60.0	2	0	[]
1364	2	1	8	60.0	2	0	[]
1388	8	2	8	60.0	2	0	[]
1396	3	2	8	60.0	2	0	[]
1425	39	7	16	200.0	2	0	[]
1446	1	1	8	60.0	2	0	[]
1448	1	1	5	60.0	2	0	[]
1476	2	1	8	60.0	2	0	[]
1481	2	4	16	60.0	0	0	[]
1484	2	1	8	60.0	2	0	[]
1497	10	2	8	60.0	2	0	[]
1501	1	1	2	60.0	2	0	[]
1517	1	1	8	60.0	2	0	[]
1523	12	6	8	60.0	2	0	[]
1529	4	1	8	60.0	2	0	[]
1570	2	1	7	60.0	2	0	[]
1574	2	1	7	60.0	2	0	[]
1577	1	4	8	60.0	2	0	[]
1612	2	1	8	60.0	2	0	[]
1629	1	1	8	60.0	2	0	[]
1633	1	1	8	60.0	2	0	[]
1638	4	1	8	60.0	2	0	[]
1645	5	1	8	60.0	2	0	[]
1646	2	1	8	60.0	2	0	[]
1674	2	1	8	60.0	2	0	[]
1685	1	1	1	60.0	2	0	[]
1698	2	1	1	80.0	2	0	[]
1713	2	1	8	60.0	2	0	[]
1717	1	4	8	60.0	2	0	[]
1722	8	1	8	60.0	2	0	[]
1728	139	6	8	60.0	0	1	[(5239, 0)]
1743	2	1	8	60.0	2	0	[]
1747	1	1	8	60.0	2	0	[]
1760	7	4	8	60.0	2	0	[]
1810	6	1	7	60.0	2	0	[]
1815	2	1	8	60.0	2	0	[]
1818	1	1	8	60.0	2	0	[]
1833	3	2	8	60.0	2	0	[]
1852	2	1	2	60.0	2	0	[]
1872	4	2	8	60.0	2	0	[]
1876	2	1	8	80.0	2	0	[]
1881	2	1	2	60.0	2	0	[]
1886	2	1	5	60.0	2	0	[]
1887	11	1	8	40.0	2	1	[(6381, 2)]
1926	1	1	8	60.0	2	0	[]
1929	7	4	16	60.0	2	0	[]
1945	7	6	8	60.0	2	0	[]
1946	3	3	4	200.0	2	0	[]
1960	2	1	8	60.0	2	0	[]
1968	2	1	8	60.0	2	0	[]
1971	3	1	6	60.0	2	0	[]
1974	1	2	16	60.0	2	0	[]
1991	2	1	3	60.0	2	0	[]
1999	2	1	2	60.0	2	0	[]
2007	6	2	8	60.0	2	0	[]
2019	60	1	8	60.0	2	0	[]
2022	7	16	96	300.0	2	0	[]
2023	2	2	8	60.0	2	0	[]
2030	4	1	8	60.0	2	0	[]
2033	94	5	8	60.0	2	5	[(7279, 0), (3574, 0), (1728, 0), (1425, 0), (4400, 0)]
2039	1	1	2	60.0	2	0	[]
2043	1	1	8	60.0	2	0	[]
2068	1	1	8	60.0	2	0	[]
2071	2	1	8	60.0	2	0	[]
2103	2	1	8	60.0	2	0	[]
2124	3	1	8	60.0	2	0	[]
2130	3	1	8	60.0	2	0	[]
2141	1	1	2	60.0	2	0	[]
2156	2	1	8	60.0	2	0	[]
2160	4	1	8	60.0	2	0	[]
2168	1	1	8	60.0	2	0	[]
2174	2	1	8	60.0	2	0	[]
2178	12	6	8	60.0	2	0	[]
2181	1	1	8	60.0	2	0	[]
2185	134	4	8	40.0	2	13	[(8221, 0), (281, 0), (1195, 0), (2347, 0), (1093, 0), (2621, 0), (9319, 0), (5016, 2), (456, 0), (6597, 0), (1728, 2), (5958, 2), (3574, 1)]
2186	124	6	8	60.0	2	5	[(3480, 2), (6597, 0), (2952, 2), (4531, 0), (3097, 2)]
2196	2	1	4	60.0	2	0	[]
2206	6	3	8	60.0	2	0	[]
2213	2	2	8	60.0	2	0	[]
2215	3	1	8	60.0	2	0	[]
2221	2	1	8	60.0	2	0	[]
2222	1	5	8	60.0	2	0	[]
2245	3	4	8	60.0	2	0	[]
2250	2	1	8	60.0	2	0	[]
2253	1	1	8	60.0	2	0	[]
2257	7	2	8	80.0	2	0	[]
2264	2	1	8	60.0	2	0	[]
2286	1	1	8	60.0	2	0	[]
2288	1	1	8	60.0	2	0	[]
2296	1	1	8	60.0	2	0	[]
2303	6	1	8	60.0	2	0	[]
2304	1	1	2	60.0	2	0	[]
2305	1	6	8	100.0	2	0	[]
2312	2	1	8	60.0	2	0	[]
2314	1	4	8	60.0	2	0	[]
2318	1	1	8	60.0	2	0	[]
2334	1	4	8	80.0	2	0	[]
2339	1	1	8	60.0	2	0	[]
2343	2	1	8	60.0	2	0	[]
2347	3	1	8	60.0	2	0	[]
2368	1	4	16	80.0	2	0	[]
2382	1	1	8	60.0	2	0	[]
2389	1	4	8	60.0	2	0	[]
2411	1	1	8	60.0	2	0	[]
2417	2	4	8	60.0	2	0	[]
2418	2	1	8	60.0	2	0	[]
2419	2	1	8	60.0	2	0	[]
2427	3	1	8	60.0	2	0	[]
2442	4	1	8	60.0	2	0	[]
2447	4	2	8	60.0	2	0	[]
2449	4	1	8	60.0	2	0	[]
2457	5	2	8	60.0	2	0	[]
2496	10	4	8	100.0	2	7	[(2568, 0), (60, 1), (7322, 0), (2033, 0), (504, 0), (8979, 0), (2857, 0)]
2503	9	1	2	60.0	2	0	[]
2509	8	1	8	60.0	2	0	[]
2511	7	1	8	60.0	2	0	[]
2514	3	1	16	80.0	2	0	[]
2553	2	4	8	60.0	2	0	[]
2559	2	1	8	60.0	2	0	[]
2562	2	4	8	60.0	2	0	[]
2568	2	1	1	60.0	2	2	[(8979, 0), (2496, 0)]
2572	2	1	8	60.0	2	0	[]
2588	2	4	8	60.0	2	0	[]
2589	3	1	8	60.0	2	0	[]
2592	3	1	8	60.0	2	0	[]
2594	2	1	7	60.0	2	0	[]
2621	5	1	8	40.0	2	1	[(3657, 0)]
2637	1	1	1	60.0	2	0	[]
2653	2	1	8	60.0	2	0	[]
2664	6	1	8	60.0	2	0	[]
2678	1	1	8	60.0	2	0	[]
2679	2	1	3	60.0	2	0	[]
2691	1	1	8	60.0	2	0	[]
2696	21	6	8	60.0	2	0	[]
2708	2	1	8	60.0	2	0	[]
2719	1	1	8	60.0	2	0	[]
2726	2	2	8	60.0	2	0	[]
2734	2	1	8	60.0	2	0	[]
2740	3	1	8	60.0	2	0	[]
2749	19	3	8	60.0	2	2	[(7686, 0), (6550, 2)]
2773	2	1	8	60.0	2	0	[]
2778	2	1	2	60.0	2	0	[]
2780	1	1	8	60.0	2	0	[]
2788	11	1	10	180.0	2	5	[(121, 0), (1833, 0), (4737, 0), (3797, 0), (3184, 0)]
2789	1	2	8	80.0	2	0	[]
2812	1	1	3	60.0	2	0	[]
2820	1	1	1	60.0	2	0	[]
2826	4	6	8	60.0	2	0	[]
2834	1	4	16	100.0	2	0	[]
2857	1	11	16	100.0	2	0	[]
2858	1	1	8	60.0	2	0	[]
2867	2	1	8	60.0	2	0	[]
2875	7	3	8	60.0	2	0	[]
2884	2	1	8	60.0	2	0	[]
2887	18	3	16	200.0	2	0	[]
2891	1	1	8	60.0	2	0	[]
2903	2	1	8	60.0	2	0	[]
2910	50	5	8	60.0	2	5	[(8489, 0), (3574, 0), (1227, 2), (1154, 0), (6381, 2)]
2913	17	2	8	60.0	2	0	[]
2925	2	1	2	60.0	2	0	[]
2941	1	1	8	60.0	2	0	[]
2951	1	1	8	60.0	2	0	[]
2952	5	1	8	60.0	2	0	[]
2956	1	1	8	60.0	2	0	[]
2965	2	4	8	60.0	2	0	[]
2975	1	1	8	60.0	2	0	[]
2978	12	2	8	60.0	2	0	[]
2981	2	1	8	60.0	2	0	[]
2983	3	6	8	60.0	2	0	[]
2989	2	2	8	60.0	2	0	[]
3015	4	4	8	60.0	2	0	[]
3017	2	1	8	60.0	2	0	[]
3030	2	1	8	60.0	2	0	[]
3033	11	4	8	80.0	2	0	[]
3050	4	1	8	60.0	2	0	[]
3064	1	2	8	60.0	2	0	[]
3065	2	1	1	60.0	2	0	[]
3091	40	5	8	60.0	2	0	[]
3097	9	3	8	60.0	2	0	[]
3115	1	4	8	60.0	2	0	[]
3119	2	1	8	60.0	2	0	[]
3125	2	2	16	60.0	2	0	[]
3129	1	1	4	60.0	2	0	[]
3133	2	1	8	60.0	2	0	[]
3142	1	1	2	60.0	2	0	[]
3147	2	1	2	60.0	2	0	[]
3155	2	1	8	60.0	2	0	[]
3158	28	1	8	60.0	2	0	[]
3162	17	1	2	60.0	2	0	[]
3166	2	1	8	60.0	2	0	[]
3177	2	1	8	80.0	2	0	[]
3184	1	1	8	60.0	2	0	[]
3233	3	1	8	60.0	2	0	[]
3246	3	1	8	60.0	2	0	[]
3252	47	1	8	60.0	2	0	[]
3254	2	6	8	60.0	2	0	[]
3259	2	6	8	60.0	2	0	[]
3272	16	3	8	60.0	2	0	[]
3274	1	1	3	60.0	2	0	[]
3276	3	2	8	60.0	2	0	[]
3277	2	1	8	60.0	2	0	[]
3283	240	6	8	60.0	2	5	[(27, 0), (688, 0), (9228, 0), (3064, 1), (262, 0)]
3300	1	4	8	60.0	2	0	[]
3308	1	1	2	60.0	2	0	[]
3316	2	1	8	60.0	2	0	[]
3337	8	3	2	60.0	2	0	[]
3349	116	12	16	60.0	0	5	[(8979, 0), (3480, 0), (2186, 0), (456, 0), (1171, 2)]
3376	2	1	1	60.0	2	0	[]
3417	2	1	1	100.0	2	0	[]
3422	4	1	8	60.0	2	0	[]
3424	2	1	2	100.0	2	0	[]
3428	5	1	8	60.0	2	0	[]
3448	2	1	8	40.0	2	0	[]
3472	2	2	8	40.0	2	0	[]
3480	20	2	16	60.0	2	0	[]
3483	2	1	8	60.0	2	0	[]
3500	1	1	2	60.0	2	0	[]
3502	1	1	8	60.0	2	0	[]
3528	1	1	8	60.0	2	0	[]
3536	2	1	8	60.0	2	0	[]
3550	1	1	8	60.0	2	0	[]
3551	5	6	8	100.0	2	0	[]
3556	4	1	8	60.0	2	0	[]
3570	12	5	8	60.0	2	1	[(3349, 0)]
3573	2	1	8	60.0	2	0	[]
3574	32	9	16	60.0	0	0	[]
3599	2	1	8	60.0	2	0	[]
3600	2	1	1	60.0	2	0	[]
3607	2	1	8	60.0	2	0	[]
3608	8	5	8	60.0	2	0	[]
3635	4	1	4	60.0	2	0	[]
3640	2	4	8	60.0	2	0	[]
3646	1	1	1	60.0	2	0	[]
3650	1	1	2	60.0	2	0	[]
3657	103	6	16	60.0	1	2	[(1425, 0), (2621, 0)]
3662	1	4	8	60.0	2	0	[]
3671	2	1	8	60.0	2	0	[]
3713	2	3	8	60.0	2	0	[]
3728	1	4	8	60.0	2	0	[]
3730	2	1	8	60.0	2	0	[]
3735	1	1	2	60.0	2	0	[]
3739	1	1	1	60.0	2	0	[]
3763	1	1	8	60.0	2	0	[]
3797	2	1	2	60.0	2	0	[]
3798	1	1	8	60.0	2	0	[]
3801	4	1	8	60.0	2	0	[]
3813	10	6	8	250.0	2	0	[]
3817	2	1	8	60.0	2	0	[]
3818	1	1	1	60.0	2	0	[]
3823	1	1	8	60.0	2	0	[]
3841	2	4	8	60.0	2	0	[]
3850	2	1	8	60.0	2	0	[]
3863	1	1	8	60.0	2	0	[]
3866	9	2	2	60.0	2	0	[]
3896	2	4	8	60.0	2	0	[]
3900	1	1	8	60.0	2	0	[]
3918	4	3	8	60.0	2	0	[]
3922	4	4	8	60.0	2	0	[]
3930	2	1	8	60.0	2	0	[]
3933	2	1	8	60.0	2	0	[]
3935	1	4	8	60.0	2	0	[]
3938	1	1	8	60.0	2	0	[]
3947	2	1	1	60.0	2	0	[]
3954	3	1	8	60.0	2	0	[]
3959	3	36	48	500.0	2	0	[]
3967	1	4	8	60.0	2	0	[]
3981	1	4	8	60.0	2	0	[]
3984	6	1	8	60.0	2	1	[(3349, 1)]
3985	3	1	8	60.0	2	0	[]
3992	4	1	8	60.0	2	0	[]
4008	7	1	16	80.0	2	0	[]
4017	2	1	4	60.0	2	0	[]
4034	9	6	8	60.0	2	1	[(1163, 1)]
4040	1	1	7	60.0	2	0	[]
4047	1	32	128	600.0	2	0	[]
4055	7	1	8	60.0	2	0	[]
4063	2	1	8	60.0	2	0	[]
4067	5	2	8	60.0	2	0	[]
4068	26	2	8	60.0	2	0	[]
4084	6	2	8	60.0	2	0	[]
4088	1	1	8	60.0	2	0	[]
4104	4	1	8	60.0	2	0	[]
4122	7	1	8	60.0	2	0	[]
4130	2	1	8	60.0	2	0	[]
4158	2	1	8	60.0	2	0	[]
4172	4	1	2	60.0	2	0	[]
4192	2	1	8	60.0	2	0	[]
4196	1	4	8	60.0	2	0	[]
4212	4	1	8	60.0	2	0	[]
4224	2	1	7	60.0	2	0	[]
4242	2	1	2	60.0	2	0	[]
4246	1	4	8	60.0	2	0	[]
4261	4	2	8	60.0	2	0	[]
4272	2	1	8	60.0	2	0	[]
4284	4	6	8	200.0	2	0	[]
4290	2	1	8	60.0	2	0	[]
4294	4	1	5	60.0	2	0	[]
4295	2	1	8	60.0	2	0	[]
4307	2	1	8	60.0	2	0	[]
4317	1	1	2	60.0	2	0	[]
4320	2	1	8	60.0	2	0	[]
4323	2	1	8	60.0	2	0	[]
4328	1	4	8	60.0	2	0	[]
4349	23	1	8	40.0	2	0	[]
4356	1	1	8	60.0	2	0	[]
4393	67	4	8	80.0	2	2	[(6838, 0), (6381, 0)]
4395	1	5	8	60.0	2	0	[]
4400	4	2	8	60.0	2	0	[]
4404	1	4	8	60.0	2	0	[]
4419	1	1	8	60.0	2	0	[]
4427	1	4	8	60.0	2	0	[]
4455	3	1	8	60.0	2	0	[]
4480	4	1	8	60.0	2	0	[]
4482	1	1	8	60.0	2	0	[]
4486	7	11	16	100.0	2	0	[]
4487	2	2	48	300.0	2	0	[]
4497	1	1	2	60.0	2	0	[]
4507	2	1	2	60.0	2	0	[]
4509	8	1	8	60.0	2	0	[]
4514	14	2	8	60.0	2	0	[]
4518	4	1	8	60.0	2	0	[]
4527	2	1	16	80.0	2	0	[]
4531	99	4	8	60.0	2	1	[(7279, 2)]
4538	2	1	8	60.0	2	0	[]
4542	3	4	8	60.0	2	0	[]
4552	14	6	8	60.0	2	0	[]
4561	1	1	2	60.0	2	0	[]
4564	2	1	8	60.0	2	0	[]
4572	3	1	8	60.0	2	0	[]
4574	3	6	8	60.0	2	0	[]
4581	15	2	8	60.0	2	0	[]
4592	2	1	8	60.0	2	0	[]
4600	2	1	8	60.0	2	0	[]
4619	10	1	8	60.0	2	0	[]
4622	1	1	1	60.0	2	0	[]
4651	1	1	8	60.0	2	0	[]
4663	74	12	2	80.0	2	1	[(2068, 1)]
4670	1	4	8	60.0	2	0	[]
4675	1	1	16	60.0	2	0	[]
4679	1	1	6	60.0	2	0	[]
4684	2	1	8	60.0	2	0	[]
4687	1	1	8	60.0	2	0	[]
4711	3	2	8	60.0	2	0	[]
4724	1	4	8	60.0	2	0	[]
4737	1	1	8	60.0	2	0	[]
4745	1	1	8	60.0	2	0	[]
4754	64	6	8	60.0	2	1	[(2033, 0)]
4800	3	4	8	60.0	2	0	[]
4806	2	1	8	60.0	2	0	[]
4810	2	1	8	60.0	2	0	[]
4826	2	4	16	60.0	2	0	[]
4827	2	1	8	60.0	2	0	[]
4836	2	3	8	60.0	2	0	[]
4841	2	1	8	60.0	2	0	[]
4844	2	1	8	60.0	2	0	[]
4854	5	6	8	60.0	2	0	[]
4904	2	1	8	60.0	2	0	[]
4909	18	2	8	60.0	2	3	[(8897, 0), (627, 1), (7660, 1)]
4914	1	1	7	60.0	2	0	[]
4915	1	1	8	60.0	2	0	[]
4919	2	1	8	60.0	2	0	[]
4928	2	1	8	60.0	2	0	[]
4930	2	1	8	60.0	2	0	[]
4931	5	1	8	60.0	2	0	[]
4938	9	2	8	60.0	2	0	[]
4957	2	1	8	60.0	2	0	[]
4961	1	1	8	60.0	2	0	[]
4968	2	1	8	60.0	2	0	[]
4988	2	1	8	60.0	2	0	[]
4991	1	4	8	60.0	2	0	[]
4993	3	1	8	60.0	2	0	[]
5002	2	1	8	60.0	2	0	[]
5004	30	3	8	60.0	2	0	[]
5014	2	1	8	60.0	2	0	[]
5016	8	2	8	60.0	2	0	[]
5054	10	6	8	60.0	2	0	[]
5055	1	1	1	60.0	2	0	[]
5058	1	1	8	60.0	2	0	[]
5065	19	3	8	60.0	2	0	[]
5069	2	1	8	60.0	2	0	[]
5073	2	1	2	60.0	2	0	[]
5078	2	4	8	60.0	2	0	[]
5094	1	1	8	60.0	2	0	[]
5108	1	1	2	60.0	2	0	[]
5122	1	3	8	60.0	2	0	[]
5126	1	4	8	60.0	2	0	[]
5131	3	2	8	60.0	2	0	[]
5146	27	5	8	80.0	2	0	[]
5174	1	1	2	60.0	2	0	[]
5179	4	1	8	60.0	2	0	[]
5201	2	1	8	60.0	2	0	[]
5215	1	1	2	60.0	2	0	[]
5219	2	1	8	60.0	2	0	[]
5223	4	5	16	60.0	2	0	[]
5224	3	2	8	60.0	2	0	[]
5230	1	1	8	60.0	2	0	[]
5239	3	2	8	40.0	2	0	[]
5242	2	1	8	60.0	2	0	[]
5243	1	1	2	60.0	2	0	[]
5249	2	2	8	60.0	2	0	[]
5251	11	6	8	60.0	2	0	[]
5284	7	5	8	60.0	2	0	[]
5288	6	1	8	60.0	2	1	[(1195, 0)]
5289	6	1	8	60.0	2	0	[]
5296	3	1	8	60.0	2	0	[]
5303	1	1	8	60.0	2	0	[]
5322	12	1	2	60.0	2	3	[(56, 1), (909, 2), (5386, 2)]
5329	2	1	8	60.0	2	1	[(9136, 0)]
5332	1	1	8	60.0	2	0	[]
5334	1	1	8	60.0	2	0	[]
5341	4	1	8	60.0	2	0	[]
5345	1	1	8	60.0	2	0	[]
5346	9	2	8	60.0	2	0	[]
5366	142	12	16	60.0	1	6	[(281, 0), (7639, 0), (5684, 0), (5646, 2), (1229, 0), (6628, 1)]
5386	7	1	8	60.0	2	0	[]
5399	2	4	8	60.0	2	0	[]
5402	1	1	8	60.0	2	0	[]
5411	34	3	8	60.0	2	1	[(1388, 2)]
5417	2	2	8	60.0	2	0	[]
5433	1	1	8	60.0	2	0	[]
5437	3	3	16	60.0	2	0	[]
5461	1	1	8	60.0	2	0	[]
5471	2	1	8	60.0	2	0	[]
5479	6	1	8	60.0	2	0	[]
5485	2	1	7	60.0	2	0	[]
5496	5	2	8	60.0	2	0	[]
5497	5	1	8	60.0	2	0	[]
5498	3	1	2	60.0	2	0	[]
5508	1	1	2	60.0	2	0	[]
5511	72	6	8	60.0	2	1	[(3574, 1)]
5512	5	1	8	60.0	2	0	[]
5518	1	1	8	60.0	2	0	[]
5529	3	1	8	60.0	2	0	[]
5541	27	3	10	40.0	2	2	[(1945, 1), (2621, 0)]
5544	3	2	8	60.0	2	0	[]
5568	3	1	8	60.0	2	0	[]
5582	3	1	8	60.0	2	0	[]
5585	20	1	8	60.0	2	0	[]
5586	1	4	8	60.0	2	0	[]
5616	2	1	8	60.0	2	0	[]
5636	2	2	8	60.0	2	0	[]
5646	2	1	8	60.0	2	0	[]
5651	4	1	8	60.0	2	1	[(275, 2)]
5652	2	1	8	60.0	2	0	[]
5684	46	3	16	60.0	2	4	[(8221, 0), (160, 0), (737, 0), (577, 0)]
5686	3	6	8	60.0	2	0	[]
5700	1	1	8	60.0	2	0	[]
5704	2	1	8	60.0	2	0	[]
5728	1	4	8	60.0	2	0	[]
5734	6	1	8	60.0	2	0	[]
5735	1	1	8	40.0	2	0	[]
5737	5	1	8	60.0	2	0	[]
5743	2	2	8	60.0	2	0	[]
5755	3	2	8	60.0	2	0	[]
5772	11	2	8	60.0	2	0	[]
5775	1	1	3	60.0	2	0	[]
5781	36	3	8	60.0	2	2	[(1154, 1), (6381, 2)]
5783	2	1	2	60.0	2	0	[]
5784	6	2	8	60.0	2	0	[]
5796	1	1	8	60.0	2	0	[]
5813	2	1	1	60.0	2	0	[]
5815	2	1	4	60.0	2	0	[]
5820	154	6	8	60.0	2	2	[(6127, 2), (6597, 0)]
5822	2	2	8	200.0	2	0	[]
5824	2	2	8	60.0	2	0	[]
5831	2	1	8	60.0	2	0	[]
5836	7	5	16	60.0	1	0	[]
5844	2	1	8	60.0	2	0	[]
5853	2	16	32	200.0	2	0	[]
5855	2	4	8	60.0	2	0	[]
5876	37	2	8	60.0	2	2	[(737, 2), (1646, 2)]
5882	5	14	96	300.0	2	0	[]
5886	12	6	8	60.0	2	2	[(2141, 2), (7473, 2)]
5899	1	2	8	60.0	2	0	[]
5908	3	1	8	60.0	2	0	[]
5918	1	2	8	60.0	2	0	[]
5920	1	1	4	60.0	2	0	[]
5922	7	2	8	60.0	2	0	[]
5924	2	1	7	60.0	2	0	[]
5926	2	1	8	60.0	2	0	[]
5950	1	1	2	60.0	2	0	[]
5958	6	2	2	60.0	2	6	[(3422, 0), (7686, 0), (7289, 0), (7023, 0), (6381, 0), (2185, 0)]
5996	4	1	8	60.0	2	0	[]
6000	1	4	8	60.0	2	0	[]
6009	1	1	1	60.0	2	0	[]
6016	2	1	8	60.0	2	0	[]
6043	1	1	1	60.0	2	0	[]
6062	9	2	3	80.0	2	0	[]
6091	4	2	8	60.0	2	0	[]
6122	40	6	8	60.0	2	0	[]
6127	4	1	8	60.0	2	0	[]
6143	3	1	8	60.0	2	0	[]
6162	5	1	2	300.0	2	0	[]
6174	2	4	8	60.0	2	0	[]
6178	2	1	8	60.0	2	0	[]
6184	2	16	32	60.0	0	0	[]
6187	3	1	8	60.0	2	0	[]
6196	5	2	8	60.0	2	0	[]
6208	1	1	8	60.0	2	0	[]
6209	2	1	8	60.0	2	0	[]
6221	2	1	8	60.0	2	0	[]
6236	1	4	8	60.0	2	0	[]
6246	5	1	8	60.0	2	0	[]
6251	14	8	16	200.0	2	0	[]
6264	2	1	8	60.0	2	0	[]
6277	1	1	8	60.0	2	0	[]
6292	1	4	8	60.0	2	0	[]
6299	1	1	2	60.0	2	0	[]
6306	8	1	8	60.0	2	0	[]
6307	2	1	8	60.0	2	0	[]
6312	5	1	8	60.0	2	0	[]
6316	2	4	8	60.0	2	0	[]
6317	13	1	8	60.0	2	1	[(5544, 0)]
6322	3	1	8	60.0	2	0	[]
6324	1	1	1	60.0	2	0	[]
6337	2	2	8	60.0	2	0	[]
6346	1	2	8	60.0	2	0	[]
6348	2	1	8	60.0	2	0	[]
6351	2	1	1	60.0	2	0	[]
6356	1	1	8	60.0	2	0	[]
6360	2	1	8	60.0	2	0	[]
6364	5	1	8	60.0	2	0	[]
6368	3	1	8	60.0	2	0	[]
6376	1	8	8	60.0	2	0	[]
6379	1	1	1	60.0	2	0	[]
6381	282	12	16	60.0	1	7	[(9156, 0), (952, 0), (5239, 0), (1154, 0), (737, 2), (9143, 0), (4486, 0)]
6387	1	1	8	60.0	2	0	[]
6389	1	1	2	60.0	2	0	[]
6395	1	1	8	60.0	2	0	[]
6396	1	6	4	60.0	2	0	[]
6407	2	1	8	60.0	2	0	[]
6419	1	4	8	100.0	2	0	[]
6423	1	1	8	60.0	2	0	[]
6456	2	1	8	60.0	2	0	[]
6466	4	6	8	60.0	2	0	[]
6467	1	4	8	40.0	0	0	[]
6483	29	1	8	60.0	0	3	[(9032, 1), (8253, 0), (7998, 0)]
6498	1	1	2	60.0	2	0	[]
6509	1	3	2	60.0	2	2	[(3316, 0), (3428, 1)]
6511	4	1	2	60.0	2	0	[]
6513	2	1	8	60.0	2	0	[]
6521	3	1	8	60.0	2	0	[]
6527	1	2	8	60.0	2	0	[]
6536	1	1	1	60.0	2	0	[]
6548	1	4	8	60.0	2	0	[]
6549	2	1	8	60.0	2	0	[]
6550	21	12	16	100.0	2	0	[]
6561	5	6	8	60.0	2	0	[]
6566	1	1	1	60.0	2	0	[]
6575	1	2	8	40.0	2	0	[]
6581	1	2	8	60.0	2	0	[]
6586	4	2	7	60.0	2	0	[]
6588	1	1	8	60.0	2	0	[]
6597	108	12	8	100.0	2	2	[(976, 0), (7350, 0)]
6601	1	4	8	60.0	2	0	[]
6617	2	1	3	60.0	2	0	[]
6628	21	5	8	60.0	2	0	[]
6630	1	1	4	60.0	2	0	[]
6634	2	1	2	60.0	2	0	[]
6636	2	1	8	60.0	2	0	[]
6649	1	4	8	60.0	2	0	[]
6652	2	1	5	60.0	2	0	[]
6662	3	2	8	60.0	2	0	[]
6665	2	1	8	60.0	2	0	[]
6672	1	1	8	60.0	2	0	[]
6681	4	1	8	60.0	2	0	[]
6702	1	4	8	60.0	2	0	[]
6705	1	1	8	60.0	2	0	[]
6709	5	1	8	60.0	2	2	[(8679, 1), (8979, 1)]
6725	28	6	8	100.0	2	1	[(3954, 2)]
6726	119	3	8	60.0	0	4	[(1237, 0), (4320, 2), (8285, 2), (9074, 2)]
6738	1	1	8	40.0	2	0	[]
6749	2	4	8	60.0	2	0	[]
6769	2	1	3	60.0	2	0	[]
6781	1	4	8	60.0	2	0	[]
6783	1	1	16	60.0	2	0	[]
6794	5	2	8	60.0	2	0	[]
6796	1	2	7	60.0	2	0	[]
6803	2	4	8	60.0	2	1	[(8384, 2)]
6808	39	2	8	60.0	2	1	[(4581, 2)]
6809	1	4	8	60.0	2	0	[]
6814	4	1	5	60.0	2	0	[]
6823	2	1	8	60.0	2	0	[]
6829	2	1	8	60.0	2	0	[]
6830	1	1	8	40.0	2	0	[]
6838	14	12	16	60.0	2	0	[]
6842	4	1	8	60.0	2	0	[]
6865	1	3	16	60.0	2	0	[]
6909	4	2	8	60.0	2	0	[]
6910	24	2	8	60.0	2	0	[]
6929	2	1	8	60.0	2	0	[]
6947	3	1	8	60.0	2	0	[]
6956	2	3	8	60.0	2	0	[]
6966	2	1	8	60.0	2	0	[]
6968	1	1	8	60.0	2	0	[]
6973	3	4	8	60.0	2	0	[]
6981	2	1	7	60.0	2	0	[]
6992	6	8	48	300.0	2	0	[]
6994	1	1	8	60.0	2	0	[]
6998	1	1	8	60.0	2	0	[]
7022	1	1	8	60.0	2	0	[]
7023	2	2	8	60.0	2	0	[]
7034	1	4	8	60.0	2	0	[]
7037	3	2	16	200.0	2	0	[]
7043	2	1	8	60.0	2	0	[]
7053	1	6	12	100.0	2	0	[]
7062	4	1	8	60.0	2	0	[]
7076	8	5	8	60.0	2	0	[]
7086	2	1	8	60.0	2	0	[]
7087	25	4	2	200.0	2	2	[(6162, 2), (5652, 1)]
7097	1	1	8	60.0	2	0	[]
7098	13	2	16	80.0	2	0	[]
7105	1	1	8	60.0	2	0	[]
7116	1	1	1	60.0	2	0	[]
7119	2	1	8	60.0	2	0	[]
7132	1	1	8	60.0	2	0	[]
7145	2	1	8	60.0	2	0	[]
7154	19	3	8	60.0	0	0	[]
7178	15	1	2	60.0	2	0	[]
7179	2	1	8	60.0	2	0	[]
7190	1	8	8	60.0	2	0	[]
7193	1	4	8	300.0	2	0	[]
7253	2	1	8	60.0	2	0	[]
7256	11	4	8	60.0	2	0	[]
7276	2	1	8	60.0	2	0	[]
7279	22	3	16	200.0	2	0	[]
7281	1	8	16	80.0	2	0	[]
7288	2	1	2	60.0	2	0	[]
7289	5	2	8	60.0	2	0	[]
7296	1	1	2	60.0	2	0	[]
7298	2	1	8	60.0	2	0	[]
7301	3	1	2	60.0	2	0	[]
7322	6	6	8	60.0	2	0	[]
7325	1	8	16	150.0	2	0	[]
7326	5	1	8	60.0	2	0	[]
7350	3	1	8	60.0	2	0	[]
7353	1	1	8	60.0	2	0	[]
7376	4	1	8	60.0	2	0	[]
7380	2	1	8	60.0	2	0	[]
7388	2	1	7	60.0	2	0	[]
7405	1	1	1	60.0	2	0	[]
7412	1	1	4	60.0	2	0	[]
7428	2	1	8	60.0	2	0	[]
7435	1	2	8	60.0	2	0	[]
7449	2	1	8	60.0	2	0	[]
7462	1	1	8	60.0	2	0	[]
7463	3	1	8	60.0	2	0	[]
7473	3	1	8	60.0	2	0	[]
7477	2	1	8	60.0	2	0	[]
7482	1	4	8	60.0	2	0	[]
7507	6	1	8	60.0	2	0	[]
7510	3	1	4	60.0	2	0	[]
7517	1	1	8	60.0	2	0	[]
7519	2	1	3	60.0	2	0	[]
7523	2	1	8	60.0	2	0	[]
7527	1	1	8	60.0	2	0	[]
7530	2	1	8	60.0	2	1	[(2068, 0)]
7540	1	4	8	60.0	2	0	[]
7553	1	1	1	60.0	2	0	[]
7573	1	1	8	60.0	2	0	[]
7579	1	1	8	60.0	2	0	[]
7607	2	1	8	60.0	2	0	[]
7612	1	4	8	60.0	2	0	[]
7634	2	3	5	60.0	2	0	[]
7636	2	1	8	60.0	2	0	[]
7637	1	1	12	80.0	2	0	[]
7639	22	2	8	40.0	0	4	[(9156, 0), (4531, 0), (8221, 1), (6381, 0)]
7641	7	3	8	60.0	2	0	[]
7647	1	1	8	60.0	2	0	[]
7660	1	1	8	60.0	2	0	[]
7667	2	1	5	60.0	2	0	[]
7686	2	1	8	60.0	2	0	[]
7687	2	1	8	60.0	2	0	[]
7736	10	4	8	60.0	2	0	[]
7737	3	1	8	60.0	2	0	[]
7747	10	2	8	60.0	2	0	[]
7761	1	6	8	60.0	2	0	[]
7769	1	1	8	60.0	2	0	[]
7779	1	4	8	60.0	2	0	[]
7796	10	2	8	60.0	2	1	[(8692, 2)]
7798	16	3	8	60.0	2	0	[]
7814	1	1	8	60.0	2	0	[]
7820	1	4	8	60.0	2	0	[]
7829	2	1	8	60.0	2	0	[]
7837	1	1	2	60.0	2	0	[]
7840	2	1	8	60.0	2	0	[]
7844	3	2	8	60.0	2	0	[]
7866	3	1	8	60.0	2	0	[]
7878	1	2	8	60.0	2	0	[]
7879	3	2	8	60.0	2	0	[]
7901	1	1	6	60.0	2	0	[]
7916	10	1	8	60.0	2	3	[(2141, 1), (7178, 1), (5813, 2)]
7929	1	1	8	60.0	2	0	[]
7940	4	1	8	60.0	2	0	[]
7945	12	1	8	60.0	2	1	[(2033, 1)]
7946	2	1	8	60.0	2	0	[]
7970	30	1	8	40.0	2	2	[(8062, 2), (6381, 2)]
7986	2	1	1	60.0	2	0	[]
7990	4	1	8	60.0	2	0	[]
7995	6	1	8	60.0	2	0	[]
7998	81	1	8	60.0	0	2	[(247, 0), (2196, 2)]
8017	26	4	8	60.0	2	0	[]
8034	2	1	2	60.0	2	0	[]
8037	2	1	8	60.0	2	0	[]
8041	10	1	8	60.0	2	0	[]
8057	6	3	8	100.0	2	0	[]
8062	1	1	8	60.0	2	0	[]
8092	1	4	8	60.0	2	0	[]
8116	2	1	8	60.0	2	0	[]
8128	4	3	8	60.0	2	0	[]
8140	4	1	8	60.0	2	0	[]
8145	2	6	8	60.0	2	0	[]
8160	1	4	8	60.0	2	0	[]
8161	2	1	8	60.0	2	0	[]
8163	1	4	8	60.0	2	0	[]
8172	26	4	8	60.0	2	0	[]
8178	1	2	8	40.0	0	0	[]
8190	2	2	8	60.0	2	0	[]
8211	2	1	8	60.0	2	0	[]
8221	34	3	16	100.0	2	2	[(1728, 2), (4486, 1)]
8228	4	1	8	60.0	2	0	[]
8229	9	1	8	60.0	2	0	[]
8253	12	2	8	60.0	2	0	[]
8285	2	4	8	60.0	2	0	[]
8286	1	1	1	80.0	2	0	[]
8288	1	1	1	100.0	2	0	[]
8290	2	1	8	60.0	2	0	[]
8296	2	1	8	60.0	2	0	[]
8297	5	1	8	60.0	2	0	[]
8305	3	1	8	60.0	2	0	[]
8310	2	3	8	60.0	2	1	[(3959, 2)]
8319	2	1	8	60.0	2	0	[]
8323	1	1	1	60.0	2	0	[]
8331	34	2	8	60.0	2	0	[]
8334	1	4	8	60.0	2	0	[]
8358	1	1	8	60.0	2	0	[]
8376	2	1	8	60.0	2	0	[]
8377	2	1	8	60.0	2	1	[(9050, 0)]
8384	2	1	2	60.0	2	0	[]
8395	2	1	8	60.0	2	0	[]
8404	1	1	8	60.0	2	0	[]
8406	2	1	8	60.0	2	0	[]
8410	9	2	8	60.0	2	0	[]
8420	2	1	8	60.0	2	0	[]
8428	2	2	16	150.0	2	0	[]
8435	6	1	8	60.0	2	0	[]
8439	33	36	48	300.0	2	0	[]
8440	2	1	8	60.0	2	0	[]
8485	4	1	8	40.0	2	0	[]
8489	51	3	8	60.0	2	3	[(6381, 0), (737, 1), (782, 0)]
8496	3	1	8	60.0	2	0	[]
8502	6	2	8	60.0	2	0	[]
8509	2	1	8	60.0	2	0	[]
8525	1	4	8	60.0	2	0	[]
8534	2	1	8	60.0	2	0	[]
8537	2	1	8	60.0	2	0	[]
8543	7	1	8	60.0	2	0	[]
8566	5	3	8	60.0	2	0	[]
8573	1	1	8	60.0	2	0	[]
8594	2	1	8	60.0	2	0	[]
8595	1	1	8	60.0	2	0	[]
8618	23	1	8	60.0	2	0	[]
8622	15	1	8	60.0	2	0	[]
8630	2	1	8	60.0	2	0	[]
8635	2	1	8	60.0	2	0	[]
8655	2	3	2	60.0	2	0	[]
8660	6	6	8	60.0	2	0	[]
8679	2	1	1	100.0	2	0	[]
8692	2	1	16	80.0	2	0	[]
8708	2	2	8	60.0	2	0	[]
8714	1	4	8	60.0	2	0	[]
8731	4	2	8	60.0	2	0	[]
8743	1	4	8	60.0	2	0	[]
8744	2	1	8	60.0	2	0	[]
8753	2	1	6	60.0	2	0	[]
8755	2	1	8	60.0	2	0	[]
8758	2	1	2	40.0	2	0	[]
8761	3	4	8	60.0	2	0	[]
8780	2	1	2	60.0	2	0	[]
8784	1	1	8	60.0	2	0	[]
8786	4	4	8	60.0	2	0	[]
8790	2	1	8	60.0	2	0	[]
8797	2	1	8	60.0	2	0	[]
8805	34	5	8	100.0	2	0	[]
8817	1	1	8	60.0	2	0	[]
8820	2	4	8	60.0	2	0	[]
8821	5	1	8	60.0	2	0	[]
8833	1	1	8	60.0	2	0	[]
8849	23	3	8	60.0	2	0	[]
8851	2	1	8	60.0	2	0	[]
8855	5	3	8	60.0	2	0	[]
8862	2	1	8	1024.0	2	0	[]
8869	1	6	8	60.0	2	0	[]
8871	8	1	8	60.0	2	0	[]
8873	2	4	8	60.0	2	0	[]
8887	2	1	8	60.0	2	0	[]
8896	4	1	8	60.0	2	0	[]
8897	8	6	8	60.0	2	0	[]
8904	24	4	8	60.0	2	0	[]
8939	3	1	8	60.0	2	0	[]
8969	1	1	8	60.0	2	0	[]
8976	5	1	8	60.0	2	0	[]
8979	40	3	8	60.0	2	0	[]
9002	5	2	8	60.0	2	0	[]
9017	33	1	8	60.0	2	0	[]
9032	4	2	8	60.0	2	0	[]
9050	4	2	128	600.0	2	0	[]
9051	2	1	8	60.0	2	0	[]
9055	1	4	8	60.0	2	0	[]
9063	1	1	2	60.0	2	0	[]
9070	3	2	8	60.0	2	0	[]
9074	3	2	8	60.0	2	0	[]
9098	2	1	8	60.0	2	0	[]
9099	1	1	8	60.0	2	0	[]
9103	2	1	7	60.0	2	0	[]
9111	4	4	8	60.0	2	0	[]
9115	1	1	3	60.0	2	0	[]
9119	1	1	8	60.0	2	0	[]
9133	8	1	1	60.0	2	0	[]
9136	5	1	8	60.0	2	0	[]
9138	72	6	8	60.0	2	0	[]
9141	2	1	8	60.0	2	0	[]
9143	6	1	8	40.0	2	0	[]
9150	1	4	8	60.0	2	0	[]
9155	1	1	8	60.0	2	0	[]
9156	25	4	8	60.0	2	2	[(3574, 0), (4754, 2)]
9178	1	4	8	60.0	2	0	[]
9182	2	1	8	60.0	2	0	[]
9190	2	8	16	100.0	2	0	[]
9193	7	2	8	100.0	2	0	[]
9194	4	1	8	60.0	2	0	[]
9201	5	1	8	60.0	2	0	[]
9203	2	1	8	60.0	2	0	[]
9205	1	1	1	60.0	2	0	[]
9228	42	4	8	40.0	2	3	[(5541, 0), (1728, 0), (618, 0)]
9245	1	1	8	60.0	2	0	[]
9246	1	4	8	60.0	2	0	[]
9253	2	1	8	60.0	2	0	[]
9272	3	1	8	60.0	2	0	[]
9274	2	1	8	60.0	2	0	[]
9281	2	1	8	60.0	2	0	[]
9284	2	1	2	60.0	2	0	[]
9300	2	4	8	60.0	2	0	[]
9301	2	1	8	60.0	2	0	[]
9319	4	2	8	60.0	2	0	[]
9323	1	1	1	40.0	2	0	[]
9326	1	4	8	80.0	2	0	[]
9328	13	6	8	100.0	2	0	[]
9334	7	4	8	60.0	2	1	[(3574, 2)]
