app_id	nb_instances	core	memory	disk	intra_value	inter_degree	inter_aff
9	1	1	2	60.0	2	0	[]
21	4	1	7	60.0	2	0	[]
31	1	1	8	60.0	2	0	[]
34	12	1	8	60.0	2	0	[]
37	2	1	8	60.0	2	1	[(3263, 1)]
40	3	6	8	60.0	2	0	[]
47	1	1	1	60.0	2	0	[]
52	22	2	8	60.0	2	1	[(5862, 2)]
58	1	1	8	60.0	2	0	[]
63	4	1	8	60.0	2	0	[]
67	21	1	8	60.0	2	0	[]
79	1	1	8	60.0	2	0	[]
105	1	1	1	60.0	2	0	[]
116	3	1	8	60.0	2	0	[]
121	5	1	8	60.0	2	0	[]
129	2	3	8	60.0	2	0	[]
131	2	4	8	60.0	2	0	[]
136	1	1	8	60.0	2	0	[]
142	2	1	2	80.0	2	0	[]
148	2	1	8	60.0	2	0	[]
149	2	1	8	60.0	2	0	[]
158	2	1	8	60.0	2	0	[]
160	6	1	8	40.0	2	1	[(1356, 0)]
170	2	1	2	60.0	2	0	[]
193	2	1	8	80.0	2	0	[]
196	2	1	2	60.0	2	0	[]
215	2	1	8	60.0	2	0	[]
216	3	1	8	60.0	2	0	[]
251	1	1	8	60.0	2	0	[]
267	2	1	8	60.0	2	0	[]
268	3	4	8	60.0	2	0	[]
287	2	1	8	60.0	2	0	[]
298	2	1	8	60.0	2	0	[]
301	21	12	16	200.0	2	0	[]
307	11	1	8	60.0	2	0	[]
332	2	4	2	60.0	2	0	[]
336	2	1	8	60.0	2	0	[]
341	12	1	8	60.0	2	0	[]
345	1	1	2	60.0	2	0	[]
361	4	1	8	60.0	2	0	[]
371	5	1	8	60.0	2	0	[]
372	1	1	8	60.0	2	0	[]
395	1	4	8	60.0	2	0	[]
398	2	1	1	60.0	2	0	[]
408	1	4	8	80.0	2	0	[]
410	2	1	8	60.0	2	0	[]
418	5	2	8	60.0	2	0	[]
447	3	1	7	60.0	2	0	[]
452	3	3	8	80.0	2	1	[(47, 0)]
465	3	1	8	60.0	2	0	[]
466	1	6	8	60.0	2	0	[]
480	3	3	8	60.0	2	0	[]
493	6	1	8	60.0	2	0	[]
503	2	2	8	60.0	2	0	[]
510	2	1	16	60.0	2	0	[]
523	2	4	8	60.0	2	0	[]
531	2	1	8	60.0	2	0	[]
541	35	2	8	40.0	2	1	[(4400, 0)]
542	1	1	8	60.0	2	0	[]
544	22	6	8	60.0	2	2	[(1336, 0), (4025, 0)]
547	2	1	6	60.0	2	0	[]
548	2	2	8	60.0	2	0	[]
558	4	2	8	60.0	2	0	[]
562	33	2	8	60.0	2	0	[]
591	1	1	2	60.0	2	0	[]
595	3	5	8	60.0	2	0	[]
596	3	1	8	60.0	2	0	[]
631	1	1	8	60.0	2	0	[]
671	2	4	8	60.0	2	0	[]
696	2	6	8	60.0	2	0	[]
698	1	1	2	80.0	2	0	[]
720	8	1	8	60.0	2	0	[]
726	135	6	8	60.0	2	14	[(887, 1), (6566, 0), (6949, 0), (5256, 0), (7487, 1), (510, 2), (7895, 1), (8468, 1), (5559, 1), (3211, 0), (6692, 1), (5616, 2), (2819, 0), (1270, 0)]
738	8	1	8	60.0	2	0	[]
751	1	1	1	60.0	2	0	[]
763	3	1	8	60.0	2	0	[]
766	4	3	8	60.0	2	0	[]
777	2	1	8	60.0	2	0	[]
782	319	6	8	60.0	2	2	[(6269, 0), (541, 0)]
785	2	1	1	60.0	2	0	[]
804	5	4	8	60.0	2	1	[(5601, 2)]
805	1	1	8	60.0	2	0	[]
824	5	2	8	60.0	2	0	[]
833	3	1	8	60.0	2	0	[]
836	3	3	8	60.0	2	0	[]
841	1	1	2	60.0	2	0	[]
846	6	2	8	40.0	2	0	[]
875	2	1	8	60.0	2	5	[(2533, 0), (5307, 0), (3711, 0), (4646, 0), (8607, 0)]
880	7	1	8	60.0	2	0	[]
881	1	1	4	60.0	2	0	[]
886	2	2	8	60.0	2	0	[]
887	6	1	8	60.0	2	1	[(7998, 0)]
889	1	1	8	60.0	2	0	[]
895	14	3	8	60.0	2	0	[]
903	2	1	8	60.0	2	0	[]
925	1	1	8	60.0	2	0	[]
930	7	3	8	60.0	2	0	[]
932	1	1	8	100.0	2	0	[]
933	1	1	8	60.0	2	0	[]
938	50	1	8	80.0	2	0	[]
940	20	3	8	60.0	2	0	[]
964	1	1	8	60.0	2	0	[]
975	20	36	48	300.0	2	0	[]
977	2	1	3	60.0	2	0	[]
985	2	1	4	60.0	2	0	[]
992	1	4	8	60.0	2	0	[]
1018	2	1	1	60.0	2	0	[]
1027	2	1	8	60.0	2	0	[]
1030	1	2	8	60.0	2	0	[]
1031	6	2	2	60.0	2	0	[]
1040	28	3	8	60.0	2	1	[(3445, 1)]
1044	6	3	8	60.0	2	1	[(8935, 2)]
1049	4	1	8	60.0	2	0	[]
1053	1	1	2	60.0	2	0	[]
1067	50	4	8	40.0	2	2	[(8412, 0), (9095, 0)]
1079	1	1	1	60.0	2	0	[]
1097	34	5	8	60.0	2	0	[]
1101	9	11	16	60.0	2	0	[]
1117	2	1	8	60.0	2	0	[]
1127	5	1	8	60.0	2	0	[]
1149	1	1	8	60.0	2	0	[]
1157	2	1	8	60.0	2	0	[]
1166	2	1	8	60.0	2	0	[]
1183	1	4	8	60.0	2	0	[]
1186	1	1	5	60.0	2	0	[]
1188	2	2	8	60.0	2	0	[]
1189	3	1	8	60.0	2	0	[]
1192	2	1	8	60.0	2	0	[]
1197	6	2	8	60.0	2	0	[]
1213	4	1	8	60.0	2	0	[]
1217	2	1	6	60.0	2	0	[]
1225	1	4	8	60.0	2	0	[]
1229	12	2	8	60.0	2	0	[]
1231	1	1	8	60.0	2	0	[]
1233	4	1	8	60.0	2	0	[]
1237	5	1	8	60.0	2	0	[]
1240	2	6	8	60.0	2	0	[]
1260	2	1	15	200.0	2	0	[]
1270	3	1	3	60.0	2	0	[]
1271	2	4	8	60.0	2	0	[]
1290	1	1	8	60.0	2	0	[]
1294	8	1	8	60.0	2	0	[]
1298	27	4	8	60.0	2	0	[]
1312	6	2	8	60.0	2	0	[]
1332	1	1	1	60.0	2	0	[]
1336	2	4	8	60.0	2	0	[]
1342	3	2	8	60.0	2	0	[]
1356	104	6	8	40.0	2	5	[(3095, 0), (7333, 0), (4552, 0), (1546, 0), (2332, 0)]
1362	7	6	16	80.0	2	0	[]
1365	8	1	8	60.0	2	0	[]
1376	2	4	8	60.0	2	0	[]
1387	2	1	3	60.0	2	0	[]
1393	1	1	8	60.0	2	0	[]
1394	2	4	8	60.0	2	0	[]
1398	2	1	8	60.0	2	0	[]
1401	3	1	8	60.0	2	0	[]
1405	174	6	8	40.0	0	3	[(7333, 0), (7555, 0), (5740, 0)]
1419	3	2	2	100.0	2	0	[]
1427	6	2	8	60.0	2	0	[]
1432	2	1	8	60.0	2	0	[]
1436	1	1	8	60.0	2	0	[]
1446	1	1	8	60.0	2	0	[]
1449	10	1	8	60.0	2	0	[]
1451	1	1	1	60.0	2	0	[]
1456	4	1	8	60.0	2	0	[]
1473	3	1	16	60.0	2	0	[]
1478	2	1	8	60.0	2	0	[]
1484	2	1	8	60.0	2	0	[]
1490	1	1	8	60.0	2	0	[]
1491	4	2	8	60.0	2	0	[]
1493	1	4	8	60.0	2	0	[]
1519	1	1	8	60.0	2	0	[]
1546	3	2	8	60.0	2	0	[]
1547	4	1	8	60.0	2	0	[]
1566	1	1	8	60.0	2	0	[]
1567	1	4	8	60.0	2	0	[]
1580	1	1	8	60.0	2	0	[]
1587	21	8	32	60.0	0	1	[(782, 0)]
1592	43	3	8	40.0	2	0	[]
1601	1	2	16	60.0	2	0	[]
1611	1	1	6	60.0	2	0	[]
1620	1	1	8	60.0	2	0	[]
1635	52	2	8	60.0	2	1	[(6559, 0)]
1636	1	1	8	60.0	2	0	[]
1640	13	2	8	60.0	2	0	[]
1648	4	1	8	60.0	2	0	[]
1651	2	1	8	60.0	2	0	[]
1660	1	4	8	60.0	2	0	[]
1668	10	2	8	60.0	2	0	[]
1674	2	1	8	60.0	2	0	[]
1689	2	1	8	60.0	2	0	[]
1690	2	4	8	60.0	2	0	[]
1701	1	1	8	60.0	2	0	[]
1711	1	1	8	60.0	2	0	[]
1721	2	4	8	60.0	2	0	[]
1725	3	1	8	60.0	2	0	[]
1743	2	1	8	60.0	2	0	[]
1745	1	4	16	80.0	2	0	[]
1749	3	1	2	60.0	2	0	[]
1751	5	1	8	60.0	2	0	[]
1771	2	3	8	60.0	2	0	[]
1776	1	4	8	60.0	2	0	[]
1777	26	12	2	60.0	2	0	[]
1794	1	1	8	60.0	2	0	[]
1802	2	1	8	60.0	2	0	[]
1827	2	1	8	60.0	2	0	[]
1843	4	1	8	60.0	2	0	[]
1846	1	4	8	60.0	2	0	[]
1863	60	6	8	60.0	2	1	[(8571, 1)]
1869	3	1	8	60.0	2	0	[]
1888	2	2	8	60.0	2	0	[]
1889	12	1	8	60.0	2	0	[]
1906	3	1	8	80.0	2	0	[]
1909	2	1	1	60.0	2	0	[]
1910	1	1	2	60.0	2	0	[]
1922	2	4	8	60.0	2	0	[]
1931	2	4	8	60.0	2	0	[]
1932	2	1	8	60.0	2	0	[]
1949	17	3	8	60.0	2	0	[]
1959	5	2	8	60.0	2	0	[]
1962	10	1	8	60.0	2	0	[]
1963	1	4	8	60.0	2	0	[]
1979	4	2	8	60.0	2	0	[]
1997	16	1	8	60.0	2	0	[]
2020	3	2	8	60.0	2	0	[]
2043	1	1	8	60.0	2	0	[]
2044	2	1	8	60.0	2	0	[]
2048	24	5	8	60.0	2	4	[(895, 0), (3716, 0), (1298, 0), (1260, 0)]
2056	1	1	8	60.0	2	0	[]
2060	1	3	8	60.0	2	0	[]
2080	1	4	8	60.0	2	0	[]
2082	14	2	8	60.0	2	2	[(6269, 0), (4025, 0)]
2088	2	1	8	60.0	2	0	[]
2101	1	1	48	300.0	2	0	[]
2102	1	2	6	60.0	2	0	[]
2110	2	1	8	60.0	2	0	[]
2132	3	1	8	60.0	2	0	[]
2149	1	1	8	60.0	2	0	[]
2161	3	5	8	60.0	2	0	[]
2190	1	1	1	60.0	2	0	[]
2192	3	1	16	60.0	2	0	[]
2215	3	1	8	60.0	2	0	[]
2222	1	5	8	60.0	2	0	[]
2227	2	1	8	60.0	2	0	[]
2248	2	1	8	60.0	2	0	[]
2252	2	3	8	60.0	2	0	[]
2259	1	4	8	60.0	2	0	[]
2268	2	1	8	60.0	2	0	[]
2273	24	2	8	60.0	2	0	[]
2285	3	1	8	60.0	2	0	[]
2290	19	6	8	60.0	2	0	[]
2293	2	1	8	60.0	2	0	[]
2302	14	2	16	80.0	2	0	[]
2320	1	4	8	60.0	2	0	[]
2332	26	2	8	80.0	2	15	[(6269, 0), (3526, 0), (6243, 0), (5260, 0), (3395, 0), (3618, 0), (1587, 0), (9149, 0), (1067, 0), (1405, 0), (4552, 0), (1356, 0), (3048, 0), (5480, 0), (34, 0)]
2337	2	1	2	60.0	2	0	[]
2338	3	1	8	60.0	2	0	[]
2343	2	1	8	60.0	2	0	[]
2357	2	1	8	60.0	2	0	[]
2358	2	1	8	60.0	2	0	[]
2376	1	1	7	60.0	2	0	[]
2383	1	1	8	60.0	2	0	[]
2393	1	1	8	60.0	2	0	[]
2397	1	1	1	60.0	2	0	[]
2404	1	2	8	60.0	2	0	[]
2410	1	4	8	60.0	2	0	[]
2415	2	1	8	60.0	2	0	[]
2418	2	1	8	60.0	2	0	[]
2434	4	4	8	60.0	2	0	[]
2435	4	1	1	60.0	2	0	[]
2443	4	1	8	60.0	2	0	[]
2450	4	1	8	60.0	2	0	[]
2467	6	2	8	60.0	2	0	[]
2521	3	4	8	60.0	2	0	[]
2524	2	5	8	60.0	2	0	[]
2533	2	1	8	60.0	2	5	[(5307, 0), (875, 0), (3711, 0), (4646, 0), (8607, 0)]
2547	2	4	8	60.0	2	0	[]
2550	2	1	2	60.0	2	0	[]
2552	2	1	8	60.0	2	0	[]
2555	2	1	16	80.0	2	0	[]
2562	2	4	8	60.0	2	0	[]
2564	2	2	2	60.0	2	0	[]
2575	2	1	8	60.0	2	0	[]
2576	2	1	8	60.0	2	0	[]
2581	2	1	4	60.0	2	0	[]
2587	6	3	8	60.0	2	1	[(4858, 1)]
2597	2	2	8	60.0	2	0	[]
2605	1	1	8	60.0	2	0	[]
2606	2	2	2	60.0	2	0	[]
2611	3	1	8	60.0	2	0	[]
2615	1	1	2	60.0	2	0	[]
2620	5	5	16	60.0	2	0	[]
2624	1	1	2	60.0	2	0	[]
2640	1	1	2	60.0	2	0	[]
2655	2	1	8	60.0	2	0	[]
2688	1	7	32	60.0	2	8	[(7045, 2), (7217, 2), (5363, 2), (4550, 1), (7555, 2), (4630, 2), (6082, 1), (4710, 2)]
2689	1	1	2	60.0	2	0	[]
2693	9	1	8	60.0	2	0	[]
2698	2	1	16	60.0	2	0	[]
2709	4	3	8	60.0	2	0	[]
2733	1	1	8	60.0	2	0	[]
2747	2	1	8	60.0	2	0	[]
2753	1	1	8	60.0	2	0	[]
2772	10	12	2	60.0	2	0	[]
2777	4	1	8	60.0	2	1	[(1863, 0)]
2786	2	4	8	60.0	2	0	[]
2803	1	4	8	60.0	2	0	[]
2812	1	1	3	60.0	2	0	[]
2815	60	1	8	60.0	2	0	[]
2819	4	2	8	60.0	2	0	[]
2827	2	1	8	60.0	2	0	[]
2833	2	1	8	60.0	2	0	[]
2847	5	1	8	60.0	2	0	[]
2859	2	2	16	60.0	2	0	[]
2873	2	1	8	60.0	2	0	[]
2877	3	1	1	60.0	2	0	[]
2881	1	1	2	60.0	2	0	[]
2882	1	4	8	80.0	2	0	[]
2888	2	1	2	60.0	2	0	[]
2921	2	6	8	60.0	2	0	[]
2928	14	1	8	80.0	2	0	[]
2933	1	3	8	60.0	2	0	[]
2935	3	1	8	60.0	2	0	[]
2937	3	4	8	60.0	2	0	[]
2941	1	1	8	60.0	2	0	[]
2978	12	2	8	60.0	2	0	[]
2989	2	2	8	60.0	2	0	[]
3013	2	1	2	60.0	2	0	[]
3023	6	4	8	60.0	2	0	[]
3025	1	1	8	60.0	2	0	[]
3048	62	12	16	80.0	2	0	[]
3049	2	2	8	60.0	2	0	[]
3056	1	4	8	60.0	2	0	[]
3069	1	4	8	60.0	2	0	[]
3070	19	5	2	100.0	0	0	[]
3076	5	1	2	60.0	2	0	[]
3087	18	1	8	60.0	2	0	[]
3095	15	3	8	60.0	2	0	[]
3105	13	4	8	40.0	2	0	[]
3142	1	1	2	60.0	2	0	[]
3150	1	1	8	60.0	2	0	[]
3152	3	1	8	60.0	2	0	[]
3154	1	1	8	60.0	2	0	[]
3158	28	1	8	60.0	2	0	[]
3168	10	2	8	60.0	2	3	[(5011, 0), (1473, 0), (8281, 0)]
3184	1	1	8	60.0	2	0	[]
3189	5	1	8	60.0	2	0	[]
3211	4	3	8	60.0	2	0	[]
3213	162	4	8	60.0	2	11	[(4937, 1), (4503, 1), (7487, 2), (6269, 0), (8468, 2), (6010, 0), (992, 0), (3749, 0), (8936, 1), (6566, 1), (7895, 0)]
3218	3	1	8	60.0	2	0	[]
3221	2	1	6	60.0	2	0	[]
3231	2	1	8	60.0	2	0	[]
3232	1	1	8	60.0	2	0	[]
3239	4	1	8	60.0	2	0	[]
3252	47	1	8	60.0	2	2	[(2467, 1), (149, 1)]
3260	15	4	8	60.0	2	2	[(5220, 0), (4996, 2)]
3263	3	3	21	80.0	2	0	[]
3287	2	1	2	60.0	2	0	[]
3292	8	3	8	40.0	2	0	[]
3294	1	1	2	60.0	2	0	[]
3322	2	2	8	60.0	2	0	[]
3323	2	1	8	60.0	2	0	[]
3324	1	6	16	200.0	2	0	[]
3330	1	1	8	60.0	2	0	[]
3341	2	1	8	60.0	2	0	[]
3346	4	1	8	60.0	2	0	[]
3355	75	12	16	60.0	1	0	[]
3371	6	1	8	200.0	2	0	[]
3374	4	1	8	60.0	2	0	[]
3384	2	1	6	60.0	2	0	[]
3385	6	3	8	60.0	2	0	[]
3393	1	1	1	60.0	2	0	[]
3395	4	1	8	60.0	2	0	[]
3396	1	1	5	60.0	2	0	[]
3407	2	1	2	60.0	2	0	[]
3409	2	1	8	40.0	2	0	[]
3416	3	1	8	60.0	2	0	[]
3422	4	1	8	60.0	2	0	[]
3429	3	4	8	60.0	2	0	[]
3445	3	1	8	60.0	2	0	[]
3459	5	1	8	60.0	2	0	[]
3461	2	1	8	60.0	2	0	[]
3476	4	1	8	60.0	2	1	[(7217, 1)]
3481	12	4	8	60.0	2	0	[]
3484	5	1	16	60.0	2	0	[]
3485	3	1	2	60.0	2	0	[]
3489	2	1	8	60.0	2	0	[]
3496	1	1	4	60.0	2	0	[]
3504	1	1	5	60.0	2	0	[]
3526	63	6	8	60.0	2	0	[]
3541	2	1	8	60.0	2	0	[]
3556	4	1	8	60.0	2	0	[]
3561	1	1	5	80.0	2	0	[]
3582	2	1	2	60.0	2	0	[]
3584	2	1	8	60.0	2	0	[]
3585	7	2	8	60.0	2	0	[]
3618	2	1	8	60.0	2	0	[]
3627	4	1	8	60.0	2	0	[]
3629	4	1	8	60.0	2	0	[]
3653	3	2	8	60.0	2	0	[]
3659	6	3	8	60.0	2	0	[]
3668	3	1	8	60.0	2	0	[]
3691	2	5	8	60.0	2	0	[]
3694	2	1	8	60.0	2	0	[]
3699	2	1	2	60.0	2	0	[]
3711	2	3	3	60.0	2	0	[]
3716	7	2	16	80.0	2	0	[]
3722	9	5	16	60.0	2	0	[]
3727	2	1	8	60.0	2	0	[]
3733	1	2	8	60.0	2	0	[]
3734	1	1	8	60.0	2	0	[]
3737	2	1	8	60.0	2	0	[]
3749	1	1	8	60.0	2	0	[]
3751	6	1	8	60.0	2	0	[]
3754	2	1	8	60.0	2	0	[]
3774	8	2	8	60.0	2	0	[]
3786	4	2	8	60.0	2	0	[]
3794	2	1	8	60.0	2	0	[]
3795	2	1	2	60.0	2	0	[]
3813	10	6	8	250.0	2	0	[]
3822	1	1	8	60.0	2	0	[]
3845	20	2	16	60.0	2	1	[(9095, 1)]
3856	2	2	8	60.0	2	0	[]
3874	5	1	8	60.0	2	0	[]
3875	10	2	8	60.0	2	0	[]
3876	4	4	4	60.0	2	0	[]
3881	1	4	8	60.0	2	0	[]
3899	29	4	8	60.0	2	0	[]
3904	3	1	8	60.0	2	0	[]
3914	16	6	8	60.0	2	1	[(7217, 2)]
3916	3	4	8	60.0	2	0	[]
3917	2	1	8	60.0	2	0	[]
3918	4	3	8	60.0	2	0	[]
3933	2	1	8	60.0	2	0	[]
3954	3	1	8	60.0	2	0	[]
3961	1	4	8	60.0	2	0	[]
3962	1	1	1	60.0	2	0	[]
3985	3	1	8	60.0	2	0	[]
3990	1	1	3	60.0	2	0	[]
3991	2	1	3	60.0	2	0	[]
3994	211	6	8	60.0	2	0	[]
3996	1	1	8	60.0	2	0	[]
4002	4	2	8	80.0	2	1	[(7907, 0)]
4015	2	1	8	60.0	2	0	[]
4021	1	4	8	60.0	2	0	[]
4025	21	3	16	60.0	2	0	[]
4040	1	1	7	60.0	2	0	[]
4049	2	2	8	60.0	2	0	[]
4061	2	1	7	60.0	2	0	[]
4075	7	2	8	60.0	2	0	[]
4077	4	2	8	60.0	2	0	[]
4102	6	2	8	60.0	2	0	[]
4117	2	1	8	60.0	2	0	[]
4118	4	1	8	80.0	2	0	[]
4119	2	4	8	60.0	2	0	[]
4128	1	1	8	60.0	2	0	[]
4138	2	1	8	60.0	2	0	[]
4148	1	1	8	60.0	2	0	[]
4149	1	8	16	100.0	1	0	[]
4174	2	1	2	60.0	2	0	[]
4185	1	1	8	60.0	2	0	[]
4189	2	2	8	60.0	2	0	[]
4196	1	4	8	60.0	2	0	[]
4197	2	4	8	60.0	2	0	[]
4203	1	7	60	60.0	0	0	[]
4212	4	1	8	60.0	2	0	[]
4222	3	2	8	60.0	2	0	[]
4237	1	1	2	60.0	2	0	[]
4240	5	1	8	60.0	2	0	[]
4263	3	3	8	60.0	2	0	[]
4276	2	2	8	60.0	2	0	[]
4310	1	1	8	60.0	2	0	[]
4322	3	4	8	60.0	2	0	[]
4323	2	1	8	60.0	2	0	[]
4329	1	1	8	60.0	2	0	[]
4334	1	4	8	60.0	2	0	[]
4335	5	5	8	60.0	2	0	[]
4375	3	1	8	60.0	2	0	[]
4377	2	1	2	60.0	2	0	[]
4391	6	1	8	60.0	2	0	[]
4398	15	6	8	60.0	2	0	[]
4399	1	1	8	60.0	2	0	[]
4400	4	2	8	60.0	2	0	[]
4405	10	12	16	60.0	2	0	[]
4418	7	6	8	60.0	2	0	[]
4420	4	6	8	60.0	2	0	[]
4422	1	1	8	60.0	2	0	[]
4431	1	1	8	80.0	2	0	[]
4435	4	1	8	60.0	2	0	[]
4439	1	1	8	60.0	2	0	[]
4447	1	1	2	60.0	2	0	[]
4449	11	1	8	200.0	2	0	[]
4461	1	4	8	60.0	2	0	[]
4479	2	1	8	60.0	2	0	[]
4480	4	1	8	60.0	2	0	[]
4488	2	1	2	60.0	2	0	[]
4495	15	1	2	60.0	2	0	[]
4497	1	1	2	60.0	2	0	[]
4503	6	1	8	60.0	2	0	[]
4507	2	1	2	60.0	2	0	[]
4519	1	1	4	60.0	2	0	[]
4531	99	4	8	60.0	2	1	[(4503, 2)]
4541	2	3	8	60.0	2	0	[]
4550	1	8	16	60.0	2	7	[(7045, 2), (7217, 2), (5363, 2), (2688, 3), (4630, 3), (7555, 2), (4710, 2)]
4552	14	6	8	60.0	2	0	[]
4554	2	1	1	60.0	2	0	[]
4570	15	4	8	60.0	2	0	[]
4585	1	1	8	60.0	2	0	[]
4587	1	4	8	60.0	2	0	[]
4596	2	1	2	60.0	2	0	[]
4622	1	1	1	60.0	2	0	[]
4624	2	1	8	60.0	2	0	[]
4625	1	1	8	60.0	2	0	[]
4626	2	3	8	60.0	2	0	[]
4630	1	3	32	100.0	2	8	[(6082, 1), (7045, 2), (7217, 2), (5363, 2), (2688, 2), (4550, 1), (7555, 2), (4710, 2)]
4633	4	1	8	80.0	2	0	[]
4636	2	1	8	60.0	2	0	[]
4641	1	1	2	60.0	2	0	[]
4643	1	1	8	60.0	2	0	[]
4646	3	3	8	60.0	2	5	[(2533, 0), (5307, 0), (875, 0), (3711, 0), (8607, 0)]
4653	19	6	8	60.0	2	1	[(8651, 2)]
4663	74	12	2	80.0	2	0	[]
4672	1	3	8	60.0	2	0	[]
4678	15	6	3	60.0	2	0	[]
4679	1	1	6	60.0	2	0	[]
4682	2	1	8	60.0	2	0	[]
4685	2	4	8	60.0	2	0	[]
4689	3	3	8	60.0	2	0	[]
4696	2	1	2	60.0	2	0	[]
4710	1	3	16	60.0	2	4	[(5363, 3), (2688, 2), (4630, 2), (7555, 3)]
4711	3	2	8	60.0	2	0	[]
4722	1	1	8	60.0	2	0	[]
4734	6	3	8	40.0	2	0	[]
4741	7	1	1	60.0	2	11	[(7461, 0), (2587, 0), (4400, 0), (7797, 0), (1097, 0), (6545, 0), (418, 2), (1040, 0), (8055, 0), (5295, 0), (1484, 0)]
4747	1	4	8	100.0	2	0	[]
4756	1	1	8	60.0	2	0	[]
4757	1	2	3	60.0	2	0	[]
4758	6	6	16	60.0	2	0	[]
4759	2	1	8	60.0	2	0	[]
4796	2	1	8	60.0	2	0	[]
4802	4	1	8	60.0	2	0	[]
4812	6	2	8	60.0	2	0	[]
4815	44	1	8	60.0	2	0	[]
4858	11	12	2	60.0	2	3	[(726, 0), (2587, 0), (562, 0)]
4877	21	1	8	60.0	2	1	[(1356, 0)]
4885	2	1	8	60.0	2	0	[]
4887	1	1	7	60.0	2	0	[]
4892	2	1	2	60.0	2	0	[]
4898	2	1	8	60.0	2	0	[]
4902	1	1	8	60.0	2	0	[]
4904	2	1	8	60.0	2	0	[]
4905	1	1	2	60.0	2	0	[]
4908	4	2	8	100.0	2	0	[]
4909	18	2	8	60.0	2	1	[(1711, 1)]
4914	1	1	7	60.0	2	0	[]
4937	1	1	2	60.0	2	0	[]
4942	2	1	8	60.0	2	0	[]
4944	2	2	8	60.0	2	0	[]
4947	2	1	8	60.0	2	0	[]
4948	3	4	8	60.0	2	0	[]
4964	1	1	8	60.0	2	0	[]
4966	3	4	8	60.0	2	0	[]
4978	12	6	8	60.0	2	0	[]
4996	100	6	16	100.0	2	1	[(3260, 0)]
5003	3	1	8	1024.0	2	0	[]
5011	16	3	8	60.0	2	1	[(1451, 0)]
5031	2	1	8	60.0	2	0	[]
5045	2	1	8	60.0	2	0	[]
5046	3	1	8	60.0	2	0	[]
5051	3	2	8	60.0	2	0	[]
5052	2	4	8	60.0	2	0	[]
5058	1	1	8	60.0	2	0	[]
5063	58	4	5	200.0	2	2	[(6269, 0), (1067, 0)]
5073	2	1	2	60.0	2	0	[]
5075	1	1	2	60.0	2	0	[]
5077	2	1	8	60.0	2	0	[]
5088	1	1	2	60.0	2	0	[]
5108	1	1	2	60.0	2	0	[]
5109	25	6	8	60.0	2	0	[]
5120	1	1	8	60.0	2	0	[]
5124	2	1	8	60.0	2	0	[]
5185	3	1	8	60.0	2	0	[]
5198	1	1	8	60.0	2	0	[]
5220	72	3	8	60.0	2	0	[]
5222	30	6	8	60.0	2	0	[]
5223	4	5	16	60.0	2	0	[]
5230	1	1	8	60.0	2	0	[]
5231	2	1	8	60.0	2	0	[]
5234	2	2	8	60.0	2	0	[]
5237	10	6	8	60.0	2	0	[]
5247	2	2	8	60.0	2	0	[]
5251	11	6	8	60.0	2	0	[]
5256	18	5	8	60.0	2	0	[]
5260	5	3	8	60.0	2	0	[]
5263	2	1	8	60.0	2	0	[]
5272	3	1	8	100.0	2	0	[]
5295	20	2	8	60.0	2	0	[]
5307	4	1	8	60.0	2	5	[(2533, 0), (875, 0), (3711, 0), (4646, 0), (8607, 0)]
5309	4	1	8	60.0	2	0	[]
5312	2	4	8	60.0	2	0	[]
5335	2	10	16	200.0	2	0	[]
5336	19	1	8	60.0	2	2	[(3355, 2), (6703, 2)]
5343	1	4	8	60.0	2	0	[]
5347	3	2	16	60.0	2	0	[]
5363	3	3	16	60.0	1	8	[(6082, 1), (7045, 2), (8535, 2), (7217, 2), (2688, 2), (4550, 1), (4630, 2), (4710, 2)]
5400	2	1	8	60.0	2	0	[]
5404	2	4	8	60.0	2	0	[]
5415	2	1	8	40.0	2	0	[]
5421	4	1	8	60.0	2	0	[]
5431	1	1	8	60.0	2	0	[]
5436	40	6	8	60.0	2	0	[]
5455	1	1	6	60.0	2	0	[]
5464	2	3	8	60.0	2	0	[]
5468	6	6	2	60.0	2	0	[]
5476	20	5	8	60.0	2	0	[]
5480	14	8	2	100.0	2	0	[]
5488	1	1	2	60.0	2	0	[]
5493	9	2	8	60.0	2	0	[]
5494	1	4	8	60.0	2	0	[]
5501	2	1	8	60.0	2	0	[]
5519	4	3	8	60.0	2	0	[]
5546	8	1	8	60.0	2	0	[]
5559	2	1	8	60.0	2	0	[]
5578	2	4	8	60.0	2	0	[]
5582	3	1	8	60.0	2	0	[]
5594	1	1	8	60.0	2	0	[]
5601	3	1	8	60.0	2	0	[]
5602	12	2	2	60.0	2	0	[]
5616	2	1	8	60.0	2	0	[]
5624	2	1	8	60.0	2	0	[]
5626	3	1	8	60.0	2	0	[]
5631	3	1	8	60.0	2	0	[]
5636	2	2	8	60.0	2	0	[]
5647	2	1	8	60.0	2	0	[]
5653	2	1	8	60.0	2	0	[]
5654	1	1	8	60.0	2	0	[]
5665	7	6	8	60.0	2	0	[]
5682	2	1	8	60.0	2	0	[]
5692	2	1	8	60.0	2	0	[]
5696	3	6	8	60.0	2	4	[(3813, 1), (4636, 0), (3213, 1), (6421, 2)]
5698	8	12	2	60.0	2	0	[]
5706	1	4	16	80.0	2	0	[]
5724	5	6	8	60.0	2	0	[]
5728	1	4	8	60.0	2	0	[]
5740	29	2	8	60.0	0	4	[(2082, 0), (9095, 0), (1592, 0), (846, 0)]
5751	5	1	8	60.0	2	0	[]
5753	2	1	8	60.0	2	0	[]
5817	2	1	8	60.0	2	0	[]
5846	2	1	8	60.0	2	0	[]
5851	2	1	8	60.0	2	0	[]
5862	6	1	8	60.0	2	0	[]
5870	4	3	8	60.0	2	0	[]
5878	4	1	8	80.0	2	0	[]
5888	4	1	1	60.0	2	0	[]
5914	23	12	2	60.0	2	1	[(6269, 0)]
5952	2	1	8	60.0	2	0	[]
5954	10	1	8	60.0	2	1	[(3749, 0)]
5982	2	1	2	60.0	2	0	[]
5992	1	1	8	100.0	2	0	[]
5996	4	1	8	60.0	2	0	[]
5997	10	1	8	60.0	2	0	[]
6000	1	4	8	60.0	2	0	[]
6008	2	1	8	60.0	2	0	[]
6010	1	3	8	60.0	2	0	[]
6017	2	1	8	60.0	2	0	[]
6027	1	1	16	60.0	2	0	[]
6038	6	6	8	60.0	2	0	[]
6043	1	1	1	60.0	2	0	[]
6047	22	1	8	40.0	2	2	[(1356, 0), (5363, 0)]
6051	19	6	8	60.0	2	0	[]
6065	2	1	2	1000.0	2	0	[]
6074	14	5	2	60.0	2	0	[]
6078	14	1	8	60.0	2	0	[]
6079	2	4	8	60.0	2	0	[]
6082	1	5	16	60.0	2	7	[(7045, 2), (7217, 2), (5363, 2), (2688, 3), (4630, 3), (7555, 2), (4710, 2)]
6090	2	1	1	60.0	2	0	[]
6116	1	1	6	60.0	2	0	[]
6120	1	1	8	60.0	2	0	[]
6132	4	2	8	60.0	2	0	[]
6136	4	1	8	60.0	2	0	[]
6146	2	1	8	60.0	2	0	[]
6155	6	2	8	60.0	2	0	[]
6160	5	2	8	60.0	2	0	[]
6174	2	4	8	60.0	2	0	[]
6175	1	4	8	60.0	2	1	[(5011, 2)]
6187	3	1	8	60.0	2	0	[]
6214	1	1	1	60.0	2	0	[]
6231	4	4	8	60.0	2	0	[]
6243	2	1	8	60.0	2	0	[]
6245	1	1	7	60.0	2	0	[]
6251	14	8	16	200.0	2	0	[]
6269	174	10	16	80.0	2	6	[(7333, 0), (3409, 0), (7217, 2), (9095, 2), (1356, 0), (6047, 1)]
6273	1	1	8	60.0	2	0	[]
6284	1	2	8	60.0	2	0	[]
6286	1	1	8	60.0	2	0	[]
6287	1	1	8	60.0	2	0	[]
6306	8	1	8	60.0	2	0	[]
6330	1	4	8	60.0	2	0	[]
6364	5	1	8	60.0	2	0	[]
6367	2	1	8	60.0	2	0	[]
6373	2	1	8	60.0	2	0	[]
6375	10	3	8	100.0	2	0	[]
6398	6	4	8	60.0	2	0	[]
6411	2	1	8	60.0	2	0	[]
6421	188	12	16	100.0	2	0	[]
6437	1	1	8	60.0	2	0	[]
6447	2	1	7	60.0	2	0	[]
6459	1	1	8	60.0	2	0	[]
6462	1	1	4	60.0	2	0	[]
6467	1	4	8	40.0	0	0	[]
6470	2	2	8	60.0	2	0	[]
6502	1	4	8	60.0	2	0	[]
6508	2	2	8	60.0	2	2	[(1237, 0), (216, 0)]
6521	3	1	8	60.0	2	0	[]
6526	2	4	8	60.0	2	0	[]
6545	4	2	8	60.0	2	0	[]
6553	4	1	8	60.0	2	0	[]
6559	2	5	8	60.0	2	0	[]
6566	1	1	1	60.0	2	0	[]
6591	2	1	16	80.0	2	0	[]
6620	1	4	8	60.0	2	0	[]
6624	2	1	8	60.0	2	0	[]
6634	2	1	2	60.0	2	0	[]
6640	4	1	6	60.0	2	0	[]
6652	2	1	5	60.0	2	0	[]
6655	1	4	8	60.0	2	0	[]
6656	6	2	8	60.0	2	0	[]
6673	1	1	1	60.0	2	0	[]
6679	2	1	2	60.0	2	0	[]
6690	2	4	16	80.0	2	0	[]
6691	1	1	2	60.0	2	0	[]
6692	28	12	16	100.0	2	0	[]
6697	1	8	16	80.0	2	0	[]
6700	3	1	8	60.0	2	0	[]
6703	6	1	8	80.0	2	0	[]
6704	2	1	8	60.0	2	0	[]
6713	1	1	8	60.0	2	0	[]
6778	1	4	8	60.0	2	0	[]
6798	1	1	8	60.0	2	0	[]
6806	5	1	16	60.0	2	0	[]
6815	1	1	8	60.0	2	0	[]
6820	6	2	32	80.0	2	0	[]
6830	1	1	8	40.0	2	0	[]
6844	2	1	2	60.0	2	0	[]
6850	2	1	8	60.0	2	0	[]
6851	2	1	8	60.0	2	0	[]
6862	1	1	2	60.0	2	0	[]
6863	1	1	8	60.0	2	0	[]
6876	1	1	1	60.0	2	0	[]
6881	3	1	8	60.0	2	0	[]
6929	2	1	8	60.0	2	0	[]
6944	2	1	8	60.0	2	0	[]
6949	1	1	3	60.0	2	0	[]
6952	1	1	8	60.0	2	0	[]
6974	2	1	8	60.0	2	0	[]
6979	1	1	8	60.0	2	0	[]
6981	2	1	7	60.0	2	0	[]
7013	6	6	8	60.0	2	0	[]
7016	3	1	8	60.0	2	0	[]
7031	1	1	1	60.0	2	0	[]
7044	2	1	8	60.0	2	0	[]
7045	2	2	16	60.0	2	4	[(5363, 3), (2688, 2), (4630, 2), (7555, 3)]
7046	2	1	8	60.0	2	0	[]
7049	1	1	8	60.0	2	0	[]
7053	1	6	12	100.0	2	0	[]
7054	2	1	8	60.0	2	0	[]
7070	16	3	8	60.0	2	0	[]
7081	2	1	8	60.0	2	0	[]
7089	1	1	2	60.0	2	0	[]
7090	3	1	8	60.0	2	0	[]
7103	2	1	8	60.0	2	0	[]
7112	3	4	2	60.0	2	0	[]
7127	2	1	8	60.0	2	0	[]
7133	2	1	8	60.0	2	0	[]
7148	1	1	8	60.0	2	0	[]
7150	2	6	8	60.0	2	0	[]
7157	3	1	8	60.0	2	0	[]
7190	1	8	8	60.0	2	0	[]
7211	1	2	8	60.0	2	0	[]
7217	85	12	16	60.0	2	8	[(8535, 0), (5363, 3), (7734, 0), (1356, 0), (2688, 2), (1229, 0), (4630, 2), (7555, 3)]
7227	1	4	8	60.0	2	0	[]
7247	2	1	8	60.0	2	0	[]
7256	11	4	8	60.0	2	0	[]
7260	2	1	2	60.0	2	0	[]
7276	2	1	8	60.0	2	0	[]
7277	2	1	2	60.0	2	0	[]
7284	1	4	8	60.0	2	0	[]
7295	2	1	8	60.0	2	0	[]
7307	1	1	1	60.0	2	0	[]
7333	12	2	8	60.0	2	5	[(1777, 2), (7217, 0), (7922, 0), (5740, 2), (4996, 2)]
7335	1	2	8	60.0	2	0	[]
7347	1	1	8	60.0	2	0	[]
7359	1	8	8	60.0	2	0	[]
7373	2	1	8	60.0	2	0	[]
7381	2	1	8	60.0	2	0	[]
7393	2	4	8	60.0	2	0	[]
7408	8	1	8	60.0	2	0	[]
7460	2	1	8	60.0	2	0	[]
7461	3	2	8	60.0	2	0	[]
7485	1	4	8	60.0	2	0	[]
7487	1	1	2	60.0	2	0	[]
7506	7	1	8	60.0	2	0	[]
7517	1	1	8	60.0	2	0	[]
7520	4	11	16	200.0	2	0	[]
7530	2	1	8	60.0	2	0	[]
7542	2	1	8	60.0	2	0	[]
7555	1	6	16	60.0	1	8	[(6082, 1), (7045, 2), (8535, 2), (7217, 2), (2688, 2), (4550, 1), (4630, 2), (4710, 2)]
7558	2	1	8	60.0	2	0	[]
7567	1	1	8	60.0	2	0	[]
7569	11	3	8	60.0	2	0	[]
7593	5	1	8	60.0	2	0	[]
7595	1	1	8	60.0	2	0	[]
7609	1	2	4	60.0	2	0	[]
7627	1	1	8	60.0	2	1	[(1356, 0)]
7628	1	1	8	60.0	2	0	[]
7638	2	1	8	60.0	2	0	[]
7655	3	1	8	60.0	2	0	[]
7666	1	1	1	60.0	2	0	[]
7667	2	1	5	60.0	2	0	[]
7670	2	1	8	60.0	2	0	[]
7671	2	2	8	60.0	2	3	[(1547, 0), (5222, 0), (3722, 0)]
7674	2	1	1	60.0	2	0	[]
7679	4	3	8	60.0	2	0	[]
7690	2	1	8	60.0	2	0	[]
7694	1	8	16	100.0	2	0	[]
7695	2	2	8	60.0	2	0	[]
7697	3	2	8	60.0	2	0	[]
7705	1	1	8	60.0	2	0	[]
7725	2	1	8	60.0	2	0	[]
7734	7	2	8	40.0	0	2	[(7217, 0), (6269, 0)]
7789	2	1	8	60.0	2	0	[]
7795	3	5	8	60.0	2	0	[]
7797	10	2	8	60.0	2	0	[]
7805	25	2	8	60.0	2	2	[(5011, 1), (6421, 0)]
7824	5	1	8	60.0	2	0	[]
7830	3	1	8	60.0	2	0	[]
7836	4	2	8	60.0	2	0	[]
7839	2	4	8	60.0	2	0	[]
7841	2	1	8	60.0	2	0	[]
7845	6	1	8	60.0	2	0	[]
7853	22	1	8	60.0	2	2	[(9283, 0), (8938, 0)]
7858	2	2	8	60.0	2	0	[]
7861	5	1	8	60.0	2	0	[]
7885	3	1	8	60.0	2	0	[]
7888	1	1	8	60.0	2	0	[]
7895	2	2	2	60.0	2	0	[]
7898	1	1	8	60.0	2	0	[]
7903	1	1	4	60.0	2	0	[]
7907	2	2	8	60.0	2	0	[]
7922	2	1	2	60.0	2	0	[]
7925	1	2	8	40.0	2	0	[]
7962	3	1	8	60.0	2	0	[]
7990	4	1	8	60.0	2	0	[]
7998	81	1	8	60.0	0	5	[(7260, 2), (3653, 0), (5120, 0), (596, 1), (4420, 0)]
8028	26	5	8	60.0	2	0	[]
8029	1	1	3	60.0	2	0	[]
8048	2	1	8	60.0	2	0	[]
8055	2	2	8	60.0	2	0	[]
8063	2	1	8	60.0	2	0	[]
8071	1	1	2	60.0	2	0	[]
8088	2	1	8	60.0	2	0	[]
8096	1	4	8	60.0	2	0	[]
8097	2	2	8	60.0	2	0	[]
8117	2	2	8	60.0	2	0	[]
8132	10	5	8	60.0	2	0	[]
8137	4	3	8	60.0	2	0	[]
8142	6	1	8	60.0	2	0	[]
8153	3	1	8	60.0	2	0	[]
8160	1	4	8	60.0	2	0	[]
8161	2	1	8	60.0	2	0	[]
8190	2	2	8	60.0	2	0	[]
8196	2	1	8	60.0	2	0	[]
8204	1	4	8	60.0	2	0	[]
8247	2	1	8	60.0	2	0	[]
8251	3	5	8	60.0	2	1	[(4541, 2)]
8253	12	2	8	60.0	2	0	[]
8257	2	1	8	60.0	2	0	[]
8268	2	4	8	60.0	2	0	[]
8281	6	1	8	60.0	2	0	[]
8288	1	1	1	100.0	2	0	[]
8302	1	1	2	60.0	2	0	[]
8314	2	1	8	60.0	2	0	[]
8337	3	2	8	60.0	2	0	[]
8357	3	1	8	60.0	2	0	[]
8360	25	3	8	60.0	2	0	[]
8376	2	1	8	60.0	2	0	[]
8388	2	1	8	60.0	2	0	[]
8394	2	1	5	60.0	2	0	[]
8395	2	1	8	60.0	2	0	[]
8399	1	1	8	60.0	2	0	[]
8406	2	1	8	60.0	2	0	[]
8409	1	1	8	60.0	2	0	[]
8412	31	3	8	60.0	2	3	[(1356, 0), (7789, 1), (1592, 0)]
8417	14	1	8	60.0	2	0	[]
8424	2	1	8	60.0	2	0	[]
8438	5	3	8	60.0	2	0	[]
8442	1	1	8	60.0	2	0	[]
8445	2	1	8	60.0	2	0	[]
8448	1	1	8	60.0	2	0	[]
8449	1	2	8	60.0	2	0	[]
8459	1	1	1	60.0	2	0	[]
8462	2	1	6	60.0	2	0	[]
8468	1	1	8	60.0	2	0	[]
8472	2	4	8	60.0	2	0	[]
8475	14	2	8	60.0	2	0	[]
8482	7	3	8	60.0	2	0	[]
8496	3	1	8	60.0	2	0	[]
8519	2	2	8	60.0	2	0	[]
8520	6	2	8	60.0	2	0	[]
8535	1	1	16	60.0	1	6	[(6082, 1), (5363, 2), (2688, 1), (4550, 1), (4630, 1), (7555, 2)]
8542	3	2	8	60.0	2	0	[]
8548	2	1	8	60.0	2	0	[]
8557	1	1	8	60.0	2	0	[]
8566	5	3	8	60.0	2	0	[]
8567	2	1	7	60.0	2	0	[]
8571	4	1	8	60.0	2	0	[]
8584	2	1	8	60.0	2	0	[]
8585	2	1	4	60.0	2	0	[]
8588	5	23	32	80.0	2	0	[]
8595	1	1	8	60.0	2	0	[]
8597	1	1	8	60.0	2	0	[]
8607	2	1	2	60.0	2	0	[]
8622	15	1	8	60.0	2	0	[]
8625	2	1	8	60.0	2	0	[]
8632	1	1	8	60.0	2	0	[]
8643	52	5	8	60.0	2	3	[(4479, 2), (9283, 0), (5851, 0)]
8651	2	1	8	60.0	2	0	[]
8652	2	4	15	100.0	2	0	[]
8654	1	1	8	60.0	2	0	[]
8665	1	1	3	60.0	2	0	[]
8681	2	1	8	60.0	2	0	[]
8688	1	1	8	60.0	2	0	[]
8689	1	1	8	60.0	2	0	[]
8709	5	1	8	60.0	2	0	[]
8724	2	1	8	60.0	2	0	[]
8752	1	1	8	60.0	2	0	[]
8763	1	1	8	40.0	2	0	[]
8766	6	6	8	60.0	2	0	[]
8788	2	1	8	60.0	2	0	[]
8789	7	4	8	60.0	2	0	[]
8806	2	1	8	60.0	2	0	[]
8845	2	4	8	60.0	2	0	[]
8849	23	3	8	60.0	2	1	[(8412, 2)]
8854	2	1	8	60.0	2	0	[]
8868	1	3	16	40.0	2	0	[]
8869	1	6	8	60.0	2	0	[]
8872	6	1	8	60.0	2	0	[]
8882	3	1	8	60.0	2	0	[]
8888	10	8	16	100.0	2	0	[]
8893	2	1	8	60.0	2	0	[]
8896	4	1	8	60.0	2	0	[]
8902	1	1	8	60.0	0	0	[]
8916	1	4	8	60.0	2	0	[]
8920	5	1	8	60.0	2	0	[]
8935	16	2	8	60.0	2	2	[(1863, 0), (5011, 0)]
8936	2	1	8	60.0	2	1	[(7671, 2)]
8938	2	1	2	60.0	2	0	[]
8947	1	1	8	60.0	2	0	[]
8951	1	1	1	60.0	2	0	[]
8975	2	1	8	80.0	2	0	[]
9006	2	1	8	60.0	2	0	[]
9007	1	1	8	60.0	2	0	[]
9035	55	3	8	100.0	1	10	[(9283, 0), (5234, 2), (7998, 2), (3795, 1), (3582, 2), (7260, 1), (341, 2), (5519, 2), (7381, 1), (5336, 2)]
9040	2	1	8	60.0	2	0	[]
9091	7	5	8	60.0	2	0	[]
9095	179	6	8	40.0	1	4	[(1356, 0), (1067, 0), (4947, 0), (5740, 0)]
9096	7	1	2	60.0	2	0	[]
9104	1	1	2	60.0	2	0	[]
9107	2	4	8	60.0	2	0	[]
9115	1	1	3	60.0	2	0	[]
9116	1	1	2	60.0	2	0	[]
9139	22	2	8	60.0	2	1	[(3422, 2)]
9141	2	1	8	60.0	2	0	[]
9149	5	2	8	60.0	2	0	[]
9151	1	1	8	80.0	2	0	[]
9157	5	2	8	60.0	2	0	[]
9161	6	1	8	60.0	2	0	[]
9175	1	1	2	60.0	2	0	[]
9185	2	4	8	60.0	2	0	[]
9189	1	1	8	60.0	2	0	[]
9208	2	1	8	60.0	2	0	[]
9216	5	2	8	60.0	2	1	[(3845, 0)]
9218	2	1	3	60.0	2	0	[]
9231	3	1	8	60.0	2	0	[]
9247	2	1	1	60.0	2	0	[]
9266	2	1	8	60.0	2	0	[]
9272	3	1	8	60.0	2	0	[]
9277	3	1	8	60.0	2	0	[]
9283	103	6	8	60.0	2	4	[(3734, 1), (3485, 1), (3749, 1), (7487, 1)]
9286	10	1	16	60.0	2	0	[]
9288	1	1	1	60.0	2	0	[]
9292	2	3	16	60.0	2	0	[]
9294	1	1	8	60.0	2	0	[]
9295	1	4	8	60.0	2	0	[]
9300	2	4	8	60.0	2	0	[]
9301	2	1	8	60.0	2	0	[]
9302	2	2	2	60.0	2	0	[]
9311	2	1	2	60.0	2	0	[]
9326	1	4	8	80.0	2	0	[]
9337	6	1	8	60.0	2	0	[]
