app_id	nb_instances	core	memory	disk	intra_value	inter_degree	inter_aff
12	2	1	8	60.0	2	0	[]
19	5	1	5	60.0	2	0	[]
28	10	1	1	60.0	2	0	[]
42	1	1	16	200.0	2	0	[]
53	6	1	8	60.0	2	0	[]
54	3	1	8	60.0	2	0	[]
59	1	1	8	60.0	2	0	[]
102	1	1	8	60.0	2	0	[]
157	2	1	2	60.0	2	0	[]
190	4	3	8	60.0	2	0	[]
299	2	1	2	60.0	2	0	[]
316	2	1	2	60.0	2	0	[]
343	2	6	8	60.0	2	0	[]
346	3	1	8	60.0	2	0	[]
347	2	1	8	60.0	2	0	[]
463	2	1	2	60.0	2	0	[]
499	2	1	8	60.0	2	0	[]
535	4	2	8	60.0	2	0	[]
578	2	1	8	60.0	2	0	[]
594	2	1	8	60.0	2	0	[]
613	13	6	8	60.0	2	0	[]
620	2	2	4	60.0	2	0	[]
659	6	1	4	60.0	2	0	[]
675	1	4	8	60.0	2	0	[]
700	2	1	2	60.0	2	0	[]
723	1	1	2	60.0	2	0	[]
728	8	1	8	60.0	2	0	[]
731	1	1	1	60.0	2	0	[]
733	2	1	8	60.0	2	0	[]
762	2	1	8	60.0	2	0	[]
784	1	1	8	40.0	2	0	[]
813	1	1	8	60.0	2	0	[]
823	1	1	2	500.0	2	0	[]
894	9	3	8	60.0	2	0	[]
908	1	1	8	60.0	2	0	[]
936	65	4	8	60.0	2	0	[]
977	2	1	3	60.0	2	0	[]
1103	2	1	8	60.0	2	0	[]
1122	7	1	8	40.0	2	0	[]
1183	1	4	8	60.0	2	0	[]
1188	2	2	8	60.0	2	0	[]
1237	5	1	8	60.0	2	0	[]
1245	1	1	8	60.0	2	0	[]
1317	4	2	8	60.0	2	0	[]
1326	4	1	8	60.0	2	0	[]
1439	1	1	2	60.0	2	0	[]
1474	1	1	6	60.0	2	0	[]
1479	4	6	8	60.0	2	0	[]
1487	2	1	1	60.0	2	0	[]
1533	3	1	8	60.0	2	0	[]
1569	1	1	8	60.0	2	0	[]
1579	45	6	8	60.0	2	0	[]
1581	1	1	1	60.0	2	0	[]
1588	2	4	8	60.0	2	0	[]
1619	1	2	6	60.0	2	0	[]
1652	7	3	8	60.0	2	0	[]
1931	2	4	8	60.0	2	0	[]
1946	3	3	4	200.0	2	0	[]
1960	2	1	8	60.0	2	0	[]
1989	1	4	8	60.0	2	0	[]
2020	3	2	8	60.0	2	0	[]
2029	55	2	8	60.0	2	0	[]
2068	1	1	8	60.0	2	0	[]
2078	9	7	16	100.0	2	0	[]
2084	4	1	8	60.0	2	0	[]
2100	2	1	1	60.0	2	0	[]
2149	1	1	8	60.0	2	0	[]
2171	1	1	8	60.0	2	0	[]
2199	5	2	8	60.0	2	0	[]
2201	2	2	8	60.0	2	0	[]
2204	1	1	8	60.0	2	0	[]
2207	3	1	7	60.0	2	0	[]
2222	1	5	8	60.0	2	0	[]
2256	3	1	8	60.0	2	0	[]
2336	2	1	1	60.0	2	0	[]
2348	1	1	2	60.0	2	0	[]
2407	1	1	4	60.0	2	0	[]
2408	1	16	32	200.0	2	0	[]
2505	9	1	8	60.0	2	0	[]
2521	3	4	8	60.0	2	0	[]
2536	2	2	8	60.0	2	0	[]
2540	2	1	1	80.0	2	0	[]
2571	2	4	8	60.0	2	0	[]
2593	29	6	8	60.0	2	1	[(4190, 0)]
2642	1	1	8	60.0	2	0	[]
2649	19	5	8	60.0	2	0	[]
2721	3	16	48	200.0	2	0	[]
2831	35	2	8	60.0	2	0	[]
2851	1	16	60	60.0	2	0	[]
2866	2	1	8	60.0	2	0	[]
2868	1	1	8	60.0	2	0	[]
2879	1	2	16	60.0	2	0	[]
2959	2	1	8	60.0	2	0	[]
2978	12	2	8	60.0	2	0	[]
3019	7	3	2	60.0	2	0	[]
3034	2	1	8	60.0	2	0	[]
3078	4	1	8	60.0	2	0	[]
3113	1	1	7	60.0	2	0	[]
3139	1	1	8	60.0	2	0	[]
3151	2	1	2	60.0	2	0	[]
3260	15	4	8	60.0	2	1	[(4941, 2)]
3271	46	4	8	100.0	2	2	[(5531, 1), (4401, 1)]
3289	2	2	8	60.0	2	0	[]
3301	3	1	8	60.0	2	0	[]
3303	35	5	8	60.0	2	0	[]
3316	2	1	8	60.0	2	0	[]
3380	1	12	16	200.0	2	0	[]
3412	1	1	8	60.0	2	0	[]
3420	2	1	8	60.0	2	0	[]
3475	3	2	8	60.0	2	0	[]
3534	34	2	8	60.0	2	0	[]
3570	12	5	8	60.0	2	0	[]
3662	1	4	8	60.0	2	0	[]
3706	2	1	8	60.0	2	0	[]
3778	1	4	8	60.0	2	0	[]
3831	2	1	8	60.0	2	0	[]
3836	6	2	8	60.0	2	0	[]
3859	1	7	24	80.0	2	0	[]
3868	2	1	8	60.0	2	0	[]
3930	2	1	8	60.0	2	0	[]
3958	2	1	1	60.0	2	0	[]
3973	2	4	8	60.0	2	0	[]
4027	3	1	8	60.0	2	0	[]
4034	9	6	8	60.0	2	0	[]
4040	1	1	7	60.0	2	0	[]
4065	3	1	8	60.0	2	0	[]
4080	3	1	2	60.0	2	0	[]
4153	2	5	8	60.0	2	0	[]
4158	2	1	8	60.0	2	0	[]
4161	65	1	8	60.0	2	1	[(9254, 0)]
4190	23	12	16	60.0	1	0	[]
4299	2	1	8	60.0	2	0	[]
4321	5	1	8	60.0	2	0	[]
4322	3	4	8	60.0	2	0	[]
4374	1	4	8	60.0	2	0	[]
4379	32	2	8	60.0	2	0	[]
4401	3	1	8	60.0	2	0	[]
4423	36	3	16	60.0	2	0	[]
4529	3	1	8	60.0	2	0	[]
4532	2	1	8	60.0	2	0	[]
4566	2	1	8	60.0	2	0	[]
4569	1	1	8	60.0	2	0	[]
4615	1	1	2	60.0	2	0	[]
4681	2	1	1	60.0	2	0	[]
4729	14	2	8	60.0	2	0	[]
4941	11	6	8	100.0	2	0	[]
4965	3	1	8	60.0	2	0	[]
4982	2	1	8	60.0	2	0	[]
5004	30	3	8	60.0	2	0	[]
5015	1	2	8	40.0	2	0	[]
5037	2	1	8	60.0	2	0	[]
5050	1	1	1	60.0	2	0	[]
5060	33	6	8	60.0	2	0	[]
5196	1	1	8	60.0	2	0	[]
5250	2	2	8	60.0	2	0	[]
5321	1	1	3	60.0	2	0	[]
5356	1	16	32	80.0	0	0	[]
5365	1	1	2	60.0	2	0	[]
5398	7	2	8	60.0	2	0	[]
5469	9	4	8	60.0	2	0	[]
5488	1	1	2	60.0	2	0	[]
5517	2	2	2	60.0	2	0	[]
5531	15	6	8	60.0	2	0	[]
5542	1	6	8	60.0	2	0	[]
5610	2	2	8	60.0	2	0	[]
5615	2	1	1	60.0	2	0	[]
5627	2	1	8	60.0	2	0	[]
5746	1	1	8	60.0	2	0	[]
5800	2	1	8	60.0	2	0	[]
5932	2	1	8	60.0	2	0	[]
5933	3	1	8	60.0	2	0	[]
5992	1	1	8	100.0	2	0	[]
6004	1	1	1	60.0	2	0	[]
6006	2	1	8	60.0	2	0	[]
6023	4	1	2	60.0	2	0	[]
6051	19	6	8	60.0	2	0	[]
6113	2	1	6	60.0	2	0	[]
6135	1	1	8	60.0	2	0	[]
6154	1	4	8	60.0	2	0	[]
6175	1	4	8	60.0	2	0	[]
6307	2	1	8	60.0	2	0	[]
6417	2	1	8	60.0	2	0	[]
6423	1	1	8	60.0	2	0	[]
6477	14	1	8	100.0	2	0	[]
6585	2	1	2	60.0	2	0	[]
6622	13	3	8	60.0	2	0	[]
6639	3	1	5	60.0	2	0	[]
6680	41	2	16	100.0	2	0	[]
6756	4	1	8	60.0	2	0	[]
6813	1	1	1	60.0	2	0	[]
6865	1	3	16	60.0	2	0	[]
6890	2	1	8	60.0	2	0	[]
6904	2	1	1	60.0	2	0	[]
6912	8	2	2	60.0	2	0	[]
7138	1	4	8	60.0	2	0	[]
7158	7	2	8	60.0	2	0	[]
7221	3	1	8	60.0	2	0	[]
7258	3	3	8	60.0	2	0	[]
7278	4	1	8	60.0	2	0	[]
7349	1	1	1	60.0	2	0	[]
7376	4	1	8	60.0	2	0	[]
7431	1	5	8	60.0	2	0	[]
7435	1	2	8	60.0	2	0	[]
7458	4	6	2	60.0	2	0	[]
7474	2	1	8	60.0	2	0	[]
7533	1	2	16	60.0	0	0	[]
7565	1	1	8	60.0	2	0	[]
7600	1	5	48	500.0	2	0	[]
7608	1	1	8	60.0	2	0	[]
7679	4	3	8	60.0	2	0	[]
7749	2	1	8	60.0	2	0	[]
7785	2	1	8	60.0	2	0	[]
7811	3	1	8	60.0	2	0	[]
7835	1	1	8	60.0	2	0	[]
7899	4	1	8	60.0	2	0	[]
7923	2	4	8	60.0	2	0	[]
7955	2	1	8	60.0	2	0	[]
7959	7	6	8	60.0	2	0	[]
8056	2	1	8	60.0	2	0	[]
8105	2	4	8	60.0	2	0	[]
8188	2	1	8	80.0	2	0	[]
8219	4	1	8	60.0	2	0	[]
8248	3	1	8	60.0	2	0	[]
8264	2	2	8	60.0	2	0	[]
8331	34	2	8	60.0	2	0	[]
8359	1	1	8	60.0	2	0	[]
8374	1	1	1	60.0	2	0	[]
8382	1	1	2	60.0	2	0	[]
8512	2	2	8	60.0	2	0	[]
8567	2	1	7	60.0	2	0	[]
8635	2	1	8	60.0	2	0	[]
8667	2	1	8	60.0	2	0	[]
8746	2	1	1	60.0	2	0	[]
8772	2	1	8	60.0	2	0	[]
8864	2	1	8	60.0	2	0	[]
8915	1	1	8	60.0	2	0	[]
8918	2	1	8	60.0	2	0	[]
9001	1	1	8	60.0	2	0	[]
9022	2	2	8	60.0	2	0	[]
9041	2	4	8	60.0	2	0	[]
9062	1	4	8	60.0	2	0	[]
9127	37	2	8	40.0	2	0	[]
9129	1	1	8	60.0	2	0	[]
9157	5	2	8	60.0	2	0	[]
9180	5	2	8	60.0	2	0	[]
9226	2	1	8	60.0	2	0	[]
9227	1	4	8	60.0	2	0	[]
9243	6	1	8	60.0	2	0	[]
9254	1	1	2	60.0	2	0	[]
9274	2	1	8	60.0	2	0	[]
