app_id	nb_instances	core	memory	disk	intra_value	inter_degree	inter_aff
131	2	4	8	60.0	2	0	[]
151	2	1	8	60.0	2	0	[]
172	2	1	3	60.0	2	0	[]
251	1	1	8	60.0	2	0	[]
263	2	1	8	60.0	2	0	[]
312	5	1	8	40.0	2	0	[]
413	3	1	8	60.0	2	0	[]
499	2	1	8	60.0	2	0	[]
564	2	1	8	60.0	2	0	[]
659	6	1	4	60.0	2	0	[]
678	1	1	8	60.0	2	0	[]
698	1	1	2	80.0	2	0	[]
857	7	6	8	60.0	2	0	[]
892	1	1	8	60.0	2	0	[]
1002	6	3	8	80.0	2	0	[]
1006	1	1	1	60.0	2	0	[]
1024	123	5	10	60.0	1	2	[(4825, 2), (1059, 2)]
1059	31	6	8	60.0	2	0	[]
1067	50	4	8	40.0	2	1	[(4667, 0)]
1089	2	1	8	60.0	2	0	[]
1100	3	1	8	60.0	2	0	[]
1166	2	1	8	60.0	2	0	[]
1185	2	1	8	60.0	2	0	[]
1189	3	1	8	60.0	2	0	[]
1257	2	1	1	60.0	2	0	[]
1258	24	3	8	60.0	2	0	[]
1287	13	1	8	60.0	2	0	[]
1314	24	2	8	60.0	2	1	[(5418, 0)]
1375	3	4	8	60.0	2	0	[]
1391	189	6	8	60.0	2	3	[(2255, 1), (3534, 0), (7732, 1)]
1399	2	2	8	60.0	2	0	[]
1413	2	1	8	60.0	2	0	[]
1422	1	2	16	100.0	2	0	[]
1424	6	5	8	80.0	2	0	[]
1429	2	1	8	60.0	2	0	[]
1444	1	1	8	60.0	2	0	[]
1456	4	1	8	60.0	2	0	[]
1467	1	4	8	60.0	2	0	[]
1535	2	1	8	60.0	2	0	[]
1549	8	2	8	60.0	2	0	[]
1618	3	1	8	60.0	2	0	[]
1621	2	1	8	60.0	2	0	[]
1627	2	1	8	60.0	2	0	[]
1674	2	1	8	60.0	2	0	[]
1688	2	3	8	60.0	2	0	[]
1709	1	1	8	60.0	2	0	[]
1742	11	1	8	60.0	2	0	[]
1757	6	2	16	80.0	2	0	[]
1802	2	1	8	60.0	2	0	[]
1873	2	1	8	60.0	2	0	[]
1879	1	36	37	300.0	2	0	[]
1934	1	1	8	60.0	2	0	[]
1935	1	1	2	60.0	2	0	[]
1955	18	3	3	300.0	2	0	[]
1986	2	4	8	60.0	2	0	[]
2003	1	1	1	60.0	2	0	[]
2059	2	1	2	60.0	2	0	[]
2195	3	1	8	60.0	2	0	[]
2208	1	1	8	60.0	2	0	[]
2255	2	1	8	60.0	2	0	[]
2311	2	1	8	60.0	2	0	[]
2335	1	2	8	40.0	0	0	[]
2345	4	4	8	60.0	2	0	[]
2385	1	1	8	60.0	2	0	[]
2447	4	2	8	60.0	2	0	[]
2456	5	4	8	60.0	2	0	[]
2539	2	1	8	60.0	2	0	[]
2540	2	1	1	80.0	2	0	[]
2575	2	1	8	60.0	2	0	[]
2584	2	1	8	60.0	2	0	[]
2638	1	1	8	60.0	2	0	[]
2643	6	8	12	60.0	2	0	[]
2672	2	1	8	60.0	2	0	[]
2676	1	1	1	60.0	2	0	[]
2713	2	2	8	60.0	2	0	[]
2772	10	12	2	60.0	2	0	[]
2815	60	1	8	60.0	2	0	[]
2832	1	1	8	60.0	2	0	[]
2858	1	1	8	60.0	2	0	[]
2870	2	1	8	60.0	2	0	[]
2927	1	2	8	60.0	2	0	[]
2944	2	2	8	60.0	0	0	[]
2947	2	1	8	60.0	2	0	[]
3000	4	2	8	60.0	2	0	[]
3087	18	1	8	60.0	2	0	[]
3101	15	3	8	60.0	2	0	[]
3134	1	1	1	60.0	2	0	[]
3141	1	1	8	60.0	2	0	[]
3143	2	1	8	60.0	2	0	[]
3179	2	1	1	60.0	2	0	[]
3181	1	1	2	100.0	2	0	[]
3194	2	1	8	60.0	2	0	[]
3347	2	1	8	60.0	2	0	[]
3356	6	6	8	60.0	2	10	[(6993, 2), (6935, 2), (5046, 1), (7732, 2), (8945, 2), (9329, 2), (1742, 2), (3652, 2), (7659, 2), (5452, 1)]
3430	1	1	8	60.0	2	0	[]
3492	1	4	8	60.0	2	0	[]
3504	1	1	5	60.0	2	0	[]
3534	34	2	8	60.0	2	1	[(1391, 0)]
3550	1	1	8	60.0	2	0	[]
3591	2	1	8	60.0	2	0	[]
3592	4	1	8	60.0	2	0	[]
3606	2	2	8	60.0	2	0	[]
3622	3	1	8	60.0	2	0	[]
3638	1	4	8	60.0	2	0	[]
3652	4	6	8	60.0	2	0	[]
3694	2	1	8	60.0	2	0	[]
3697	1	1	8	60.0	2	0	[]
3739	1	1	1	60.0	2	0	[]
3796	1	4	8	60.0	2	0	[]
3797	2	1	2	60.0	2	0	[]
3843	3	1	8	80.0	2	0	[]
3849	15	6	8	60.0	2	0	[]
3885	14	4	8	60.0	2	0	[]
3887	1	4	8	60.0	2	0	[]
3889	2	1	8	60.0	2	0	[]
3983	1	4	8	80.0	2	0	[]
3991	2	1	3	60.0	2	0	[]
4007	25	6	8	60.0	2	0	[]
4019	1	1	3	60.0	2	0	[]
4118	4	1	8	80.0	2	0	[]
4176	2	1	6	60.0	2	0	[]
4293	1	1	8	60.0	2	0	[]
4294	4	1	5	60.0	2	0	[]
4316	1	1	8	60.0	2	0	[]
4372	2	1	8	60.0	2	0	[]
4378	1	1	8	60.0	2	0	[]
4390	1	1	8	60.0	2	0	[]
4449	11	1	8	200.0	2	0	[]
4647	25	6	8	60.0	2	0	[]
4667	29	5	8	60.0	2	1	[(4825, 2)]
4682	2	1	8	60.0	2	0	[]
4701	1	1	8	60.0	2	0	[]
4759	2	1	8	60.0	2	0	[]
4825	610	6	8	40.0	0	4	[(5022, 0), (5418, 0), (9216, 0), (4667, 0)]
4833	2	3	8	60.0	2	0	[]
4842	1	1	8	60.0	2	0	[]
4881	4	1	8	60.0	2	0	[]
4889	2	1	8	60.0	2	0	[]
4918	1	4	8	60.0	2	0	[]
4987	2	4	8	60.0	2	0	[]
5022	282	12	16	60.0	0	1	[(1413, 2)]
5046	3	1	8	60.0	2	0	[]
5050	1	1	1	60.0	2	0	[]
5066	2	1	8	60.0	2	0	[]
5102	2	1	8	60.0	2	0	[]
5225	2	1	8	60.0	2	0	[]
5270	1	2	8	60.0	2	0	[]
5294	2	1	8	60.0	2	0	[]
5314	2	1	128	600.0	2	0	[]
5416	2	1	1	60.0	2	0	[]
5418	233	6	8	60.0	2	3	[(7732, 2), (6597, 1), (1287, 0)]
5450	1	1	6	60.0	2	0	[]
5451	2	2	8	60.0	2	0	[]
5452	5	1	8	60.0	2	0	[]
5578	2	4	8	60.0	2	0	[]
5612	1	1	5	60.0	2	0	[]
5629	1	1	8	60.0	2	0	[]
5715	1	1	8	60.0	2	0	[]
5764	14	3	8	60.0	2	0	[]
5944	7	6	8	60.0	2	0	[]
5946	2	2	8	60.0	2	0	[]
6101	2	1	8	60.0	2	0	[]
6146	2	1	8	60.0	2	0	[]
6195	2	1	2	60.0	2	0	[]
6198	1	1	8	60.0	2	0	[]
6245	1	1	7	60.0	2	0	[]
6295	14	4	8	40.0	2	0	[]
6305	4	1	8	60.0	2	0	[]
6339	1	8	16	200.0	2	0	[]
6342	1	1	8	60.0	2	0	[]
6365	7	1	8	60.0	2	0	[]
6383	1	4	8	60.0	2	0	[]
6464	2	1	8	60.0	2	0	[]
6556	1	1	8	60.0	2	0	[]
6582	2	1	8	60.0	2	0	[]
6597	108	12	8	100.0	2	0	[]
6616	1	1	8	60.0	2	0	[]
6672	1	1	8	60.0	2	0	[]
6731	2	4	8	60.0	2	0	[]
6768	4	1	8	60.0	2	0	[]
6790	10	3	8	60.0	2	0	[]
6864	1	1	8	60.0	2	0	[]
6935	12	1	8	100.0	2	0	[]
6955	1	1	1	60.0	2	0	[]
6987	2	12	32	200.0	2	0	[]
6993	3	1	8	60.0	2	0	[]
7129	1	1	2	60.0	2	0	[]
7138	1	4	8	60.0	2	0	[]
7162	1	1	16	80.0	2	0	[]
7168	2	1	8	60.0	2	0	[]
7170	5	1	8	60.0	2	0	[]
7205	1	1	8	60.0	2	0	[]
7207	1	1	8	60.0	2	0	[]
7245	1	1	8	60.0	2	0	[]
7269	1	1	2	60.0	2	0	[]
7311	2	1	2	60.0	2	0	[]
7345	2	1	8	60.0	2	0	[]
7387	3	1	8	60.0	2	0	[]
7409	1	1	1	60.0	2	0	[]
7449	2	1	8	60.0	2	0	[]
7506	7	1	8	60.0	2	1	[(5764, 0)]
7524	10	3	8	60.0	2	0	[]
7527	1	1	8	60.0	2	0	[]
7546	2	1	8	60.0	2	0	[]
7578	6	3	8	60.0	2	0	[]
7604	2	1	8	60.0	2	0	[]
7659	3	1	8	60.0	2	0	[]
7661	1	1	2	60.0	2	0	[]
7710	2	1	8	60.0	2	0	[]
7732	6	2	8	60.0	2	0	[]
7736	10	4	8	60.0	2	1	[(5102, 1)]
7824	5	1	8	60.0	2	0	[]
7881	2	1	8	60.0	2	0	[]
7883	2	1	8	60.0	2	0	[]
8012	1	1	1	60.0	2	0	[]
8085	6	1	8	60.0	2	0	[]
8123	2	1	8	60.0	2	0	[]
8167	1	1	8	40.0	2	0	[]
8212	1	6	8	60.0	2	0	[]
8348	2	1	8	60.0	2	0	[]
8395	2	1	8	60.0	2	0	[]
8420	2	1	8	60.0	2	0	[]
8475	14	2	8	60.0	2	0	[]
8516	1	1	1	60.0	2	0	[]
8548	2	1	8	60.0	2	0	[]
8564	4	4	8	60.0	2	0	[]
8574	4	1	8	60.0	2	0	[]
8613	2	1	8	60.0	2	0	[]
8628	2	2	8	60.0	2	0	[]
8699	1	1	8	60.0	2	0	[]
8843	3	1	8	60.0	2	0	[]
8848	14	3	16	80.0	2	1	[(5022, 1)]
8887	2	1	8	60.0	2	0	[]
8889	2	1	8	60.0	2	0	[]
8895	1	4	8	60.0	2	0	[]
8945	4	1	8	60.0	2	0	[]
8963	1	1	1	60.0	2	0	[]
9073	2	4	8	60.0	2	0	[]
9089	3	3	2	100.0	2	0	[]
9150	1	4	8	60.0	2	0	[]
9159	7	1	8	60.0	2	0	[]
9161	6	1	8	60.0	2	0	[]
9169	1	1	8	60.0	2	0	[]
9208	2	1	8	60.0	2	0	[]
9216	5	2	8	60.0	2	0	[]
9246	1	4	8	60.0	2	0	[]
9277	3	1	8	60.0	2	0	[]
9295	1	4	8	60.0	2	0	[]
9302	2	2	2	60.0	2	0	[]
9329	3	2	8	60.0	2	0	[]
