app_id	nb_instances	core	memory	disk	intra_value	inter_degree	inter_aff
91	2	4	8	60.0	2	0	[]
236	10	3	8	60.0	2	0	[]
240	1	4	8	60.0	2	0	[]
290	103	3	8	60.0	2	1	[(3283, 0)]
298	2	1	8	60.0	2	0	[]
346	3	1	8	60.0	2	0	[]
356	2	1	2	60.0	2	0	[]
431	2	1	8	60.0	2	0	[]
526	3	1	8	60.0	2	0	[]
585	75	3	8	40.0	2	1	[(4474, 0)]
606	2	1	8	60.0	2	0	[]
613	13	6	8	60.0	2	0	[]
616	9	3	8	60.0	2	0	[]
714	1	1	8	60.0	2	0	[]
721	1	1	8	60.0	2	0	[]
744	2	4	8	60.0	2	0	[]
808	6	4	8	60.0	2	0	[]
865	4	3	8	60.0	2	0	[]
870	2	4	8	60.0	2	0	[]
909	8	12	16	100.0	2	0	[]
918	3	1	8	60.0	2	0	[]
986	2	1	8	60.0	2	0	[]
994	5	1	7	60.0	2	0	[]
996	2	1	8	60.0	2	0	[]
1066	30	3	8	60.0	2	0	[]
1081	1	1	1	60.0	2	0	[]
1210	1	1	8	60.0	2	0	[]
1323	6	4	8	60.0	2	0	[]
1347	2	1	1	60.0	2	0	[]
1354	2	1	8	60.0	2	1	[(1839, 0)]
1390	1	1	8	60.0	2	0	[]
1412	6	5	8	60.0	2	0	[]
1437	95	6	8	60.0	2	2	[(9324, 2), (5431, 1)]
1476	2	1	8	60.0	2	0	[]
1661	2	2	8	60.0	2	0	[]
1681	1	1	8	60.0	2	0	[]
1687	2	1	8	60.0	2	0	[]
1709	1	1	8	60.0	2	0	[]
1752	2	1	8	60.0	2	0	[]
1794	1	1	8	60.0	2	0	[]
1809	1	1	8	60.0	2	0	[]
1811	1	1	8	60.0	2	0	[]
1830	2	1	8	60.0	2	0	[]
1833	3	2	8	60.0	2	0	[]
1839	2	1	8	60.0	2	0	[]
1959	5	2	8	60.0	2	0	[]
1975	2	1	8	60.0	2	0	[]
1980	2	1	8	60.0	2	0	[]
1994	2	2	8	60.0	2	0	[]
2028	1	8	16	60.0	2	0	[]
2072	2	1	8	60.0	2	0	[]
2074	2	1	2	60.0	2	0	[]
2099	1	1	3	60.0	2	0	[]
2150	2	1	8	60.0	2	0	[]
2181	1	1	8	60.0	2	0	[]
2217	4	3	8	60.0	2	0	[]
2266	2	1	8	60.0	2	0	[]
2274	4	2	8	40.0	2	1	[(585, 0)]
2282	1	4	8	60.0	2	0	[]
2324	1	1	8	60.0	2	0	[]
2335	1	2	8	40.0	0	0	[]
2340	2	4	8	60.0	2	0	[]
2426	2	1	8	60.0	2	0	[]
2435	4	1	1	60.0	2	0	[]
2486	519	6	8	100.0	2	1	[(9017, 0)]
2531	2	1	10	80.0	2	0	[]
2552	2	1	8	60.0	2	0	[]
2575	2	1	8	60.0	2	0	[]
2576	2	1	8	60.0	2	0	[]
2662	1	1	8	40.0	0	0	[]
2679	2	1	3	60.0	2	0	[]
2699	1	2	8	80.0	2	0	[]
2716	10	1	16	60.0	2	0	[]
2724	2	2	8	60.0	2	0	[]
2841	3	1	8	60.0	2	0	[]
2891	1	1	8	60.0	2	0	[]
2961	3	1	8	60.0	2	0	[]
3062	2	1	5	60.0	2	0	[]
3094	2	1	1	60.0	2	0	[]
3099	1	1	8	60.0	2	0	[]
3161	2	1	8	60.0	2	0	[]
3167	1	1	8	60.0	2	0	[]
3192	3	1	14	80.0	2	0	[]
3194	2	1	8	60.0	2	0	[]
3283	240	6	8	60.0	2	2	[(3721, 0), (8970, 2)]
3335	5	1	8	60.0	2	0	[]
3342	3	1	8	60.0	2	0	[]
3391	4	1	8	60.0	2	0	[]
3488	1	1	8	60.0	2	0	[]
3493	4	1	8	60.0	2	0	[]
3512	76	4	8	60.0	2	0	[]
3539	4	1	2	60.0	2	0	[]
3568	2	4	8	60.0	2	0	[]
3721	20	12	16	200.0	2	0	[]
3753	2	1	8	60.0	2	0	[]
3784	4	1	8	60.0	2	0	[]
3799	2	1	2	60.0	2	0	[]
3830	3	1	8	60.0	2	0	[]
3902	20	6	8	60.0	2	0	[]
3932	1	1	1	40.0	2	0	[]
3946	1	2	8	60.0	2	0	[]
3965	2	1	8	80.0	2	0	[]
4091	16	2	8	60.0	2	0	[]
4114	26	3	8	60.0	2	0	[]
4152	11	1	8	60.0	2	0	[]
4165	2	6	8	60.0	2	0	[]
4172	4	1	2	60.0	2	0	[]
4211	3	3	8	60.0	2	0	[]
4228	2	1	8	60.0	2	0	[]
4256	1	1	8	60.0	2	0	[]
4261	4	2	8	60.0	2	0	[]
4263	3	3	8	60.0	2	0	[]
4287	5	22	32	80.0	2	0	[]
4295	2	1	8	60.0	2	0	[]
4303	1	1	16	60.0	2	0	[]
4338	8	6	8	60.0	2	0	[]
4339	2	1	8	60.0	2	0	[]
4394	3	1	8	60.0	2	0	[]
4459	12	6	8	60.0	2	0	[]
4474	10	2	16	40.0	0	1	[(585, 0)]
4496	1	1	8	60.0	2	0	[]
4559	4	1	8	60.0	2	0	[]
4673	1	4	8	60.0	2	0	[]
4786	5	2	8	60.0	2	0	[]
4850	1	1	2	60.0	2	0	[]
4893	1	1	8	60.0	2	0	[]
4933	7	2	8	60.0	2	0	[]
4942	2	1	8	60.0	2	0	[]
4951	17	2	8	60.0	2	0	[]
5023	2	1	8	60.0	2	0	[]
5073	2	1	2	60.0	2	0	[]
5094	1	1	8	60.0	2	0	[]
5113	3	1	8	60.0	2	0	[]
5128	1	1	7	60.0	2	0	[]
5146	27	5	8	80.0	2	0	[]
5234	2	2	8	60.0	2	0	[]
5293	2	1	2	60.0	2	0	[]
5339	2	1	8	60.0	2	0	[]
5359	1	1	8	60.0	2	0	[]
5401	5	1	8	60.0	2	0	[]
5423	12	2	8	60.0	2	0	[]
5431	1	1	8	60.0	2	0	[]
5489	1	4	8	60.0	2	0	[]
5530	2	1	8	60.0	2	0	[]
5531	15	6	8	60.0	2	1	[(3512, 0)]
5580	2	4	8	60.0	2	0	[]
5590	9	1	1	60.0	2	0	[]
5647	2	1	8	60.0	2	0	[]
5688	1	1	2	60.0	2	0	[]
5699	2	1	5	60.0	2	0	[]
5774	1	4	8	60.0	2	0	[]
5786	2	1	8	60.0	2	0	[]
5810	40	4	8	60.0	2	2	[(290, 2), (585, 1)]
5831	2	1	8	60.0	2	0	[]
5866	2	1	8	60.0	2	0	[]
5939	2	4	8	60.0	2	0	[]
5966	2	1	8	60.0	2	0	[]
5985	1	4	8	60.0	2	0	[]
6027	1	1	16	60.0	2	0	[]
6126	1	1	8	60.0	2	0	[]
6140	1	5	8	60.0	2	0	[]
6215	2	1	8	60.0	2	0	[]
6235	67	3	8	60.0	2	0	[]
6296	4	1	8	60.0	2	0	[]
6313	2	1	1	60.0	2	0	[]
6328	1	1	8	60.0	2	0	[]
6396	1	6	4	60.0	2	0	[]
6416	9	2	8	60.0	2	0	[]
6502	1	4	8	60.0	2	0	[]
6545	4	2	8	60.0	2	0	[]
6582	2	1	8	60.0	2	0	[]
6591	2	1	16	80.0	2	0	[]
6592	2	4	8	60.0	2	0	[]
6604	2	2	8	60.0	2	0	[]
6633	2	1	8	60.0	2	0	[]
6645	2	1	8	60.0	2	0	[]
6646	2	2	8	60.0	2	0	[]
6695	4	1	8	60.0	2	0	[]
6709	5	1	8	60.0	2	0	[]
6731	2	4	8	60.0	2	0	[]
6840	1	1	8	60.0	2	0	[]
6841	5	2	8	60.0	2	0	[]
6847	2	1	2	60.0	2	0	[]
6887	1	1	8	60.0	2	0	[]
6931	1	1	8	60.0	2	0	[]
6981	2	1	7	60.0	2	0	[]
6993	3	1	8	60.0	2	0	[]
7123	2	6	8	60.0	2	0	[]
7158	7	2	8	60.0	2	1	[(8412, 2)]
7205	1	1	8	60.0	2	0	[]
7237	2	1	8	60.0	2	0	[]
7287	3	2	8	60.0	2	0	[]
7349	1	1	1	60.0	2	0	[]
7369	54	6	8	60.0	2	0	[]
7457	5	1	8	60.0	2	0	[]
7472	2	1	8	60.0	2	0	[]
7577	1	1	8	60.0	2	0	[]
7603	1	1	2	60.0	2	0	[]
7617	2	1	8	60.0	2	0	[]
7650	1	4	8	60.0	2	0	[]
7673	3	1	8	60.0	2	0	[]
7686	2	1	8	60.0	2	0	[]
7717	1	4	8	60.0	2	0	[]
7753	2	1	8	60.0	2	0	[]
7783	6	2	8	60.0	2	0	[]
7824	5	1	8	60.0	2	0	[]
7849	1	1	8	60.0	2	0	[]
7866	3	1	8	60.0	2	0	[]
7897	1	1	1	80.0	2	0	[]
7898	1	1	8	60.0	2	0	[]
7910	1	4	8	60.0	2	0	[]
8057	6	3	8	100.0	2	0	[]
8105	2	4	8	60.0	2	0	[]
8176	2	1	8	60.0	2	0	[]
8192	1	3	3	60.0	2	0	[]
8228	4	1	8	60.0	2	0	[]
8237	4	2	8	60.0	2	0	[]
8252	1	1	8	60.0	2	0	[]
8292	2	2	8	60.0	2	0	[]
8392	22	6	8	80.0	2	0	[]
8399	1	1	8	60.0	2	0	[]
8412	31	3	8	60.0	2	0	[]
8413	4	2	8	60.0	2	0	[]
8441	1	4	8	60.0	2	0	[]
8505	1	1	8	60.0	2	0	[]
8542	3	2	8	60.0	2	0	[]
8547	3	1	8	60.0	2	0	[]
8593	2	2	8	60.0	2	0	[]
8606	12	2	8	60.0	2	0	[]
8611	1	4	8	60.0	2	0	[]
8614	1	8	16	200.0	2	0	[]
8670	2	1	8	60.0	2	0	[]
8799	2	1	8	60.0	2	0	[]
8823	1	1	8	60.0	2	0	[]
8827	2	1	8	60.0	2	0	[]
8832	1	1	8	60.0	2	0	[]
8920	5	1	8	60.0	2	0	[]
8969	1	1	8	60.0	2	0	[]
8970	2	1	8	60.0	2	0	[]
8971	8	1	2	60.0	2	0	[]
9017	33	1	8	60.0	2	0	[]
9072	74	2	8	60.0	2	1	[(2662, 0)]
9078	1	1	2	60.0	2	0	[]
9173	4	1	2	60.0	2	0	[]
9188	33	2	8	60.0	2	1	[(6695, 1)]
9221	1	1	8	60.0	2	0	[]
9235	2	2	2	60.0	2	0	[]
9310	2	4	8	60.0	2	0	[]
9311	2	1	2	60.0	2	0	[]
9324	12	1	8	100.0	2	0	[]
