app_id	nb_instances	core	memory	disk	intra_value	inter_degree	inter_aff
8	4	1	8	60.0	2	0	[]
57	1	4	8	60.0	2	0	[]
58	1	1	8	60.0	2	0	[]
69	4	6	8	60.0	2	0	[]
189	1	1	8	60.0	2	0	[]
223	2	1	8	60.0	2	0	[]
242	3	1	5	60.0	2	0	[]
283	4	3	8	60.0	2	0	[]
284	2	1	1	60.0	2	0	[]
311	3	1	8	60.0	2	0	[]
324	1	1	8	60.0	2	0	[]
333	1	1	8	60.0	2	0	[]
408	1	4	8	80.0	2	0	[]
455	1	4	8	60.0	2	0	[]
473	77	3	8	40.0	0	1	[(1661, 2)]
498	2	1	8	60.0	2	0	[]
566	2	1	8	60.0	2	0	[]
581	1	1	2	60.0	2	0	[]
606	2	1	8	60.0	2	0	[]
620	2	2	4	60.0	2	0	[]
683	2	12	8	60.0	2	0	[]
710	3	1	8	60.0	2	0	[]
754	2	1	8	60.0	2	0	[]
877	5	1	8	60.0	2	0	[]
991	4	1	8	60.0	2	0	[]
1064	1	1	8	60.0	2	0	[]
1163	11	3	8	60.0	2	1	[(3022, 0)]
1325	2	1	8	60.0	2	0	[]
1355	1	1	8	60.0	2	0	[]
1358	3	6	8	60.0	2	0	[]
1429	2	1	8	60.0	2	0	[]
1528	1	4	8	60.0	2	0	[]
1626	1	1	8	60.0	2	0	[]
1645	5	1	8	60.0	2	0	[]
1650	2	1	8	60.0	2	0	[]
1661	2	2	8	60.0	2	0	[]
1670	2	1	8	60.0	2	0	[]
1692	1	1	8	60.0	2	0	[]
1722	8	1	8	60.0	2	0	[]
1726	3	1	8	60.0	2	0	[]
1747	1	1	8	60.0	2	0	[]
1769	1	2	8	60.0	2	0	[]
1770	6	3	8	60.0	2	0	[]
1812	1	1	8	60.0	2	0	[]
1818	1	1	8	60.0	2	0	[]
1825	2	4	8	60.0	2	0	[]
1860	1	1	2	60.0	2	0	[]
1903	2	1	8	60.0	2	0	[]
1933	1	4	16	60.0	2	0	[]
1944	4	2	8	60.0	2	0	[]
1976	3	1	8	60.0	2	0	[]
2025	1	4	8	60.0	2	0	[]
2035	2	1	8	60.0	2	0	[]
2056	1	1	8	60.0	2	0	[]
2095	4	3	8	60.0	2	0	[]
2096	2	1	8	60.0	2	0	[]
2129	38	6	16	60.0	0	0	[]
2147	6	1	8	250.0	2	0	[]
2155	6	4	2	100.0	2	0	[]
2275	2	1	8	60.0	2	0	[]
2317	5	3	2	650.0	2	0	[]
2322	2	1	3	60.0	2	0	[]
2355	1	1	8	60.0	2	0	[]
2368	1	4	16	80.0	2	0	[]
2376	1	1	7	60.0	2	0	[]
2437	4	4	8	60.0	2	0	[]
2455	5	6	8	60.0	2	0	[]
2493	10	3	8	60.0	2	0	[]
2524	2	5	8	60.0	2	0	[]
2581	2	1	4	60.0	2	0	[]
2595	2	1	8	60.0	2	0	[]
2604	1	1	8	60.0	2	0	[]
2605	1	1	8	60.0	2	0	[]
2673	2	1	8	60.0	2	0	[]
2692	119	12	16	200.0	2	0	[]
2792	2	1	8	60.0	2	0	[]
2824	1	1	8	60.0	2	0	[]
2847	5	1	8	60.0	2	0	[]
2921	2	6	8	60.0	2	0	[]
2953	2	2	8	60.0	2	0	[]
2960	1	4	8	60.0	2	0	[]
2966	2	1	8	60.0	2	0	[]
2997	2	1	8	60.0	2	0	[]
3022	3	2	8	60.0	2	0	[]
3031	2	1	8	40.0	2	0	[]
3036	6	3	8	60.0	2	0	[]
3046	1	4	8	60.0	2	0	[]
3097	9	3	8	60.0	2	0	[]
3165	8	5	8	60.0	2	0	[]
3177	2	1	8	80.0	2	0	[]
3204	6	1	8	60.0	2	0	[]
3217	3	1	8	60.0	2	0	[]
3235	11	2	8	60.0	2	0	[]
3261	2	1	8	60.0	2	0	[]
3401	16	3	8	60.0	2	0	[]
3412	1	1	8	60.0	2	0	[]
3452	2	1	8	60.0	2	0	[]
3528	1	1	8	60.0	2	0	[]
3560	4	1	8	60.0	2	0	[]
3626	1	1	2	60.0	2	0	[]
3675	3	1	8	60.0	2	0	[]
3722	9	5	16	60.0	2	0	[]
3733	1	2	8	60.0	2	0	[]
3764	2	4	8	60.0	2	0	[]
3802	178	6	16	100.0	2	0	[]
3844	1	1	8	60.0	2	0	[]
3854	2	1	8	60.0	2	0	[]
3856	2	2	8	60.0	2	0	[]
3897	1	1	1	60.0	2	0	[]
4017	2	1	4	60.0	2	0	[]
4060	3	1	8	60.0	2	0	[]
4100	1	1	7	60.0	2	0	[]
4102	6	2	8	60.0	2	0	[]
4126	1	4	16	80.0	2	0	[]
4133	6	2	8	60.0	2	0	[]
4166	1	1	8	60.0	2	0	[]
4213	2	1	8	60.0	2	0	[]
4240	5	1	8	60.0	2	0	[]
4251	1	1	8	60.0	2	0	[]
4315	1	1	48	300.0	2	0	[]
4321	5	1	8	60.0	2	0	[]
4322	3	4	8	60.0	2	0	[]
4419	1	1	8	60.0	2	0	[]
4435	4	1	8	60.0	2	0	[]
4460	2	1	8	60.0	2	0	[]
4503	6	1	8	60.0	2	0	[]
4555	2	1	8	60.0	2	0	[]
4564	2	1	8	60.0	2	0	[]
4576	61	4	8	40.0	0	1	[(473, 2)]
4584	2	1	3	60.0	2	0	[]
4599	2	1	8	60.0	2	0	[]
4609	2	1	4	60.0	2	0	[]
4701	1	1	8	60.0	2	0	[]
4705	2	1	2	60.0	2	0	[]
4711	3	2	8	60.0	2	0	[]
4754	64	6	8	60.0	2	0	[]
4825	610	6	8	40.0	0	2	[(4576, 0), (5111, 0)]
4852	1	4	8	60.0	2	0	[]
4863	3	1	8	60.0	2	0	[]
5111	4	3	8	40.0	2	0	[]
5116	2	1	8	60.0	2	0	[]
5168	4	1	8	167.0	2	0	[]
5197	2	1	5	60.0	2	0	[]
5253	9	1	8	60.0	2	0	[]
5256	18	5	8	60.0	2	0	[]
5265	2	1	8	60.0	2	0	[]
5317	3	1	2	60.0	2	0	[]
5319	1	4	8	60.0	2	0	[]
5388	16	1	16	60.0	2	0	[]
5409	1	1	8	60.0	2	0	[]
5421	4	1	8	60.0	2	0	[]
5484	1	1	1	60.0	2	0	[]
5588	2	1	8	60.0	2	0	[]
5593	2	1	2	60.0	2	0	[]
5614	19	2	8	60.0	2	0	[]
5659	1	1	8	60.0	2	0	[]
5728	1	4	8	60.0	2	0	[]
5866	2	1	8	60.0	2	0	[]
5906	2	1	8	60.0	2	0	[]
5984	11	2	8	60.0	2	0	[]
5996	4	1	8	60.0	2	0	[]
6048	4	1	8	60.0	2	0	[]
6050	6	2	16	80.0	2	0	[]
6060	1	2	16	60.0	1	0	[]
6077	6	4	32	80.0	2	0	[]
6081	5	1	8	60.0	2	0	[]
6107	1	4	8	60.0	2	0	[]
6158	2	1	8	60.0	2	0	[]
6234	12	1	8	60.0	2	0	[]
6353	2	1	8	60.0	2	0	[]
6388	1	4	8	60.0	2	0	[]
6432	4	1	8	60.0	2	0	[]
6444	3	3	3	60.0	2	0	[]
6456	2	1	8	60.0	2	0	[]
6474	15	6	8	60.0	2	1	[(4825, 0)]
6480	1	1	1	60.0	2	0	[]
6485	3	3	8	60.0	2	0	[]
6542	1	1	1	40.0	0	0	[]
6551	1	1	2	60.0	2	0	[]
6600	12	1	8	60.0	2	0	[]
6643	7	1	8	60.0	2	0	[]
6651	2	1	8	40.0	2	0	[]
6699	2	4	8	60.0	2	0	[]
6719	9	1	8	60.0	2	0	[]
6743	1	4	8	60.0	2	0	[]
6888	1	1	8	60.0	2	0	[]
6889	2	1	2	60.0	2	0	[]
6901	1	4	10	180.0	2	0	[]
6916	23	2	8	80.0	2	0	[]
6926	2	1	8	80.0	2	0	[]
6981	2	1	7	60.0	2	0	[]
6983	2	1	8	60.0	2	0	[]
7038	2	3	8	60.0	2	0	[]
7064	11	5	8	60.0	2	0	[]
7068	2	1	8	60.0	2	0	[]
7103	2	1	8	60.0	2	0	[]
7110	1	1	8	60.0	2	0	[]
7195	2	1	8	60.0	2	0	[]
7238	4	2	8	60.0	2	0	[]
7295	2	1	8	60.0	2	0	[]
7354	4	1	8	60.0	2	0	[]
7408	8	1	8	60.0	2	0	[]
7435	1	2	8	60.0	2	0	[]
7455	1	4	8	80.0	2	0	[]
7498	9	10	32	80.0	2	0	[]
7537	1	2	8	60.0	2	0	[]
7622	39	3	8	60.0	2	0	[]
7650	1	4	8	60.0	2	0	[]
7766	1	1	8	60.0	2	0	[]
7794	9	12	16	100.0	2	0	[]
7931	2	1	8	60.0	2	0	[]
7937	1	4	8	80.0	2	0	[]
7972	2	2	8	60.0	2	0	[]
8005	8	4	8	60.0	2	0	[]
8049	3	1	1	60.0	2	0	[]
8075	3	1	8	60.0	2	1	[(6081, 1)]
8081	5	1	8	40.0	2	0	[]
8090	2	1	1	60.0	2	0	[]
8173	2	1	3	60.0	2	0	[]
8195	2	1	8	60.0	2	0	[]
8228	4	1	8	60.0	2	0	[]
8248	3	1	8	60.0	2	0	[]
8256	1	1	7	60.0	2	0	[]
8286	1	1	1	80.0	2	0	[]
8312	42	4	8	40.0	1	1	[(4825, 1)]
8414	5	3	8	60.0	2	0	[]
8453	9	1	8	60.0	2	0	[]
8501	1	1	8	60.0	2	0	[]
8504	2	1	8	60.0	2	0	[]
8520	6	2	8	60.0	2	0	[]
8557	1	1	8	60.0	2	0	[]
8582	14	24	32	80.0	2	0	[]
8642	2	1	8	60.0	2	0	[]
8700	6	1	8	60.0	2	0	[]
8741	3	4	8	60.0	2	0	[]
8844	2	3	8	60.0	2	0	[]
8869	1	6	8	60.0	2	0	[]
8915	1	1	8	60.0	2	0	[]
8922	6	2	8	60.0	2	0	[]
8925	2	2	8	60.0	2	0	[]
8947	1	1	8	60.0	2	0	[]
8992	2	1	8	60.0	2	0	[]
9039	2	1	8	60.0	2	0	[]
9069	1	1	7	60.0	2	0	[]
9090	2	1	1	60.0	2	0	[]
9132	4	1	16	80.0	2	0	[]
9190	2	8	16	100.0	2	0	[]
9275	3	1	8	60.0	2	0	[]
9288	1	1	1	60.0	2	0	[]
9299	1	4	8	60.0	2	0	[]
