app_id	nb_instances	core	memory	disk	intra_value	inter_degree	inter_aff
16	2	1	8	60.0	2	0	[]
18	6	1	8	60.0	2	0	[]
31	1	1	8	60.0	2	0	[]
49	4	1	8	60.0	2	0	[]
52	22	2	8	60.0	2	0	[]
162	1	1	7	60.0	2	0	[]
206	2	4	8	60.0	2	0	[]
224	5	3	8	60.0	2	0	[]
280	2	1	8	60.0	2	0	[]
403	1	4	8	60.0	2	0	[]
410	2	1	8	60.0	2	0	[]
482	6	1	8	60.0	2	0	[]
548	2	2	8	60.0	2	0	[]
720	8	1	8	60.0	2	0	[]
778	2	1	8	60.0	2	0	[]
799	2	1	8	60.0	2	0	[]
866	2	1	8	60.0	2	0	[]
868	2	1	8	60.0	2	0	[]
931	1	1	8	60.0	2	0	[]
940	20	3	8	60.0	2	0	[]
953	5	1	8	60.0	2	0	[]
1006	1	1	1	60.0	2	0	[]
1054	1	3	8	60.0	2	0	[]
1104	2	1	2	60.0	2	0	[]
1119	3	5	8	100.0	2	0	[]
1196	3	1	8	100.0	2	0	[]
1297	1	1	8	60.0	2	0	[]
1300	2	1	8	60.0	2	0	[]
1304	2	1	2	60.0	2	0	[]
1423	2	1	1	60.0	2	0	[]
1432	2	1	8	60.0	2	0	[]
1440	2	1	8	60.0	2	0	[]
1489	1	1	8	60.0	2	0	[]
1501	1	1	2	60.0	2	0	[]
1536	2	1	8	60.0	2	0	[]
1552	1	4	8	60.0	2	0	[]
1594	4	1	2	60.0	2	0	[]
1655	1	4	8	60.0	2	0	[]
1671	1	1	1	60.0	2	0	[]
1733	8	1	1	60.0	2	0	[]
1738	4	1	8	60.0	2	0	[]
1760	7	4	8	60.0	2	0	[]
1821	12	1	8	60.0	2	0	[]
1834	21	4	8	60.0	2	1	[(1671, 2)]
1852	2	1	2	60.0	2	0	[]
1875	3	1	8	60.0	2	0	[]
1911	2	5	8	60.0	2	0	[]
2027	2	1	8	60.0	2	0	[]
2058	3	1	2	200.0	2	0	[]
2059	2	1	2	60.0	2	0	[]
2072	2	1	8	60.0	2	0	[]
2159	1	1	16	80.0	2	0	[]
2179	1	1	8	60.0	2	0	[]
2207	3	1	7	60.0	2	0	[]
2227	2	1	8	60.0	2	0	[]
2253	1	1	8	60.0	2	0	[]
2326	1	1	2	60.0	2	0	[]
2347	3	1	8	60.0	2	0	[]
2360	2	4	8	60.0	2	0	[]
2407	1	1	4	60.0	2	0	[]
2482	24	2	8	60.0	2	0	[]
2527	2	4	8	60.0	2	0	[]
2549	2	4	8	60.0	2	0	[]
2603	1	1	8	60.0	2	0	[]
2637	1	1	1	60.0	2	0	[]
2708	2	1	8	60.0	2	0	[]
2836	1	1	6	60.0	2	0	[]
2895	8	1	8	60.0	2	0	[]
2982	2	2	8	60.0	2	0	[]
3025	1	1	8	60.0	2	0	[]
3038	1	1	8	100.0	2	0	[]
3043	1	2	8	60.0	2	0	[]
3051	1	1	8	60.0	2	0	[]
3065	2	1	1	60.0	2	0	[]
3122	1	4	8	60.0	2	0	[]
3158	28	1	8	60.0	2	0	[]
3177	2	1	8	80.0	2	0	[]
3203	8	3	8	60.0	2	0	[]
3229	1	4	8	100.0	2	0	[]
3250	155	2	8	40.0	0	0	[]
3290	82	2	8	60.0	2	0	[]
3316	2	1	8	60.0	2	0	[]
3337	8	3	2	60.0	2	0	[]
3368	3	9	60	60.0	2	2	[(4014, 2), (5905, 2)]
3425	53	5	8	60.0	2	2	[(3965, 2), (8767, 1)]
3446	1	1	8	60.0	2	0	[]
3481	12	4	8	60.0	2	0	[]
3496	1	1	4	60.0	2	0	[]
3532	1	1	1	60.0	2	0	[]
3547	17	1	8	60.0	2	0	[]
3576	2	1	8	60.0	2	0	[]
3646	1	1	1	60.0	2	0	[]
3655	10	1	8	60.0	2	0	[]
3747	18	1	8	60.0	2	1	[(8935, 1)]
3777	1	1	1	60.0	2	0	[]
3783	2	1	8	60.0	2	0	[]
3856	2	2	8	60.0	2	0	[]
3861	2	1	2	60.0	2	0	[]
3866	9	2	2	60.0	2	0	[]
3923	6	1	8	60.0	2	0	[]
3965	2	1	8	80.0	2	0	[]
3982	60	4	8	60.0	2	0	[]
4014	1	2	32	100.0	2	1	[(3368, 1)]
4076	4	1	8	60.0	2	0	[]
4089	2	1	8	60.0	2	0	[]
4233	1	1	2	60.0	2	0	[]
4238	1	1	8	40.0	2	0	[]
4264	4	1	8	60.0	2	0	[]
4380	1	1	8	60.0	2	0	[]
4395	1	5	8	60.0	2	0	[]
4541	2	3	8	60.0	2	0	[]
4544	4	1	8	60.0	2	0	[]
4566	2	1	8	60.0	2	0	[]
4660	1	4	8	60.0	2	0	[]
4692	14	1	8	60.0	2	0	[]
4763	3	1	8	60.0	2	0	[]
4810	2	1	8	60.0	2	0	[]
4813	2	1	6	60.0	2	0	[]
4817	1	1	2	60.0	2	0	[]
4822	1	1	7	60.0	2	0	[]
4829	1	1	2	60.0	2	0	[]
4861	1	1	8	60.0	2	0	[]
4909	18	2	8	60.0	2	1	[(5643, 2)]
4917	2	1	8	60.0	2	0	[]
4927	2	4	8	60.0	2	0	[]
5090	1	2	8	60.0	2	0	[]
5099	2	1	8	60.0	2	0	[]
5203	1	1	2	60.0	2	0	[]
5210	1	1	8	60.0	2	0	[]
5243	1	1	2	60.0	2	0	[]
5260	5	3	8	60.0	2	0	[]
5336	19	1	8	60.0	2	0	[]
5359	1	1	8	60.0	2	0	[]
5385	5	2	8	60.0	2	0	[]
5392	1	1	1	60.0	2	0	[]
5396	1	1	8	60.0	2	0	[]
5404	2	4	8	60.0	2	0	[]
5408	2	1	8	60.0	2	0	[]
5523	8	2	8	60.0	2	0	[]
5534	2	1	1	60.0	2	0	[]
5548	29	4	8	60.0	2	2	[(5747, 0), (3861, 0)]
5565	11	3	8	60.0	2	1	[(8767, 1)]
5570	9	1	2	100.0	2	0	[]
5609	2	4	8	60.0	2	0	[]
5616	2	1	8	60.0	2	0	[]
5643	2	1	8	60.0	2	0	[]
5688	1	1	2	60.0	2	0	[]
5695	3	2	8	60.0	2	0	[]
5717	2	1	8	60.0	2	0	[]
5729	1	4	8	60.0	2	0	[]
5734	6	1	8	60.0	2	0	[]
5747	18	3	8	60.0	2	0	[]
5759	1	1	2	60.0	2	0	[]
5762	3	1	8	60.0	2	0	[]
5771	6	2	8	60.0	2	0	[]
5788	2	1	8	60.0	2	0	[]
5801	1	1	8	60.0	2	0	[]
5826	6	1	8	60.0	2	0	[]
5830	2	1	8	80.0	2	0	[]
5869	2	1	8	60.0	2	0	[]
5905	149	12	32	100.0	2	3	[(3368, 1), (7309, 0), (8412, 0)]
6137	17	1	8	60.0	2	0	[]
6155	6	2	8	60.0	2	0	[]
6156	2	1	8	60.0	2	0	[]
6167	3	1	4	60.0	2	0	[]
6227	4	6	8	60.0	2	0	[]
6254	1	1	8	60.0	2	0	[]
6337	2	2	8	60.0	2	0	[]
6380	3	1	8	60.0	2	0	[]
6389	1	1	2	60.0	2	0	[]
6407	2	1	8	60.0	2	0	[]
6422	1	1	6	60.0	2	0	[]
6505	2	1	8	60.0	2	0	[]
6520	36	3	8	40.0	2	0	[]
6546	1	1	2	60.0	2	0	[]
6578	3	4	16	60.0	2	0	[]
6600	12	1	8	60.0	2	0	[]
6671	1	1	2	60.0	2	0	[]
6675	1	4	8	60.0	2	0	[]
6776	2	1	2	60.0	2	0	[]
6871	5	2	8	60.0	2	0	[]
6876	1	1	1	60.0	2	0	[]
6953	2	1	8	60.0	2	0	[]
6962	2	1	8	60.0	2	0	[]
6966	2	1	8	60.0	2	0	[]
7035	14	2	8	100.0	2	0	[]
7083	1	1	8	60.0	2	0	[]
7128	2	6	2	60.0	2	0	[]
7150	2	6	8	60.0	2	0	[]
7227	1	4	8	60.0	2	0	[]
7242	2	1	8	60.0	2	0	[]
7293	1	1	1	60.0	2	0	[]
7309	87	5	8	40.0	0	1	[(5905, 0)]
7334	1	1	8	60.0	2	0	[]
7379	1	1	16	60.0	2	0	[]
7405	1	1	1	60.0	2	0	[]
7467	6	1	8	60.0	2	0	[]
7489	2	1	8	60.0	2	0	[]
7542	2	1	8	60.0	2	0	[]
7550	1	1	8	60.0	2	0	[]
7656	2	1	2	60.0	2	0	[]
7704	2	1	8	60.0	2	0	[]
7722	1	1	16	100.0	2	0	[]
7724	6	2	8	60.0	2	0	[]
7728	1	1	8	60.0	2	0	[]
7740	12	6	8	60.0	2	1	[(8767, 2)]
7764	8	2	8	60.0	2	0	[]
7785	2	1	8	60.0	2	0	[]
7819	1	1	2	60.0	2	0	[]
7836	4	2	8	60.0	2	0	[]
7869	5	1	8	60.0	2	0	[]
7910	1	4	8	60.0	2	0	[]
7926	2	2	8	60.0	2	0	[]
7962	3	1	8	60.0	2	0	[]
7977	2	1	8	60.0	2	0	[]
8031	2	1	8	60.0	2	0	[]
8071	1	1	2	60.0	2	0	[]
8073	6	2	8	60.0	2	0	[]
8111	2	1	8	60.0	2	0	[]
8151	5	1	8	60.0	2	0	[]
8178	1	2	8	40.0	0	0	[]
8240	1	1	4	60.0	2	0	[]
8337	3	2	8	60.0	2	0	[]
8357	3	1	8	60.0	2	0	[]
8366	4	1	16	60.0	2	0	[]
8412	31	3	8	60.0	2	0	[]
8452	2	1	8	60.0	2	0	[]
8478	17	2	8	60.0	2	0	[]
8492	2	1	8	60.0	2	0	[]
8537	2	1	8	60.0	2	0	[]
8555	3	6	8	60.0	2	0	[]
8561	1	1	2	60.0	2	0	[]
8579	3	1	8	60.0	2	0	[]
8586	3	1	8	60.0	2	0	[]
8627	1	1	1	60.0	2	0	[]
8767	180	5	8	60.0	2	1	[(5203, 2)]
8795	5	6	8	60.0	2	0	[]
8871	8	1	8	60.0	2	0	[]
8886	2	1	8	60.0	2	0	[]
8895	1	4	8	60.0	2	0	[]
8918	2	1	8	60.0	2	0	[]
8935	16	2	8	60.0	2	1	[(3203, 0)]
8940	2	1	8	60.0	2	0	[]
8950	3	3	8	60.0	2	0	[]
8955	12	2	8	60.0	2	0	[]
8985	2	1	8	60.0	2	0	[]
9048	2	4	8	60.0	2	0	[]
9081	2	1	8	60.0	2	0	[]
9157	5	2	8	60.0	2	0	[]
9316	2	1	2	60.0	2	0	[]
