app_id	nb_instances	core	memory	disk	intra_value	inter_degree	inter_aff
3	4	1	8	60.0	2	0	[]
27	21	3	8	60.0	2	1	[(6659, 0)]
56	5	1	8	60.0	2	0	[]
90	2	2	8	60.0	2	0	[]
135	36	3	2	60.0	2	0	[]
151	2	1	8	60.0	2	0	[]
153	2	1	8	60.0	2	0	[]
190	4	3	8	60.0	2	0	[]
229	2	1	3	60.0	2	0	[]
251	1	1	8	60.0	2	0	[]
264	1	4	8	60.0	2	0	[]
302	8	12	16	100.0	2	0	[]
410	2	1	8	60.0	2	0	[]
483	14	1	8	60.0	2	0	[]
532	1	1	8	60.0	2	0	[]
621	1	1	8	60.0	2	0	[]
622	1	1	8	60.0	2	0	[]
649	1	1	2	60.0	2	0	[]
655	26	1	8	40.0	2	1	[(737, 2)]
659	6	1	4	60.0	2	0	[]
686	1	4	8	60.0	2	0	[]
735	1	1	8	60.0	2	0	[]
737	10	5	32	60.0	2	1	[(1328, 2)]
756	23	2	8	60.0	2	0	[]
782	319	6	8	60.0	2	1	[(6659, 0)]
824	5	2	8	60.0	2	0	[]
847	2	5	8	60.0	2	0	[]
897	10	6	8	60.0	2	0	[]
945	21	1	8	60.0	2	0	[]
970	4	1	8	60.0	2	0	[]
1016	6	2	8	60.0	2	0	[]
1023	2	1	15	80.0	2	0	[]
1028	1	1	1	60.0	2	0	[]
1029	1	1	8	80.0	2	0	[]
1056	1	1	2	60.0	2	0	[]
1060	2	1	8	60.0	2	0	[]
1078	2	1	8	60.0	2	0	[]
1125	1	36	30	300.0	2	0	[]
1186	1	1	5	60.0	2	0	[]
1202	1	1	8	60.0	2	0	[]
1217	2	1	6	60.0	2	0	[]
1249	2	4	8	60.0	2	0	[]
1250	1	1	8	60.0	2	0	[]
1273	2	1	7	60.0	2	0	[]
1284	2	1	8	60.0	2	0	[]
1300	2	1	8	60.0	2	0	[]
1325	2	1	8	60.0	2	0	[]
1327	2	1	8	60.0	2	0	[]
1328	130	12	16	60.0	2	2	[(6659, 0), (737, 2)]
1333	10	1	8	60.0	2	0	[]
1366	1	1	8	60.0	2	0	[]
1442	1	1	8	60.0	2	0	[]
1478	2	1	8	60.0	2	0	[]
1507	3	2	8	60.0	2	0	[]
1540	4	1	8	60.0	2	0	[]
1559	18	1	8	100.0	2	0	[]
1563	2	2	8	60.0	2	0	[]
1590	2	1	6	60.0	2	0	[]
1673	8	4	8	60.0	2	0	[]
1717	1	4	8	60.0	2	0	[]
1740	4	1	8	60.0	2	0	[]
1764	2	1	2	60.0	2	0	[]
1781	17	5	8	60.0	0	1	[(6659, 0)]
1823	1	1	2	60.0	2	0	[]
1951	1	1	2	60.0	2	0	[]
2004	2	1	8	60.0	2	0	[]
2007	6	2	8	60.0	2	0	[]
2059	2	1	2	60.0	2	0	[]
2098	3	2	8	60.0	2	0	[]
2114	5	1	8	60.0	2	0	[]
2139	5	1	8	60.0	2	0	[]
2216	2	1	16	200.0	2	0	[]
2311	2	1	8	60.0	2	0	[]
2369	1	4	8	60.0	2	0	[]
2389	1	4	8	60.0	2	0	[]
2425	2	1	8	60.0	2	0	[]
2428	3	1	8	60.0	2	0	[]
2455	5	6	8	60.0	2	0	[]
2465	6	2	8	60.0	2	0	[]
2466	6	1	8	60.0	2	0	[]
2519	3	4	8	60.0	2	0	[]
2584	2	1	8	60.0	2	0	[]
2672	2	1	8	60.0	2	0	[]
2675	2	2	8	60.0	2	0	[]
2679	2	1	3	60.0	2	0	[]
2707	2	4	8	60.0	2	0	[]
2720	1	1	8	60.0	2	0	[]
2822	2	3	8	80.0	2	0	[]
2832	1	1	8	60.0	2	0	[]
2893	2	1	8	60.0	2	0	[]
2933	1	3	8	60.0	2	0	[]
3021	37	4	8	60.0	2	0	[]
3131	1	1	8	60.0	2	0	[]
3156	2	1	8	60.0	2	0	[]
3227	2	2	8	60.0	2	0	[]
3296	2	1	8	60.0	2	0	[]
3331	1	5	16	60.0	2	0	[]
3391	4	1	8	60.0	2	0	[]
3404	1	1	8	60.0	2	0	[]
3419	1	1	4	60.0	2	0	[]
3427	7	6	8	60.0	2	0	[]
3480	20	2	16	60.0	2	0	[]
3516	2	1	4	60.0	2	0	[]
3536	2	1	8	60.0	2	0	[]
3554	4	1	8	60.0	2	1	[(6659, 0)]
3612	13	1	13	60.0	2	1	[(6334, 0)]
3621	12	2	8	60.0	2	0	[]
3638	1	4	8	60.0	2	0	[]
3689	2	1	8	60.0	2	0	[]
3782	1	1	1	60.0	2	0	[]
3832	1	1	8	60.0	2	0	[]
3875	10	2	8	60.0	2	0	[]
3903	2	1	8	60.0	2	0	[]
3944	2	1	8	60.0	2	0	[]
3985	3	1	8	60.0	2	0	[]
3989	1	1	8	60.0	2	0	[]
4090	2	1	24	500.0	2	0	[]
4098	2	1	2	60.0	2	0	[]
4198	6	1	8	60.0	2	0	[]
4251	1	1	8	60.0	2	0	[]
4267	1	1	7	60.0	2	0	[]
4277	1	1	1	60.0	2	0	[]
4357	2	3	16	60.0	0	0	[]
4372	2	1	8	60.0	2	0	[]
4382	6	1	8	60.0	2	0	[]
4388	2	2	8	100.0	2	0	[]
4410	2	1	8	60.0	2	0	[]
4413	1	1	8	60.0	2	0	[]
4446	1	1	2	60.0	2	0	[]
4602	1	1	8	60.0	2	0	[]
4603	1	1	8	60.0	2	0	[]
4649	19	1	10	60.0	2	0	[]
4678	15	6	3	60.0	2	0	[]
4791	3	1	8	60.0	2	0	[]
4805	1	4	8	60.0	2	0	[]
4918	1	4	8	60.0	2	0	[]
4923	3	36	48	300.0	2	0	[]
5136	2	4	8	60.0	2	0	[]
5217	28	5	2	200.0	2	1	[(6659, 0)]
5260	5	3	8	60.0	2	0	[]
5264	145	12	16	60.0	1	2	[(6659, 0), (7112, 2)]
5362	55	2	8	60.0	2	2	[(1559, 2), (6659, 0)]
5585	20	1	8	60.0	2	0	[]
5624	2	1	8	60.0	2	0	[]
5632	3	2	8	60.0	2	1	[(6659, 0)]
5716	1	1	8	100.0	2	0	[]
5728	1	4	8	60.0	2	0	[]
5758	1	4	8	60.0	2	0	[]
5776	1	1	8	60.0	2	0	[]
5832	1	1	8	60.0	2	0	[]
5834	5	1	8	60.0	2	0	[]
5859	5	34	2	600.0	2	0	[]
5965	2	3	8	60.0	2	0	[]
5974	2	1	8	60.0	2	0	[]
5995	15	10	16	80.0	2	0	[]
6073	5	3	8	40.0	2	0	[]
6089	6	5	8	60.0	2	0	[]
6092	1	1	8	60.0	2	0	[]
6102	2	1	16	60.0	2	0	[]
6119	2	1	8	60.0	2	0	[]
6141	4	1	8	60.0	2	0	[]
6261	1	8	16	80.0	2	0	[]
6280	3	5	8	60.0	2	0	[]
6304	10	2	8	60.0	0	1	[(6659, 0)]
6334	50	12	16	100.0	2	0	[]
6356	1	1	8	60.0	2	0	[]
6439	6	3	8	60.0	2	0	[]
6457	2	1	3	60.0	2	0	[]
6476	1	1	8	60.0	2	0	[]
6514	24	3	8	60.0	2	0	[]
6521	3	1	8	60.0	2	0	[]
6554	5	2	8	60.0	2	0	[]
6625	2	1	8	60.0	2	0	[]
6659	117	3	8	120.0	0	12	[(1328, 0), (5632, 0), (7486, 0), (7236, 0), (6304, 0), (5217, 0), (782, 0), (1781, 0), (5264, 0), (3554, 0), (5362, 0), (27, 0)]
6690	2	4	16	80.0	2	0	[]
6837	5	1	8	60.0	2	0	[]
6846	5	1	8	60.0	2	0	[]
6889	2	1	2	60.0	2	0	[]
6893	2	1	7	60.0	2	0	[]
6935	12	1	8	100.0	2	0	[]
6948	1	4	8	60.0	2	0	[]
7000	1	1	8	60.0	2	0	[]
7003	1	1	2	60.0	2	0	[]
7105	1	1	8	60.0	2	0	[]
7112	3	4	2	60.0	2	0	[]
7120	3	1	8	60.0	2	0	[]
7126	2	1	1	60.0	2	0	[]
7141	1	1	8	60.0	2	0	[]
7156	3	1	1	60.0	2	0	[]
7172	5	2	8	60.0	2	0	[]
7218	1	2	4	60.0	2	0	[]
7236	7	1	8	60.0	2	1	[(6659, 0)]
7269	1	1	2	60.0	2	0	[]
7297	2	3	8	60.0	2	0	[]
7344	2	1	8	60.0	2	0	[]
7369	54	6	8	60.0	2	0	[]
7370	10	1	8	60.0	2	0	[]
7395	2	1	8	60.0	2	0	[]
7429	1	1	1	60.0	2	0	[]
7486	225	3	8	60.0	2	1	[(6659, 0)]
7554	4	1	8	60.0	2	0	[]
7640	1	1	8	60.0	2	0	[]
7708	32	3	8	60.0	2	1	[(6073, 2)]
7740	12	6	8	60.0	2	0	[]
7754	22	1	8	60.0	2	1	[(782, 0)]
7795	3	5	8	60.0	2	0	[]
7915	2	1	8	60.0	2	0	[]
8036	2	1	8	60.0	2	0	[]
8096	1	4	8	60.0	2	0	[]
8101	8	3	8	60.0	2	0	[]
8132	10	5	8	60.0	2	0	[]
8139	28	6	8	60.0	2	0	[]
8160	1	4	8	60.0	2	0	[]
8167	1	1	8	40.0	2	0	[]
8181	1	1	8	60.0	2	0	[]
8215	6	2	8	60.0	2	0	[]
8235	3	1	8	60.0	2	0	[]
8242	8	5	8	60.0	2	1	[(7708, 0)]
8252	1	1	8	60.0	2	0	[]
8350	1	4	8	60.0	2	0	[]
8353	4	1	3	60.0	2	0	[]
8369	2	1	8	60.0	2	0	[]
8376	2	1	8	60.0	2	0	[]
8385	2	5	8	60.0	2	0	[]
8393	3	1	2	60.0	2	0	[]
8411	2	1	8	60.0	2	0	[]
8512	2	2	8	60.0	2	0	[]
8515	1	4	8	60.0	2	0	[]
8553	7	1	8	40.0	2	0	[]
8621	1	1	8	60.0	2	2	[(7370, 0), (9029, 0)]
8635	2	1	8	60.0	2	0	[]
8645	1	1	2	60.0	2	0	[]
8732	3	1	8	60.0	2	0	[]
8785	1	1	8	60.0	2	0	[]
8812	3	1	2	60.0	2	0	[]
8855	5	3	8	60.0	2	0	[]
8865	1	1	1	80.0	2	0	[]
8867	2	1	7	60.0	2	0	[]
9029	3	1	8	60.0	2	0	[]
9042	1	1	8	60.0	2	0	[]
9043	2	1	8	60.0	2	0	[]
9104	1	1	2	60.0	2	0	[]
9149	5	2	8	60.0	2	0	[]
9200	2	1	8	60.0	2	0	[]
9237	1	1	2	60.0	2	0	[]
9238	1	4	8	60.0	2	0	[]
9271	1	1	8	60.0	2	0	[]
9288	1	1	1	60.0	2	0	[]
9292	2	3	16	60.0	2	0	[]
9295	1	4	8	60.0	2	0	[]
