app_id	nb_instances	core	memory	disk	intra_value	inter_degree	inter_aff
20	4	6	8	60.0	2	0	[]
24	2	2	8	60.0	2	0	[]
74	2	1	9	600.0	2	0	[]
102	1	1	8	60.0	2	0	[]
143	33	2	8	60.0	2	0	[]
160	6	1	8	40.0	2	0	[]
165	2	1	8	60.0	2	0	[]
190	4	3	8	60.0	2	0	[]
220	8	4	16	60.0	2	0	[]
227	5	1	8	60.0	2	0	[]
265	2	1	8	60.0	2	0	[]
297	1	1	8	60.0	2	0	[]
327	5	2	8	60.0	2	0	[]
429	1	1	1	60.0	2	0	[]
569	4	1	8	60.0	2	0	[]
656	2	12	8	60.0	2	0	[]
678	1	1	8	60.0	2	0	[]
690	2	1	8	60.0	2	0	[]
724	2	1	8	60.0	2	0	[]
751	1	1	1	60.0	2	0	[]
764	2	1	8	60.0	2	0	[]
768	6	2	8	60.0	2	0	[]
780	2	4	8	60.0	2	2	[(3203, 0), (3008, 0)]
860	2	1	8	60.0	2	0	[]
925	1	1	8	60.0	2	0	[]
949	16	2	8	40.0	2	0	[]
977	2	1	3	60.0	2	0	[]
979	2	4	8	60.0	2	0	[]
1021	3	1	8	60.0	2	0	[]
1027	2	1	8	60.0	2	0	[]
1030	1	2	8	60.0	2	0	[]
1162	2	1	8	60.0	2	0	[]
1194	3	1	8	60.0	2	0	[]
1308	2	1	8	60.0	2	0	[]
1386	2	1	8	60.0	2	0	[]
1392	3	1	16	80.0	2	0	[]
1433	2	1	8	60.0	2	0	[]
1450	1	1	8	60.0	2	0	[]
1460	1	1	8	60.0	2	0	[]
1469	3	1	8	60.0	2	0	[]
1587	21	8	32	60.0	0	1	[(1021, 0)]
1665	2	1	8	500.0	2	0	[]
1695	2	6	8	60.0	2	0	[]
1761	2	6	8	60.0	2	0	[]
1799	1	4	8	60.0	2	0	[]
1880	2	1	4	60.0	2	0	[]
1903	2	1	8	60.0	2	0	[]
1906	3	1	8	80.0	2	0	[]
1979	4	2	8	60.0	2	0	[]
2006	1	1	8	60.0	2	0	[]
2025	1	4	8	60.0	2	0	[]
2054	12	5	8	60.0	2	0	[]
2108	4	4	8	80.0	2	0	[]
2128	2	1	8	60.0	2	0	[]
2167	1	1	8	60.0	2	0	[]
2172	2	1	8	60.0	2	0	[]
2226	2	1	8	60.0	2	0	[]
2241	3	1	8	60.0	2	0	[]
2275	2	1	8	60.0	2	0	[]
2292	16	1	16	80.0	2	0	[]
2332	26	2	8	80.0	2	1	[(1587, 0)]
2375	1	4	16	80.0	2	0	[]
2388	1	4	8	60.0	2	0	[]
2517	3	1	8	60.0	2	0	[]
2529	2	1	8	60.0	2	0	[]
2534	2	1	8	60.0	2	0	[]
2561	2	1	16	80.0	2	0	[]
2562	2	4	8	60.0	2	0	[]
2581	2	1	4	60.0	2	0	[]
2606	2	2	2	60.0	2	0	[]
2614	1	1	2	60.0	2	0	[]
2659	1	1	2	60.0	2	0	[]
2738	2	1	8	60.0	2	0	[]
2748	1	1	8	60.0	2	0	[]
2796	1	1	8	60.0	2	0	[]
2814	25	1	8	60.0	2	0	[]
2848	1	1	8	60.0	2	0	[]
2878	2	4	8	60.0	2	0	[]
2948	1	1	1	60.0	2	0	[]
2950	1	1	3	60.0	2	0	[]
2992	1	1	2	60.0	2	0	[]
3007	4	1	8	60.0	2	0	[]
3008	5	1	8	60.0	2	0	[]
3041	9	3	8	60.0	2	0	[]
3050	4	1	8	60.0	2	0	[]
3096	7	1	8	60.0	2	0	[]
3106	39	6	8	60.0	2	0	[]
3118	2	1	8	60.0	2	0	[]
3123	2	1	1	60.0	2	0	[]
3163	2	1	8	60.0	2	0	[]
3176	3	1	8	60.0	2	0	[]
3203	8	3	8	60.0	2	0	[]
3315	2	1	8	60.0	2	0	[]
3318	2	3	8	60.0	2	0	[]
3347	2	1	8	60.0	2	0	[]
3380	1	12	16	200.0	2	0	[]
3447	1	3	8	60.0	2	0	[]
3451	2	1	8	60.0	2	0	[]
3502	1	1	8	60.0	2	0	[]
3528	1	1	8	60.0	2	0	[]
3635	4	1	4	60.0	2	0	[]
3701	21	1	8	60.0	2	0	[]
3724	1	4	8	60.0	2	0	[]
3727	2	1	8	60.0	2	0	[]
3779	3	2	8	60.0	2	0	[]
3798	1	1	8	60.0	2	0	[]
3814	2	1	2	60.0	2	0	[]
3819	2	1	8	60.0	2	0	[]
3920	4	1	8	60.0	2	0	[]
4075	7	2	8	60.0	2	0	[]
4076	4	1	8	60.0	2	0	[]
4082	1	1	8	60.0	2	0	[]
4122	7	1	8	60.0	2	0	[]
4153	2	5	8	60.0	2	0	[]
4244	2	1	8	60.0	2	0	[]
4373	6	12	16	60.0	2	0	[]
4419	1	1	8	60.0	2	0	[]
4432	1	1	8	60.0	2	0	[]
4437	1	1	1	80.0	2	0	[]
4438	6	1	8	250.0	2	0	[]
4459	12	6	8	60.0	2	0	[]
4469	1	8	16	200.0	2	0	[]
4532	2	1	8	60.0	2	0	[]
4546	2	4	8	60.0	2	0	[]
4654	4	2	8	60.0	2	0	[]
4664	3	1	9	80.0	2	0	[]
4763	3	1	8	60.0	2	0	[]
4764	1	4	8	60.0	2	0	[]
4772	7	1	8	60.0	2	0	[]
4807	2	1	1	100.0	2	0	[]
4848	1	4	8	60.0	2	0	[]
4850	1	1	2	60.0	2	0	[]
4909	18	2	8	60.0	2	0	[]
5023	2	1	8	60.0	2	0	[]
5070	2	3	8	60.0	2	0	[]
5108	1	1	2	60.0	2	0	[]
5135	1	7	16	60.0	1	0	[]
5192	2	1	8	60.0	2	0	[]
5223	4	5	16	60.0	2	0	[]
5289	6	1	8	60.0	2	0	[]
5362	55	2	8	60.0	2	1	[(6414, 1)]
5387	3	1	8	60.0	2	0	[]
5407	1	1	8	60.0	2	0	[]
5437	3	3	16	60.0	2	0	[]
5479	6	1	8	60.0	2	0	[]
5494	1	4	8	60.0	2	0	[]
5514	1	4	8	60.0	2	0	[]
5522	25	6	8	60.0	0	1	[(8778, 0)]
5557	2	2	8	60.0	2	0	[]
5575	1	1	2	60.0	2	0	[]
5638	2	1	2	60.0	2	0	[]
5661	9	6	8	60.0	2	0	[]
5711	1	4	8	60.0	2	0	[]
5859	5	34	2	600.0	2	0	[]
5959	2	1	8	60.0	2	0	[]
5972	3	1	8	60.0	2	0	[]
5991	4	1	8	40.0	2	0	[]
6017	2	1	8	60.0	2	0	[]
6030	1	1	8	60.0	2	0	[]
6046	2	1	8	60.0	2	0	[]
6127	4	1	8	60.0	2	0	[]
6173	2	1	8	60.0	2	0	[]
6187	3	1	8	60.0	2	0	[]
6195	2	1	2	60.0	2	0	[]
6204	1	1	8	60.0	2	0	[]
6220	3	1	8	60.0	2	0	[]
6224	2	1	5	60.0	2	0	[]
6230	57	5	8	60.0	0	1	[(7907, 0)]
6238	2	1	8	60.0	2	0	[]
6390	1	8	16	60.0	2	0	[]
6414	2	1	8	60.0	2	0	[]
6417	2	1	8	60.0	2	0	[]
6444	3	3	3	60.0	2	0	[]
6462	1	1	4	60.0	2	0	[]
6503	3	1	8	60.0	2	0	[]
6546	1	1	2	60.0	2	0	[]
6556	1	1	8	60.0	2	0	[]
6594	1	1	8	60.0	2	0	[]
6599	2	2	8	60.0	2	0	[]
6631	2	1	8	60.0	2	0	[]
6665	2	1	8	60.0	2	0	[]
6671	1	1	2	60.0	2	0	[]
6737	3	1	8	60.0	2	0	[]
6781	1	4	8	60.0	2	0	[]
6802	1	1	8	60.0	2	0	[]
6814	4	1	5	60.0	2	2	[(2172, 0), (5661, 0)]
6838	14	12	16	60.0	2	0	[]
6858	1	1	1	60.0	2	0	[]
6878	1	1	8	60.0	2	0	[]
6887	1	1	8	60.0	2	0	[]
6895	6	1	8	60.0	2	0	[]
6981	2	1	7	60.0	2	0	[]
7013	6	6	8	60.0	2	0	[]
7024	2	1	8	60.0	2	0	[]
7029	2	1	8	60.0	2	0	[]
7037	3	2	16	200.0	2	0	[]
7048	1	1	12	200.0	1	0	[]
7052	8	4	8	60.0	2	0	[]
7093	2	1	8	60.0	2	0	[]
7170	5	1	8	60.0	2	0	[]
7182	3	1	10	80.0	2	0	[]
7260	2	1	2	60.0	2	0	[]
7300	1	1	8	60.0	2	0	[]
7318	4	6	8	60.0	2	0	[]
7329	1	4	8	60.0	2	0	[]
7349	1	1	1	60.0	2	0	[]
7356	9	2	7	60.0	2	0	[]
7451	1	4	8	60.0	2	0	[]
7543	3	1	8	60.0	2	0	[]
7598	1	1	8	60.0	2	0	[]
7633	1	1	8	60.0	2	0	[]
7756	1	1	6	60.0	2	0	[]
7900	2	1	2	60.0	2	0	[]
7907	2	2	8	60.0	2	0	[]
8057	6	3	8	100.0	2	0	[]
8118	2	1	8	60.0	2	0	[]
8203	9	2	8	60.0	2	0	[]
8330	1	1	8	60.0	2	0	[]
8356	2	1	8	60.0	2	0	[]
8400	1	1	7	60.0	2	0	[]
8479	2	1	2	60.0	2	0	[]
8514	2	1	7	60.0	2	0	[]
8531	4	1	7	60.0	2	0	[]
8544	2	2	8	60.0	2	0	[]
8561	1	1	2	60.0	2	0	[]
8573	1	1	8	60.0	2	0	[]
8632	1	1	8	60.0	2	0	[]
8701	2	2	8	60.0	2	0	[]
8715	1	1	8	60.0	2	0	[]
8719	4	1	7	60.0	2	0	[]
8777	2	1	8	60.0	2	0	[]
8778	2	1	8	60.0	2	0	[]
8784	1	1	8	60.0	2	0	[]
8829	2	1	8	60.0	2	0	[]
8861	3	1	8	60.0	2	0	[]
8876	1	1	8	60.0	2	0	[]
8885	2	1	8	60.0	2	0	[]
9028	2	1	8	60.0	2	0	[]
9030	1	4	8	80.0	2	0	[]
9033	2	1	1	60.0	2	0	[]
9106	1	1	7	60.0	2	0	[]
9111	4	4	8	60.0	2	0	[]
9138	72	6	8	60.0	2	0	[]
9142	2	1	8	60.0	2	0	[]
9179	2	1	8	60.0	2	0	[]
9253	2	1	8	60.0	2	0	[]
9273	4	2	8	60.0	2	0	[]
9288	1	1	1	60.0	2	0	[]
9292	2	3	16	60.0	2	0	[]
9315	3	1	8	60.0	2	0	[]
