app_id	nb_instances	core	memory	disk	intra_value	inter_degree	inter_aff
15	2	1	2	60.0	2	0	[]
87	4	1	8	60.0	2	0	[]
96	3	1	8	60.0	2	0	[]
144	2	1	8	60.0	2	0	[]
186	2	1	8	60.0	2	0	[]
205	1	1	8	60.0	2	0	[]
206	2	4	8	60.0	2	0	[]
228	2	1	8	60.0	2	0	[]
396	4	1	8	60.0	2	0	[]
418	5	2	8	60.0	2	0	[]
485	3	1	8	60.0	2	0	[]
505	14	2	8	60.0	2	0	[]
541	35	2	8	40.0	2	1	[(4349, 0)]
551	16	3	8	100.0	2	0	[]
564	2	1	8	60.0	2	0	[]
569	4	1	8	60.0	2	0	[]
615	14	2	8	60.0	2	0	[]
646	27	6	8	60.0	2	1	[(1129, 2)]
766	4	3	8	60.0	2	0	[]
819	3	1	8	80.0	2	0	[]
821	2	1	3	60.0	2	0	[]
832	6	1	8	60.0	2	2	[(7338, 0), (7309, 2)]
855	1	1	1	60.0	2	0	[]
867	1	1	8	60.0	2	0	[]
878	2	4	8	60.0	2	0	[]
889	1	1	8	60.0	2	0	[]
919	1	1	8	60.0	2	0	[]
1009	11	3	8	60.0	2	1	[(6659, 0)]
1058	1	1	8	60.0	2	0	[]
1059	31	6	8	60.0	2	1	[(6659, 0)]
1084	2	1	8	60.0	2	0	[]
1094	1	4	8	60.0	2	0	[]
1127	5	1	8	60.0	2	0	[]
1129	2	1	8	60.0	2	0	[]
1148	5	2	8	60.0	2	1	[(7386, 0)]
1169	4	2	8	60.0	2	0	[]
1181	1	1	8	60.0	2	0	[]
1189	3	1	8	60.0	2	0	[]
1195	98	5	8	60.0	2	3	[(6659, 0), (8271, 2), (1730, 0)]
1198	1	2	8	60.0	2	0	[]
1230	1	4	8	60.0	2	0	[]
1268	2	1	8	60.0	2	0	[]
1274	4	1	8	60.0	2	1	[(6659, 0)]
1286	1	1	8	60.0	2	0	[]
1287	13	1	8	60.0	2	1	[(6659, 0)]
1388	8	2	8	60.0	2	0	[]
1490	1	1	8	60.0	2	0	[]
1522	49	6	8	40.0	2	4	[(6659, 0), (7309, 0), (1059, 2), (1287, 2)]
1598	2	1	8	60.0	2	0	[]
1632	1	4	8	60.0	2	0	[]
1636	1	1	8	60.0	2	0	[]
1728	139	6	8	60.0	0	1	[(6659, 0)]
1730	4	1	8	60.0	2	0	[]
1739	2	1	3	60.0	2	0	[]
1831	2	1	1	60.0	2	0	[]
1836	4	1	8	60.0	2	0	[]
1843	4	1	8	60.0	2	0	[]
1848	5	3	8	60.0	2	0	[]
1861	4	1	8	60.0	2	0	[]
1871	4	2	8	60.0	2	0	[]
2008	1	1	8	60.0	2	0	[]
2060	1	3	8	60.0	2	0	[]
2065	2	1	8	60.0	2	0	[]
2071	2	1	8	60.0	2	0	[]
2073	2	3	16	60.0	2	1	[(6659, 0)]
2109	1	1	48	300.0	2	0	[]
2136	2	2	8	60.0	2	0	[]
2137	1	1	8	60.0	2	0	[]
2205	2	1	8	60.0	2	0	[]
2225	2	1	2	60.0	2	0	[]
2246	10	1	8	60.0	2	0	[]
2249	1	1	8	60.0	2	0	[]
2256	3	1	8	60.0	2	0	[]
2282	1	4	8	60.0	2	0	[]
2318	1	1	8	60.0	2	0	[]
2404	1	2	8	60.0	2	0	[]
2444	4	1	8	60.0	2	0	[]
2452	5	4	8	60.0	2	0	[]
2509	8	1	8	60.0	2	0	[]
2564	2	2	2	60.0	2	0	[]
2573	2	4	8	60.0	2	0	[]
2690	9	3	8	60.0	2	0	[]
2717	1	1	8	60.0	2	0	[]
2765	7	1	8	60.0	2	0	[]
2816	4	1	8	60.0	2	0	[]
2822	2	3	8	80.0	2	0	[]
2863	1	4	8	60.0	2	0	[]
2877	3	1	1	60.0	2	0	[]
2893	2	1	8	60.0	2	0	[]
2993	1	2	8	60.0	2	0	[]
3054	9	6	8	60.0	2	2	[(6180, 0), (1195, 0)]
3077	130	6	8	60.0	2	3	[(1274, 2), (6659, 0), (5422, 2)]
3118	2	1	8	60.0	2	0	[]
3121	6	3	2	60.0	2	1	[(4595, 0)]
3161	2	1	8	60.0	2	0	[]
3170	3	1	8	60.0	2	0	[]
3171	2	4	8	60.0	2	0	[]
3254	2	6	8	60.0	2	0	[]
3300	1	4	8	60.0	2	0	[]
3312	2	1	8	60.0	2	0	[]
3345	2	1	8	60.0	2	0	[]
3398	3	1	8	60.0	2	0	[]
3421	1	2	8	60.0	2	0	[]
3462	2	1	8	60.0	2	0	[]
3496	1	1	4	60.0	2	0	[]
3674	2	1	8	60.0	2	0	[]
3805	9	2	8	40.0	2	3	[(7309, 0), (4349, 0), (1728, 0)]
3833	1	1	8	60.0	2	0	[]
3839	15	2	8	60.0	2	0	[]
3858	2	1	8	60.0	2	0	[]
3877	1	1	2	60.0	2	0	[]
3933	2	1	8	60.0	2	0	[]
4012	5	4	8	60.0	2	0	[]
4099	1	1	1	60.0	2	0	[]
4191	5	2	8	80.0	2	0	[]
4209	3	2	8	60.0	2	0	[]
4297	5	1	8	60.0	2	0	[]
4316	1	1	8	60.0	2	0	[]
4349	23	1	8	40.0	2	0	[]
4407	1	4	8	40.0	2	0	[]
4427	1	4	8	60.0	2	0	[]
4453	9	1	8	60.0	2	0	[]
4485	1	1	8	60.0	2	0	[]
4516	1	1	8	60.0	2	0	[]
4540	1	1	2	60.0	2	0	[]
4569	1	1	8	60.0	2	0	[]
4583	3	1	8	60.0	2	0	[]
4595	27	4	8	60.0	2	0	[]
4629	1	1	8	60.0	2	0	[]
4671	12	2	8	60.0	2	0	[]
4857	2	2	8	60.0	2	0	[]
4891	2	1	8	60.0	2	0	[]
4956	2	1	8	60.0	2	0	[]
4985	1	1	3	60.0	2	0	[]
5030	2	1	8	60.0	2	0	[]
5068	2	1	8	60.0	2	0	[]
5089	4	1	8	60.0	2	0	[]
5107	1	1	8	60.0	2	0	[]
5124	2	1	8	60.0	2	0	[]
5130	1	1	1	60.0	2	0	[]
5154	2	1	8	60.0	2	0	[]
5158	1	1	8	60.0	2	0	[]
5182	1	4	8	60.0	2	0	[]
5194	2	1	8	60.0	2	0	[]
5213	4	1	8	100.0	2	0	[]
5214	1	1	8	60.0	2	0	[]
5267	14	4	8	60.0	2	0	[]
5370	3	1	8	100.0	2	0	[]
5422	1	1	2	60.0	2	0	[]
5442	2	1	8	60.0	2	0	[]
5444	1	1	8	60.0	2	0	[]
5446	5	1	8	60.0	2	0	[]
5452	5	1	8	60.0	2	0	[]
5465	1	1	8	60.0	2	0	[]
5507	3	1	8	60.0	2	0	[]
5513	2	1	8	60.0	2	0	[]
5645	4	1	25	200.0	2	0	[]
5685	2	1	8	60.0	2	0	[]
5726	1	1	8	60.0	2	0	[]
5732	5	1	8	60.0	2	0	[]
5737	5	1	8	60.0	2	0	[]
5772	11	2	8	60.0	2	0	[]
5865	15	1	8	60.0	2	0	[]
5888	4	1	1	60.0	2	0	[]
5930	1	1	8	60.0	2	0	[]
5947	1	2	8	60.0	2	0	[]
5961	6	2	8	60.0	2	0	[]
5969	2	1	6	60.0	2	0	[]
5976	2	3	8	60.0	2	0	[]
5978	13	2	8	60.0	2	0	[]
6042	2	2	8	60.0	2	0	[]
6098	2	1	2	60.0	2	0	[]
6100	1	1	2	60.0	2	0	[]
6108	8	3	8	60.0	2	0	[]
6180	7	3	8	60.0	2	0	[]
6306	8	1	8	60.0	2	0	[]
6308	2	1	8	60.0	2	0	[]
6348	2	1	8	60.0	2	0	[]
6361	2	1	2	60.0	2	0	[]
6391	2	1	8	60.0	2	0	[]
6393	223	6	8	60.0	2	2	[(5422, 1), (6659, 0)]
6437	1	1	8	60.0	2	0	[]
6442	20	2	8	60.0	2	0	[]
6505	2	1	8	60.0	2	0	[]
6545	4	2	8	60.0	2	0	[]
6548	1	4	8	60.0	2	0	[]
6561	5	6	8	60.0	2	1	[(6659, 0)]
6603	1	1	2	60.0	2	0	[]
6637	1	1	8	60.0	2	0	[]
6659	117	3	8	120.0	0	14	[(1195, 0), (2073, 0), (8995, 0), (3077, 0), (6393, 0), (7338, 0), (1274, 0), (1059, 0), (1009, 0), (6561, 0), (7309, 0), (1728, 0), (1522, 0), (1287, 0)]
6778	1	4	8	60.0	2	0	[]
6844	2	1	2	60.0	2	0	[]
6866	1	1	8	60.0	2	0	[]
6906	1	1	2	60.0	2	0	[]
6922	1	1	8	40.0	2	0	[]
6924	1	1	2	60.0	2	0	[]
6938	2	1	8	60.0	2	0	[]
6967	1	1	16	40.0	2	0	[]
7011	1	1	8	60.0	2	0	[]
7038	2	3	8	60.0	2	0	[]
7078	2	4	8	60.0	2	0	[]
7107	2	3	8	60.0	2	0	[]
7141	1	1	8	60.0	2	0	[]
7145	2	1	8	60.0	2	0	[]
7269	1	1	2	60.0	2	0	[]
7294	1	1	8	60.0	2	0	[]
7309	87	5	8	40.0	0	1	[(6659, 0)]
7325	1	8	16	150.0	2	0	[]
7338	120	6	8	60.0	0	1	[(6659, 0)]
7386	5	1	8	60.0	2	0	[]
7406	4	6	8	60.0	2	0	[]
7435	1	2	8	60.0	2	0	[]
7570	2	1	8	60.0	2	0	[]
7617	2	1	8	60.0	2	0	[]
7629	2	4	16	80.0	2	0	[]
7658	6	1	4	60.0	2	0	[]
7708	32	3	8	60.0	2	0	[]
7755	1	1	8	60.0	2	0	[]
7799	2	2	8	60.0	2	0	[]
7864	8	1	8	60.0	2	0	[]
8077	2	1	2	60.0	2	0	[]
8105	2	4	8	60.0	2	0	[]
8113	4	1	16	100.0	2	0	[]
8140	4	1	8	60.0	2	0	[]
8216	2	1	8	60.0	2	0	[]
8218	4	1	8	60.0	2	0	[]
8271	2	1	2	60.0	2	0	[]
8395	2	1	8	60.0	2	0	[]
8410	9	2	8	60.0	2	0	[]
8471	2	1	8	60.0	2	0	[]
8620	1	16	32	80.0	2	0	[]
8623	1	1	16	60.0	2	0	[]
8642	2	1	8	60.0	2	1	[(505, 0)]
8663	4	2	8	60.0	2	0	[]
8700	6	1	8	60.0	2	0	[]
8736	11	2	8	60.0	2	0	[]
8780	2	1	2	60.0	2	0	[]
8802	2	4	8	60.0	2	0	[]
8879	1	1	8	60.0	2	0	[]
8882	3	1	8	60.0	2	0	[]
8951	1	1	1	60.0	2	0	[]
8995	17	2	8	60.0	2	1	[(6659, 0)]
9036	2	1	7	60.0	2	0	[]
9079	8	8	16	80.0	2	0	[]
9100	8	2	2	60.0	2	2	[(7309, 2), (6098, 2)]
9151	1	1	8	80.0	2	0	[]
9191	3	1	8	60.0	2	0	[]
9268	5	1	8	60.0	2	0	[]
9321	1	4	8	60.0	2	0	[]
9328	13	6	8	100.0	2	0	[]
